﻿<?xml version="1.0"?>
<!-- Generator: Adobe Illustrator 10.0, SVG Export Plug-In . SVG Version: 3.0.0 Build 77)  -->
<!DOCTYPE svg PUBLIC "-//W3C//DTD SVG 1.0//EN" "http://www.w3.org/TR/2001/REC-SVG-20010904/DTD/svg10.dtd"[
<!ENTITY ns_flows "http://ns.adobe.com/Flows/1.0/">
<!ENTITY ns_svg "http://www.w3.org/2000/svg">
<!ENTITY ns_xlink "http://www.w3.org/1999/xlink">
<!ENTITY st0 "font-size:6.6349px;">
<!ENTITY st1 "fill:none;stroke:#000000;stroke-width:1.1331;stroke-linecap:round;stroke-linejoin:round;">
<!ENTITY st2 "fill:none;stroke:#000000;stroke-width:0.8499;stroke-linecap:round;stroke-linejoin:round;">
<!ENTITY st3 "font-family:'Arial';">
<!ATTLIST svg
xmlns:ewd CDATA #FIXED "http://shcl.co.jp/ewd"
xmlns:a CDATA #FIXED "http://ns.adobe.com/AdobeSVGViewerExtensions/3.0/"
ewd:ver CDATA #IMPLIED
>
<!ATTLIST g
xmlns:ewd CDATA #FIXED "http://shcl.co.jp/ewd"
ewd:pinNo CDATA #IMPLIED >
]>
<svg xmlns="&ns_svg;" xmlns:xlink="&ns_xlink;" ewd:ver="L2.1" xmlns:a="http://ns.adobe.com/AdobeSVGViewerExtensions/3.0/" width="39.094" height="19.263" viewBox="0 0 39.094 19.263" style="overflow:visible;enable-background:new 0 0 39.094 19.263" xml:space="preserve"  onload="call_execInitLoadProc_svg(&apos;connector&apos;)">
<script type="text/javascript" xlink:href="../../../../../system/js/ewd/fig/svgfig.js" />
<g id="レイヤー_1">
<g>
<path style="&st2;" d="M6.799,9.632c0-1.095-0.888-1.983-1.983-1.983" />
<path style="&st2;" d="M4.816,7.649c-1.095,0-1.983,0.888-1.983,1.983" />
<path style="&st2;" d="M2.833,9.632c0,1.095,0.888,1.983,1.983,1.983" />
<path style="&st2;" d="M4.816,11.615c1.095,0,1.983-0.888,1.983-1.983" />
<path style="&st2;" d="M13.881,3.966v11.332h22.663V3.966H13.881" />
<path style="&st2;" d="M25.213,15.298V3.966" />
<path style="&st1;" d="M0.567,2.266v14.731h11.332v1.7h26.629V0.567H11.898v1.7H0.567" />
<path style="&st2;" d="M11.898,16.997V2.266" />
<g ewd:pinNo="1">
<text transform="matrix(0.88 0 0 1 17.8811 11.6011)"><tspan x="0" y="0" style="&st3; &st0;">1</tspan></text>
</g>
<g ewd:pinNo="2">
<text transform="matrix(0.88 0 0 1 29.2126 11.6011)"><tspan x="0" y="0" style="&st3; &st0;">2</tspan></text>
</g>
</g>
</g>
</svg>
