﻿<?xml version="1.0"?>
<!-- Generator: Adobe Illustrator 10.0, SVG Export Plug-In . SVG Version: 3.0.0 Build 77)  -->
<!DOCTYPE svg PUBLIC "-//W3C//DTD SVG 1.0//EN" "http://www.w3.org/TR/2001/REC-SVG-20010904/DTD/svg10.dtd"[
<!ENTITY ns_flows "http://ns.adobe.com/Flows/1.0/">
<!ENTITY ns_svg "http://www.w3.org/2000/svg">
<!ENTITY ns_xlink "http://www.w3.org/1999/xlink">
<!ENTITY st0 "font-size:6.6349px;">
<!ENTITY st1 "fill:none;stroke:#000000;stroke-width:1.1331;stroke-linecap:round;stroke-linejoin:round;">
<!ENTITY st2 "fill:none;stroke:#000000;stroke-width:0.8499;stroke-linecap:round;stroke-linejoin:round;">
<!ENTITY st3 "font-family:'Arial';">
<!ATTLIST svg
xmlns:ewd CDATA #FIXED "http://shcl.co.jp/ewd"
xmlns:a CDATA #FIXED "http://ns.adobe.com/AdobeSVGViewerExtensions/3.0/"
ewd:ver CDATA #IMPLIED
>
<!ATTLIST g
xmlns:ewd CDATA #FIXED "http://shcl.co.jp/ewd"
ewd:pinNo CDATA #IMPLIED >
]>
<svg xmlns="&ns_svg;" xmlns:xlink="&ns_xlink;" ewd:ver="L2.1" xmlns:a="http://ns.adobe.com/AdobeSVGViewerExtensions/3.0/" width="100.284" height="145.609" viewBox="0 0 100.284 145.609" style="overflow:visible;enable-background:new 0 0 100.284 145.609" xml:space="preserve"  onload="call_execInitLoadProc_svg(&apos;connector&apos;)">
<script type="text/javascript" xlink:href="../../../../../system/js/ewd/fig/svgfig.js" />
<g id="レイヤー_1">
<g>
<path style="&st1;" d="M9.065,0.567c-4.694,0-8.499,3.805-8.499,8.499" />
<path style="&st1;" d="M99.717,9.065c0-4.694-3.805-8.499-8.499-8.499" />
<path style="&st1;" d="M0.567,135.292c0,2.488,1.514,4.589,3.876,5.375" />
<path style="&st1;" d="M95.841,140.668c2.362-0.786,3.877-2.887,3.877-5.376" />
<path style="&st2;" d="M86.969,7.649c0-1.359-0.228-2.511-0.744-3.768" />
<path style="&st2;" d="M14.059,3.881c-0.516,1.257-0.744,2.409-0.744,3.768" />
<path style="&st2;" d="M94.051,12.184c0-3.651-2.163-6.739-5.595-7.987" />
<path style="&st2;" d="M11.827,4.198c-3.431,1.248-5.594,4.335-5.594,7.986" />
<path style="&st2;" d="M40.227,100.425v5.666h5.666v-5.666H40.227" />
<path style="&st2;" d="M40.227,86.261v9.915h5.666v-9.915H40.227" />
<path style="&st2;" d="M40.227,66.431v15.581h5.666V66.431H40.227" />
<path style="&st2;" d="M40.227,52.266v9.915h5.666v-9.915H40.227" />
<path style="&st2;" d="M74.221,119.547v5.666h5.666v-5.666H74.221" />
<path style="&st2;" d="M74.221,109.632v5.666h5.666v-5.666H74.221" />
<path style="&st2;" d="M74.221,101.133v4.249h5.666v-4.249H74.221" />
<path style="&st2;" d="M74.221,88.385v8.499h5.666v-8.499H74.221" />
<path style="&st2;" d="M50.142,61.473h19.83" />
<path style="&st2;" d="M50.142,74.221h19.83" />
<path style="&st2;" d="M50.142,86.969h19.83" />
<path style="&st2;" d="M50.142,99.717h19.83" />
<path style="&st2;" d="M50.142,112.465h19.83" />
<path style="&st2;" d="M84.136,112.465h9.915" />
<path style="&st2;" d="M84.136,99.717h9.915" />
<path style="&st2;" d="M84.136,86.969h9.915" />
<path style="&st2;" d="M84.136,74.221h9.915" />
<path style="&st2;" d="M84.136,61.473h9.915" />
<path style="&st2;" d="M6.232,112.465h29.745" />
<path style="&st2;" d="M6.232,99.717h29.745" />
<path style="&st2;" d="M6.232,86.969h29.745" />
<path style="&st2;" d="M6.232,74.221h29.745" />
<path style="&st2;" d="M6.232,61.473h29.745" />
<path style="&st2;" d="M84.136,48.725v76.487h9.915V48.725H84.136" />
<path style="&st2;" d="M60.057,48.725v76.487" />
<path style="&st2;" d="M50.142,48.725v76.487h19.83V48.725H50.142" />
<path style="&st2;" d="M26.062,48.725v76.487" />
<path style="&st2;" d="M16.147,48.725v76.487" />
<path style="&st2;" d="M6.232,48.725v76.487h29.745V48.725H6.232" />
<path style="&st2;" d="M74.221,72.805v11.332h5.666V72.805H74.221" />
<path style="&st2;" d="M74.221,60.057v8.499h5.666v-8.499H74.221" />
<path style="&st2;" d="M18.98,19.501h7.082" />
<path style="&st2;" d="M74.221,43.06v14.164h7.082V43.06" />
<path style="&st2;" d="M74.221,19.501v12.227" />
<path style="&st2;" d="M47.309,130.878v2.833l2.833,2.833h43.909v-5.666" />
<path style="&st2;" d="M6.232,130.878v5.666h29.745l2.833-2.833v-2.833" />
<path style="&st2;" d="M0.567,125.212l5.666,5.666" />
<path style="&st2;" d="M99.717,125.212l-5.666,5.666" />
<path style="&st2;" d="M38.81,130.878v-12.04h8.499v12.04" />
<path style="&st1;" d="M9.065,0.567h82.153" />
<path style="&st1;" d="M0.567,9.065v126.227" />
<path style="&st1;" d="M99.717,9.065v126.227" />
<path style="&st2;" d="M6.232,130.878H38.81" />
<path style="&st2;" d="M47.309,130.878h46.742" />
<path style="&st1;" d="M82.719,145.042H17.564" />
<path style="&st1;" d="M95.841,140.668l-13.122,4.374" />
<path style="&st1;" d="M4.442,140.668l13.122,4.374" />
<path style="&st2;" d="M62.889,28.895v-2.833h11.332" />
<path style="&st2;" d="M26.062,26.062h11.332v2.833" />
<path style="&st2;" d="M26.062,31.728V19.501" />
<path style="&st2;" d="M74.221,19.501h7.082" />
<path style="&st2;" d="M26.062,19.501l6.374-3.354" />
<path style="&st2;" d="M81.303,43.06h12.748" />
<path style="&st2;" d="M6.232,43.06h19.83" />
<path style="&st2;" d="M26.062,43.06V31.728h48.159V43.06" />
<path style="&st2;" d="M28.895,34.561v5.666h42.493v-5.666H28.895" />
<path style="&st2;" d="M43.059,31.728V20.396h14.165v11.332" />
<path style="&st2;" d="M86.969,7.649V43.06" />
<path style="&st2;" d="M57.224,28.895h5.666v2.833" />
<path style="&st2;" d="M43.059,28.895h-5.666v2.833" />
<path style="&st2;" d="M62.889,0.567l25.567,3.632" />
<path style="&st2;" d="M94.051,43.06V12.184" />
<path style="&st2;" d="M6.232,43.06V12.184" />
<path style="&st2;" d="M32.436,16.147h35.411" />
<path style="&st2;" d="M26.062,31.728H18.98V19.501" />
<path style="&st2;" d="M74.221,31.728h7.082V19.501" />
<path style="&st2;" d="M11.827,4.198l25.566-3.632" />
<path style="&st2;" d="M13.315,43.06V7.649" />
<path style="&st2;" d="M26.062,43.06H6.232" />
<path style="&st2;" d="M94.051,43.06H81.303" />
<path style="&st2;" d="M67.847,16.147l6.374,3.354" />
<path style="&st2;" d="M40.227,110.34v5.666h5.666v-5.666H40.227" />
<g ewd:pinNo="36">
<text transform="matrix(0.88 0 0 1 85.762 120.8076)"><tspan x="0" y="0" style="&st3; &st0;">3</tspan></text>
<text transform="matrix(0.88 0 0 1 89.1199 120.8076)"><tspan x="0" y="0" style="&st3; &st0;">6</tspan></text>
</g>
<g ewd:pinNo="35">
<text transform="matrix(0.88 0 0 1 61.6829 120.8076)"><tspan x="0" y="0" style="&st3; &st0;">3</tspan></text>
<text transform="matrix(0.88 0 0 1 65.0408 120.8076)"><tspan x="0" y="0" style="&st3; &st0;">5</tspan></text>
</g>
<g ewd:pinNo="34">
<text transform="matrix(0.88 0 0 1 51.7678 120.8076)"><tspan x="0" y="0" style="&st3; &st0;">3</tspan></text>
<text transform="matrix(0.88 0 0 1 55.1257 120.8076)"><tspan x="0" y="0" style="&st3; &st0;">4</tspan></text>
</g>
<g ewd:pinNo="33">
<text transform="matrix(0.88 0 0 1 27.6882 120.8076)"><tspan x="0" y="0" style="&st3; &st0;">3</tspan></text>
<text transform="matrix(0.88 0 0 1 31.0466 120.8076)"><tspan x="0" y="0" style="&st3; &st0;">3</tspan></text>
</g>
<g ewd:pinNo="32">
<text transform="matrix(0.88 0 0 1 17.7732 120.8076)"><tspan x="0" y="0" style="&st3; &st0;">3</tspan></text>
<text transform="matrix(0.88 0 0 1 21.1316 120.8076)"><tspan x="0" y="0" style="&st3; &st0;">2</tspan></text>
</g>
<g ewd:pinNo="31">
<text transform="matrix(0.88 0 0 1 7.8584 120.8076)"><tspan x="0" y="0" style="&st3; &st0;">3</tspan></text>
<text transform="matrix(0.88 0 0 1 11.2166 120.8076)"><tspan x="0" y="0" style="&st3; &st0;">1</tspan></text>
</g>
<g ewd:pinNo="30">
<text transform="matrix(0.88 0 0 1 85.762 108.0601)"><tspan x="0" y="0" style="&st3; &st0;">3</tspan></text>
<text transform="matrix(0.88 0 0 1 89.1199 108.0601)"><tspan x="0" y="0" style="&st3; &st0;">0</tspan></text>
</g>
<g ewd:pinNo="29">
<text transform="matrix(0.88 0 0 1 61.6829 108.0601)"><tspan x="0" y="0" style="&st3; &st0;">2</tspan></text>
<text transform="matrix(0.88 0 0 1 65.0408 108.0601)"><tspan x="0" y="0" style="&st3; &st0;">9</tspan></text>
</g>
<g ewd:pinNo="28">
<text transform="matrix(0.88 0 0 1 51.7678 108.0601)"><tspan x="0" y="0" style="&st3; &st0;">2</tspan></text>
<text transform="matrix(0.88 0 0 1 55.1257 108.0601)"><tspan x="0" y="0" style="&st3; &st0;">8</tspan></text>
</g>
<g ewd:pinNo="27">
<text transform="matrix(0.88 0 0 1 27.6882 108.0601)"><tspan x="0" y="0" style="&st3; &st0;">2</tspan></text>
<text transform="matrix(0.88 0 0 1 31.0466 108.0601)"><tspan x="0" y="0" style="&st3; &st0;">7</tspan></text>
</g>
<g ewd:pinNo="26">
<text transform="matrix(0.88 0 0 1 17.7732 108.0601)"><tspan x="0" y="0" style="&st3; &st0;">2</tspan></text>
<text transform="matrix(0.88 0 0 1 21.1316 108.0601)"><tspan x="0" y="0" style="&st3; &st0;">6</tspan></text>
</g>
<g ewd:pinNo="25">
<text transform="matrix(0.88 0 0 1 7.8584 108.0601)"><tspan x="0" y="0" style="&st3; &st0;">2</tspan></text>
<text transform="matrix(0.88 0 0 1 11.2166 108.0601)"><tspan x="0" y="0" style="&st3; &st0;">5</tspan></text>
</g>
<g ewd:pinNo="24">
<text transform="matrix(0.88 0 0 1 85.762 95.312)"><tspan x="0" y="0" style="&st3; &st0;">2</tspan></text>
<text transform="matrix(0.88 0 0 1 89.1199 95.312)"><tspan x="0" y="0" style="&st3; &st0;">4</tspan></text>
</g>
<g ewd:pinNo="23">
<text transform="matrix(0.88 0 0 1 61.6829 95.312)"><tspan x="0" y="0" style="&st3; &st0;">2</tspan></text>
<text transform="matrix(0.88 0 0 1 65.0408 95.312)"><tspan x="0" y="0" style="&st3; &st0;">3</tspan></text>
</g>
<g ewd:pinNo="22">
<text transform="matrix(0.88 0 0 1 51.7678 95.312)"><tspan x="0" y="0" style="&st3; &st0;">2</tspan></text>
<text transform="matrix(0.88 0 0 1 55.1257 95.312)"><tspan x="0" y="0" style="&st3; &st0;">2</tspan></text>
</g>
<g ewd:pinNo="21">
<text transform="matrix(0.88 0 0 1 27.6882 95.312)"><tspan x="0" y="0" style="&st3; &st0;">2</tspan></text>
<text transform="matrix(0.88 0 0 1 31.0466 95.312)"><tspan x="0" y="0" style="&st3; &st0;">1</tspan></text>
</g>
<g ewd:pinNo="20">
<text transform="matrix(0.88 0 0 1 17.7732 95.312)"><tspan x="0" y="0" style="&st3; &st0;">2</tspan></text>
<text transform="matrix(0.88 0 0 1 21.1316 95.312)"><tspan x="0" y="0" style="&st3; &st0;">0</tspan></text>
</g>
<g ewd:pinNo="19">
<text transform="matrix(0.88 0 0 1 7.8584 95.312)"><tspan x="0" y="0" style="&st3; &st0;">1</tspan></text>
<text transform="matrix(0.88 0 0 1 11.2166 95.312)"><tspan x="0" y="0" style="&st3; &st0;">9</tspan></text>
</g>
<g ewd:pinNo="18">
<text transform="matrix(0.88 0 0 1 85.762 82.564)"><tspan x="0" y="0" style="&st3; &st0;">1</tspan></text>
<text transform="matrix(0.88 0 0 1 89.1199 82.564)"><tspan x="0" y="0" style="&st3; &st0;">8</tspan></text>
</g>
<g ewd:pinNo="17">
<text transform="matrix(0.88 0 0 1 61.6829 82.564)"><tspan x="0" y="0" style="&st3; &st0;">1</tspan></text>
<text transform="matrix(0.88 0 0 1 65.0408 82.564)"><tspan x="0" y="0" style="&st3; &st0;">7</tspan></text>
</g>
<g ewd:pinNo="16">
<text transform="matrix(0.88 0 0 1 51.7678 82.564)"><tspan x="0" y="0" style="&st3; &st0;">1</tspan></text>
<text transform="matrix(0.88 0 0 1 55.1257 82.564)"><tspan x="0" y="0" style="&st3; &st0;">6</tspan></text>
</g>
<g ewd:pinNo="15">
<text transform="matrix(0.88 0 0 1 27.6882 82.564)"><tspan x="0" y="0" style="&st3; &st0;">1</tspan></text>
<text transform="matrix(0.88 0 0 1 31.0466 82.564)"><tspan x="0" y="0" style="&st3; &st0;">5</tspan></text>
</g>
<g ewd:pinNo="14">
<text transform="matrix(0.88 0 0 1 17.7732 82.564)"><tspan x="0" y="0" style="&st3; &st0;">1</tspan></text>
<text transform="matrix(0.88 0 0 1 21.1316 82.564)"><tspan x="0" y="0" style="&st3; &st0;">4</tspan></text>
</g>
<g ewd:pinNo="13">
<text transform="matrix(0.88 0 0 1 7.8584 82.564)"><tspan x="0" y="0" style="&st3; &st0;">1</tspan></text>
<text transform="matrix(0.88 0 0 1 11.2166 82.564)"><tspan x="0" y="0" style="&st3; &st0;">3</tspan></text>
</g>
<g ewd:pinNo="12">
<text transform="matrix(0.88 0 0 1 85.762 69.8164)"><tspan x="0" y="0" style="&st3; &st0;">1</tspan></text>
<text transform="matrix(0.88 0 0 1 89.1199 69.8164)"><tspan x="0" y="0" style="&st3; &st0;">2</tspan></text>
</g>
<g ewd:pinNo="11">
<text transform="matrix(0.88 0 0 1 61.6829 69.8164)"><tspan x="0" y="0" style="&st3; &st0;">1</tspan></text>
<text transform="matrix(0.88 0 0 1 65.0408 69.8164)"><tspan x="0" y="0" style="&st3; &st0;">1</tspan></text>
</g>
<g ewd:pinNo="10">
<text transform="matrix(0.88 0 0 1 51.7678 69.8164)"><tspan x="0" y="0" style="&st3; &st0;">1</tspan></text>
<text transform="matrix(0.88 0 0 1 55.1257 69.8164)"><tspan x="0" y="0" style="&st3; &st0;">0</tspan></text>
</g>
<g ewd:pinNo="9">
<text transform="matrix(0.88 0 0 1 29.3542 69.8164)"><tspan x="0" y="0" style="&st3; &st0;">9</tspan></text>
</g>
<g ewd:pinNo="8">
<text transform="matrix(0.88 0 0 1 19.4392 69.8164)"><tspan x="0" y="0" style="&st3; &st0;">8</tspan></text>
</g>
<g ewd:pinNo="7">
<text transform="matrix(0.88 0 0 1 9.5242 69.8164)"><tspan x="0" y="0" style="&st3; &st0;">7</tspan></text>
</g>
<g ewd:pinNo="6">
<text transform="matrix(0.88 0 0 1 87.428 57.0684)"><tspan x="0" y="0" style="&st3; &st0;">6</tspan></text>
</g>
<g ewd:pinNo="5">
<text transform="matrix(0.88 0 0 1 63.3484 57.0684)"><tspan x="0" y="0" style="&st3; &st0;">5</tspan></text>
</g>
<g ewd:pinNo="4">
<text transform="matrix(0.88 0 0 1 53.4333 57.0684)"><tspan x="0" y="0" style="&st3; &st0;">4</tspan></text>
</g>
<g ewd:pinNo="3">
<text transform="matrix(0.88 0 0 1 29.3542 57.0684)"><tspan x="0" y="0" style="&st3; &st0;">3</tspan></text>
</g>
<g ewd:pinNo="2">
<text transform="matrix(0.88 0 0 1 19.4392 57.0684)"><tspan x="0" y="0" style="&st3; &st0;">2</tspan></text>
</g>
<g ewd:pinNo="1">
<text transform="matrix(0.88 0 0 1 9.5242 57.0684)"><tspan x="0" y="0" style="&st3; &st0;">1</tspan></text>
</g>
</g>
</g>
</svg>
