﻿<?xml version="1.0"?>
<!-- Generator: Adobe Illustrator 10.0, SVG Export Plug-In . SVG Version: 3.0.0 Build 77)  -->
<!DOCTYPE svg PUBLIC "-//W3C//DTD SVG 1.0//EN" "http://www.w3.org/TR/2001/REC-SVG-20010904/DTD/svg10.dtd"[
<!ENTITY ns_flows "http://ns.adobe.com/Flows/1.0/">
<!ENTITY ns_svg "http://www.w3.org/2000/svg">
<!ENTITY ns_xlink "http://www.w3.org/1999/xlink">
<!ENTITY st0 "font-size:6.6349px;">
<!ENTITY st1 "fill:none;stroke:#000000;stroke-width:1.1331;stroke-linecap:round;stroke-linejoin:round;">
<!ENTITY st2 "fill:none;stroke:#000000;stroke-width:0.8499;stroke-linecap:round;stroke-linejoin:round;">
<!ENTITY st3 "font-family:'Arial';">
<!ATTLIST svg
xmlns:ewd CDATA #FIXED "http://shcl.co.jp/ewd"
xmlns:a CDATA #FIXED "http://ns.adobe.com/AdobeSVGViewerExtensions/3.0/"
ewd:ver CDATA #IMPLIED
>
<!ATTLIST g
xmlns:ewd CDATA #FIXED "http://shcl.co.jp/ewd"
ewd:pinNo CDATA #IMPLIED >
]>
<svg xmlns="&ns_svg;" xmlns:xlink="&ns_xlink;" ewd:ver="L2.1" xmlns:a="http://ns.adobe.com/AdobeSVGViewerExtensions/3.0/" width="36.388" height="78.187" viewBox="0 0 36.388 78.187" style="overflow:visible;enable-background:new 0 0 36.388 78.187" xml:space="preserve"  onload="call_execInitLoadProc_svg(&apos;connector&apos;)">
<script type="text/javascript" xlink:href="../../../../../system/js/ewd/fig/svgfig.js" />
<g id="レイヤー_1">
<g>
<path style="&st2;" d="M32.358,30.878c1.977-6.272,1.977-12.142,0-18.414" />
<path style="&st2;" d="M33.979,32.294c0.17-0.494,0.305-0.915,0.452-1.417" />
<path style="&st1;" d="M34.432,30.878c1.853-6.296,1.853-12.117,0-18.414" />
<path style="&st2;" d="M2.409,11.048c-0.17,0.494-0.304,0.915-0.452,1.417" />
<path style="&st2;" d="M4.03,12.465c-1.977,6.272-1.977,12.142,0,18.414" />
<path style="&st2;" d="M33.016,64.873c0.782,0,1.417-0.634,1.417-1.417" />
<path style="&st2;" d="M1.956,63.456c0,0.782,0.634,1.417,1.417,1.417" />
<path style="&st1;" d="M33.016,77.621c0.782,0,1.417-0.634,1.417-1.417" />
<path style="&st1;" d="M1.956,76.204c0,0.782,0.634,1.417,1.417,1.417" />
<path style="&st1;" d="M1.956,12.465c-1.853,6.296-1.853,12.117,0,18.414" />
<path style="&st2;" d="M1.956,30.878c0.148,0.501,0.282,0.922,0.452,1.417" />
<path style="&st2;" d="M24.517,77.621c0.782,0,1.417-0.634,1.417-1.417" />
<path style="&st2;" d="M11.871,64.873c-0.782,0-1.417,0.634-1.417,1.417" />
<path style="&st2;" d="M25.934,66.289c0-0.782-0.634-1.417-1.417-1.417" />
<path style="&st2;" d="M10.455,76.204c0,0.782,0.634,1.417,1.417,1.417" />
<path style="&st2;" d="M34.432,12.465c-0.148-0.502-0.282-0.922-0.452-1.417" />
<path style="&st1;" d="M34.432,12.465V0.567h-2.833V2.55h-1.983V0.567h-8.589V2.55h-5.666V0.567H6.772V2.55H4.789V0.567H1.956&#xD;&#xA;v11.898" />
<path style="&st2;" d="M8.279,15.298v12.748h19.83V15.298H8.279" />
<path style="&st2;" d="M18.194,28.045V15.298" />
<path style="&st2;" d="M3.373,3.966L4.789,2.55" />
<path style="&st2;" d="M11.112,30.878h9.915v2.833h4.25" />
<path style="&st2;" d="M4.03,12.465h1.417" />
<path style="&st2;" d="M11.112,28.045v8.499h14.165v-8.499" />
<path style="&st2;" d="M4.03,30.878h1.417" />
<path style="&st2;" d="M8.279,19.688H4.03v3.966h4.249" />
<path style="&st2;" d="M15.361,15.298v-2.833H5.446v7.224" />
<path style="&st2;" d="M5.446,23.654v7.224h2.833v-2.833" />
<path style="&st2;" d="M28.109,19.688h4.25v3.966h-4.25" />
<path style="&st2;" d="M21.027,15.298v-2.833h9.915v7.224" />
<path style="&st2;" d="M30.942,23.654v7.224h-2.833v-2.833" />
<path style="&st2;" d="M5.446,5.383v4.249h2.833V5.383H5.446" />
<path style="&st2;" d="M12.528,5.383v4.249h2.833V5.383H12.528" />
<path style="&st2;" d="M30.942,5.383v4.249h-2.833V5.383H30.942" />
<path style="&st2;" d="M23.86,5.383v4.249h-2.833V5.383H23.86" />
<path style="&st2;" d="M15.361,9.632h5.666" />
<path style="&st1;" d="M34.432,30.878v45.326" />
<path style="&st1;" d="M1.956,30.878v45.326" />
<path style="&st1;" d="M3.373,77.621h29.643" />
<path style="&st2;" d="M3.373,64.873h29.643" />
<path style="&st2;" d="M30.942,30.878h1.417" />
<path style="&st2;" d="M30.942,33.711v5.666h1.417v-5.666H30.942" />
<path style="&st2;" d="M5.446,33.711v5.666H4.03v-5.666H5.446" />
<path style="&st2;" d="M12.528,47.875h-1.983v10.481h15.297V47.875H23.86v8.499H12.528V47.875" />
<path style="&st2;" d="M12.528,50.708H23.86" />
<path style="&st2;" d="M6.205,64.873v3.187h2.833v6.374H6.205v3.187" />
<path style="&st2;" d="M30.183,64.873v3.187H27.35v6.374h2.833v3.187" />
<path style="&st2;" d="M13.288,69.476h9.813" />
<path style="&st2;" d="M13.288,73.017h9.813" />
<path style="&st2;" d="M13.288,69.476v3.541" />
<path style="&st2;" d="M23.101,69.476v3.541" />
<path style="&st2;" d="M10.455,66.289v9.915" />
<path style="&st2;" d="M25.934,66.289v9.915" />
<g ewd:pinNo="2">
<text transform="matrix(0.88 0 0 1 21.4858 23.6406)"><tspan x="0" y="0" style="&st3; &st0;">2</tspan></text>
</g>
<g ewd:pinNo="1">
<text transform="matrix(0.88 0 0 1 11.5708 23.6406)"><tspan x="0" y="0" style="&st3; &st0;">1</tspan></text>
</g>
</g>
</g>
</svg>
