﻿<?xml version="1.0"?>
<!-- Generator: Adobe Illustrator 10.0, SVG Export Plug-In . SVG Version: 3.0.0 Build 77)  -->
<!DOCTYPE svg PUBLIC "-//W3C//DTD SVG 1.0//EN" "http://www.w3.org/TR/2001/REC-SVG-20010904/DTD/svg10.dtd"[
<!ENTITY ns_flows "http://ns.adobe.com/Flows/1.0/">
<!ENTITY ns_svg "http://www.w3.org/2000/svg">
<!ENTITY ns_xlink "http://www.w3.org/1999/xlink">
<!ENTITY st0 "font-size:6.6349px;">
<!ENTITY st1 "fill:none;">
<!ENTITY st2 "stroke:#000000;">
<!ENTITY st3 "stroke-width:1.1331;">
<!ENTITY st4 "stroke-linecap:round;">
<!ENTITY st5 "stroke-linejoin:round;">
<!ENTITY st6 "stroke-width:0.8499;">
<!ENTITY st7 "font-family:'Arial';">
<!ENTITY st8 "stroke-width:1.4;">
<!ATTLIST svg
xmlns:a CDATA #FIXED "http://ns.adobe.com/AdobeSVGViewerExtensions/3.0/"
ewd:ver CDATA #IMPLIED
>
<!ATTLIST svg
xmlns:ewd CDATA #FIXED "http://shcl.co.jp/ewd"
xmlns:a CDATA #FIXED "http://ns.adobe.com/AdobeSVGViewerExtensions/3.0/"
ewd:ver CDATA #IMPLIED
>
<!ATTLIST g
xmlns:ewd CDATA #FIXED "http://shcl.co.jp/ewd"
ewd:pinNo CDATA #IMPLIED >
]>
<svg xmlns="&ns_svg;" xmlns:xlink="&ns_xlink;" ewd:ver="L2.1" xmlns:a="http://ns.adobe.com/AdobeSVGViewerExtensions/3.0/" width="175.082" height="77.629" viewBox="0 0 175.082 77.629" style="overflow:visible;enable-background:new 0 0 69.122 57.791" xml:space="preserve"  onload="call_execInitLoadProc_svg(&apos;connector&apos;)">
<script type="text/javascript" xlink:href="../../../../../system/js/ewd/fig/svgfig.js" />
<g id="レイヤー_1" transform="translate(0,17.008)">
<g>
<path style="&st1;&st2;&st3;&st4;&st5;" d="M66.289,21.813c1.252,0,2.267-1.015,2.267-2.266" />
<path style="&st1;&st2;&st6;&st4;&st5;" d="M58.64,36.06c0,1.244,0.757,2.294,1.938,2.688" />
<path style="&st1;&st2;&st6;&st4;&st5;" d="M60.578,31.791c-1.181,0.393-1.938,1.444-1.938,2.688" />
<path style="&st1;&st2;&st6;&st4;&st5;" d="M4.816,34.479c0-1.245-0.757-2.295-1.938-2.688" />
<path style="&st1;&st2;&st6;&st4;&st5;" d="M2.878,38.748c1.181-0.394,1.938-1.444,1.938-2.688" />
<path style="&st1;&st2;&st3;&st4;&st5;" d="M3.399,0.567c-1.564,0-2.833,1.268-2.833,2.833" />
<path style="&st1;&st2;&st3;&st4;&st5;" d="M62.889,3.399c0-1.564-1.268-2.833-2.833-2.833" />
<path style="&st1;&st2;&st3;&st4;&st5;" d="M68.555,18.414c0-1.251-1.015-2.266-2.267-2.266" />
<path style="&st1;&st2;&st3;&st4;&st5;" d="M52.286,57.224c2.348,0,4.352-0.83,6.011-2.49" />
<path style="&st1;&st2;&st3;&st4;&st5;" d="M5.159,54.734c1.66,1.66,3.664,2.491,6.011,2.491" />
<path style="&st1;&st2;&st3;&st4;&st5;" d="M0.567,31.02v8.499" />
<path style="&st1;&st2;&st3;&st4;&st5;" d="M62.889,21.813h3.399" />
<path style="&st1;&st2;&st3;&st4;&st5;" d="M68.555,18.414v1.133" />
<path style="&st1;&st2;&st3;&st4;&st5;" d="M62.889,31.02v8.499" />
<path style="&st1;&st2;&st3;&st4;&st5;" d="M62.889,16.147h3.399" />
<path style="&st1;&st2;&st3;&st4;&st5;" d="M62.889,21.813v9.207" />
<path style="&st1;&st2;&st6;&st4;&st5;" d="M27.479,49.434h8.499" />
<path style="&st1;&st2;&st6;&st4;&st5;" d="M11.898,28.895v12.748h39.66V28.895H11.898" />
<path style="&st1;&st2;&st6;&st4;&st5;" d="M21.813,28.895v12.748" />
<path style="&st1;&st2;&st6;&st4;&st5;" d="M31.728,28.895v12.748" />
<path style="&st1;&st2;&st6;&st4;&st5;" d="M41.643,28.895v12.748" />
<path style="&st1;&st2;&st6;&st4;&st5;" d="M35.977,47.309v4.25" />
<path style="&st1;&st2;&st3;&st4;&st5;" d="M0.567,10.482V3.399" />
<path style="&st1;&st2;&st3;&st4;&st5;" d="M62.889,3.399v7.082" />
<path style="&st1;&st2;&st3;&st4;&st5;" d="M3.399,0.567h56.657" />
<path style="&st1;&st2;&st6;&st4;&st5;" d="M27.479,47.309v4.25" />
<path style="&st1;&st2;&st6;&st4;&st5;" d="M0.567,39.519l2.312-0.771" />
<path style="&st1;&st2;&st6;&st4;&st5;" d="M0.567,13.314h8.499" />
<path style="&st1;&st2;&st6;&st4;&st5;" d="M0.567,47.309h62.323" />
<path style="&st1;&st2;&st3;&st4;&st5;" d="M0.567,10.482V31.02" />
<path style="&st1;&st2;&st6;&st4;&st5;" d="M54.391,13.314h8.499" />
<path style="&st1;&st2;&st6;&st4;&st5;" d="M0.567,31.02l2.312,0.771" />
<path style="&st1;&st2;&st6;&st4;&st5;" d="M4.816,34.479v1.581" />
<path style="&st1;&st2;&st6;&st4;&st5;" d="M62.889,31.02l-2.312,0.771" />
<path style="&st1;&st2;&st6;&st4;&st5;" d="M58.64,34.479v1.581" />
<path style="&st1;&st2;&st6;&st4;&st5;" d="M60.578,38.748l2.312,0.771" />
<path style="&st1;&st2;&st3;&st4;&st5;" d="M62.889,39.519v7.79" />
<path style="&st1;&st2;&st3;&st4;&st5;" d="M0.567,39.519v7.79" />
<path style="&st1;&st2;&st6;&st4;&st5;" d="M40.402,47.309v2.833h13.989v-2.833" />
<path style="&st1;&st2;&st6;&st4;&st5;" d="M9.065,47.309v2.833h13.989v-2.833" />
<path style="&st1;&st2;&st6;&st4;&st5;" d="M58.64,47.309v4.25" />
<path style="&st1;&st2;&st6;&st4;&st5;" d="M62.889,16.147v5.666" />
<path style="&st1;&st2;&st6;&st4;&st5;" d="M4.816,47.309v4.25" />
<path style="&st1;&st2;&st3;&st4;&st5;" d="M62.889,10.482v5.666" />
<path style="&st1;&st2;&st6;&st4;&st5;" d="M21.813,17.564H18.98V7.649h25.496v9.915h-2.833" />
<path style="&st1;&st2;&st6;&st4;&st5;" d="M21.813,16.147h19.83" />
<path style="&st1;&st2;&st6;&st4;&st5;" d="M27.479,14.731v-2.833h8.499v2.833" />
<path style="&st1;&st2;&st6;&st4;&st5;" d="M35.977,14.731h5.666v8.499h5.666" />
<path style="&st1;&st2;&st6;&st4;&st5;" d="M1.983,47.309v4.25h59.49v-4.25" />
<path style="&st1;&st2;&st6;&st4;&st5;" d="M16.147,23.229V4.816h31.162v18.414" />
<path style="&st1;&st2;&st3;&st4;&st5;" d="M61.473,51.558l-3.175,3.176" />
<path style="&st1;&st2;&st3;&st4;&st5;" d="M1.983,51.558l3.176,3.176" />
<path style="&st1;&st2;&st3;&st4;&st5;" d="M11.17,57.224h41.116" />
<path style="&st1;&st2;&st6;&st4;&st5;" d="M47.309,23.229h7.082V10.482h8.499" />
<path style="&st1;&st2;&st3;&st4;&st5;" d="M62.889,47.309l-1.417,4.25" />
<path style="&st1;&st2;&st6;&st4;&st5;" d="M16.147,23.229h5.666v-8.499h5.666" />
<path style="&st1;&st2;&st3;&st4;&st5;" d="M0.567,47.309l1.416,4.25" />
<path style="&st1;&st2;&st6;&st4;&st5;" d="M0.567,10.482h8.499v12.748h7.082" />
<g ewd:pinNo="1">
<text transform="matrix(0.88 0 0 1 15.1897 37.2383)"><tspan x="0" y="0" style="&st7; &st0;">1</tspan></text>
</g>
<g ewd:pinNo="4">
<text transform="matrix(0.88 0 0 1 44.9348 37.2383)"><tspan x="0" y="0" style="&st7; &st0;">4</tspan></text>
</g>
<g ewd:pinNo="2">
<text transform="matrix(0.88 0 0 1 25.1047 37.2383)"><tspan x="0" y="0" style="&st7; &st0;">2</tspan></text>
</g>
<g ewd:pinNo="3">
<text transform="matrix(0.88 0 0 1 35.0198 37.2383)"><tspan x="0" y="0" style="&st7; &st0;">3</tspan></text>
</g>
</g>
</g>
<g id="レイヤー_1" transform="translate(88.963,17.008)">
<g>
<path style="&st1;&st2;&st3;&st4;&st5;" d="M0.567,20.396c0,3.129,2.537,5.666,5.666,5.666" />
<path style="&st1;&st2;&st6;&st4;&st5;" d="M67.139,6.232c-0.782,0-1.417,0.634-1.417,1.416" />
<path style="&st1;&st2;&st3;&st4;&st5;" d="M74.929,51.558c0.782,0,1.417-0.634,1.417-1.417" />
<path style="&st1;&st2;&st6;&st4;&st5;" d="M50.85,52.975c0,0.782,0.634,1.417,1.417,1.417" />
<path style="&st1;&st2;&st6;&st4;&st5;" d="M39.518,54.391c0.782,0,1.417-0.634,1.417-1.417" />
<path style="&st1;&st2;&st6;&st4;&st5;" d="M55.099,58.64c0,0.782,0.634,1.417,1.416,1.417" />
<path style="&st1;&st2;&st6;&st4;&st5;" d="M35.269,60.057c0.782,0,1.417-0.634,1.417-1.417" />
<path style="&st1;&st2;&st6;&st4;&st5;" d="M42.351,50.142c-0.782,0-1.417,0.634-1.417,1.417" />
<path style="&st1;&st2;&st3;&st4;&st5;" d="M65.014,60.057c0.782,0,1.416-0.634,1.416-1.417" />
<path style="&st1;&st2;&st6;&st4;&st5;" d="M50.85,51.558c0-0.782-0.634-1.417-1.417-1.417" />
<path style="&st1;&st2;&st3;&st4;&st5;" d="M25.354,58.64c0,0.782,0.634,1.417,1.417,1.417" />
<path style="&st1;&st2;&st6;&st4;&st5;" d="M6.232,18.98c0,0.782,0.634,1.416,1.417,1.416" />
<path style="&st1;&st2;&st6;&st4;&st5;" d="M13.315,6.232c-0.783,0-1.417,0.634-1.417,1.416" />
<path style="&st1;&st2;&st6;&st4;&st5;" d="M26.062,7.649c0-0.782-0.634-1.416-1.417-1.416" />
<path style="&st1;&st2;&st6;&st4;&st5;" d="M7.649,13.314c-0.782,0-1.417,0.634-1.417,1.417" />
<path style="&st1;&st2;&st6;&st4;&st5;" d="M11.898,43.06c0,0.782,0.634,1.417,1.417,1.417" />
<path style="&st1;&st2;&st6;&st4;&st5;" d="M78.47,44.476c0.782,0,1.416-0.634,1.416-1.417" />
<path style="&st1;&st2;&st6;&st4;&st5;" d="M79.886,7.649c0-0.782-0.634-1.416-1.416-1.416" />
<path style="&st1;&st2;&st3;&st4;&st5;" d="M11.898,0.567c-3.129,0-5.666,2.537-5.666,5.666" />
<path style="&st1;&st2;&st3;&st4;&st5;" d="M15.439,50.142c0,0.782,0.634,1.417,1.417,1.417" />
<path style="&st1;&st2;&st3;&st4;&st5;" d="M6.232,7.649c-3.129,0-5.666,2.537-5.666,5.666" />
<path style="&st1;&st2;&st3;&st4;&st5;" d="M6.232,44.476c0,3.129,2.537,5.666,5.666,5.666" />
<path style="&st1;&st2;&st3;&st4;&st5;" d="M79.886,50.142c3.129,0,5.666-2.537,5.666-5.666" />
<path style="&st1;&st2;&st3;&st4;&st5;" d="M85.552,6.232c0-3.129-2.537-5.666-5.666-5.666" />
<path style="&st1;&st2;&st3;&st4;&st5;" d="M25.354,51.558v7.082" />
<path style="&st1;&st2;&st6;&st4;&st5;" d="M25.354,50.142v1.417" />
<path style="&st1;&st2;&st6;&st4;&st5;" d="M26.062,26.062V38.81h39.66V26.062H26.062" />
<path style="&st1;&st2;&st6;&st4;&st5;" d="M55.807,26.062V38.81" />
<path style="&st1;&st2;&st6;&st4;&st5;" d="M45.892,38.81V26.062" />
<path style="&st1;&st2;&st6;&st4;&st5;" d="M35.977,38.81V26.062" />
<path style="&st1;&st2;&st6;&st4;&st5;" d="M60.057,7.649v6.728h2.833V7.649H60.057" />
<path style="&st1;&st2;&st6;&st4;&st5;" d="M13.315,44.476H78.47" />
<path style="&st1;&st2;&st6;&st4;&st5;" d="M79.886,7.649V43.06" />
<path style="&st1;&st2;&st6;&st4;&st5;" d="M71.388,17.21v18.413h4.25V17.21H71.388" />
<path style="&st1;&st2;&st6;&st4;&st5;" d="M16.147,17.21v18.413h4.25V17.21H16.147" />
<path style="&st1;&st2;&st6;&st4;&st5;" d="M43.626,55.808v1.7h4.532v-1.7" />
<path style="&st1;&st2;&st6;&st4;&st5;" d="M57.224,9.065H34.561" />
<path style="&st1;&st2;&st6;&st4;&st5;" d="M34.561,11.898h22.663" />
<path style="&st1;&st2;&st6;&st4;&st5;" d="M11.898,13.314h-4.25" />
<path style="&st1;&st2;&st6;&st4;&st5;" d="M6.232,18.98v-4.249" />
<path style="&st1;&st2;&st6;&st4;&st5;" d="M7.649,20.396h4.25" />
<path style="&st1;&st2;&st6;&st4;&st5;" d="M11.898,7.649v5.666" />
<path style="&st1;&st2;&st6;&st4;&st5;" d="M11.898,20.396V43.06" />
<path style="&st1;&st2;&st6;&st4;&st5;" d="M42.351,50.142h7.082" />
<path style="&st1;&st2;&st6;&st4;&st5;" d="M28.895,7.649v6.728h2.833V7.649H28.895" />
<path style="&st1;&st2;&st6;&st4;&st5;" d="M36.686,55.808h18.414" />
<path style="&st1;&st2;&st6;&st4;&st5;" d="M42.351,55.808v-2.833h7.082v2.833" />
<path style="&st1;&st2;&st3;&st4;&st5;" d="M15.439,50.142h-3.541" />
<path style="&st1;&st2;&st3;&st4;&st5;" d="M66.43,51.558h8.499" />
<path style="&st1;&st2;&st3;&st4;&st5;" d="M16.856,51.558h8.499" />
<path style="&st1;&st2;&st3;&st4;&st5;" d="M35.269,60.057h-8.499" />
<path style="&st1;&st2;&st6;&st4;&st5;" d="M36.686,54.391v4.249" />
<path style="&st1;&st2;&st3;&st4;&st5;" d="M85.552,6.232v38.244" />
<path style="&st1;&st2;&st3;&st4;&st5;" d="M79.886,50.142h-3.541" />
<path style="&st1;&st2;&st3;&st4;&st5;" d="M6.232,44.476V26.062" />
<path style="&st1;&st2;&st3;&st4;&st5;" d="M0.567,20.396v-7.082" />
<path style="&st1;&st2;&st3;&st4;&st5;" d="M6.232,7.649V6.232" />
<path style="&st1;&st2;&st3;&st4;&st5;" d="M11.898,0.567h67.988" />
<path style="&st1;&st2;&st6;&st4;&st5;" d="M39.518,54.391h-2.833" />
<path style="&st1;&st2;&st6;&st4;&st5;" d="M25.354,51.558v-1.417" />
<path style="&st1;&st2;&st6;&st4;&st5;" d="M67.139,6.232H78.47" />
<path style="&st1;&st2;&st6;&st4;&st5;" d="M26.062,7.649v9.561h8.499V6.232" />
<path style="&st1;&st2;&st6;&st4;&st5;" d="M40.935,51.558v1.417" />
<path style="&st1;&st2;&st3;&st4;&st5;" d="M25.354,58.64v-7.082" />
<path style="&st1;&st2;&st3;&st4;&st5;" d="M56.515,60.057h8.499" />
<path style="&st1;&st2;&st6;&st4;&st5;" d="M65.722,7.649v9.561h-8.499V6.232H34.561" />
<path style="&st1;&st2;&st6;&st4;&st5;" d="M55.099,54.391v4.249" />
<path style="&st1;&st2;&st6;&st4;&st5;" d="M13.315,6.232h11.331" />
<path style="&st1;&st2;&st6;&st4;&st5;" d="M52.266,54.391h2.833" />
<path style="&st1;&st2;&st6;&st4;&st5;" d="M50.85,51.558v1.417" />
<path style="&st1;&st2;&st3;&st4;&st5;" d="M66.43,58.64v-7.082" />
<path style="&st1;&st2;&st3;&st4;&st5;" d="M66.43,58.64v-8.499" />
<path style="&st1;&st2;&st6;&st4;&st5;" d="M66.43,50.142v1.417" />
<path style="&st1;&st2;&st6;&st4;&st5;" d="M76.345,50.142H15.439" />
<path style="&st1;&st2;&st3;&st4;&st5;" d="M26.771,60.057h38.244" />
<g ewd:pinNo="1">
<text transform="matrix(0.88 0 0 1 59.0994 34.4053)"><tspan x="0" y="0" style="&st7; &st0;">1</tspan></text>
</g>
<g ewd:pinNo="2">
<text transform="matrix(0.88 0 0 1 49.1838 34.4053)"><tspan x="0" y="0" style="&st7; &st0;">2</tspan></text>
</g>
<g ewd:pinNo="3">
<text transform="matrix(0.88 0 0 1 39.2693 34.4053)"><tspan x="0" y="0" style="&st7; &st0;">3</tspan></text>
</g>
<g ewd:pinNo="4">
<text transform="matrix(0.88 0 0 1 29.3542 34.4053)"><tspan x="0" y="0" style="&st7; &st0;">4</tspan></text>
</g>
</g>
</g><path d="M34.561,9.069v-8.504h97.4615v8.504" style="&st1;&st2;&st8;&st4;&st5;" /></svg>
