﻿<?xml version="1.0"?>
<!-- Generator: Adobe Illustrator 10.0, SVG Export Plug-In . SVG Version: 3.0.0 Build 77)  -->
<!DOCTYPE svg PUBLIC "-//W3C//DTD SVG 1.0//EN" "http://www.w3.org/TR/2001/REC-SVG-20010904/DTD/svg10.dtd"[
<!ENTITY ns_flows "http://ns.adobe.com/Flows/1.0/">
<!ENTITY ns_svg "http://www.w3.org/2000/svg">
<!ENTITY ns_xlink "http://www.w3.org/1999/xlink">
<!ENTITY st0 "font-size:6.6349px;">
<!ENTITY st1 "fill:none;stroke:#000000;stroke-width:1.1331;stroke-linecap:round;stroke-linejoin:round;">
<!ENTITY st2 "fill:none;stroke:#000000;stroke-width:0.8499;stroke-linecap:round;stroke-linejoin:round;">
<!ENTITY st3 "font-family:'Arial';">
<!ATTLIST svg
xmlns:ewd CDATA #FIXED "http://shcl.co.jp/ewd"
xmlns:a CDATA #FIXED "http://ns.adobe.com/AdobeSVGViewerExtensions/3.0/"
ewd:ver CDATA #IMPLIED
>
<!ATTLIST g
xmlns:ewd CDATA #FIXED "http://shcl.co.jp/ewd"
ewd:pinNo CDATA #IMPLIED >
]>
<svg xmlns="&ns_svg;" xmlns:xlink="&ns_xlink;" ewd:ver="L2.1" xmlns:a="http://ns.adobe.com/AdobeSVGViewerExtensions/3.0/" width="166.855" height="70.538" viewBox="0 0 166.855 70.538" style="overflow:visible;enable-background:new 0 0 166.855 70.538" xml:space="preserve"  onload="call_execInitLoadProc_svg(&apos;connector&apos;)">
<script type="text/javascript" xlink:href="../../../../../system/js/ewd/fig/svgfig.js" />
<g id="レイヤー_1">
<g>
<path style="&st1;" d="M160.34,3.966c-1.663-2.217-4.028-3.399-6.799-3.399" />
<path style="&st2;" d="M118.13,8.555c0-1.095-0.888-1.983-1.983-1.983" />
<path style="&st2;" d="M60.623,6.572c-1.095,0-1.983,0.888-1.983,1.983" />
<path style="&st1;" d="M13.315,0.567c-2.771,0-5.137,1.183-6.799,3.399" />
<path style="&st2;" d="M122.04,4.816c0-2.347-1.903-4.249-4.25-4.249" />
<path style="&st2;" d="M58.994,0.567c-2.347,0-4.25,1.903-4.25,4.249" />
<path style="&st1;" d="M160.623,61.473h5.666v-5.666" />
<path style="&st2;" d="M68.555,21.813h39.66" />
<path style="&st2;" d="M118.13,21.813V8.555" />
<path style="&st2;" d="M0.567,55.808h165.722" />
<path style="&st2;" d="M83.428,6.572h32.719" />
<path style="&st1;" d="M160.34,3.966l5.949,10.765" />
<path style="&st2;" d="M166.289,17.564h-8.499v4.249" />
<path style="&st1;" d="M166.289,55.808V14.731" />
<path style="&st1;" d="M160.623,61.473l-22.663,8.499" />
<path style="&st2;" d="M58.64,31.02h9.915" />
<path style="&st2;" d="M0.567,17.564h8.499v4.249" />
<path style="&st2;" d="M108.187,31.02h9.943" />
<path style="&st2;" d="M99.717,19.688h-5.651" />
<path style="&st2;" d="M113.144,10.482v11.331h-4.958v9.207" />
<path style="&st2;" d="M82.705,21.813v-8.499h11.332v8.499" />
<path style="&st2;" d="M63.598,10.482v11.331h4.958v9.207" />
<path style="&st2;" d="M9.065,24.646v25.496H157.79V24.646h-39.66v12.748H58.64V24.646H9.065" />
<path style="&st2;" d="M9.065,37.394H58.64" />
<path style="&st2;" d="M78.47,21.813l-2.833-4.249h-7.082v4.249" />
<path style="&st2;" d="M118.13,37.394h39.66" />
<path style="&st2;" d="M58.64,50.142V37.394" />
<path style="&st2;" d="M118.13,50.142V37.394" />
<path style="&st2;" d="M77.054,19.688h5.651" />
<path style="&st2;" d="M18.98,50.142V24.646" />
<path style="&st2;" d="M28.895,50.142V24.646" />
<path style="&st2;" d="M38.81,50.142V24.646" />
<path style="&st2;" d="M48.725,50.142V24.646" />
<path style="&st2;" d="M98.3,21.813l2.833-4.249h7.082v4.249" />
<path style="&st2;" d="M68.555,50.142V37.394" />
<path style="&st2;" d="M78.47,50.142V37.394" />
<path style="&st2;" d="M88.385,50.142V37.394" />
<path style="&st2;" d="M98.3,50.142V37.394" />
<path style="&st2;" d="M108.215,50.142V37.394" />
<path style="&st2;" d="M128.045,50.142V24.646" />
<path style="&st2;" d="M137.96,50.142V24.646" />
<path style="&st2;" d="M147.875,50.142V24.646" />
<path style="&st1;" d="M13.315,0.567h140.226" />
<path style="&st1;" d="M6.516,3.966L0.567,14.731" />
<path style="&st1;" d="M0.567,55.808V14.731" />
<path style="&st2;" d="M160.623,61.473v-5.666" />
<path style="&st2;" d="M58.64,21.813V8.555" />
<path style="&st1;" d="M6.232,61.473l22.663,8.499" />
<path style="&st2;" d="M166.289,21.813H118.13" />
<path style="&st2;" d="M83.428,6.572H60.623" />
<path style="&st2;" d="M122.04,21.813V4.816" />
<path style="&st1;" d="M28.895,69.972H137.96" />
<path style="&st1;" d="M6.232,61.473H0.567v-5.666" />
<path style="&st2;" d="M6.232,61.473v-5.666" />
<path style="&st2;" d="M0.567,21.813H58.64" />
<path style="&st2;" d="M54.745,21.813V4.816" />
<path style="&st2;" d="M63.598,10.482h49.546" />
<g ewd:pinNo="1">
<text transform="matrix(0.88 0 0 1 12.3572 32.9893)"><tspan x="0" y="0" style="&st3; &st0;">1</tspan></text>
</g>
<g ewd:pinNo="10">
<text transform="matrix(0.88 0 0 1 10.6912 45.7368)"><tspan x="0" y="0" style="&st3; &st0;">1</tspan></text>
<text transform="matrix(0.88 0 0 1 14.0491 45.7368)"><tspan x="0" y="0" style="&st3; &st0;">0</tspan></text>
</g>
<g ewd:pinNo="2">
<text transform="matrix(0.88 0 0 1 22.2722 32.9893)"><tspan x="0" y="0" style="&st3; &st0;">2</tspan></text>
</g>
<g ewd:pinNo="11">
<text transform="matrix(0.88 0 0 1 20.6062 45.7368)"><tspan x="0" y="0" style="&st3; &st0;">1</tspan></text>
<text transform="matrix(0.88 0 0 1 23.9641 45.7368)"><tspan x="0" y="0" style="&st3; &st0;">1</tspan></text>
</g>
<g ewd:pinNo="3">
<text transform="matrix(0.88 0 0 1 32.1868 32.9893)"><tspan x="0" y="0" style="&st3; &st0;">3</tspan></text>
</g>
<g ewd:pinNo="12">
<text transform="matrix(0.88 0 0 1 30.5212 45.7368)"><tspan x="0" y="0" style="&st3; &st0;">1</tspan></text>
<text transform="matrix(0.88 0 0 1 33.8792 45.7368)"><tspan x="0" y="0" style="&st3; &st0;">2</tspan></text>
</g>
<g ewd:pinNo="4">
<text transform="matrix(0.88 0 0 1 42.1018 32.9893)"><tspan x="0" y="0" style="&st3; &st0;">4</tspan></text>
</g>
<g ewd:pinNo="13">
<text transform="matrix(0.88 0 0 1 40.4363 45.7368)"><tspan x="0" y="0" style="&st3; &st0;">1</tspan></text>
<text transform="matrix(0.88 0 0 1 43.7942 45.7368)"><tspan x="0" y="0" style="&st3; &st0;">3</tspan></text>
</g>
<g ewd:pinNo="5">
<text transform="matrix(0.88 0 0 1 52.0168 32.9893)"><tspan x="0" y="0" style="&st3; &st0;">5</tspan></text>
</g>
<g ewd:pinNo="14">
<text transform="matrix(0.88 0 0 1 50.3513 45.7368)"><tspan x="0" y="0" style="&st3; &st0;">1</tspan></text>
<text transform="matrix(0.88 0 0 1 53.7092 45.7368)"><tspan x="0" y="0" style="&st3; &st0;">4</tspan></text>
</g>
<g ewd:pinNo="15">
<text transform="matrix(0.88 0 0 1 60.2664 45.7368)"><tspan x="0" y="0" style="&st3; &st0;">1</tspan></text>
<text transform="matrix(0.88 0 0 1 63.6243 45.7368)"><tspan x="0" y="0" style="&st3; &st0;">5</tspan></text>
</g>
<g ewd:pinNo="16">
<text transform="matrix(0.88 0 0 1 70.1814 45.7368)"><tspan x="0" y="0" style="&st3; &st0;">1</tspan></text>
<text transform="matrix(0.88 0 0 1 73.5393 45.7368)"><tspan x="0" y="0" style="&st3; &st0;">6</tspan></text>
</g>
<g ewd:pinNo="17">
<text transform="matrix(0.88 0 0 1 80.0964 45.7368)"><tspan x="0" y="0" style="&st3; &st0;">1</tspan></text>
<text transform="matrix(0.88 0 0 1 83.4543 45.7368)"><tspan x="0" y="0" style="&st3; &st0;">7</tspan></text>
</g>
<g ewd:pinNo="18">
<text transform="matrix(0.88 0 0 1 90.0115 45.7368)"><tspan x="0" y="0" style="&st3; &st0;">1</tspan></text>
<text transform="matrix(0.88 0 0 1 93.3694 45.7368)"><tspan x="0" y="0" style="&st3; &st0;">8</tspan></text>
</g>
<g ewd:pinNo="19">
<text transform="matrix(0.88 0 0 1 99.9265 45.7368)"><tspan x="0" y="0" style="&st3; &st0;">1</tspan></text>
<text transform="matrix(0.88 0 0 1 103.2844 45.7368)"><tspan x="0" y="0" style="&st3; &st0;">9</tspan></text>
</g>
<g ewd:pinNo="20">
<text transform="matrix(0.88 0 0 1 109.8411 45.7368)"><tspan x="0" y="0" style="&st3; &st0;">2</tspan></text>
<text transform="matrix(0.88 0 0 1 113.1995 45.7368)"><tspan x="0" y="0" style="&st3; &st0;">0</tspan></text>
</g>
<g ewd:pinNo="6">
<text transform="matrix(0.88 0 0 1 121.4221 32.9893)"><tspan x="0" y="0" style="&st3; &st0;">6</tspan></text>
</g>
<g ewd:pinNo="21">
<text transform="matrix(0.88 0 0 1 119.7566 45.7368)"><tspan x="0" y="0" style="&st3; &st0;">2</tspan></text>
<text transform="matrix(0.88 0 0 1 123.1145 45.7368)"><tspan x="0" y="0" style="&st3; &st0;">1</tspan></text>
</g>
<g ewd:pinNo="7">
<text transform="matrix(0.88 0 0 1 131.3372 32.9893)"><tspan x="0" y="0" style="&st3; &st0;">7</tspan></text>
</g>
<g ewd:pinNo="22">
<text transform="matrix(0.88 0 0 1 129.6711 45.7368)"><tspan x="0" y="0" style="&st3; &st0;">2</tspan></text>
<text transform="matrix(0.88 0 0 1 133.0295 45.7368)"><tspan x="0" y="0" style="&st3; &st0;">2</tspan></text>
</g>
<g ewd:pinNo="8">
<text transform="matrix(0.88 0 0 1 141.2522 32.9893)"><tspan x="0" y="0" style="&st3; &st0;">8</tspan></text>
</g>
<g ewd:pinNo="23">
<text transform="matrix(0.88 0 0 1 139.5862 45.7368)"><tspan x="0" y="0" style="&st3; &st0;">2</tspan></text>
<text transform="matrix(0.88 0 0 1 142.9446 45.7368)"><tspan x="0" y="0" style="&st3; &st0;">3</tspan></text>
</g>
<g ewd:pinNo="9">
<text transform="matrix(0.88 0 0 1 151.1672 32.9893)"><tspan x="0" y="0" style="&st3; &st0;">9</tspan></text>
</g>
<g ewd:pinNo="24">
<text transform="matrix(0.88 0 0 1 149.5012 45.7368)"><tspan x="0" y="0" style="&st3; &st0;">2</tspan></text>
<text transform="matrix(0.88 0 0 1 152.8596 45.7368)"><tspan x="0" y="0" style="&st3; &st0;">4</tspan></text>
</g>
</g>
</g>
</svg>
