﻿<?xml version="1.0"?>
<!-- Generator: Adobe Illustrator 10.0, SVG Export Plug-In . SVG Version: 3.0.0 Build 77)  -->
<!DOCTYPE svg PUBLIC "-//W3C//DTD SVG 1.0//EN" "http://www.w3.org/TR/2001/REC-SVG-20010904/DTD/svg10.dtd"[
<!ENTITY ns_flows "http://ns.adobe.com/Flows/1.0/">
<!ENTITY ns_svg "http://www.w3.org/2000/svg">
<!ENTITY ns_xlink "http://www.w3.org/1999/xlink">
<!ENTITY st0 "font-size:6.6349px;">
<!ENTITY st1 "fill:none;stroke:#000000;stroke-width:1.1331;stroke-linecap:round;stroke-linejoin:round;">
<!ENTITY st2 "fill:none;stroke:#000000;stroke-width:0.8499;stroke-linecap:round;stroke-linejoin:round;">
<!ENTITY st3 "font-family:'Arial';">
<!ATTLIST svg
xmlns:ewd CDATA #FIXED "http://shcl.co.jp/ewd"
xmlns:a CDATA #FIXED "http://ns.adobe.com/AdobeSVGViewerExtensions/3.0/"
ewd:ver CDATA #IMPLIED
>
<!ATTLIST g
xmlns:ewd CDATA #FIXED "http://shcl.co.jp/ewd"
ewd:pinNo CDATA #IMPLIED >
]>
<svg xmlns="&ns_svg;" xmlns:xlink="&ns_xlink;" ewd:ver="L2.1" xmlns:a="http://ns.adobe.com/AdobeSVGViewerExtensions/3.0/" width="128.612" height="94.617" viewBox="0 0 128.612 94.617" style="overflow:visible;enable-background:new 0 0 128.612 94.617" xml:space="preserve"  onload="call_execInitLoadProc_svg(&apos;connector&apos;)">
<script type="text/javascript" xlink:href="../../../../../system/js/ewd/fig/svgfig.js" />
<g id="レイヤー_1">
<g>
<path style="&st1;" d="M91.218,0.567c-1.564,0-2.833,1.268-2.833,2.833" />
<path style="&st1;" d="M40.227,3.399c0-1.564-1.269-2.833-2.833-2.833" />
<path style="&st1;" d="M124.77,89.156c1.948-0.459,3.275-2.135,3.275-4.136" />
<path style="&st1;" d="M0.567,85.02c0,2.001,1.327,3.677,3.275,4.136" />
<path style="&st1;" d="M3.317,7.414c-1.76,1.056-2.751,2.806-2.751,4.858" />
<path style="&st1;" d="M16.3,0.567c-1.076,0-1.992,0.253-2.915,0.807" />
<path style="&st1;" d="M128.045,12.272c0-2.052-0.991-3.802-2.75-4.858" />
<path style="&st1;" d="M115.227,1.374c-0.923-0.554-1.839-0.807-2.915-0.807" />
<path style="&st2;" d="M113.881,51.558v28.329" />
<path style="&st2;" d="M4.816,51.558h118.98" />
<path style="&st2;" d="M64.306,65.723V37.394" />
<path style="&st2;" d="M54.391,65.723V37.394" />
<path style="&st2;" d="M44.476,79.887V37.394" />
<path style="&st2;" d="M14.731,79.887V51.558" />
<path style="&st2;" d="M30.312,0.567v22.663" />
<path style="&st2;" d="M0.567,23.229h1.416v-7.082" />
<path style="&st2;" d="M45.892,7.649h36.827" />
<path style="&st1;" d="M45.892,4.816L58.64,1.983h11.331l12.748,2.833" />
<path style="&st1;" d="M45.892,4.816v11.332" />
<path style="&st2;" d="M58.64,16.147v-5.666h11.331v5.666" />
<path style="&st2;" d="M6.232,17.564v5.666h33.995" />
<path style="&st1;" d="M40.227,23.229h8.499" />
<path style="&st1;" d="M88.385,23.229h-8.499" />
<path style="&st2;" d="M74.221,16.147v-3.683h5.666v3.683" />
<path style="&st2;" d="M54.391,14.306h4.25" />
<path style="&st1;" d="M112.312,0.567H91.218" />
<path style="&st1;" d="M88.385,23.229V3.399" />
<path style="&st2;" d="M128.045,17.564l-1.417-1.417h-2.833l-1.417,1.417" />
<path style="&st2;" d="M98.3,0.567v22.663" />
<path style="&st2;" d="M126.629,16.147v7.082h1.417" />
<path style="&st2;" d="M48.725,16.147h31.161" />
<path style="&st1;" d="M82.719,16.147h-2.833v7.082" />
<path style="&st2;" d="M48.725,16.147v-3.683h5.666v3.683" />
<path style="&st1;" d="M45.892,16.147h2.833v7.082" />
<path style="&st1;" d="M82.719,4.816v11.332" />
<path style="&st2;" d="M122.38,17.564v5.666H88.385" />
<path style="&st2;" d="M122.38,23.229h1.417v-7.082" />
<path style="&st2;" d="M0.567,17.564l1.416-1.417h2.833l1.416,1.417" />
<path style="&st1;" d="M24.646,94.051h79.32" />
<path style="&st2;" d="M69.971,14.306h4.25" />
<path style="&st1;" d="M103.966,94.051l20.804-4.895" />
<path style="&st1;" d="M3.841,89.156l20.804,4.895" />
<path style="&st2;" d="M4.816,16.147v7.082h1.416" />
<path style="&st2;" d="M0.567,78.47l4.249,4.25" />
<path style="&st2;" d="M123.796,82.72l4.249-4.25" />
<path style="&st1;" d="M40.227,23.229V3.399" />
<path style="&st1;" d="M0.567,12.272V85.02" />
<path style="&st1;" d="M128.045,12.272V85.02" />
<path style="&st1;" d="M16.3,0.567h21.094" />
<path style="&st2;" d="M94.051,79.887V37.394" />
<path style="&st2;" d="M74.221,65.723V37.394" />
<path style="&st2;" d="M4.816,51.558v28.329" />
<path style="&st2;" d="M24.646,79.887V37.394" />
<path style="&st2;" d="M4.816,65.723h118.98" />
<path style="&st2;" d="M103.966,37.394v42.493" />
<path style="&st2;" d="M84.136,79.887h39.66V51.558" />
<path style="&st2;" d="M24.646,37.394h79.32" />
<path style="&st2;" d="M4.816,82.72h118.98" />
<path style="&st2;" d="M4.816,79.887h39.66" />
<path style="&st2;" d="M4.816,26.062v21.246h16.997V26.062H4.816" />
<path style="&st2;" d="M123.796,26.062v21.246h-16.997V26.062H123.796" />
<path style="&st2;" d="M52.974,68.555V82.72" />
<path style="&st2;" d="M75.637,68.555V82.72" />
<path style="&st2;" d="M52.974,73.513h22.663" />
<path style="&st2;" d="M4.816,82.72v5.666h46.176l1.983-1.983V82.72" />
<path style="&st2;" d="M123.796,82.72v5.666H77.62l-1.983-1.983V82.72" />
<path style="&st2;" d="M52.974,68.555h22.663" />
<path style="&st2;" d="M34.561,79.887V37.394" />
<path style="&st2;" d="M84.136,79.887V37.394" />
<path style="&st1;" d="M3.317,7.414l10.068-6.04" />
<path style="&st1;" d="M115.227,1.374l10.068,6.04" />
<path style="&st2;" d="M29.603,31.728v2.833h19.83v-2.833H29.603" />
<path style="&st2;" d="M99.009,31.728v2.833h-19.83v-2.833H99.009" />
<path style="&st2;" d="M54.391,31.728v2.833h19.83v-2.833H54.391" />
<g ewd:pinNo="24">
<text transform="matrix(0.88 0 0 1 16.3572 74.7739)"><tspan x="0" y="0" style="&st3; &st0;">2</tspan></text>
<text transform="matrix(0.88 0 0 1 19.7151 74.7739)"><tspan x="0" y="0" style="&st3; &st0;">4</tspan></text>
</g>
<g ewd:pinNo="30">
<text transform="matrix(0.88 0 0 1 115.5071 74.7739)"><tspan x="0" y="0" style="&st3; &st0;">3</tspan></text>
<text transform="matrix(0.88 0 0 1 118.865 74.7739)"><tspan x="0" y="0" style="&st3; &st0;">0</tspan></text>
</g>
<g ewd:pinNo="23">
<text transform="matrix(0.88 0 0 1 6.4419 74.7739)"><tspan x="0" y="0" style="&st3; &st0;">2</tspan></text>
<text transform="matrix(0.88 0 0 1 9.8 74.7739)"><tspan x="0" y="0" style="&st3; &st0;">3</tspan></text>
</g>
<g ewd:pinNo="12">
<text transform="matrix(0.88 0 0 1 16.3572 60.6094)"><tspan x="0" y="0" style="&st3; &st0;">1</tspan></text>
<text transform="matrix(0.88 0 0 1 19.7151 60.6094)"><tspan x="0" y="0" style="&st3; &st0;">2</tspan></text>
</g>
<g ewd:pinNo="11">
<text transform="matrix(0.88 0 0 1 6.4419 60.6094)"><tspan x="0" y="0" style="&st3; &st0;">1</tspan></text>
<text transform="matrix(0.88 0 0 1 9.8 60.6094)"><tspan x="0" y="0" style="&st3; &st0;">1</tspan></text>
</g>
<g ewd:pinNo="14">
<text transform="matrix(0.88 0 0 1 36.1868 60.6094)"><tspan x="0" y="0" style="&st3; &st0;">1</tspan></text>
<text transform="matrix(0.88 0 0 1 39.5452 60.6094)"><tspan x="0" y="0" style="&st3; &st0;">4</tspan></text>
</g>
<g ewd:pinNo="15">
<text transform="matrix(0.88 0 0 1 46.1018 60.6094)"><tspan x="0" y="0" style="&st3; &st0;">1</tspan></text>
<text transform="matrix(0.88 0 0 1 49.4602 60.6094)"><tspan x="0" y="0" style="&st3; &st0;">5</tspan></text>
</g>
<g ewd:pinNo="29">
<text transform="matrix(0.88 0 0 1 105.592 74.7739)"><tspan x="0" y="0" style="&st3; &st0;">2</tspan></text>
<text transform="matrix(0.88 0 0 1 108.95 74.7739)"><tspan x="0" y="0" style="&st3; &st0;">9</tspan></text>
</g>
<g ewd:pinNo="6">
<text transform="matrix(0.88 0 0 1 67.5979 46.4453)"><tspan x="0" y="0" style="&st3; &st0;">6</tspan></text>
</g>
<g ewd:pinNo="16">
<text transform="matrix(0.88 0 0 1 56.0168 60.6094)"><tspan x="0" y="0" style="&st3; &st0;">1</tspan></text>
<text transform="matrix(0.88 0 0 1 59.3752 60.6094)"><tspan x="0" y="0" style="&st3; &st0;">6</tspan></text>
</g>
<g ewd:pinNo="17">
<text transform="matrix(0.88 0 0 1 65.9319 60.6094)"><tspan x="0" y="0" style="&st3; &st0;">1</tspan></text>
<text transform="matrix(0.88 0 0 1 69.2903 60.6094)"><tspan x="0" y="0" style="&st3; &st0;">7</tspan></text>
</g>
<g ewd:pinNo="21">
<text transform="matrix(0.88 0 0 1 105.592 60.6094)"><tspan x="0" y="0" style="&st3; &st0;">2</tspan></text>
<text transform="matrix(0.88 0 0 1 108.95 60.6094)"><tspan x="0" y="0" style="&st3; &st0;">1</tspan></text>
</g>
<g ewd:pinNo="5">
<text transform="matrix(0.88 0 0 1 57.6829 46.4453)"><tspan x="0" y="0" style="&st3; &st0;">5</tspan></text>
</g>
<g ewd:pinNo="22">
<text transform="matrix(0.88 0 0 1 115.5071 60.6094)"><tspan x="0" y="0" style="&st3; &st0;">2</tspan></text>
<text transform="matrix(0.88 0 0 1 118.865 60.6094)"><tspan x="0" y="0" style="&st3; &st0;">2</tspan></text>
</g>
<g ewd:pinNo="18">
<text transform="matrix(0.88 0 0 1 75.8469 60.6094)"><tspan x="0" y="0" style="&st3; &st0;">1</tspan></text>
<text transform="matrix(0.88 0 0 1 79.2048 60.6094)"><tspan x="0" y="0" style="&st3; &st0;">8</tspan></text>
</g>
<g ewd:pinNo="20">
<text transform="matrix(0.88 0 0 1 95.677 60.6094)"><tspan x="0" y="0" style="&st3; &st0;">2</tspan></text>
<text transform="matrix(0.88 0 0 1 99.0349 60.6094)"><tspan x="0" y="0" style="&st3; &st0;">0</tspan></text>
</g>
<g ewd:pinNo="26">
<text transform="matrix(0.88 0 0 1 36.1868 74.7739)"><tspan x="0" y="0" style="&st3; &st0;">2</tspan></text>
<text transform="matrix(0.88 0 0 1 39.5452 74.7739)"><tspan x="0" y="0" style="&st3; &st0;">6</tspan></text>
</g>
<g ewd:pinNo="28">
<text transform="matrix(0.88 0 0 1 95.677 74.7739)"><tspan x="0" y="0" style="&st3; &st0;">2</tspan></text>
<text transform="matrix(0.88 0 0 1 99.0349 74.7739)"><tspan x="0" y="0" style="&st3; &st0;">8</tspan></text>
</g>
<g ewd:pinNo="1">
<text transform="matrix(0.88 0 0 1 11.6487 38.6548)"><tspan x="0" y="0" style="&st3; &st0;">1</tspan></text>
</g>
<g ewd:pinNo="10">
<text transform="matrix(0.88 0 0 1 111.9661 38.6548)"><tspan x="0" y="0" style="&st3; &st0;">1</tspan></text>
<text transform="matrix(0.88 0 0 1 115.324 38.6548)"><tspan x="0" y="0" style="&st3; &st0;">0</tspan></text>
</g>
<g ewd:pinNo="13">
<text transform="matrix(0.88 0 0 1 26.2722 60.6094)"><tspan x="0" y="0" style="&st3; &st0;">1</tspan></text>
<text transform="matrix(0.88 0 0 1 29.6301 60.6094)"><tspan x="0" y="0" style="&st3; &st0;">3</tspan></text>
</g>
<g ewd:pinNo="25">
<text transform="matrix(0.88 0 0 1 26.2722 74.7739)"><tspan x="0" y="0" style="&st3; &st0;">2</tspan></text>
<text transform="matrix(0.88 0 0 1 29.6301 74.7739)"><tspan x="0" y="0" style="&st3; &st0;">5</tspan></text>
</g>
<g ewd:pinNo="27">
<text transform="matrix(0.88 0 0 1 85.762 74.7739)"><tspan x="0" y="0" style="&st3; &st0;">2</tspan></text>
<text transform="matrix(0.88 0 0 1 89.1199 74.7739)"><tspan x="0" y="0" style="&st3; &st0;">7</tspan></text>
</g>
<g ewd:pinNo="19">
<text transform="matrix(0.88 0 0 1 85.762 60.6094)"><tspan x="0" y="0" style="&st3; &st0;">1</tspan></text>
<text transform="matrix(0.88 0 0 1 89.1199 60.6094)"><tspan x="0" y="0" style="&st3; &st0;">9</tspan></text>
</g>
<g ewd:pinNo="4">
<text transform="matrix(0.88 0 0 1 47.7678 46.4453)"><tspan x="0" y="0" style="&st3; &st0;">4</tspan></text>
</g>
<g ewd:pinNo="3">
<text transform="matrix(0.88 0 0 1 37.8528 46.4453)"><tspan x="0" y="0" style="&st3; &st0;">3</tspan></text>
</g>
<g ewd:pinNo="2">
<text transform="matrix(0.88 0 0 1 27.9377 46.4453)"><tspan x="0" y="0" style="&st3; &st0;">2</tspan></text>
</g>
<g ewd:pinNo="7">
<text transform="matrix(0.88 0 0 1 77.5125 46.4453)"><tspan x="0" y="0" style="&st3; &st0;">7</tspan></text>
</g>
<g ewd:pinNo="8">
<text transform="matrix(0.88 0 0 1 87.428 46.4453)"><tspan x="0" y="0" style="&st3; &st0;">8</tspan></text>
</g>
<g ewd:pinNo="9">
<text transform="matrix(0.88 0 0 1 97.3425 46.4453)"><tspan x="0" y="0" style="&st3; &st0;">9</tspan></text>
</g>
</g>
</g>
</svg>
