﻿<?xml version="1.0"?>
<!-- Generator: Adobe Illustrator 10.0, SVG Export Plug-In . SVG Version: 3.0.0 Build 77)  -->
<!DOCTYPE svg PUBLIC "-//W3C//DTD SVG 1.0//EN" "http://www.w3.org/TR/2001/REC-SVG-20010904/DTD/svg10.dtd"[
<!ENTITY ns_flows "http://ns.adobe.com/Flows/1.0/">
<!ENTITY ns_svg "http://www.w3.org/2000/svg">
<!ENTITY ns_xlink "http://www.w3.org/1999/xlink">
<!ENTITY st0 "font-size:6.6349px;">
<!ENTITY st1 "fill:none;stroke:#000000;stroke-width:1.1331;stroke-linecap:round;stroke-linejoin:round;">
<!ENTITY st2 "fill:none;stroke:#000000;stroke-width:0.8499;stroke-linecap:round;stroke-linejoin:round;">
<!ENTITY st3 "font-family:'Arial';">
<!ATTLIST svg
xmlns:ewd CDATA #FIXED "http://shcl.co.jp/ewd"
xmlns:a CDATA #FIXED "http://ns.adobe.com/AdobeSVGViewerExtensions/3.0/"
ewd:ver CDATA #IMPLIED
>
<!ATTLIST g
xmlns:ewd CDATA #FIXED "http://shcl.co.jp/ewd"
ewd:pinNo CDATA #IMPLIED >
]>
<svg xmlns="&ns_svg;" xmlns:xlink="&ns_xlink;" ewd:ver="L2.1" xmlns:a="http://ns.adobe.com/AdobeSVGViewerExtensions/3.0/" width="36.379" height="39.532" viewBox="0 0 36.379 39.532" style="overflow:visible;enable-background:new 0 0 36.379 39.532" xml:space="preserve"  onload="call_execInitLoadProc_svg(&apos;connector&apos;)">
<script type="text/javascript" xlink:href="../../../../../system/js/ewd/fig/svgfig.js" />
<g id="レイヤー_1">
<g>
<path style="&st1;" d="M0.567,21.343c0,9.733,7.89,17.623,17.623,17.623" />
<path style="&st1;" d="M18.19,38.966c9.733,0,17.623-7.89,17.623-17.623" />
<path style="&st2;" d="M8.289,21.343c0,5.468,4.433,9.901,9.901,9.901" />
<path style="&st2;" d="M18.19,31.244c5.468,0,9.901-4.433,9.901-9.901" />
<path style="&st2;" d="M15.578,16.34c-2.763,0-5.003,2.24-5.003,5.003" />
<path style="&st2;" d="M10.575,21.343c0,2.763,2.24,5.003,5.003,5.003" />
<path style="&st2;" d="M3.722,21.343c0,7.99,6.478,14.467,14.467,14.467" />
<path style="&st2;" d="M18.19,35.81c7.99,0,14.467-6.477,14.467-14.467" />
<path style="&st2;" d="M6.006,21.343c0,6.729,5.455,12.184,12.184,12.184" />
<path style="&st2;" d="M18.19,33.527c6.729,0,12.184-5.455,12.184-12.184" />
<path style="&st2;" d="M10.575,13.312c-0.914,0.732-1.602,1.458-2.285,2.409" />
<path style="&st2;" d="M9.377,6.006c-0.601,0-1.088,0.487-1.088,1.088" />
<path style="&st1;" d="M12.096,0.567c-0.842,0-1.524,0.682-1.524,1.524" />
<path style="&st2;" d="M7.53,3.722c-0.84,0-1.521,0.681-1.521,1.521" />
<path style="&st1;" d="M5.244,3.722c-0.84,0-1.521,0.681-1.521,1.521" />
<path style="&st2;" d="M10.575,10.521c-0.914,0.732-1.602,1.458-2.285,2.409" />
<path style="&st2;" d="M11.663,10.521c-0.601,0-1.088,0.487-1.088,1.088" />
<path style="&st2;" d="M20.799,26.349c2.764,0,5.005-2.241,5.005-5.006" />
<path style="&st2;" d="M25.804,21.343c0-2.764-2.241-5.006-5.005-5.006" />
<path style="&st2;" d="M28.088,15.72c-0.682-0.951-1.37-1.676-2.284-2.408" />
<path style="&st2;" d="M28.088,7.094c0-0.601-0.487-1.088-1.088-1.088" />
<path style="&st1;" d="M25.804,2.091c0-0.842-0.682-1.524-1.524-1.524" />
<path style="&st2;" d="M30.374,5.244c0-0.842-0.682-1.524-1.524-1.524" />
<path style="&st1;" d="M32.657,5.244c0-0.842-0.682-1.524-1.524-1.524" />
<path style="&st2;" d="M28.088,12.929c-0.682-0.951-1.37-1.676-2.284-2.407" />
<path style="&st2;" d="M25.804,11.609c0-0.601-0.487-1.088-1.088-1.088" />
<path style="&st2;" d="M20.799,16.34h-5.221" />
<path style="&st2;" d="M20.799,26.349h-5.221" />
<path style="&st2;" d="M27,6.006H9.377" />
<path style="&st2;" d="M8.289,7.094v14.249" />
<path style="&st1;" d="M10.575,3.722H5.244" />
<path style="&st2;" d="M6.006,5.244v16.099" />
<path style="&st1;" d="M24.281,0.567H12.096" />
<path style="&st2;" d="M10.575,3.722v2.283" />
<path style="&st2;" d="M25.804,15.034H10.575" />
<path style="&st2;" d="M10.575,11.609v3.425" />
<path style="&st2;" d="M3.722,5.244v16.099" />
<path style="&st2;" d="M10.575,6.006v5.603" />
<path style="&st2;" d="M11.663,10.521h13.054" />
<path style="&st2;" d="M8.289,7.281h2.286" />
<path style="&st1;" d="M3.722,5.244L0.567,21.343" />
<path style="&st2;" d="M1.292,17.646l2.431,0.433" />
<path style="&st2;" d="M0.683,20.748l3.04,0.595" />
<path style="&st2;" d="M16.558,35.72v3.17" />
<path style="&st2;" d="M19.822,35.72v3.17" />
<path style="&st2;" d="M28.088,7.094v14.249" />
<path style="&st2;" d="M30.374,5.244v16.099" />
<path style="&st2;" d="M25.804,3.722v2.283" />
<path style="&st2;" d="M25.804,11.609v3.425" />
<path style="&st2;" d="M32.657,5.244v16.099" />
<path style="&st2;" d="M25.804,6.006v5.603" />
<path style="&st2;" d="M28.088,7.281h-2.283" />
<path style="&st1;" d="M32.657,5.244l3.156,16.099" />
<path style="&st2;" d="M35.088,17.646l-2.431,0.433" />
<path style="&st2;" d="M35.694,20.748l-3.037,0.595" />
<path style="&st1;" d="M10.575,2.091v1.632" />
<path style="&st1;" d="M25.804,2.091v1.632" />
<path style="&st1;" d="M31.133,3.722h-5.329" />
<path style="&st2;" d="M25.804,3.722H10.575" />
<g ewd:pinNo="1">
<text transform="matrix(0.88 0 0 1 16.5242 23.312)"><tspan x="0" y="0" style="&st3; &st0;">1</tspan></text>
</g>
</g>
</g>
</svg>
