﻿<?xml version="1.0"?>
<!-- Generator: Adobe Illustrator 10.0, SVG Export Plug-In . SVG Version: 3.0.0 Build 77)  -->
<!DOCTYPE svg PUBLIC "-//W3C//DTD SVG 1.0//EN" "http://www.w3.org/TR/2001/REC-SVG-20010904/DTD/svg10.dtd"[
<!ENTITY ns_flows "http://ns.adobe.com/Flows/1.0/">
<!ENTITY ns_svg "http://www.w3.org/2000/svg">
<!ENTITY ns_xlink "http://www.w3.org/1999/xlink">
<!ENTITY st0 "font-size:6.6349px;">
<!ENTITY st1 "fill:none;stroke:#000000;stroke-width:1.1331;stroke-linecap:round;stroke-linejoin:round;">
<!ENTITY st2 "fill:none;stroke:#000000;stroke-width:0.8499;stroke-linecap:round;stroke-linejoin:round;">
<!ENTITY st3 "font-family:'Arial';">
<!ATTLIST svg
xmlns:ewd CDATA #FIXED "http://shcl.co.jp/ewd"
xmlns:a CDATA #FIXED "http://ns.adobe.com/AdobeSVGViewerExtensions/3.0/"
ewd:ver CDATA #IMPLIED
>
<!ATTLIST g
xmlns:ewd CDATA #FIXED "http://shcl.co.jp/ewd"
ewd:pinNo CDATA #IMPLIED >
]>
<svg xmlns="&ns_svg;" xmlns:xlink="&ns_xlink;" ewd:ver="L2.1" xmlns:a="http://ns.adobe.com/AdobeSVGViewerExtensions/3.0/" width="158.232" height="120" viewBox="0 0 158.232 120" style="overflow:visible;enable-background:new 0 0 158.232 120" xml:space="preserve"  onload="call_execInitLoadProc_svg(&apos;connector&apos;)">
<script type="text/javascript" xlink:href="../../../../../system/js/ewd/fig/svgfig.js" />
<g id="レイヤー_1">
<g>
<path style="&st2;" d="M37.473,56.459h83.286" />
<path style="&st2;" d="M39.456,40.878h79.32" />
<path style="&st2;" d="M79.116,40.878v15.581" />
<path style="&st2;" d="M69.201,40.878v15.581" />
<path style="&st2;" d="M59.286,40.878v15.581" />
<path style="&st2;" d="M49.371,40.878v15.581" />
<path style="&st2;" d="M39.456,40.878v15.581" />
<path style="&st2;" d="M89.031,40.878v15.581" />
<path style="&st2;" d="M98.946,40.878v15.581" />
<path style="&st2;" d="M108.861,40.878v15.581" />
<path style="&st2;" d="M118.776,40.878v15.581" />
<path style="&st2;" d="M37.473,62.125h83.286" />
<path style="&st2;" d="M39.456,77.706h79.32" />
<path style="&st2;" d="M39.456,77.706h79.32" />
<path style="&st2;" d="M79.116,62.125v15.581" />
<path style="&st2;" d="M69.201,62.125v15.581" />
<path style="&st2;" d="M59.286,62.125v15.581" />
<path style="&st2;" d="M49.371,62.125v15.581" />
<path style="&st2;" d="M39.456,62.125v15.581" />
<path style="&st2;" d="M89.031,62.125v15.581" />
<path style="&st2;" d="M98.946,62.125v15.581" />
<path style="&st2;" d="M108.861,62.125v15.581" />
<path style="&st2;" d="M118.776,62.125v15.581" />
<path style="&st1;" d="M3.399,44.25h18.238" />
<path style="&st1;" d="M3.399,41.983h18.238" />
<path style="&st1;" d="M154.833,44.25h-18.238" />
<path style="&st1;" d="M154.833,41.983h-18.238" />
<path style="&st2;" d="M46.397,101.785v7.082" />
<path style="&st2;" d="M43.564,101.785v7.082" />
<path style="&st2;" d="M111.836,101.785v7.082" />
<path style="&st2;" d="M114.669,101.785v7.082" />
<path style="&st2;" d="M46.397,18.215v-7.082" />
<path style="&st2;" d="M43.564,18.215v-7.082" />
<path style="&st2;" d="M111.836,18.215v-7.082" />
<path style="&st2;" d="M114.669,18.215v-7.082" />
<path style="&st2;" d="M23.229,73.481c-0.269,0.77-0.408,1.453-0.459,2.267" />
<path style="&st2;" d="M126.983,84.788c4.083,0,7.492-2.775,8.321-6.773" />
<path style="&st1;" d="M21.637,44.25c0.625,0,1.133-0.507,1.133-1.133" />
<path style="&st1;" d="M22.771,43.116c0-0.626-0.508-1.133-1.133-1.133" />
<path style="&st1;" d="M3.399,78.014c-1.564,0-2.833,1.269-2.833,2.833" />
<path style="&st1;" d="M0.567,93.853c0,2.347,1.902,4.25,4.249,4.25" />
<path style="&st2;" d="M9.065,91.02c0,0.782,0.634,1.416,1.417,1.416" />
<path style="&st1;" d="M39.598,92.436c1.095,0,1.983-0.888,1.983-1.983" />
<path style="&st1;" d="M36.765,98.102c1.095,0,1.983-0.888,1.983-1.983" />
<path style="&st1;" d="M4.816,21.898c-2.347,0-4.249,1.903-4.249,4.25" />
<path style="&st2;" d="M10.482,27.564c-0.782,0-1.417,0.634-1.417,1.417" />
<path style="&st1;" d="M41.581,29.547c0-1.095-0.888-1.983-1.983-1.983" />
<path style="&st1;" d="M38.748,23.881c0-1.095-0.888-1.983-1.983-1.983" />
<path style="&st1;" d="M0.567,39.15c0,1.564,1.268,2.833,2.833,2.833" />
<path style="&st1;" d="M136.595,41.983c-0.626,0-1.133,0.507-1.133,1.133" />
<path style="&st1;" d="M135.462,43.116c0,0.626,0.507,1.133,1.133,1.133" />
<path style="&st1;" d="M157.666,80.847c0-1.564-1.269-2.833-2.833-2.833" />
<path style="&st1;" d="M153.416,98.102c2.347,0,4.25-1.902,4.25-4.25" />
<path style="&st2;" d="M147.751,92.436c0.782,0,1.417-0.634,1.417-1.416" />
<path style="&st1;" d="M116.652,90.453c0,1.095,0.888,1.983,1.983,1.983" />
<path style="&st1;" d="M119.484,96.119c0,1.095,0.888,1.983,1.983,1.983" />
<path style="&st1;" d="M157.666,26.147c0-2.347-1.903-4.25-4.25-4.25" />
<path style="&st2;" d="M149.167,28.98c0-0.783-0.634-1.417-1.417-1.417" />
<path style="&st1;" d="M118.635,27.564c-1.095,0-1.983,0.888-1.983,1.983" />
<path style="&st1;" d="M121.468,21.898c-1.095,0-1.983,0.888-1.983,1.983" />
<path style="&st1;" d="M154.833,41.983c1.564,0,2.833-1.268,2.833-2.833" />
<path style="&st2;" d="M38.748,84.788c0,1.564,1.269,2.833,2.833,2.833" />
<path style="&st1;" d="M41.581,114.533c0,1.564,1.268,2.833,2.833,2.833" />
<path style="&st1;" d="M113.819,117.365c1.564,0,2.833-1.268,2.833-2.833" />
<path style="&st2;" d="M46.397,101.785c0-0.782-0.634-1.417-1.417-1.417" />
<path style="&st2;" d="M44.98,100.368c-0.782,0-1.417,0.634-1.417,1.417" />
<path style="&st2;" d="M43.564,108.867c0,0.782,0.634,1.417,1.417,1.417" />
<path style="&st2;" d="M44.98,110.283c0.782,0,1.417-0.634,1.417-1.417" />
<path style="&st2;" d="M114.669,101.785c0-0.782-0.634-1.417-1.417-1.417" />
<path style="&st2;" d="M113.252,100.368c-0.782,0-1.417,0.634-1.417,1.417" />
<path style="&st2;" d="M111.836,108.867c0,0.782,0.634,1.417,1.417,1.417" />
<path style="&st2;" d="M113.252,110.283c0.782,0,1.417-0.634,1.417-1.417" />
<path style="&st1;" d="M44.414,2.635c-1.565,0-2.833,1.268-2.833,2.833" />
<path style="&st1;" d="M116.652,5.467c0-1.564-1.269-2.833-2.833-2.833" />
<path style="&st2;" d="M43.564,18.215c0,0.782,0.634,1.417,1.417,1.417" />
<path style="&st2;" d="M44.98,19.632c0.782,0,1.417-0.634,1.417-1.417" />
<path style="&st2;" d="M46.397,11.133c0-0.782-0.634-1.417-1.417-1.417" />
<path style="&st2;" d="M44.98,9.717c-0.782,0-1.417,0.634-1.417,1.417" />
<path style="&st2;" d="M111.836,18.215c0,0.782,0.634,1.417,1.417,1.417" />
<path style="&st2;" d="M113.252,19.632c0.782,0,1.417-0.634,1.417-1.417" />
<path style="&st2;" d="M114.669,11.133c0-0.782-0.634-1.417-1.417-1.417" />
<path style="&st2;" d="M113.252,9.717c-0.782,0-1.417,0.634-1.417,1.417" />
<path style="&st2;" d="M72.6,32.38c-0.272,0-0.502,0.045-0.754,0.149" />
<path style="&st2;" d="M87.615,34.363c0-1.095-0.888-1.983-1.983-1.983" />
<path style="&st2;" d="M72.6,32.38c-1.095,0-1.983,0.888-1.983,1.983" />
<path style="&st2;" d="M135.465,75.748c-0.052-0.814-0.19-1.497-0.46-2.267" />
<path style="&st1;" d="M135.303,78.014c0.163-0.785,0.211-1.467,0.16-2.266" />
<path style="&st1;" d="M22.771,75.748c-0.051,0.799-0.003,1.481,0.16,2.266" />
<path style="&st2;" d="M22.929,78.014c0.829,3.999,4.24,6.775,8.323,6.775" />
<path style="&st2;" d="M125.009,72.04v8.499h-4.25V72.04H125.009" />
<path style="&st2;" d="M33.224,72.04v8.499h4.249V72.04H33.224" />
<path style="&st2;" d="M37.473,56.459v5.666" />
<path style="&st2;" d="M120.759,56.459v5.666" />
<path style="&st2;" d="M36.623,35.212L23.229,73.481" />
<path style="&st2;" d="M47.955,84.788H31.252" />
<path style="&st2;" d="M121.609,35.212l13.394,38.269" />
<path style="&st2;" d="M110.278,84.788h16.706" />
<path style="&st2;" d="M36.623,35.212h9.915v1.417h3.399v-1.417h3.399v1.417h3.399v-1.417h3.399v1.417h3.399v-1.417" />
<path style="&st2;" d="M63.535,35.212h7.082v1.417h3.399v-1.417h3.399v1.417h3.399v-1.417h3.399v1.417h3.399v-1.417" />
<path style="&st2;" d="M87.615,35.212h7.083v1.417h3.399v-1.417h3.399v1.417h3.399v-1.417h3.399v1.417h3.399v-1.417" />
<path style="&st2;" d="M111.694,35.212h9.915" />
<path style="&st2;" d="M47.955,84.788v-1.417h2.833v1.417h2.833v-1.417h2.833v1.417h2.833v-1.417h2.833v1.417" />
<path style="&st2;" d="M72.034,84.788v-1.417h2.833v1.417h2.833v-1.417h2.833v1.417h2.833v-1.417h2.833v1.417" />
<path style="&st2;" d="M96.113,84.788v-1.417h2.833v1.417h2.833v-1.417h2.833v1.417h2.833v-1.417h2.833v1.417" />
<path style="&st2;" d="M62.119,84.788h9.915" />
<path style="&st2;" d="M86.198,84.788h9.915" />
<path style="&st2;" d="M64.102,84.788l3.542-3.541h22.946l3.541,3.541" />
<path style="&st2;" d="M67.643,81.247v3.541" />
<path style="&st2;" d="M90.589,81.247v3.541" />
<path style="&st1;" d="M22.771,75.748H3.399" />
<path style="&st1;" d="M3.399,75.748V44.25" />
<path style="&st1;" d="M22.929,78.014H3.399" />
<path style="&st1;" d="M0.567,80.847v13.005" />
<path style="&st1;" d="M4.816,98.102h9.915" />
<path style="&st1;" d="M17.564,98.102h11.411" />
<path style="&st1;" d="M31.807,98.102h4.958" />
<path style="&st1;" d="M38.748,92.436v3.683" />
<path style="&st1;" d="M14.731,98.102v-5.666" />
<path style="&st1;" d="M17.564,92.436v5.666" />
<path style="&st1;" d="M28.974,92.436v5.666" />
<path style="&st1;" d="M31.807,92.436v5.666" />
<path style="&st1;" d="M38.748,92.436h0.85" />
<path style="&st2;" d="M41.581,84.788v5.666" />
<path style="&st2;" d="M11.898,92.436l4.249-1.983" />
<path style="&st2;" d="M16.147,90.453h25.434" />
<path style="&st2;" d="M16.147,78.014v12.439" />
<path style="&st2;" d="M9.065,78.014V91.02" />
<path style="&st1;" d="M0.567,39.15V26.147" />
<path style="&st1;" d="M4.816,21.898h9.915" />
<path style="&st1;" d="M17.564,21.898h11.411" />
<path style="&st1;" d="M31.807,21.898h4.958" />
<path style="&st1;" d="M38.748,27.564v-3.683" />
<path style="&st1;" d="M14.731,21.898v5.666" />
<path style="&st1;" d="M17.564,27.564v-5.666" />
<path style="&st1;" d="M28.974,27.564v-5.666" />
<path style="&st1;" d="M31.807,27.564v-5.666" />
<path style="&st1;" d="M38.748,27.564h0.85" />
<path style="&st2;" d="M41.581,35.212v-5.666" />
<path style="&st2;" d="M11.898,27.564l4.249,1.983" />
<path style="&st2;" d="M16.147,29.547h25.434" />
<path style="&st2;" d="M16.147,41.983V29.547" />
<path style="&st2;" d="M9.065,41.983V28.98" />
<path style="&st1;" d="M135.465,75.748h19.368" />
<path style="&st1;" d="M154.833,75.748V44.25" />
<path style="&st1;" d="M135.303,78.014h19.53" />
<path style="&st1;" d="M157.666,80.847v13.005" />
<path style="&st1;" d="M153.416,98.102h-9.915" />
<path style="&st1;" d="M140.669,98.102h-11.411" />
<path style="&st1;" d="M126.425,98.102h-4.958" />
<path style="&st1;" d="M119.484,92.436v3.683" />
<path style="&st1;" d="M143.501,98.102v-5.666" />
<path style="&st1;" d="M140.669,92.436v5.666" />
<path style="&st1;" d="M129.258,92.436v5.666" />
<path style="&st1;" d="M126.425,92.436v5.666" />
<path style="&st1;" d="M119.484,92.436h-0.85" />
<path style="&st2;" d="M116.652,84.788v5.666" />
<path style="&st2;" d="M146.334,92.436l-4.249-1.983" />
<path style="&st2;" d="M142.085,90.453h-25.434" />
<path style="&st2;" d="M142.085,78.014v12.439" />
<path style="&st2;" d="M149.167,78.014V91.02" />
<path style="&st1;" d="M157.666,39.15V26.147" />
<path style="&st1;" d="M153.416,21.898h-9.915" />
<path style="&st1;" d="M140.669,21.898h-11.411" />
<path style="&st1;" d="M126.425,21.898h-4.958" />
<path style="&st1;" d="M119.484,27.564v-3.683" />
<path style="&st1;" d="M143.501,21.898v5.666" />
<path style="&st1;" d="M140.669,27.564v-5.666" />
<path style="&st1;" d="M129.258,27.564v-5.666" />
<path style="&st1;" d="M126.425,27.564v-5.666" />
<path style="&st1;" d="M119.484,27.564h-0.85" />
<path style="&st2;" d="M116.652,35.212v-5.666" />
<path style="&st2;" d="M146.334,27.564l-4.249,1.983" />
<path style="&st2;" d="M142.085,29.547h-25.434" />
<path style="&st2;" d="M142.085,41.983V29.547" />
<path style="&st2;" d="M149.167,41.983V28.98" />
<path style="&st2;" d="M67.643,90.453v-2.833h22.946v2.833" />
<path style="&st2;" d="M90.589,90.453h18.272" />
<path style="&st2;" d="M49.371,90.453h18.272" />
<path style="&st1;" d="M46.538,87.621h2.833v2.833" />
<path style="&st2;" d="M41.581,86.912h4.958" />
<path style="&st2;" d="M41.581,88.329h4.958" />
<path style="&st1;" d="M46.538,87.621v0.708" />
<path style="&st1;" d="M41.581,90.453h4.958v-2.125" />
<path style="&st2;" d="M116.652,86.912h-4.958" />
<path style="&st2;" d="M116.652,88.329h-4.958" />
<path style="&st1;" d="M111.694,87.621v0.708" />
<path style="&st1;" d="M116.652,90.453h-4.958v-2.125" />
<path style="&st1;" d="M111.694,87.621h-2.833v2.833" />
<path style="&st2;" d="M46.397,94.703h-4.816" />
<path style="&st2;" d="M111.836,94.703h4.816" />
<path style="&st1;" d="M41.581,94.703v19.83" />
<path style="&st1;" d="M116.652,94.703v19.83" />
<path style="&st1;" d="M91.156,117.365h22.663" />
<path style="&st2;" d="M49.371,94.703h2.125v22.663" />
<path style="&st2;" d="M41.581,114.533h9.915" />
<path style="&st2;" d="M51.496,108.867h-5.099" />
<path style="&st2;" d="M43.564,108.867h-1.983" />
<path style="&st2;" d="M51.496,101.785h3.399" />
<path style="&st2;" d="M51.496,104.618h3.399v-2.833" />
<path style="&st2;" d="M108.861,94.703h-2.125v22.663" />
<path style="&st2;" d="M116.652,114.533h-9.915" />
<path style="&st2;" d="M106.737,108.867h5.099" />
<path style="&st2;" d="M114.669,108.867h1.983" />
<path style="&st2;" d="M106.737,101.785h-3.399" />
<path style="&st2;" d="M106.737,104.618h-3.399v-2.833" />
<path style="&st2;" d="M63.535,117.365V94.703h9.915v22.663" />
<path style="&st2;" d="M84.782,117.365V94.703h9.915v22.663" />
<path style="&st2;" d="M94.697,114.533h-9.915" />
<path style="&st2;" d="M73.45,114.533h-9.915" />
<path style="&st2;" d="M63.535,108.867h9.915" />
<path style="&st2;" d="M84.782,108.867h9.915" />
<path style="&st2;" d="M66.014,108.867v-7.082h4.957v7.082" />
<path style="&st2;" d="M87.26,108.867v-7.082h4.958v7.082" />
<path style="&st2;" d="M41.581,96.119h9.915" />
<path style="&st2;" d="M63.535,96.119h9.915" />
<path style="&st2;" d="M84.782,96.119h9.915" />
<path style="&st2;" d="M106.737,96.119h9.915" />
<path style="&st1;" d="M41.581,94.703v-1.417h4.816v1.417" />
<path style="&st1;" d="M111.836,94.703v-1.417h4.816v1.417" />
<path style="&st1;" d="M67.076,117.365v2.068h2.833v-2.068" />
<path style="&st1;" d="M88.323,117.365v2.068h2.833v-2.068" />
<path style="&st2;" d="M41.581,33.088h4.958" />
<path style="&st2;" d="M41.581,31.671h4.958" />
<path style="&st2;" d="M46.538,32.38v2.833" />
<path style="&st2;" d="M116.652,33.088h-4.958" />
<path style="&st2;" d="M116.652,31.671h-4.958" />
<path style="&st2;" d="M111.694,32.38v2.833" />
<path style="&st2;" d="M46.397,25.298h-4.816" />
<path style="&st2;" d="M111.836,25.298h4.816" />
<path style="&st1;" d="M41.581,25.298V5.467" />
<path style="&st1;" d="M116.652,25.298V5.467" />
<path style="&st1;" d="M91.156,2.635h22.663" />
<path style="&st2;" d="M49.371,25.298h2.125V2.635" />
<path style="&st2;" d="M41.581,5.467h9.915" />
<path style="&st2;" d="M51.496,11.133h-5.099" />
<path style="&st2;" d="M43.564,11.133h-1.983" />
<path style="&st2;" d="M51.496,18.215h3.399" />
<path style="&st2;" d="M51.496,15.383h3.399v2.833" />
<path style="&st2;" d="M108.861,25.298h-2.125V2.635" />
<path style="&st2;" d="M116.652,5.467h-9.915" />
<path style="&st2;" d="M106.737,11.133h5.099" />
<path style="&st2;" d="M114.669,11.133h1.983" />
<path style="&st2;" d="M106.737,18.215h-3.399" />
<path style="&st2;" d="M106.737,15.383h-3.399v2.833" />
<path style="&st2;" d="M63.535,2.635v22.663h9.915V2.635" />
<path style="&st2;" d="M84.782,2.635v22.663h9.915V2.635" />
<path style="&st2;" d="M94.697,5.467h-9.915" />
<path style="&st2;" d="M73.45,5.467h-9.915" />
<path style="&st2;" d="M63.535,11.133h9.915" />
<path style="&st2;" d="M84.782,11.133h9.915" />
<path style="&st2;" d="M66.014,11.133v7.082h4.957v-7.082" />
<path style="&st2;" d="M87.26,11.133v7.082h4.958v-7.082" />
<path style="&st2;" d="M41.581,23.881h9.915" />
<path style="&st2;" d="M63.535,23.881h9.915" />
<path style="&st2;" d="M84.782,23.881h9.915" />
<path style="&st2;" d="M106.737,23.881h9.915" />
<path style="&st1;" d="M41.581,25.298v1.416h4.816v-1.416" />
<path style="&st1;" d="M111.836,25.298v1.416h4.816v-1.416" />
<path style="&st1;" d="M67.076,2.635V0.567h2.833v2.068" />
<path style="&st1;" d="M88.323,2.635V0.567h2.833v2.068" />
<path style="&st1;" d="M46.538,32.38h2.833" />
<path style="&st1;" d="M108.861,32.38h2.833" />
<path style="&st2;" d="M70.617,35.212v-5.666" />
<path style="&st2;" d="M87.615,35.212v-5.666" />
<path style="&st2;" d="M72.6,32.38h13.031" />
<path style="&st2;" d="M74.017,29.547v2.833" />
<path style="&st2;" d="M84.215,29.547v2.833" />
<path style="&st2;" d="M70.617,29.547h3.399" />
<path style="&st2;" d="M84.215,29.547h3.399" />
<path style="&st2;" d="M68.635,35.212V28.13h20.963v7.082" />
<path style="&st2;" d="M89.598,29.547h19.263" />
<path style="&st2;" d="M49.371,29.547h19.264" />
<path style="&st2;" d="M92.997,29.547v2.833h-1.417v2.833" />
<path style="&st2;" d="M65.235,29.547v2.833h1.417v2.833" />
<path style="&st2;" d="M89.598,25.298v2.833" />
<path style="&st2;" d="M68.635,25.298v2.833" />
<path style="&st2;" d="M73.45,25.298h11.332" />
<path style="&st1;" d="M44.414,2.635h22.663" />
<path style="&st2;" d="M67.076,2.635h2.833" />
<path style="&st1;" d="M69.909,2.635h18.414" />
<path style="&st2;" d="M88.323,2.635h2.833" />
<path style="&st1;" d="M49.371,32.38v-7.082h-2.974" />
<path style="&st1;" d="M41.581,29.547h4.958v2.833" />
<path style="&st2;" d="M31.807,27.564h6.94" />
<path style="&st1;" d="M28.974,27.564h2.833" />
<path style="&st2;" d="M17.564,27.564h11.411" />
<path style="&st1;" d="M14.731,27.564h2.833" />
<path style="&st2;" d="M10.482,27.564h4.249" />
<path style="&st1;" d="M108.861,32.38v-7.082h2.975" />
<path style="&st1;" d="M116.652,29.547h-4.958v2.833" />
<path style="&st2;" d="M126.425,27.564h-6.941" />
<path style="&st1;" d="M129.258,27.564h-2.833" />
<path style="&st2;" d="M140.669,27.564h-11.411" />
<path style="&st1;" d="M143.501,27.564h-2.833" />
<path style="&st2;" d="M147.751,27.564h-4.25" />
<path style="&st2;" d="M147.751,92.436h-4.25" />
<path style="&st1;" d="M143.501,92.436h-2.833" />
<path style="&st2;" d="M140.669,92.436h-11.411" />
<path style="&st1;" d="M129.258,92.436h-2.833" />
<path style="&st2;" d="M126.425,92.436h-6.941" />
<path style="&st2;" d="M111.694,84.788v2.833" />
<path style="&st1;" d="M108.861,90.453v4.25h2.975" />
<path style="&st1;" d="M69.909,117.365h18.414" />
<path style="&st2;" d="M88.323,117.365h2.833" />
<path style="&st1;" d="M44.414,117.365h22.663" />
<path style="&st2;" d="M67.076,117.365h2.833" />
<path style="&st1;" d="M49.371,90.453v4.25h-2.974" />
<path style="&st2;" d="M46.538,84.788v2.833" />
<path style="&st2;" d="M31.807,92.436h6.94" />
<path style="&st1;" d="M28.974,92.436h2.833" />
<path style="&st2;" d="M17.564,92.436h11.411" />
<path style="&st1;" d="M14.731,92.436h2.833" />
<path style="&st2;" d="M10.482,92.436h4.249" />
<g ewd:pinNo="16">
<text transform="matrix(0.88 0 0 1 41.0823 50.6377)"><tspan x="0" y="0" style="&st3; &st0;">1</tspan></text>
<text transform="matrix(0.88 0 0 1 44.4402 50.6377)"><tspan x="0" y="0" style="&st3; &st0;">6</tspan></text>
</g>
<g ewd:pinNo="15">
<text transform="matrix(0.88 0 0 1 50.9973 50.6377)"><tspan x="0" y="0" style="&st3; &st0;">1</tspan></text>
<text transform="matrix(0.88 0 0 1 54.3552 50.6377)"><tspan x="0" y="0" style="&st3; &st0;">5</tspan></text>
</g>
<g ewd:pinNo="14">
<text transform="matrix(0.88 0 0 1 60.9124 50.6377)"><tspan x="0" y="0" style="&st3; &st0;">1</tspan></text>
<text transform="matrix(0.88 0 0 1 64.2703 50.6377)"><tspan x="0" y="0" style="&st3; &st0;">4</tspan></text>
</g>
<g ewd:pinNo="13">
<text transform="matrix(0.88 0 0 1 70.8274 50.6377)"><tspan x="0" y="0" style="&st3; &st0;">1</tspan></text>
<text transform="matrix(0.88 0 0 1 74.1853 50.6377)"><tspan x="0" y="0" style="&st3; &st0;">3</tspan></text>
</g>
<g ewd:pinNo="12">
<text transform="matrix(0.88 0 0 1 80.7419 50.6377)"><tspan x="0" y="0" style="&st3; &st0;">1</tspan></text>
<text transform="matrix(0.88 0 0 1 84.1003 50.6377)"><tspan x="0" y="0" style="&st3; &st0;">2</tspan></text>
</g>
<g ewd:pinNo="11">
<text transform="matrix(0.88 0 0 1 90.657 50.6377)"><tspan x="0" y="0" style="&st3; &st0;">1</tspan></text>
<text transform="matrix(0.88 0 0 1 94.0154 50.6377)"><tspan x="0" y="0" style="&st3; &st0;">1</tspan></text>
</g>
<g ewd:pinNo="10">
<text transform="matrix(0.88 0 0 1 100.572 50.6377)"><tspan x="0" y="0" style="&st3; &st0;">1</tspan></text>
<text transform="matrix(0.88 0 0 1 103.9304 50.6377)"><tspan x="0" y="0" style="&st3; &st0;">0</tspan></text>
</g>
<g ewd:pinNo="9">
<text transform="matrix(0.88 0 0 1 112.1531 50.6377)"><tspan x="0" y="0" style="&st3; &st0;">9</tspan></text>
</g>
<g ewd:pinNo="8">
<text transform="matrix(0.88 0 0 1 42.7478 71.8843)"><tspan x="0" y="0" style="&st3; &st0;">8</tspan></text>
</g>
<g ewd:pinNo="7">
<text transform="matrix(0.88 0 0 1 52.6628 71.8843)"><tspan x="0" y="0" style="&st3; &st0;">7</tspan></text>
</g>
<g ewd:pinNo="6">
<text transform="matrix(0.88 0 0 1 62.5779 71.8843)"><tspan x="0" y="0" style="&st3; &st0;">6</tspan></text>
</g>
<g ewd:pinNo="5">
<text transform="matrix(0.88 0 0 1 72.4929 71.8843)"><tspan x="0" y="0" style="&st3; &st0;">5</tspan></text>
</g>
<g ewd:pinNo="4">
<text transform="matrix(0.88 0 0 1 82.408 71.8843)"><tspan x="0" y="0" style="&st3; &st0;">4</tspan></text>
</g>
<g ewd:pinNo="3">
<text transform="matrix(0.88 0 0 1 92.323 71.8843)"><tspan x="0" y="0" style="&st3; &st0;">3</tspan></text>
</g>
<g ewd:pinNo="2">
<text transform="matrix(0.88 0 0 1 102.238 71.8843)"><tspan x="0" y="0" style="&st3; &st0;">2</tspan></text>
</g>
<g ewd:pinNo="1">
<text transform="matrix(0.88 0 0 1 112.1531 71.8843)"><tspan x="0" y="0" style="&st3; &st0;">1</tspan></text>
</g>
</g>
</g>
</svg>
