﻿<?xml version="1.0"?>
<!-- Generator: Adobe Illustrator 10.0, SVG Export Plug-In . SVG Version: 3.0.0 Build 77)  -->
<!DOCTYPE svg PUBLIC "-//W3C//DTD SVG 1.0//EN" "http://www.w3.org/TR/2001/REC-SVG-20010904/DTD/svg10.dtd"[
<!ENTITY ns_flows "http://ns.adobe.com/Flows/1.0/">
<!ENTITY ns_svg "http://www.w3.org/2000/svg">
<!ENTITY ns_xlink "http://www.w3.org/1999/xlink">
<!ENTITY st0 "font-size:6.6349px;">
<!ENTITY st1 "fill:none;">
<!ENTITY st2 "stroke:#000000;">
<!ENTITY st3 "stroke-width:1.1331;">
<!ENTITY st4 "stroke-linecap:round;">
<!ENTITY st5 "stroke-linejoin:round;">
<!ENTITY st6 "stroke-width:0.8499;">
<!ENTITY st7 "font-family:'Arial';">
<!ENTITY st8 "stroke-width:1.4;">
<!ATTLIST svg
xmlns:a CDATA #FIXED "http://ns.adobe.com/AdobeSVGViewerExtensions/3.0/"
ewd:ver CDATA #IMPLIED
>
<!ATTLIST svg
xmlns:ewd CDATA #FIXED "http://shcl.co.jp/ewd"
xmlns:a CDATA #FIXED "http://ns.adobe.com/AdobeSVGViewerExtensions/3.0/"
ewd:ver CDATA #IMPLIED
>
<!ATTLIST g
xmlns:ewd CDATA #FIXED "http://shcl.co.jp/ewd"
ewd:pinNo CDATA #IMPLIED >
]>
<svg xmlns="&ns_svg;" xmlns:xlink="&ns_xlink;" ewd:ver="L2.1" xmlns:a="http://ns.adobe.com/AdobeSVGViewerExtensions/3.0/" width="522.911" height="145.19" viewBox="0 0 522.911 145.19" style="overflow:visible;enable-background:new 0 0 272.759 128.184" xml:space="preserve"  onload="call_execInitLoadProc_svg(&apos;connector&apos;)">
<script type="text/javascript" xlink:href="../../../../../system/js/ewd/fig/svgfig.js" />
<g id="レイヤー_1" transform="translate(0,17.008)">
<g>
<path style="&st1;&st2;&st6;&st4;&st5;" d="M124.34,55.38c0-3.129-2.537-5.666-5.666-5.666" />
<path style="&st1;&st2;&st6;&st4;&st5;" d="M100.26,100.706c0-1.565-1.268-2.833-2.833-2.833" />
<path style="&st1;&st2;&st6;&st4;&st5;" d="M97.427,104.955c1.565,0,2.833-1.268,2.833-2.833" />
<path style="&st1;&st2;&st6;&st4;&st5;" d="M149.836,49.714c-3.129,0-5.666,2.537-5.666,5.666" />
<path style="&st1;&st2;&st6;&st4;&st5;" d="M158.334,102.122c0,1.564,1.269,2.833,2.833,2.833" />
<path style="&st1;&st2;&st6;&st4;&st5;" d="M161.167,97.873c-1.564,0-2.833,1.268-2.833,2.833" />
<path style="&st1;&st2;&st6;&st4;&st5;" d="M205.076,52.547c0-1.564-1.269-2.833-2.833-2.833" />
<path style="&st1;&st2;&st6;&st4;&st5;" d="M149.836,44.048c-4.694,0-8.499,3.805-8.499,8.499" />
<path style="&st1;&st2;&st6;&st4;&st5;" d="M127.173,52.547c0-4.694-3.805-8.499-8.499-8.499" />
<path style="&st1;&st2;&st6;&st4;&st5;" d="M70.515,44.048c-4.693,0-8.499,3.805-8.499,8.499" />
<path style="&st1;&st2;&st6;&st4;&st5;" d="M210.742,52.547c0-4.694-3.805-8.499-8.499-8.499" />
<path style="&st1;&st2;&st6;&st4;&st5;" d="M86.026,34.697c-10.627-0.377-19.699,1.077-29.675,4.758" />
<path style="&st1;&st2;&st6;&st4;&st5;" d="M56.351,24.218C42.287,25.596,31.728,37.24,31.728,51.371" />
<path style="&st1;&st2;&st6;&st4;&st5;" d="M53.518,27.544C42.257,30.14,34.559,39.814,34.559,51.371" />
<path style="&st1;&st2;&st6;&st4;&st5;" d="M45.892,20.396c-15.646,0-28.329,12.684-28.329,28.329" />
<path style="&st1;&st2;&st6;&st4;&st5;" d="M45.892,14.731c-17.21,0-31.162,13.952-31.162,31.162" />
<path style="&st1;&st2;&st6;&st4;&st5;" d="M17.564,82.292c0,9.236,3.943,17.121,11.332,22.663" />
<path style="&st1;&st2;&st6;&st4;&st5;" d="M14.731,82.292c0,10.767,4.917,19.954,13.875,25.927" />
<path style="&st1;&st2;&st6;&st4;&st5;" d="M130.006,52.547c0-2.086-0.475-3.859-1.518-5.666" />
<path style="&st1;&st2;&st6;&st4;&st5;" d="M140.023,46.881c-1.043,1.807-1.518,3.58-1.518,5.666" />
<path style="&st1;&st2;&st6;&st4;&st5;" d="M70.515,49.714c-1.564,0-2.833,1.269-2.833,2.833" />
<path style="&st1;&st2;&st6;&st4;&st5;" d="M238.198,51.371c0-11.556-7.697-21.229-18.958-23.826" />
<path style="&st1;&st2;&st6;&st4;&st5;" d="M241.031,51.371c0-14.131-10.56-25.775-24.623-27.153" />
<path style="&st1;&st2;&st6;&st4;&st5;" d="M216.408,39.456c-9.976-3.681-19.048-5.135-29.674-4.758" />
<path style="&st1;&st2;&st6;&st4;&st5;" d="M243.864,104.955c7.389-5.542,11.332-13.427,11.332-22.663" />
<path style="&st1;&st2;&st6;&st4;&st5;" d="M255.196,48.725c0-15.645-12.684-28.329-28.329-28.329" />
<path style="&st1;&st2;&st6;&st4;&st5;" d="M258.028,45.893c0-17.21-13.952-31.162-31.161-31.162" />
<path style="&st1;&st2;&st6;&st4;&st5;" d="M244.153,108.218c8.958-5.973,13.875-15.16,13.875-25.926" />
<path style="&st1;&st2;&st3;&st4;&st5;" d="M272.193,45.893c0-25.032-20.293-45.326-45.326-45.326" />
<path style="&st1;&st2;&st3;&st4;&st5;" d="M226.867,127.618c25.032,0,45.326-20.293,45.326-45.326" />
<path style="&st1;&st2;&st3;&st4;&st5;" d="M0.567,82.292c0,25.032,20.293,45.326,45.326,45.326" />
<path style="&st1;&st2;&st3;&st4;&st5;" d="M45.892,0.567C20.86,0.567,0.567,20.86,0.567,45.893" />
<path style="&st1;&st2;&st6;&st4;&st5;" d="M154.085,73.793v25.496H104.51V61.045h9.915v12.748H154.085" />
<path style="&st1;&st2;&st6;&st4;&st5;" d="M154.085,86.541H104.51" />
<path style="&st1;&st2;&st6;&st4;&st5;" d="M114.425,73.793h-9.915" />
<path style="&st1;&st2;&st6;&st4;&st5;" d="M144.17,99.289V73.793" />
<path style="&st1;&st2;&st6;&st4;&st5;" d="M134.255,99.289V73.793" />
<path style="&st1;&st2;&st6;&st4;&st5;" d="M124.34,99.289V73.793" />
<path style="&st1;&st2;&st6;&st4;&st5;" d="M114.425,99.289V73.793" />
<path style="&st1;&st2;&st6;&st4;&st5;" d="M154.085,73.793h42.493" />
<path style="&st1;&st2;&st6;&st4;&st5;" d="M154.085,73.793V56.796" />
<path style="&st1;&st2;&st6;&st4;&st5;" d="M154.085,56.796h42.493v33.995h-42.493" />
<path style="&st1;&st2;&st6;&st4;&st5;" d="M182.413,90.791V56.796" />
<path style="&st1;&st2;&st6;&st4;&st5;" d="M168.249,90.791V56.796" />
<path style="&st1;&st2;&st6;&st4;&st5;" d="M104.51,61.045v-4.25" />
<path style="&st1;&st2;&st6;&st4;&st5;" d="M104.51,56.796H76.181" />
<path style="&st1;&st2;&st6;&st4;&st5;" d="M104.51,90.791H76.181" />
<path style="&st1;&st2;&st6;&st4;&st5;" d="M90.345,90.791V56.796" />
<path style="&st1;&st2;&st6;&st4;&st5;" d="M76.181,90.791V56.796" />
<path style="&st1;&st2;&st6;&st4;&st5;" d="M104.51,73.793H76.181" />
<path style="&st1;&st2;&st6;&st4;&st5;" d="M118.674,49.714H70.515" />
<path style="&st1;&st2;&st6;&st4;&st5;" d="M70.515,97.873v-7.082" />
<path style="&st1;&st2;&st6;&st4;&st5;" d="M202.243,97.873h-41.076" />
<path style="&st1;&st2;&st6;&st4;&st5;" d="M70.515,97.873h26.912" />
<path style="&st1;&st2;&st6;&st4;&st5;" d="M67.683,106.938V52.547" />
<path style="&st1;&st2;&st6;&st4;&st5;" d="M100.26,100.706v1.417" />
<path style="&st1;&st2;&st6;&st4;&st5;" d="M202.243,97.873v-7.082" />
<path style="&st1;&st2;&st6;&st4;&st5;" d="M205.076,90.791h-2.833" />
<path style="&st1;&st2;&st6;&st4;&st5;" d="M149.836,49.714h52.408" />
<path style="&st1;&st2;&st6;&st4;&st5;" d="M144.17,65.294h-19.83" />
<path style="&st1;&st2;&st6;&st4;&st5;" d="M205.076,106.938V52.547" />
<path style="&st1;&st2;&st6;&st4;&st5;" d="M144.17,55.38v9.915" />
<path style="&st1;&st2;&st6;&st4;&st5;" d="M124.34,65.294V55.38" />
<path style="&st1;&st2;&st6;&st4;&st5;" d="M158.334,100.706v1.417" />
<path style="&st1;&st2;&st6;&st4;&st5;" d="M205.076,104.955H67.683" />
<path style="&st1;&st2;&st6;&st4;&st5;" d="M67.683,90.791h2.833" />
<path style="&st1;&st2;&st6;&st4;&st5;" d="M141.337,52.547v9.915" />
<path style="&st1;&st2;&st6;&st4;&st5;" d="M141.337,62.462h-14.165" />
<path style="&st1;&st2;&st6;&st4;&st5;" d="M127.173,62.462v-9.915" />
<path style="&st1;&st2;&st6;&st4;&st5;" d="M202.243,44.048h-22.663" />
<path style="&st1;&st2;&st6;&st4;&st5;" d="M173.915,44.048h-24.079" />
<path style="&st1;&st2;&st6;&st4;&st5;" d="M169.666,24.218h16.997" />
<path style="&st1;&st2;&st6;&st4;&st5;" d="M179.581,49.714v-19.83h-5.666v14.165" />
<path style="&st1;&st2;&st6;&st4;&st5;" d="M186.663,34.7V24.218" />
<path style="&st1;&st2;&st6;&st4;&st5;" d="M62.017,68.127V52.547" />
<path style="&st1;&st2;&st6;&st4;&st5;" d="M70.515,44.048h22.663" />
<path style="&st1;&st2;&st6;&st4;&st5;" d="M98.844,44.048h19.83" />
<path style="&st1;&st2;&st6;&st4;&st5;" d="M103.094,24.218H86.096" />
<path style="&st1;&st2;&st6;&st4;&st5;" d="M93.178,49.714v-19.83h5.666v14.165" />
<path style="&st1;&st2;&st6;&st4;&st5;" d="M86.096,34.7V24.218" />
<path style="&st1;&st2;&st6;&st4;&st5;" d="M100.26,109.771v-4.816" />
<path style="&st1;&st2;&st6;&st4;&st5;" d="M158.334,109.771v-4.816" />
<path style="&st1;&st2;&st6;&st4;&st5;" d="M100.26,109.771H70.515v-4.816" />
<path style="&st1;&st2;&st6;&st4;&st5;" d="M158.334,109.771h43.909v-4.816" />
<path style="&st1;&st2;&st6;&st4;&st5;" d="M205.076,106.938h-2.833" />
<path style="&st1;&st2;&st6;&st4;&st5;" d="M199.411,106.938h-41.077" />
<path style="&st1;&st2;&st6;&st4;&st5;" d="M199.411,109.771v-4.816" />
<path style="&st1;&st2;&st6;&st4;&st5;" d="M73.348,109.771v-4.816" />
<path style="&st1;&st2;&st6;&st4;&st5;" d="M100.26,106.938H73.348" />
<path style="&st1;&st2;&st6;&st4;&st5;" d="M70.515,106.938h-2.833" />
<path style="&st1;&st2;&st6;&st4;&st5;" d="M34.561,73.793h21.791v-5.666h5.666" />
<path style="&st1;&st2;&st6;&st4;&st5;" d="M56.351,39.456V24.218" />
<path style="&st1;&st2;&st6;&st4;&st5;" d="M53.518,70.96V27.544" />
<path style="&st1;&st2;&st6;&st4;&st5;" d="M34.561,51.371V70.96h0.544" />
<path style="&st1;&st2;&st6;&st4;&st5;" d="M35.105,70.96h18.414" />
<path style="&st1;&st2;&st6;&st4;&st5;" d="M31.728,51.371H20.397v22.422h11.332" />
<path style="&st1;&st2;&st6;&st4;&st5;" d="M31.728,73.793V51.371" />
<path style="&st1;&st2;&st6;&st4;&st5;" d="M35.105,73.793v5.666h8.499v-5.666" />
<path style="&st1;&st2;&st6;&st4;&st5;" d="M17.564,82.292h35.955v-8.499" />
<path style="&st1;&st2;&st6;&st4;&st5;" d="M53.518,24.646v-4.25h-7.626" />
<path style="&st1;&st2;&st6;&st4;&st5;" d="M110.884,44.048v-5.666h50.992v5.666" />
<path style="&st1;&st2;&st6;&st4;&st5;" d="M110.884,41.215h50.992" />
<path style="&st1;&st2;&st6;&st4;&st5;" d="M128.589,38.382V35.55h11.332v2.833" />
<path style="&st1;&st2;&st6;&st4;&st5;" d="M169.666,44.048V14.731" />
<path style="&st1;&st2;&st6;&st4;&st5;" d="M103.094,44.048V14.731" />
<path style="&st1;&st2;&st6;&st4;&st5;" d="M45.892,14.731h57.201" />
<path style="&st1;&st2;&st6;&st4;&st5;" d="M17.564,82.292V48.725" />
<path style="&st1;&st2;&st6;&st4;&st5;" d="M14.731,82.292V45.893" />
<path style="&st1;&st2;&st6;&st4;&st5;" d="M28.895,107.788v-2.833" />
<path style="&st1;&st2;&st6;&st4;&st5;" d="M130.006,52.547v5.666h8.499v-5.666" />
<path style="&st1;&st2;&st6;&st4;&st5;" d="M140.023,46.881h-11.536" />
<path style="&st1;&st2;&st6;&st4;&st5;" d="M238.198,73.793h-21.79v-5.666h-5.666" />
<path style="&st1;&st2;&st6;&st4;&st5;" d="M241.031,73.793V51.371" />
<path style="&st1;&st2;&st6;&st4;&st5;" d="M237.654,70.96H219.24" />
<path style="&st1;&st2;&st6;&st4;&st5;" d="M238.198,51.371V70.96h-0.544" />
<path style="&st1;&st2;&st6;&st4;&st5;" d="M219.24,70.96V27.544" />
<path style="&st1;&st2;&st6;&st4;&st5;" d="M210.742,68.127V52.547" />
<path style="&st1;&st2;&st6;&st4;&st5;" d="M216.408,39.456V24.218" />
<path style="&st1;&st2;&st6;&st4;&st5;" d="M241.031,51.371h11.332v22.422h-11.332" />
<path style="&st1;&st2;&st6;&st4;&st5;" d="M237.654,73.793v5.666h-8.499v-5.666" />
<path style="&st1;&st2;&st6;&st4;&st5;" d="M255.196,82.292H219.24v-8.499" />
<path style="&st1;&st2;&st6;&st4;&st5;" d="M219.24,24.646v-4.25h7.626" />
<path style="&st1;&st2;&st6;&st4;&st5;" d="M226.867,14.731h-57.201" />
<path style="&st1;&st2;&st6;&st4;&st5;" d="M255.196,82.292V48.725" />
<path style="&st1;&st2;&st6;&st4;&st5;" d="M258.028,82.292V45.893" />
<path style="&st1;&st2;&st6;&st4;&st5;" d="M243.864,107.788v-2.833" />
<path style="&st1;&st2;&st3;&st4;&st5;" d="M272.193,82.292V45.893" />
<path style="&st1;&st2;&st3;&st4;&st5;" d="M0.567,82.292V45.893" />
<path style="&st1;&st2;&st3;&st4;&st5;" d="M119.737,0.567v11.331h33.286V0.567" />
<path style="&st1;&st2;&st3;&st4;&st5;" d="M226.867,0.567h-73.844" />
<path style="&st1;&st2;&st3;&st4;&st5;" d="M119.737,0.567H45.892" />
<path style="&st1;&st2;&st3;&st4;&st5;" d="M119.737,127.618v-11.332h33.286v11.332" />
<path style="&st1;&st2;&st3;&st4;&st5;" d="M226.867,127.618h-73.844" />
<path style="&st1;&st2;&st3;&st4;&st5;" d="M119.737,127.618H45.892" />
<g ewd:pinNo="3">
<text transform="matrix(0.88 0 0 1 107.8015 69.3887)"><tspan x="0" y="0" style="&st7; &st0;">3</tspan></text>
</g>
<g ewd:pinNo="7">
<text transform="matrix(0.88 0 0 1 107.8015 82.1362)"><tspan x="0" y="0" style="&st7; &st0;">7</tspan></text>
</g>
<g ewd:pinNo="8">
<text transform="matrix(0.88 0 0 1 117.7166 82.1362)"><tspan x="0" y="0" style="&st7; &st0;">8</tspan></text>
</g>
<g ewd:pinNo="9">
<text transform="matrix(0.88 0 0 1 127.6316 82.1362)"><tspan x="0" y="0" style="&st7; &st0;">9</tspan></text>
</g>
<g ewd:pinNo="10">
<text transform="matrix(0.88 0 0 1 135.8811 82.1362)"><tspan x="0" y="0" style="&st7; &st0;">1</tspan></text>
<text transform="matrix(0.88 0 0 1 139.239 82.1362)"><tspan x="0" y="0" style="&st7; &st0;">0</tspan></text>
</g>
<g ewd:pinNo="11">
<text transform="matrix(0.88 0 0 1 145.7961 82.1362)"><tspan x="0" y="0" style="&st7; &st0;">1</tspan></text>
<text transform="matrix(0.88 0 0 1 149.1541 82.1362)"><tspan x="0" y="0" style="&st7; &st0;">1</tspan></text>
</g>
<g ewd:pinNo="14">
<text transform="matrix(0.88 0 0 1 106.136 94.8843)"><tspan x="0" y="0" style="&st7; &st0;">1</tspan></text>
<text transform="matrix(0.88 0 0 1 109.4939 94.8843)"><tspan x="0" y="0" style="&st7; &st0;">4</tspan></text>
</g>
<g ewd:pinNo="15">
<text transform="matrix(0.88 0 0 1 116.051 94.8843)"><tspan x="0" y="0" style="&st7; &st0;">1</tspan></text>
<text transform="matrix(0.88 0 0 1 119.4089 94.8843)"><tspan x="0" y="0" style="&st7; &st0;">5</tspan></text>
</g>
<g ewd:pinNo="16">
<text transform="matrix(0.88 0 0 1 125.9661 94.8843)"><tspan x="0" y="0" style="&st7; &st0;">1</tspan></text>
<text transform="matrix(0.88 0 0 1 129.324 94.8843)"><tspan x="0" y="0" style="&st7; &st0;">6</tspan></text>
</g>
<g ewd:pinNo="17">
<text transform="matrix(0.88 0 0 1 135.8811 94.8843)"><tspan x="0" y="0" style="&st7; &st0;">1</tspan></text>
<text transform="matrix(0.88 0 0 1 139.239 94.8843)"><tspan x="0" y="0" style="&st7; &st0;">7</tspan></text>
</g>
<g ewd:pinNo="18">
<text transform="matrix(0.88 0 0 1 145.7961 94.8843)"><tspan x="0" y="0" style="&st7; &st0;">1</tspan></text>
<text transform="matrix(0.88 0 0 1 149.1541 94.8843)"><tspan x="0" y="0" style="&st7; &st0;">8</tspan></text>
</g>
<g ewd:pinNo="21">
<text transform="matrix(0.88 0 0 1 186.1643 84.2612)"><tspan x="0" y="0" style="&st7; &st0;">2</tspan></text>
<text transform="matrix(0.88 0 0 1 189.5222 84.2612)"><tspan x="0" y="0" style="&st7; &st0;">1</tspan></text>
</g>
<g ewd:pinNo="20">
<text transform="matrix(0.88 0 0 1 171.9998 84.2612)"><tspan x="0" y="0" style="&st7; &st0;">2</tspan></text>
<text transform="matrix(0.88 0 0 1 175.3582 84.2612)"><tspan x="0" y="0" style="&st7; &st0;">0</tspan></text>
</g>
<g ewd:pinNo="6">
<text transform="matrix(0.88 0 0 1 187.8298 67.2637)"><tspan x="0" y="0" style="&st7; &st0;">6</tspan></text>
</g>
<g ewd:pinNo="4">
<text transform="matrix(0.88 0 0 1 159.5012 67.2637)"><tspan x="0" y="0" style="&st7; &st0;">4</tspan></text>
</g>
<g ewd:pinNo="5">
<text transform="matrix(0.88 0 0 1 173.6658 67.2637)"><tspan x="0" y="0" style="&st7; &st0;">5</tspan></text>
</g>
<g ewd:pinNo="19">
<text transform="matrix(0.88 0 0 1 157.8357 84.2612)"><tspan x="0" y="0" style="&st7; &st0;">1</tspan></text>
<text transform="matrix(0.88 0 0 1 161.1936 84.2612)"><tspan x="0" y="0" style="&st7; &st0;">9</tspan></text>
</g>
<g ewd:pinNo="1">
<text transform="matrix(0.88 0 0 1 81.5979 67.2637)"><tspan x="0" y="0" style="&st7; &st0;">1</tspan></text>
</g>
<g ewd:pinNo="2">
<text transform="matrix(0.88 0 0 1 95.762 67.2637)"><tspan x="0" y="0" style="&st7; &st0;">2</tspan></text>
</g>
<g ewd:pinNo="12">
<text transform="matrix(0.88 0 0 1 79.9319 84.2612)"><tspan x="0" y="0" style="&st7; &st0;">1</tspan></text>
<text transform="matrix(0.88 0 0 1 83.2903 84.2612)"><tspan x="0" y="0" style="&st7; &st0;">2</tspan></text>
</g>
<g ewd:pinNo="13">
<text transform="matrix(0.88 0 0 1 94.0964 84.2612)"><tspan x="0" y="0" style="&st7; &st0;">1</tspan></text>
<text transform="matrix(0.88 0 0 1 97.4543 84.2612)"><tspan x="0" y="0" style="&st7; &st0;">3</tspan></text>
</g>
</g>
</g>
<g id="レイヤー_1" transform="translate(292.6,17.008)">
<g>
<path style="&st1;&st2;&st3;&st4;&st5;" d="M0.567,71.496c0,4.313,1.174,7.986,3.675,11.5" />
<path style="&st1;&st2;&st3;&st4;&st5;" d="M226.068,82.994c2.501-3.513,3.674-7.186,3.674-11.499" />
<path style="&st1;&st2;&st6;&st4;&st5;" d="M132.861,37.394c-1.564,0-2.833,1.269-2.833,2.833" />
<path style="&st1;&st2;&st6;&st4;&st5;" d="M132.861,34.561c-3.129,0-5.666,2.537-5.666,5.666" />
<path style="&st1;&st2;&st6;&st4;&st5;" d="M154.108,82.72c-1.564,0-2.833,1.268-2.833,2.833" />
<path style="&st1;&st2;&st6;&st4;&st5;" d="M151.275,86.969c0,1.564,1.269,2.833,2.833,2.833" />
<path style="&st1;&st2;&st6;&st4;&st5;" d="M107.365,40.227c0-3.129-2.537-5.666-5.666-5.666" />
<path style="&st1;&st2;&st6;&st4;&st5;" d="M104.532,40.227c0-1.564-1.268-2.833-2.833-2.833" />
<path style="&st1;&st2;&st6;&st4;&st5;" d="M90.368,89.802c1.564,0,2.833-1.269,2.833-2.833" />
<path style="&st1;&st2;&st6;&st4;&st5;" d="M93.201,85.552c0-1.564-1.268-2.833-2.833-2.833" />
<path style="&st1;&st2;&st6;&st4;&st5;" d="M49.292,34.561c-1.564,0-2.833,1.268-2.833,2.833" />
<path style="&st1;&st2;&st6;&st4;&st5;" d="M110.198,37.394c0-4.693-3.805-8.499-8.499-8.499" />
<path style="&st1;&st2;&st6;&st4;&st5;" d="M52.125,28.895c-4.694,0-8.499,3.805-8.499,8.499" />
<path style="&st1;&st2;&st6;&st4;&st5;" d="M64.872,17.564c-8.552-0.304-15.831,0.552-24.079,2.833" />
<path style="&st1;&st2;&st6;&st4;&st5;" d="M64.872,11.895c-8.541-0.283-15.802,0.512-24.079,2.638" />
<path style="&st1;&st2;&st3;&st4;&st5;" d="M229.745,51.558c0-28.161-22.83-50.991-50.991-50.991" />
<path style="&st1;&st2;&st3;&st4;&st5;" d="M51.558,0.567c-28.161,0-50.991,22.83-50.991,50.991" />
<path style="&st1;&st2;&st6;&st4;&st5;" d="M40.227,9.065c-14.081,0-25.496,11.415-25.496,25.496" />
<path style="&st1;&st2;&st3;&st4;&st5;" d="M190.085,105.099c15.084-2.273,27.138-9.677,35.985-22.104" />
<path style="&st1;&st2;&st6;&st4;&st5;" d="M186.685,37.394c0-4.693-3.805-8.499-8.499-8.499" />
<path style="&st1;&st2;&st6;&st4;&st5;" d="M189.518,20.396c-8.248-2.281-15.527-3.137-24.079-2.833" />
<path style="&st1;&st2;&st6;&st4;&st5;" d="M189.518,14.533c-8.345-2.144-15.669-2.938-24.28-2.632" />
<path style="&st1;&st2;&st6;&st4;&st5;" d="M215.581,34.561c0-14.081-11.415-25.496-25.496-25.496" />
<path style="&st1;&st2;&st6;&st4;&st5;" d="M132.861,28.895c-4.693,0-8.499,3.805-8.499,8.499" />
<path style="&st1;&st2;&st3;&st4;&st5;" d="M4.244,82.994c8.847,12.426,20.9,19.83,35.983,22.104" />
<path style="&st1;&st2;&st6;&st4;&st5;" d="M183.853,37.394c0-1.564-1.269-2.833-2.833-2.833" />
<path style="&st1;&st2;&st6;&st4;&st5;" d="M14.731,77.054h14.731" />
<path style="&st1;&st2;&st6;&st4;&st5;" d="M37.96,81.68v-1.983" />
<path style="&st1;&st2;&st6;&st4;&st5;" d="M100.85,20.396h11.332v8.499h11.331v-8.499h5.949" />
<path style="&st1;&st2;&st6;&st4;&st5;" d="M29.462,75.071l8.499,4.626" />
<path style="&st1;&st2;&st6;&st4;&st5;" d="M97.45,58.64v25.496h49.575V45.893h-9.915V58.64H97.45" />
<path style="&st1;&st2;&st6;&st4;&st5;" d="M83.853,5.383h62.606v15.014" />
<path style="&st1;&st2;&st6;&st4;&st5;" d="M97.45,71.388h49.575" />
<path style="&st1;&st2;&st6;&st4;&st5;" d="M137.111,58.64h9.915" />
<path style="&st1;&st2;&st6;&st4;&st5;" d="M29.462,77.054l8.499,4.626" />
<path style="&st1;&st2;&st6;&st4;&st5;" d="M107.365,84.136V58.64" />
<path style="&st1;&st2;&st6;&st4;&st5;" d="M117.281,84.136V58.64" />
<path style="&st1;&st2;&st6;&st4;&st5;" d="M127.196,84.136V58.64" />
<path style="&st1;&st2;&st6;&st4;&st5;" d="M137.111,84.136V58.64" />
<path style="&st1;&st2;&st6;&st4;&st5;" d="M43.626,58.64V37.394" />
<path style="&st1;&st2;&st6;&st4;&st5;" d="M14.731,77.054H3.399V58.64h40.227" />
<path style="&st1;&st2;&st6;&st4;&st5;" d="M14.731,82.72v-5.666" />
<path style="&st1;&st2;&st6;&st4;&st5;" d="M40.227,96.601h149.858" />
<path style="&st1;&st2;&st6;&st4;&st5;" d="M14.731,82.72l25.496,13.881" />
<path style="&st1;&st2;&st6;&st4;&st5;" d="M97.45,58.64H54.957" />
<path style="&st1;&st2;&st6;&st4;&st5;" d="M97.45,58.64V41.643" />
<path style="&st1;&st2;&st6;&st4;&st5;" d="M97.45,41.643H54.957v33.994H97.45" />
<path style="&st1;&st2;&st6;&st4;&st5;" d="M69.122,75.637V41.643" />
<path style="&st1;&st2;&st6;&st4;&st5;" d="M83.286,75.637V41.643" />
<path style="&st1;&st2;&st6;&st4;&st5;" d="M44.476,93.768h141.36" />
<path style="&st1;&st2;&st6;&st4;&st5;" d="M46.459,91.785h137.394" />
<path style="&st1;&st2;&st6;&st4;&st5;" d="M147.026,45.893v-4.25" />
<path style="&st1;&st2;&st6;&st4;&st5;" d="M147.026,41.643h28.329" />
<path style="&st1;&st2;&st6;&st4;&st5;" d="M147.026,75.637h28.329" />
<path style="&st1;&st2;&st6;&st4;&st5;" d="M161.19,75.637V41.643" />
<path style="&st1;&st2;&st6;&st4;&st5;" d="M175.354,75.637V41.643" />
<path style="&st1;&st2;&st6;&st4;&st5;" d="M147.026,58.64h28.329" />
<path style="&st1;&st2;&st6;&st4;&st5;" d="M132.861,34.561h48.159" />
<path style="&st1;&st2;&st6;&st4;&st5;" d="M104.532,40.227v12.748" />
<path style="&st1;&st2;&st6;&st4;&st5;" d="M132.861,37.394h48.159" />
<path style="&st1;&st2;&st6;&st4;&st5;" d="M104.532,52.975h25.496" />
<path style="&st1;&st2;&st6;&st4;&st5;" d="M130.028,52.975V40.227" />
<path style="&st1;&st2;&st6;&st4;&st5;" d="M181.02,82.72v-7.083" />
<path style="&st1;&st2;&st6;&st4;&st5;" d="M101.699,37.394H49.292" />
<path style="&st1;&st2;&st6;&st4;&st5;" d="M49.292,82.72h41.077" />
<path style="&st1;&st2;&st6;&st4;&st5;" d="M181.02,82.72h-26.912" />
<path style="&st1;&st2;&st6;&st4;&st5;" d="M183.853,91.785V37.394" />
<path style="&st1;&st2;&st6;&st4;&st5;" d="M151.275,85.552v1.417" />
<path style="&st1;&st2;&st6;&st4;&st5;" d="M49.292,82.72v-7.083" />
<path style="&st1;&st2;&st6;&st4;&st5;" d="M49.292,41.643v-4.25" />
<path style="&st1;&st2;&st6;&st4;&st5;" d="M46.459,41.643h2.833" />
<path style="&st1;&st2;&st6;&st4;&st5;" d="M46.459,75.637h2.833" />
<path style="&st1;&st2;&st6;&st4;&st5;" d="M101.699,34.561H49.292" />
<path style="&st1;&st2;&st6;&st4;&st5;" d="M107.365,50.142h19.83" />
<path style="&st1;&st2;&st6;&st4;&st5;" d="M46.459,91.785V37.394" />
<path style="&st1;&st2;&st6;&st4;&st5;" d="M107.365,40.227v9.915" />
<path style="&st1;&st2;&st6;&st4;&st5;" d="M127.196,50.142v-9.915" />
<path style="&st1;&st2;&st6;&st4;&st5;" d="M181.02,41.643v-4.25" />
<path style="&st1;&st2;&st6;&st4;&st5;" d="M93.201,85.552v1.417" />
<path style="&st1;&st2;&st6;&st4;&st5;" d="M46.459,89.802h137.394" />
<path style="&st1;&st2;&st6;&st4;&st5;" d="M183.853,41.643h-2.833" />
<path style="&st1;&st2;&st6;&st4;&st5;" d="M183.853,75.637h-2.833" />
<path style="&st1;&st2;&st6;&st4;&st5;" d="M29.462,75.071H5.383v-6.516h24.079v-2.833l8.499-2.833h5.666v-4.25" />
<path style="&st1;&st2;&st6;&st4;&st5;" d="M129.462,29.604v-9.207" />
<path style="&st1;&st2;&st6;&st4;&st5;" d="M137.96,28.895v-8.499" />
<path style="&st1;&st2;&st6;&st4;&st5;" d="M129.462,20.396h11.332v2.833h5.666v-2.833" />
<path style="&st1;&st2;&st6;&st4;&st5;" d="M110.198,37.394v9.915" />
<path style="&st1;&st2;&st6;&st4;&st5;" d="M92.351,28.895v-8.499" />
<path style="&st1;&st2;&st6;&st4;&st5;" d="M100.85,28.895v-8.499" />
<path style="&st1;&st2;&st6;&st4;&st5;" d="M110.198,47.309h14.164" />
<path style="&st1;&st2;&st6;&st4;&st5;" d="M124.363,47.309v-9.915" />
<path style="&st1;&st2;&st6;&st4;&st5;" d="M52.125,28.895h19.83" />
<path style="&st1;&st2;&st6;&st4;&st5;" d="M77.62,28.895h24.079" />
<path style="&st1;&st2;&st6;&st4;&st5;" d="M81.87,9.065H64.872" />
<path style="&st1;&st2;&st6;&st4;&st5;" d="M71.955,34.561v-19.83h5.666v14.164" />
<path style="&st1;&st2;&st6;&st4;&st5;" d="M64.872,17.564V9.065" />
<path style="&st1;&st2;&st6;&st4;&st5;" d="M14.731,58.64V34.561" />
<path style="&st1;&st2;&st3;&st4;&st5;" d="M0.567,71.496V51.558" />
<path style="&st1;&st2;&st6;&st4;&st5;" d="M83.853,5.383v17.847h5.666v-2.833h11.332" />
<path style="&st1;&st2;&st3;&st4;&st5;" d="M51.558,0.567h127.196" />
<path style="&st1;&st2;&st3;&st4;&st5;" d="M40.227,105.099h149.858" />
<path style="&st1;&st2;&st6;&st4;&st5;" d="M40.793,20.396V9.065" />
<path style="&st1;&st2;&st3;&st4;&st5;" d="M229.745,71.496V51.558" />
<path style="&st1;&st2;&st6;&st4;&st5;" d="M200.85,75.071l-8.499,4.626" />
<path style="&st1;&st2;&st6;&st4;&st5;" d="M40.793,9.065h-0.566" />
<path style="&st1;&st2;&st6;&st4;&st5;" d="M215.581,77.054H200.85" />
<path style="&st1;&st2;&st6;&st4;&st5;" d="M81.87,28.895V3.399h66.572v25.496" />
<path style="&st1;&st2;&st6;&st4;&st5;" d="M200.85,77.054l-8.499,4.626" />
<path style="&st1;&st2;&st6;&st4;&st5;" d="M186.685,58.64V37.394" />
<path style="&st1;&st2;&st6;&st4;&st5;" d="M215.581,77.054h11.331V58.64h-40.227" />
<path style="&st1;&st2;&st6;&st4;&st5;" d="M215.581,82.72v-5.666" />
<path style="&st1;&st2;&st6;&st4;&st5;" d="M215.581,82.72l-25.496,13.881" />
<path style="&st1;&st2;&st6;&st4;&st5;" d="M200.85,75.071h24.079v-6.516H200.85v-2.833l-8.499-2.833h-5.666v-4.25" />
<path style="&st1;&st2;&st6;&st4;&st5;" d="M178.187,28.895h-19.83" />
<path style="&st1;&st2;&st6;&st4;&st5;" d="M152.691,28.895h-19.83" />
<path style="&st1;&st2;&st6;&st4;&st5;" d="M148.442,9.065h16.998" />
<path style="&st1;&st2;&st6;&st4;&st5;" d="M158.357,34.561v-19.83h-5.666v14.164" />
<path style="&st1;&st2;&st6;&st4;&st5;" d="M215.581,58.64V34.561" />
<path style="&st1;&st2;&st6;&st4;&st5;" d="M189.518,20.396V9.065" />
<path style="&st1;&st2;&st6;&st4;&st5;" d="M165.439,17.564V9.065" />
<path style="&st1;&st2;&st6;&st4;&st5;" d="M192.351,81.68v-1.983" />
<g ewd:pinNo="3">
<text transform="matrix(0.88 0 0 1 140.4021 54.2354)"><tspan x="0" y="0" style="&st7; &st0;">3</tspan></text>
</g>
<g ewd:pinNo="7">
<text transform="matrix(0.88 0 0 1 140.4021 66.9834)"><tspan x="0" y="0" style="&st7; &st0;">7</tspan></text>
</g>
<g ewd:pinNo="8">
<text transform="matrix(0.88 0 0 1 130.4871 66.9834)"><tspan x="0" y="0" style="&st7; &st0;">8</tspan></text>
</g>
<g ewd:pinNo="9">
<text transform="matrix(0.88 0 0 1 120.572 66.9834)"><tspan x="0" y="0" style="&st7; &st0;">9</tspan></text>
</g>
<g ewd:pinNo="10">
<text transform="matrix(0.88 0 0 1 108.9915 66.9834)"><tspan x="0" y="0" style="&st7; &st0;">1</tspan></text>
<text transform="matrix(0.88 0 0 1 112.3494 66.9834)"><tspan x="0" y="0" style="&st7; &st0;">0</tspan></text>
</g>
<g ewd:pinNo="11">
<text transform="matrix(0.88 0 0 1 99.0764 66.9834)"><tspan x="0" y="0" style="&st7; &st0;">1</tspan></text>
<text transform="matrix(0.88 0 0 1 102.4343 66.9834)"><tspan x="0" y="0" style="&st7; &st0;">1</tspan></text>
</g>
<g ewd:pinNo="14">
<text transform="matrix(0.88 0 0 1 138.7366 79.7314)"><tspan x="0" y="0" style="&st7; &st0;">1</tspan></text>
<text transform="matrix(0.88 0 0 1 142.0945 79.7314)"><tspan x="0" y="0" style="&st7; &st0;">4</tspan></text>
</g>
<g ewd:pinNo="15">
<text transform="matrix(0.88 0 0 1 128.8215 79.7314)"><tspan x="0" y="0" style="&st7; &st0;">1</tspan></text>
<text transform="matrix(0.88 0 0 1 132.1794 79.7314)"><tspan x="0" y="0" style="&st7; &st0;">5</tspan></text>
</g>
<g ewd:pinNo="16">
<text transform="matrix(0.88 0 0 1 118.9065 79.7314)"><tspan x="0" y="0" style="&st7; &st0;">1</tspan></text>
<text transform="matrix(0.88 0 0 1 122.2644 79.7314)"><tspan x="0" y="0" style="&st7; &st0;">6</tspan></text>
</g>
<g ewd:pinNo="17">
<text transform="matrix(0.88 0 0 1 108.9915 79.7314)"><tspan x="0" y="0" style="&st7; &st0;">1</tspan></text>
<text transform="matrix(0.88 0 0 1 112.3494 79.7314)"><tspan x="0" y="0" style="&st7; &st0;">7</tspan></text>
</g>
<g ewd:pinNo="18">
<text transform="matrix(0.88 0 0 1 99.0764 79.7314)"><tspan x="0" y="0" style="&st7; &st0;">1</tspan></text>
<text transform="matrix(0.88 0 0 1 102.4343 79.7314)"><tspan x="0" y="0" style="&st7; &st0;">8</tspan></text>
</g>
<g ewd:pinNo="21">
<text transform="matrix(0.88 0 0 1 58.7083 69.1079)"><tspan x="0" y="0" style="&st7; &st0;">2</tspan></text>
<text transform="matrix(0.88 0 0 1 62.0662 69.1079)"><tspan x="0" y="0" style="&st7; &st0;">1</tspan></text>
</g>
<g ewd:pinNo="20">
<text transform="matrix(0.88 0 0 1 72.8723 69.1079)"><tspan x="0" y="0" style="&st7; &st0;">2</tspan></text>
<text transform="matrix(0.88 0 0 1 76.2307 69.1079)"><tspan x="0" y="0" style="&st7; &st0;">0</tspan></text>
</g>
<g ewd:pinNo="6">
<text transform="matrix(0.88 0 0 1 60.3738 52.1108)"><tspan x="0" y="0" style="&st7; &st0;">6</tspan></text>
</g>
<g ewd:pinNo="4">
<text transform="matrix(0.88 0 0 1 88.7024 52.1108)"><tspan x="0" y="0" style="&st7; &st0;">4</tspan></text>
</g>
<g ewd:pinNo="5">
<text transform="matrix(0.88 0 0 1 74.5383 52.1108)"><tspan x="0" y="0" style="&st7; &st0;">5</tspan></text>
</g>
<g ewd:pinNo="19">
<text transform="matrix(0.88 0 0 1 87.0369 69.1079)"><tspan x="0" y="0" style="&st7; &st0;">1</tspan></text>
<text transform="matrix(0.88 0 0 1 90.3948 69.1079)"><tspan x="0" y="0" style="&st7; &st0;">9</tspan></text>
</g>
<g ewd:pinNo="1">
<text transform="matrix(0.88 0 0 1 166.6062 52.1108)"><tspan x="0" y="0" style="&st7; &st0;">1</tspan></text>
</g>
<g ewd:pinNo="2">
<text transform="matrix(0.88 0 0 1 152.4417 52.1108)"><tspan x="0" y="0" style="&st7; &st0;">2</tspan></text>
</g>
<g ewd:pinNo="12">
<text transform="matrix(0.88 0 0 1 164.9407 69.1079)"><tspan x="0" y="0" style="&st7; &st0;">1</tspan></text>
<text transform="matrix(0.88 0 0 1 168.2986 69.1079)"><tspan x="0" y="0" style="&st7; &st0;">2</tspan></text>
</g>
<g ewd:pinNo="13">
<text transform="matrix(0.88 0 0 1 150.7761 69.1079)"><tspan x="0" y="0" style="&st7; &st0;">1</tspan></text>
<text transform="matrix(0.88 0 0 1 154.1345 69.1079)"><tspan x="0" y="0" style="&st7; &st0;">3</tspan></text>
</g>
</g>
</g><path d="M136.3795,9.069v-8.504h271.376v8.504" style="&st1;&st2;&st8;&st4;&st5;" /></svg>
