﻿<?xml version="1.0"?>
<!-- Generator: Adobe Illustrator 10.0, SVG Export Plug-In . SVG Version: 3.0.0 Build 77)  -->
<!DOCTYPE svg PUBLIC "-//W3C//DTD SVG 1.0//EN" "http://www.w3.org/TR/2001/REC-SVG-20010904/DTD/svg10.dtd"[
<!ENTITY ns_flows "http://ns.adobe.com/Flows/1.0/">
<!ENTITY ns_svg "http://www.w3.org/2000/svg">
<!ENTITY ns_xlink "http://www.w3.org/1999/xlink">
<!ENTITY st0 "font-size:6.6349px;">
<!ENTITY st1 "fill:none;">
<!ENTITY st2 "stroke:#000000;">
<!ENTITY st3 "stroke-width:1.1331;">
<!ENTITY st4 "stroke-linecap:round;">
<!ENTITY st5 "stroke-linejoin:round;">
<!ENTITY st6 "stroke-width:0.8499;">
<!ENTITY st7 "font-family:'ArialMT';">
<!ENTITY st8 "font-family:'Arial';">
<!ENTITY st9 "stroke-width:1.4;">
<!ATTLIST svg
xmlns:a CDATA #FIXED "http://ns.adobe.com/AdobeSVGViewerExtensions/3.0/"
ewd:ver CDATA #IMPLIED
>
<!ATTLIST svg
xmlns:ewd CDATA #FIXED "http://shcl.co.jp/ewd"
xmlns:a CDATA #FIXED "http://ns.adobe.com/AdobeSVGViewerExtensions/3.0/"
ewd:ver CDATA #IMPLIED
>
<!ATTLIST g
xmlns:ewd CDATA #FIXED "http://shcl.co.jp/ewd"
ewd:pinNo CDATA #IMPLIED >
]>
<svg xmlns="&ns_svg;" xmlns:xlink="&ns_xlink;" ewd:ver="L2.1" xmlns:a="http://ns.adobe.com/AdobeSVGViewerExtensions/3.0/" width="158.084" height="96.043" viewBox="0 0 158.084 96.043" style="overflow:visible;enable-background:new 0 0 63.456 70.539" xml:space="preserve"  onload="call_execInitLoadProc_svg(&apos;connector&apos;)">
<script type="text/javascript" xlink:href="../../../../../system/js/ewd/fig/svgfig.js" />
<g id="レイヤー_1" transform="translate(0,17.008)">
<g>
<path style="&st1;&st2;&st6;&st4;&st5;" d="M58.64,48.808c0,1.244,0.757,2.294,1.938,2.688" />
<path style="&st1;&st2;&st6;&st4;&st5;" d="M60.578,31.791c-1.181,0.393-1.938,1.444-1.938,2.688" />
<path style="&st1;&st2;&st6;&st4;&st5;" d="M4.815,34.479c0-1.245-0.757-2.295-1.938-2.688" />
<path style="&st1;&st2;&st6;&st4;&st5;" d="M2.878,51.496c1.181-0.394,1.938-1.444,1.938-2.688" />
<path style="&st1;&st2;&st3;&st4;&st5;" d="M62.889,7.649c0-3.912-3.171-7.083-7.082-7.083" />
<path style="&st1;&st2;&st3;&st4;&st5;" d="M52.286,69.972c2.348,0,4.352-0.83,6.011-2.491" />
<path style="&st1;&st2;&st3;&st4;&st5;" d="M5.158,67.481c1.66,1.661,3.664,2.491,6.012,2.491" />
<path style="&st1;&st2;&st3;&st4;&st5;" d="M7.648,0.566c-3.912,0-7.082,3.171-7.082,7.083" />
<path style="&st1;&st2;&st3;&st4;&st5;" d="M0.566,31.02v21.246" />
<path style="&st1;&st2;&st3;&st4;&st5;" d="M62.889,31.02v21.246" />
<path style="&st1;&st2;&st3;&st4;&st5;" d="M62.889,21.813v9.207" />
<path style="&st1;&st2;&st6;&st4;&st5;" d="M27.479,62.181h8.499" />
<path style="&st1;&st2;&st6;&st4;&st5;" d="M11.898,41.643v12.748h39.66V41.643H11.898" />
<path style="&st1;&st2;&st6;&st4;&st5;" d="M21.813,28.895v25.496" />
<path style="&st1;&st2;&st6;&st4;&st5;" d="M31.728,28.895v25.496" />
<path style="&st1;&st2;&st6;&st4;&st5;" d="M41.643,28.895v25.496" />
<path style="&st1;&st2;&st6;&st4;&st5;" d="M35.977,60.057v4.249" />
<path style="&st1;&st2;&st3;&st4;&st5;" d="M0.566,10.482V7.649" />
<path style="&st1;&st2;&st3;&st4;&st5;" d="M62.889,7.649v2.833" />
<path style="&st1;&st2;&st3;&st4;&st5;" d="M7.648,0.566h48.159" />
<path style="&st1;&st2;&st6;&st4;&st5;" d="M27.479,60.057v4.249" />
<path style="&st1;&st2;&st6;&st4;&st5;" d="M0.566,52.266l2.312-0.77" />
<path style="&st1;&st2;&st6;&st4;&st5;" d="M0.566,13.314h5.666" />
<path style="&st1;&st2;&st6;&st4;&st5;" d="M0.566,60.057h62.323" />
<path style="&st1;&st2;&st3;&st4;&st5;" d="M0.566,10.482V31.02" />
<path style="&st1;&st2;&st6;&st4;&st5;" d="M57.224,13.314h5.666" />
<path style="&st1;&st2;&st6;&st4;&st5;" d="M0.566,31.02l2.312,0.771" />
<path style="&st1;&st2;&st6;&st4;&st5;" d="M4.815,34.479v14.329" />
<path style="&st1;&st2;&st6;&st4;&st5;" d="M62.889,31.02l-2.312,0.771" />
<path style="&st1;&st2;&st6;&st4;&st5;" d="M58.64,34.479v14.329" />
<path style="&st1;&st2;&st6;&st4;&st5;" d="M60.578,51.496l2.312,0.77" />
<path style="&st1;&st2;&st3;&st4;&st5;" d="M62.889,52.266v7.791" />
<path style="&st1;&st2;&st3;&st4;&st5;" d="M0.566,52.266v7.791" />
<path style="&st1;&st2;&st6;&st4;&st5;" d="M40.402,60.057v2.833h13.989v-2.833" />
<path style="&st1;&st2;&st6;&st4;&st5;" d="M9.065,60.057v2.833h13.989v-2.833" />
<path style="&st1;&st2;&st6;&st4;&st5;" d="M58.64,60.057v4.249" />
<path style="&st1;&st2;&st3;&st4;&st5;" d="M62.889,16.147v5.666" />
<path style="&st1;&st2;&st6;&st4;&st5;" d="M4.815,60.057v4.249" />
<path style="&st1;&st2;&st3;&st4;&st5;" d="M62.889,10.482v5.666" />
<path style="&st1;&st2;&st6;&st4;&st5;" d="M21.813,17.564H18.98V7.649h25.496v9.915h-2.833" />
<path style="&st1;&st2;&st6;&st4;&st5;" d="M21.813,16.147h19.83" />
<path style="&st1;&st2;&st6;&st4;&st5;" d="M27.479,14.731v-2.833h8.499v2.833" />
<path style="&st1;&st2;&st6;&st4;&st5;" d="M35.977,14.731h5.666v8.499h5.666" />
<path style="&st1;&st2;&st6;&st4;&st5;" d="M1.982,60.057v4.249h59.49v-4.249" />
<path style="&st1;&st2;&st6;&st4;&st5;" d="M16.147,23.229V4.816h31.162v18.414" />
<path style="&st1;&st2;&st3;&st4;&st5;" d="M61.473,64.306l-3.175,3.176" />
<path style="&st1;&st2;&st3;&st4;&st5;" d="M1.982,64.306l3.176,3.176" />
<path style="&st1;&st2;&st3;&st4;&st5;" d="M11.17,69.972h41.116" />
<path style="&st1;&st2;&st6;&st4;&st5;" d="M47.309,23.229h9.915V10.482h5.666" />
<path style="&st1;&st2;&st3;&st4;&st5;" d="M62.889,60.057l-1.417,4.249" />
<path style="&st1;&st2;&st6;&st4;&st5;" d="M16.147,23.229h5.666v-8.499h5.666" />
<path style="&st1;&st2;&st3;&st4;&st5;" d="M0.566,60.057l1.416,4.249" />
<path style="&st1;&st2;&st6;&st4;&st5;" d="M0.566,10.482h5.666v12.748h9.915" />
<path style="&st1;&st2;&st6;&st4;&st5;" d="M11.898,41.643V28.895h39.66v12.748" />
<g ewd:pinNo="5">
<text transform="matrix(0.88 0 0 1 15.1895 49.9863)"><tspan x="0" y="0" style="&st7; &st0;">5</tspan></text>
</g>
<g ewd:pinNo="8">
<text transform="matrix(0.88 0 0 1 44.9346 49.9863)"><tspan x="0" y="0" style="&st7; &st0;">8</tspan></text>
</g>
<g ewd:pinNo="6">
<text transform="matrix(0.88 0 0 1 25.1045 49.9863)"><tspan x="0" y="0" style="&st7; &st0;">6</tspan></text>
</g>
<g ewd:pinNo="7">
<text transform="matrix(0.88 0 0 1 35.0195 49.9863)"><tspan x="0" y="0" style="&st7; &st0;">7</tspan></text>
</g>
<g ewd:pinNo="1">
<text transform="matrix(0.88 0 0 1 15.1895 37.2383)"><tspan x="0" y="0" style="&st7; &st0;">1</tspan></text>
</g>
<g ewd:pinNo="2">
<text transform="matrix(0.88 0 0 1 25.1045 37.2383)"><tspan x="0" y="0" style="&st7; &st0;">2</tspan></text>
</g>
<g ewd:pinNo="3">
<text transform="matrix(0.88 0 0 1 35.0195 37.2383)"><tspan x="0" y="0" style="&st7; &st0;">3</tspan></text>
</g>
<g ewd:pinNo="4">
<text transform="matrix(0.88 0 0 1 44.9346 37.2383)"><tspan x="0" y="0" style="&st7; &st0;">4</tspan></text>
</g>
</g>
</g>
<g id="レイヤー_1" transform="translate(83.297,17.008)">
<g>
<path style="&st1;&st2;&st3;&st4;&st5;" d="M64.306,68.555c0.782,0,1.417-0.634,1.417-1.417" />
<path style="&st1;&st2;&st6;&st4;&st5;" d="M66.572,60.057c1.095,0,1.983-0.888,1.983-1.983" />
<path style="&st1;&st2;&st6;&st4;&st5;" d="M6.232,58.074c0,1.095,0.888,1.983,1.983,1.983" />
<path style="&st1;&st2;&st6;&st4;&st5;" d="M68.555,8.215c0-1.095-0.888-1.983-1.983-1.983" />
<path style="&st1;&st2;&st6;&st4;&st5;" d="M62.04,6.232c-1.095,0-1.983,0.888-1.983,1.983" />
<path style="&st1;&st2;&st6;&st4;&st5;" d="M8.215,6.232c-1.095,0-1.983,0.888-1.983,1.983" />
<path style="&st1;&st2;&st6;&st4;&st5;" d="M14.731,8.215c0-1.095-0.888-1.983-1.983-1.983" />
<path style="&st1;&st2;&st6;&st4;&st5;" d="M63.74,54.391c1.095,0,1.983-0.888,1.983-1.983" />
<path style="&st1;&st2;&st6;&st4;&st5;" d="M63.456,44.476c-1.095,0-1.983,0.888-1.983,1.983" />
<path style="&st1;&st2;&st6;&st4;&st5;" d="M65.722,46.459c0-1.095-0.888-1.983-1.983-1.983" />
<path style="&st1;&st2;&st6;&st4;&st5;" d="M9.065,52.408c0,1.095,0.888,1.983,1.983,1.983" />
<path style="&st1;&st2;&st6;&st4;&st5;" d="M11.331,54.391c1.095,0,1.983-0.888,1.983-1.983" />
<path style="&st1;&st2;&st6;&st4;&st5;" d="M13.315,46.459c0-1.095-0.888-1.983-1.983-1.983" />
<path style="&st1;&st2;&st6;&st4;&st5;" d="M11.048,44.476c-1.095,0-1.983,0.888-1.983,1.983" />
<path style="&st1;&st2;&st6;&st4;&st5;" d="M42.351,66.289c0,1.251,1.015,2.266,2.266,2.266" />
<path style="&st1;&st2;&st6;&st4;&st5;" d="M46.6,75.637c0,1.565,1.269,2.833,2.833,2.833" />
<path style="&st1;&st2;&st3;&st4;&st5;" d="M14.023,75.637c0,1.565,1.268,2.833,2.833,2.833" />
<path style="&st1;&st2;&st3;&st4;&st5;" d="M9.065,67.139c0,0.782,0.634,1.417,1.417,1.417" />
<path style="&st1;&st2;&st6;&st4;&st5;" d="M25.354,78.47c1.564,0,2.833-1.268,2.833-2.833" />
<path style="&st1;&st2;&st6;&st4;&st5;" d="M61.473,52.408c0,1.095,0.888,1.983,1.983,1.983" />
<path style="&st1;&st2;&st3;&st4;&st5;" d="M68.555,65.723c3.129,0,5.666-2.537,5.666-5.666" />
<path style="&st1;&st2;&st6;&st4;&st5;" d="M30.17,68.555c1.251,0,2.266-1.015,2.266-2.266" />
<path style="&st1;&st2;&st3;&st4;&st5;" d="M57.932,78.47c1.564,0,2.833-1.268,2.833-2.833" />
<path style="&st1;&st2;&st3;&st4;&st5;" d="M0.567,60.057c0,3.129,2.537,5.666,5.666,5.666" />
<path style="&st1;&st2;&st3;&st4;&st5;" d="M6.232,0.567c-3.129,0-5.666,2.537-5.666,5.666" />
<path style="&st1;&st2;&st3;&st4;&st5;" d="M74.221,6.232c0-3.129-2.537-5.666-5.666-5.666" />
<path style="&st1;&st2;&st3;&st4;&st5;" d="M6.232,65.723h2.833" />
<path style="&st1;&st2;&st3;&st4;&st5;" d="M10.482,68.555h3.541" />
<path style="&st1;&st2;&st3;&st4;&st5;" d="M60.765,68.555h3.541" />
<path style="&st1;&st2;&st3;&st4;&st5;" d="M65.722,67.139v-1.416" />
<path style="&st1;&st2;&st6;&st4;&st5;" d="M17.564,28.895v25.496h39.66V28.895H17.564" />
<path style="&st1;&st2;&st6;&st4;&st5;" d="M17.564,41.643h39.66" />
<path style="&st1;&st2;&st6;&st4;&st5;" d="M47.309,28.895v25.496" />
<path style="&st1;&st2;&st6;&st4;&st5;" d="M37.394,28.895v25.496" />
<path style="&st1;&st2;&st6;&st4;&st5;" d="M27.479,28.895v25.496" />
<path style="&st1;&st2;&st6;&st4;&st5;" d="M6.232,8.215v49.858" />
<path style="&st1;&st2;&st6;&st4;&st5;" d="M8.215,60.057h58.357" />
<path style="&st1;&st2;&st6;&st4;&st5;" d="M68.555,8.215v49.858" />
<path style="&st1;&st2;&st6;&st4;&st5;" d="M28.187,68.555h1.983" />
<path style="&st1;&st2;&st6;&st4;&st5;" d="M32.436,66.289v-0.566" />
<path style="&st1;&st2;&st6;&st4;&st5;" d="M42.351,65.723v0.566" />
<path style="&st1;&st2;&st6;&st4;&st5;" d="M44.617,68.555H46.6" />
<path style="&st1;&st2;&st6;&st4;&st5;" d="M46.6,68.555v7.082" />
<path style="&st1;&st2;&st6;&st4;&st5;" d="M61.473,46.459v5.949" />
<path style="&st1;&st2;&st6;&st4;&st5;" d="M63.456,54.391h0.283" />
<path style="&st1;&st2;&st6;&st4;&st5;" d="M65.722,52.408v-5.949" />
<path style="&st1;&st2;&st6;&st4;&st5;" d="M63.74,44.476h-0.283" />
<path style="&st1;&st2;&st6;&st4;&st5;" d="M9.065,46.459v5.949" />
<path style="&st1;&st2;&st6;&st4;&st5;" d="M11.048,54.391h0.283" />
<path style="&st1;&st2;&st6;&st4;&st5;" d="M13.315,52.408v-5.949" />
<path style="&st1;&st2;&st6;&st4;&st5;" d="M11.048,44.476h0.283" />
<path style="&st1;&st2;&st3;&st4;&st5;" d="M49.433,78.47h8.499" />
<path style="&st1;&st2;&st3;&st4;&st5;" d="M60.765,75.637v-7.082" />
<path style="&st1;&st2;&st3;&st4;&st5;" d="M16.856,78.47h8.499" />
<path style="&st1;&st2;&st6;&st4;&st5;" d="M28.187,75.637v-7.082" />
<path style="&st1;&st2;&st6;&st4;&st5;" d="M61.473,26.062V38.81h4.25V26.062H61.473" />
<path style="&st1;&st2;&st6;&st4;&st5;" d="M9.065,26.062V38.81h4.25V26.062H9.065" />
<path style="&st1;&st2;&st3;&st4;&st5;" d="M6.232,0.567h62.323" />
<path style="&st1;&st2;&st3;&st4;&st5;" d="M0.567,6.232v53.824" />
<path style="&st1;&st2;&st3;&st4;&st5;" d="M74.221,6.232v53.824" />
<path style="&st1;&st2;&st6;&st4;&st5;" d="M9.065,65.723h56.657" />
<path style="&st1;&st2;&st6;&st4;&st5;" d="M14.023,65.723v2.833" />
<path style="&st1;&st2;&st3;&st4;&st5;" d="M25.354,78.47h24.079" />
<path style="&st1;&st2;&st3;&st4;&st5;" d="M65.722,65.723h2.833" />
<path style="&st1;&st2;&st6;&st4;&st5;" d="M60.765,68.555v-2.833" />
<path style="&st1;&st2;&st6;&st4;&st5;" d="M8.215,6.232h4.532" />
<path style="&st1;&st2;&st6;&st4;&st5;" d="M62.04,6.232h4.532" />
<path style="&st1;&st2;&st6;&st4;&st5;" d="M60.057,8.215v12.181" />
<path style="&st1;&st2;&st6;&st4;&st5;" d="M14.731,8.215v12.181" />
<path style="&st1;&st2;&st6;&st4;&st5;" d="M26.062,20.396V7.649h22.663v12.748" />
<path style="&st1;&st2;&st6;&st4;&st5;" d="M28.187,71.388H46.6" />
<path style="&st1;&st2;&st6;&st4;&st5;" d="M14.731,20.396h11.332" />
<path style="&st1;&st2;&st6;&st4;&st5;" d="M51.558,9.065v8.499h5.666V9.065H51.558" />
<path style="&st1;&st2;&st6;&st4;&st5;" d="M17.564,9.065v8.499h5.666V9.065H17.564" />
<path style="&st1;&st2;&st6;&st4;&st5;" d="M48.725,20.396h11.332" />
<path style="&st1;&st2;&st3;&st4;&st5;" d="M9.065,65.723v1.416" />
<path style="&st1;&st2;&st6;&st4;&st5;" d="M26.062,10.482h22.663" />
<path style="&st1;&st2;&st6;&st4;&st5;" d="M26.062,13.314h22.663" />
<path style="&st1;&st2;&st3;&st4;&st5;" d="M14.023,68.555v7.082" />
<path style="&st1;&st2;&st6;&st4;&st5;" d="M34.561,71.388v-2.266h5.666v2.266" />
<path style="&st1;&st2;&st6;&st4;&st5;" d="M35.977,71.388v2.266h2.833v-2.266" />
<g ewd:pinNo="1">
<text transform="matrix(0.88 0 0 1 50.6003 37.2383)"><tspan x="0" y="0" style="&st8; &st0;">1</tspan></text>
</g>
<g ewd:pinNo="2">
<text transform="matrix(0.88 0 0 1 40.6858 37.2383)"><tspan x="0" y="0" style="&st8; &st0;">2</tspan></text>
</g>
<g ewd:pinNo="3">
<text transform="matrix(0.88 0 0 1 30.7708 37.2383)"><tspan x="0" y="0" style="&st8; &st0;">3</tspan></text>
</g>
<g ewd:pinNo="4">
<text transform="matrix(0.88 0 0 1 20.8557 37.2383)"><tspan x="0" y="0" style="&st8; &st0;">4</tspan></text>
</g>
<g ewd:pinNo="5">
<text transform="matrix(0.88 0 0 1 50.6003 49.9863)"><tspan x="0" y="0" style="&st8; &st0;">5</tspan></text>
</g>
<g ewd:pinNo="6">
<text transform="matrix(0.88 0 0 1 40.6858 49.9863)"><tspan x="0" y="0" style="&st8; &st0;">6</tspan></text>
</g>
<g ewd:pinNo="7">
<text transform="matrix(0.88 0 0 1 30.7708 49.9863)"><tspan x="0" y="0" style="&st8; &st0;">7</tspan></text>
</g>
<g ewd:pinNo="8">
<text transform="matrix(0.88 0 0 1 20.8557 49.9863)"><tspan x="0" y="0" style="&st8; &st0;">8</tspan></text>
</g>
</g>
</g><path d="M31.728,9.069v-8.504h88.9625v8.504" style="&st1;&st2;&st9;&st4;&st5;" /></svg>
