﻿<?xml version="1.0"?>
<!-- Generator: Adobe Illustrator 10.0, SVG Export Plug-In . SVG Version: 3.0.0 Build 77)  -->
<!DOCTYPE svg PUBLIC "-//W3C//DTD SVG 1.0//EN" "http://www.w3.org/TR/2001/REC-SVG-20010904/DTD/svg10.dtd"[
<!ENTITY ns_flows "http://ns.adobe.com/Flows/1.0/">
<!ENTITY ns_svg "http://www.w3.org/2000/svg">
<!ENTITY ns_xlink "http://www.w3.org/1999/xlink">
<!ENTITY st0 "font-size:6.6349px;">
<!ENTITY st1 "fill:none;stroke:#000000;stroke-width:1.1331;stroke-linecap:round;stroke-linejoin:round;">
<!ENTITY st2 "fill:none;stroke:#000000;stroke-width:0.8499;stroke-linecap:round;stroke-linejoin:round;">
<!ENTITY st3 "font-family:'Arial';">
<!ATTLIST svg
xmlns:ewd CDATA #FIXED "http://shcl.co.jp/ewd"
xmlns:a CDATA #FIXED "http://ns.adobe.com/AdobeSVGViewerExtensions/3.0/"
ewd:ver CDATA #IMPLIED
>
<!ATTLIST g
xmlns:ewd CDATA #FIXED "http://shcl.co.jp/ewd"
ewd:pinNo CDATA #IMPLIED >
]>
<svg xmlns="&ns_svg;" xmlns:xlink="&ns_xlink;" ewd:ver="L2.1" xmlns:a="http://ns.adobe.com/AdobeSVGViewerExtensions/3.0/" width="40.786" height="37.962" viewBox="0 0 40.786 37.962" style="overflow:visible;enable-background:new 0 0 40.786 37.962" xml:space="preserve"  onload="call_execInitLoadProc_svg(&apos;connector&apos;)">
<script type="text/javascript" xlink:href="../../../../../system/js/ewd/fig/svgfig.js" />
<g id="レイヤー_1">
<g>
<path style="&st2;" d="M14.023,33.145h12.748" />
<path style="&st2;" d="M14.023,9.632h0.708" />
<path style="&st2;" d="M14.023,29.745h12.748" />
<path style="&st1;" d="M15.987,37.394h8.821" />
<path style="&st1;" d="M28.136,35.065l0.759-2.091" />
<path style="&st1;" d="M11.899,32.975l0.759,2.091" />
<path style="&st2;" d="M18.981,28.329h2.833" />
<path style="&st2;" d="M18.981,11.048h2.833" />
<path style="&st2;" d="M23.23,12.465v14.448" />
<path style="&st2;" d="M17.564,12.465v14.448" />
<path style="&st1;" d="M9.066,4.816v2.363" />
<path style="&st1;" d="M31.729,4.816v2.363" />
<path style="&st1;" d="M27.479,4.816v1.436" />
<path style="&st1;" d="M13.315,4.816v1.436" />
<path style="&st2;" d="M16.148,3.399h8.499" />
<path style="&st2;" d="M16.148,9.632h8.499" />
<path style="&st2;" d="M26.063,9.632h0.708" />
<path style="&st2;" d="M26.771,33.145c0.75,0,1.384-0.05,2.125-0.169" />
<path style="&st1;" d="M14.023,6.232c-0.249,0-0.459,0.005-0.708,0.019" />
<path style="&st2;" d="M14.023,9.632c-5.554,0-10.057,4.502-10.057,10.057" />
<path style="&st2;" d="M3.967,19.688c0,5.554,4.502,10.057,10.057,10.057" />
<path style="&st2;" d="M26.771,29.745c5.554,0,10.057-4.503,10.057-10.057" />
<path style="&st2;" d="M36.828,19.688c0-5.554-4.503-10.057-10.057-10.057" />
<path style="&st2;" d="M18.981,11.048c-0.782,0-1.417,0.634-1.417,1.416" />
<path style="&st2;" d="M23.23,12.465c0-0.782-0.634-1.416-1.416-1.416" />
<path style="&st2;" d="M17.564,26.912c0,0.782,0.634,1.417,1.417,1.417" />
<path style="&st2;" d="M21.814,28.329c0.782,0,1.416-0.634,1.416-1.417" />
<path style="&st1;" d="M13.315,4.816c0-1.173-0.952-2.125-2.125-2.125" />
<path style="&st1;" d="M11.19,2.691c-1.173,0-2.125,0.951-2.125,2.125" />
<path style="&st1;" d="M31.729,4.816c0-1.173-0.952-2.125-2.125-2.125" />
<path style="&st1;" d="M29.604,2.691c-1.173,0-2.125,0.951-2.125,2.125" />
<path style="&st1;" d="M24.808,37.394c1.521,0,2.807-0.9,3.327-2.329" />
<path style="&st1;" d="M12.657,35.065c0.521,1.429,1.808,2.33,3.329,2.33" />
<path style="&st1;" d="M10.159,32.578c-0.449-0.135-0.922,0.12-1.057,0.569" />
<path style="&st1;" d="M9.102,33.147c-0.025,0.083-0.036,0.157-0.036,0.244" />
<path style="&st1;" d="M31.729,33.391c0-0.469-0.381-0.85-0.85-0.85" />
<path style="&st1;" d="M30.879,32.541c-0.087,0-0.161,0.011-0.244,0.036" />
<path style="&st1;" d="M9.066,7.178C2.157,9.917-1.225,17.737,1.513,24.646" />
<path style="&st1;" d="M1.513,24.646c0.767,1.935,1.785,3.432,3.303,4.856" />
<path style="&st2;" d="M13.315,6.252c-1.534,0.081-2.821,0.362-4.249,0.928" />
<path style="&st1;" d="M27.479,6.252c-0.249-0.013-0.459-0.019-0.708-0.019" />
<path style="&st2;" d="M31.729,7.178c-1.428-0.566-2.716-0.847-4.25-0.928" />
<path style="&st1;" d="M35.978,29.501c5.419-5.085,5.691-13.6,0.606-19.02" />
<path style="&st1;" d="M36.584,10.482c-1.424-1.518-2.921-2.536-4.856-3.303" />
<path style="&st2;" d="M30.635,32.578c2.095-0.628,3.748-1.58,5.343-3.076" />
<path style="&st1;" d="M10.159,32.578c0.602,0.18,1.12,0.299,1.739,0.397" />
<path style="&st2;" d="M4.816,29.501c1.595,1.497,3.248,2.448,5.343,3.076" />
<path style="&st2;" d="M11.899,32.975c0.741,0.118,1.375,0.169,2.125,0.169" />
<path style="&st1;" d="M28.896,32.975c0.62-0.099,1.138-0.218,1.739-0.398" />
<path style="&st1;" d="M26.771,6.232h-0.708v3.399h-1.417V0.567h-8.499v9.065h-1.417V6.232h-0.708" />
<path style="&st2;" d="M33.145,13.881h-8.499v11.615h8.499V13.881" />
<path style="&st2;" d="M16.148,13.881H7.649v11.615h8.499V13.881" />
<path style="&st1;" d="M9.066,33.391v3.153H4.816v-7.042" />
<path style="&st1;" d="M35.978,29.501v7.042h-4.249v-3.153" />
<g ewd:pinNo="1">
<text transform="matrix(0.88 0 0 1 10.2327 21.6577)"><tspan x="0" y="0" style="&st3; &st0;">1</tspan></text>
</g>
<g ewd:pinNo="2">
<text transform="matrix(0.88 0 0 1 27.2297 21.6577)"><tspan x="0" y="0" style="&st3; &st0;">2</tspan></text>
</g>
</g>
</g>
</svg>
