﻿<?xml version="1.0"?>
<!-- Generator: Adobe Illustrator 10.0, SVG Export Plug-In . SVG Version: 3.0.0 Build 77)  -->
<!DOCTYPE svg PUBLIC "-//W3C//DTD SVG 1.0//EN" "http://www.w3.org/TR/2001/REC-SVG-20010904/DTD/svg10.dtd"[
<!ENTITY ns_flows "http://ns.adobe.com/Flows/1.0/">
<!ENTITY ns_svg "http://www.w3.org/2000/svg">
<!ENTITY ns_xlink "http://www.w3.org/1999/xlink">
<!ENTITY st0 "font-size:6.6349px;">
<!ENTITY st1 "fill:none;stroke:#000000;stroke-width:1.1331;stroke-linecap:round;stroke-linejoin:round;">
<!ENTITY st2 "fill:none;stroke:#000000;stroke-width:0.8499;stroke-linecap:round;stroke-linejoin:round;">
<!ENTITY st3 "font-family:'Arial';">
<!ATTLIST svg
xmlns:ewd CDATA #FIXED "http://shcl.co.jp/ewd"
xmlns:a CDATA #FIXED "http://ns.adobe.com/AdobeSVGViewerExtensions/3.0/"
ewd:ver CDATA #IMPLIED
>
<!ATTLIST g
xmlns:ewd CDATA #FIXED "http://shcl.co.jp/ewd"
ewd:pinNo CDATA #IMPLIED >
]>
<svg xmlns="&ns_svg;" xmlns:xlink="&ns_xlink;" ewd:ver="L2.1" xmlns:a="http://ns.adobe.com/AdobeSVGViewerExtensions/3.0/" width="211.331" height="73.938" viewBox="0 0 211.331 73.938" style="overflow:visible;enable-background:new 0 0 211.331 73.938" xml:space="preserve"  onload="call_execInitLoadProc_svg(&apos;connector&apos;)">
<script type="text/javascript" xlink:href="../../../../../system/js/ewd/fig/svgfig.js" />
<g id="レイヤー_1">
<g>
<path style="&st1;" d="M206.314,68.683c2.635-0.579,4.449-2.835,4.449-5.532" />
<path style="&st1;" d="M0.567,63.375c0,2.6,1.67,4.785,4.178,5.467" />
<path style="&st1;" d="M71.955,1.983c0-0.782-0.634-1.416-1.417-1.416" />
<path style="&st1;" d="M140.793,0.567c-0.782,0-1.417,0.634-1.417,1.416" />
<path style="&st1;" d="M47.331,0.567c-2.785,0-5.16,0.865-7.292,2.657" />
<path style="&st1;" d="M15.4,14.731c0.695,0,1.289-0.216,1.821-0.663" />
<path style="&st1;" d="M4.816,14.731c-2.347,0-4.249,1.902-4.249,4.249" />
<path style="&st1;" d="M171.292,3.224c-2.132-1.792-4.507-2.658-7.292-2.658" />
<path style="&st1;" d="M210.765,18.981c0-2.347-1.903-4.249-4.25-4.249" />
<path style="&st1;" d="M194.111,14.068c0.533,0.447,1.126,0.663,1.821,0.663" />
<path style="&st2;" d="M207.79,62.04l2.975-1.983" />
<path style="&st2;" d="M79.745,17.564v-4.25h7.083v4.25" />
<path style="&st2;" d="M86.827,15.44h5.666" />
<path style="&st2;" d="M92.493,17.564v-5.666h26.346v5.666" />
<path style="&st1;" d="M210.765,63.151v-44.17" />
<path style="&st1;" d="M0.567,63.375V18.981" />
<path style="&st2;" d="M6.516,33.145v25.496h198.3V33.145H6.516" />
<path style="&st2;" d="M6.516,45.893h198.3" />
<path style="&st2;" d="M26.345,58.641V33.145" />
<path style="&st2;" d="M79.745,17.564h51.841" />
<path style="&st2;" d="M66.006,58.641V33.145" />
<path style="&st2;" d="M75.921,58.641V33.145" />
<path style="&st2;" d="M85.836,58.641V33.145" />
<path style="&st2;" d="M95.751,58.641V33.145" />
<path style="&st2;" d="M105.666,58.641V33.145" />
<path style="&st2;" d="M115.581,58.641V33.145" />
<path style="&st2;" d="M125.496,58.641V33.145" />
<path style="&st2;" d="M135.411,58.641V33.145" />
<path style="&st2;" d="M145.325,58.641V33.145" />
<path style="&st2;" d="M184.986,58.641V33.145" />
<path style="&st2;" d="M3.541,62.04H207.79" />
<path style="&st2;" d="M3.541,62.04l-2.974-1.983" />
<path style="&st2;" d="M0.567,57.224h1.416" />
<path style="&st1;" d="M79.745,17.564v9.348" />
<path style="&st2;" d="M75.85,9.066h59.632" />
<path style="&st2;" d="M6.516,18.981v7.932" />
<path style="&st1;" d="M79.745,17.564H75.85V6.233L93.909,3.4h23.513l18.06,2.833v11.332h-3.896" />
<path style="&st1;" d="M47.331,0.567h23.207" />
<path style="&st1;" d="M71.955,1.983v24.929" />
<path style="&st2;" d="M131.586,17.564v-4.25h-7.082v4.25" />
<path style="&st2;" d="M124.504,15.44h-5.666" />
<path style="&st1;" d="M4.745,68.842l16.643,4.53h163.598l21.329-4.688" />
<path style="&st1;" d="M131.586,17.564v9.348" />
<path style="&st2;" d="M204.816,18.981v7.932" />
<path style="&st1;" d="M142.351,0.567h-1.558" />
<path style="&st2;" d="M171.105,26.913h-31.728" />
<path style="&st1;" d="M139.377,1.983v24.929" />
<path style="&st1;" d="M71.955,26.913h7.79" />
<path style="&st1;" d="M131.586,26.913h7.791" />
<path style="&st2;" d="M5.099,62.04v5.666h201.133V62.04" />
<path style="&st2;" d="M36.26,58.641V33.145" />
<path style="&st2;" d="M175.071,58.641V33.145" />
<path style="&st2;" d="M6.516,26.913h19.83" />
<path style="&st2;" d="M40.227,26.913h31.728" />
<path style="&st2;" d="M26.345,26.913v-9.348h13.881v9.348" />
<path style="&st2;" d="M66.006,26.913V0.567" />
<path style="&st1;" d="M4.816,14.731H15.4" />
<path style="&st1;" d="M17.221,14.068L40.04,3.224" />
<path style="&st2;" d="M98.158,15.44h15.014" />
<path style="&st2;" d="M98.158,11.898v5.666" />
<path style="&st2;" d="M113.173,17.564v-5.666" />
<path style="&st2;" d="M145.325,26.913V0.567" />
<path style="&st2;" d="M184.986,26.913v-9.348h-13.881v9.348" />
<path style="&st1;" d="M164,0.567h-23.207" />
<path style="&st1;" d="M206.515,14.731h-10.583" />
<path style="&st1;" d="M194.111,14.068L171.292,3.224" />
<path style="&st2;" d="M184.986,26.913h19.83" />
<path style="&st2;" d="M1.983,57.224l4.533,3.399" />
<path style="&st2;" d="M6.516,62.04v-1.417" />
<path style="&st2;" d="M0.567,18.981l1.416-1.416h3.116l1.417,1.416" />
<path style="&st2;" d="M1.983,57.224v-39.66" />
<path style="&st2;" d="M210.765,57.224h-1.417" />
<path style="&st2;" d="M210.765,18.981l-1.417-1.416h-3.116l-1.417,1.416" />
<path style="&st2;" d="M209.348,57.224l-4.533,3.399" />
<path style="&st2;" d="M204.816,62.04v-1.417" />
<path style="&st2;" d="M209.348,57.224v-39.66" />
<path style="&st2;" d="M6.516,60.624h198.3" />
<path style="&st2;" d="M98.158,17.564v9.348h15.014v-9.348" />
<path style="&st2;" d="M33.286,17.564v-2.833h6.941v2.833" />
<path style="&st2;" d="M5.099,17.564v9.348h1.417" />
<path style="&st2;" d="M204.816,26.913h1.417v-9.348" />
<path style="&st2;" d="M171.105,17.564v-2.833h6.94v2.833" />
<path style="&st2;" d="M16.43,58.641V33.145" />
<path style="&st2;" d="M194.901,58.641V33.145" />
<path style="&st2;" d="M46.176,58.641V33.145" />
<path style="&st2;" d="M56.091,58.641V33.145" />
<path style="&st2;" d="M155.241,58.641V33.145" />
<path style="&st2;" d="M165.156,58.641V33.145" />
<path style="&st2;" d="M50.283,26.913v-5.666h4.249v5.666" />
<path style="&st2;" d="M162.465,26.913v-5.666h-4.25v5.666" />
<g ewd:pinNo="3">
<text transform="matrix(0.88 0 0 1 29.6375 41.4883)"><tspan x="0" y="0" style="&st3; &st0;">3</tspan></text>
</g>
<g ewd:pinNo="1">
<text transform="matrix(0.88 0 0 1 9.8074 41.4883)"><tspan x="0" y="0" style="&st3; &st0;">1</tspan></text>
</g>
<g ewd:pinNo="21">
<text transform="matrix(0.88 0 0 1 8.1416 54.2358)"><tspan x="0" y="0" style="&st3; &st0;">2</tspan></text>
<text transform="matrix(0.88 0 0 1 11.4998 54.2358)"><tspan x="0" y="0" style="&st3; &st0;">1</tspan></text>
</g>
<g ewd:pinNo="23">
<text transform="matrix(0.88 0 0 1 27.9714 54.2358)"><tspan x="0" y="0" style="&st3; &st0;">2</tspan></text>
<text transform="matrix(0.88 0 0 1 31.3298 54.2358)"><tspan x="0" y="0" style="&st3; &st0;">3</tspan></text>
</g>
<g ewd:pinNo="7">
<text transform="matrix(0.88 0 0 1 69.2976 41.4883)"><tspan x="0" y="0" style="&st3; &st0;">7</tspan></text>
</g>
<g ewd:pinNo="27">
<text transform="matrix(0.88 0 0 1 67.6316 54.2358)"><tspan x="0" y="0" style="&st3; &st0;">2</tspan></text>
<text transform="matrix(0.88 0 0 1 70.99 54.2358)"><tspan x="0" y="0" style="&st3; &st0;">7</tspan></text>
</g>
<g ewd:pinNo="8">
<text transform="matrix(0.88 0 0 1 79.2126 41.4883)"><tspan x="0" y="0" style="&st3; &st0;">8</tspan></text>
</g>
<g ewd:pinNo="28">
<text transform="matrix(0.88 0 0 1 77.5466 54.2358)"><tspan x="0" y="0" style="&st3; &st0;">2</tspan></text>
<text transform="matrix(0.88 0 0 1 80.9045 54.2358)"><tspan x="0" y="0" style="&st3; &st0;">8</tspan></text>
</g>
<g ewd:pinNo="9">
<text transform="matrix(0.88 0 0 1 89.1277 41.4883)"><tspan x="0" y="0" style="&st3; &st0;">9</tspan></text>
</g>
<g ewd:pinNo="29">
<text transform="matrix(0.88 0 0 1 87.4617 54.2358)"><tspan x="0" y="0" style="&st3; &st0;">2</tspan></text>
<text transform="matrix(0.88 0 0 1 90.8196 54.2358)"><tspan x="0" y="0" style="&st3; &st0;">9</tspan></text>
</g>
<g ewd:pinNo="10">
<text transform="matrix(0.88 0 0 1 97.3767 41.4883)"><tspan x="0" y="0" style="&st3; &st0;">1</tspan></text>
<text transform="matrix(0.88 0 0 1 100.7351 41.4883)"><tspan x="0" y="0" style="&st3; &st0;">0</tspan></text>
</g>
<g ewd:pinNo="30">
<text transform="matrix(0.88 0 0 1 97.3767 54.2358)"><tspan x="0" y="0" style="&st3; &st0;">3</tspan></text>
<text transform="matrix(0.88 0 0 1 100.7351 54.2358)"><tspan x="0" y="0" style="&st3; &st0;">0</tspan></text>
</g>
<g ewd:pinNo="11">
<text transform="matrix(0.88 0 0 1 107.2917 41.4883)"><tspan x="0" y="0" style="&st3; &st0;">1</tspan></text>
<text transform="matrix(0.88 0 0 1 110.6497 41.4883)"><tspan x="0" y="0" style="&st3; &st0;">1</tspan></text>
</g>
<g ewd:pinNo="31">
<text transform="matrix(0.88 0 0 1 107.2917 54.2358)"><tspan x="0" y="0" style="&st3; &st0;">3</tspan></text>
<text transform="matrix(0.88 0 0 1 110.6497 54.2358)"><tspan x="0" y="0" style="&st3; &st0;">1</tspan></text>
</g>
<g ewd:pinNo="12">
<text transform="matrix(0.88 0 0 1 117.2068 41.4883)"><tspan x="0" y="0" style="&st3; &st0;">1</tspan></text>
<text transform="matrix(0.88 0 0 1 120.5647 41.4883)"><tspan x="0" y="0" style="&st3; &st0;">2</tspan></text>
</g>
<g ewd:pinNo="32">
<text transform="matrix(0.88 0 0 1 117.2068 54.2358)"><tspan x="0" y="0" style="&st3; &st0;">3</tspan></text>
<text transform="matrix(0.88 0 0 1 120.5647 54.2358)"><tspan x="0" y="0" style="&st3; &st0;">2</tspan></text>
</g>
<g ewd:pinNo="13">
<text transform="matrix(0.88 0 0 1 127.1218 41.4883)"><tspan x="0" y="0" style="&st3; &st0;">1</tspan></text>
<text transform="matrix(0.88 0 0 1 130.4797 41.4883)"><tspan x="0" y="0" style="&st3; &st0;">3</tspan></text>
</g>
<g ewd:pinNo="33">
<text transform="matrix(0.88 0 0 1 127.1218 54.2358)"><tspan x="0" y="0" style="&st3; &st0;">3</tspan></text>
<text transform="matrix(0.88 0 0 1 130.4797 54.2358)"><tspan x="0" y="0" style="&st3; &st0;">3</tspan></text>
</g>
<g ewd:pinNo="14">
<text transform="matrix(0.88 0 0 1 137.0369 41.4883)"><tspan x="0" y="0" style="&st3; &st0;">1</tspan></text>
<text transform="matrix(0.88 0 0 1 140.3948 41.4883)"><tspan x="0" y="0" style="&st3; &st0;">4</tspan></text>
</g>
<g ewd:pinNo="34">
<text transform="matrix(0.88 0 0 1 137.0369 54.2358)"><tspan x="0" y="0" style="&st3; &st0;">3</tspan></text>
<text transform="matrix(0.88 0 0 1 140.3948 54.2358)"><tspan x="0" y="0" style="&st3; &st0;">4</tspan></text>
</g>
<g ewd:pinNo="18">
<text transform="matrix(0.88 0 0 1 176.697 41.4883)"><tspan x="0" y="0" style="&st3; &st0;">1</tspan></text>
<text transform="matrix(0.88 0 0 1 180.0549 41.4883)"><tspan x="0" y="0" style="&st3; &st0;">8</tspan></text>
</g>
<g ewd:pinNo="38">
<text transform="matrix(0.88 0 0 1 176.697 54.2358)"><tspan x="0" y="0" style="&st3; &st0;">3</tspan></text>
<text transform="matrix(0.88 0 0 1 180.0549 54.2358)"><tspan x="0" y="0" style="&st3; &st0;">8</tspan></text>
</g>
<g ewd:pinNo="20">
<text transform="matrix(0.88 0 0 1 196.5271 41.4883)"><tspan x="0" y="0" style="&st3; &st0;">2</tspan></text>
<text transform="matrix(0.88 0 0 1 199.885 41.4883)"><tspan x="0" y="0" style="&st3; &st0;">0</tspan></text>
</g>
<g ewd:pinNo="40">
<text transform="matrix(0.88 0 0 1 196.5271 54.2358)"><tspan x="0" y="0" style="&st3; &st0;">4</tspan></text>
<text transform="matrix(0.88 0 0 1 199.885 54.2358)"><tspan x="0" y="0" style="&st3; &st0;">0</tspan></text>
</g>
<g ewd:pinNo="4">
<text transform="matrix(0.88 0 0 1 39.5525 41.4883)"><tspan x="0" y="0" style="&st3; &st0;">4</tspan></text>
</g>
<g ewd:pinNo="24">
<text transform="matrix(0.88 0 0 1 37.8865 54.2358)"><tspan x="0" y="0" style="&st3; &st0;">2</tspan></text>
<text transform="matrix(0.88 0 0 1 41.2449 54.2358)"><tspan x="0" y="0" style="&st3; &st0;">4</tspan></text>
</g>
<g ewd:pinNo="17">
<text transform="matrix(0.88 0 0 1 166.782 41.4883)"><tspan x="0" y="0" style="&st3; &st0;">1</tspan></text>
<text transform="matrix(0.88 0 0 1 170.1399 41.4883)"><tspan x="0" y="0" style="&st3; &st0;">7</tspan></text>
</g>
<g ewd:pinNo="37">
<text transform="matrix(0.88 0 0 1 166.782 54.2358)"><tspan x="0" y="0" style="&st3; &st0;">3</tspan></text>
<text transform="matrix(0.88 0 0 1 170.1399 54.2358)"><tspan x="0" y="0" style="&st3; &st0;">7</tspan></text>
</g>
<g ewd:pinNo="2">
<text transform="matrix(0.88 0 0 1 19.7224 41.4883)"><tspan x="0" y="0" style="&st3; &st0;">2</tspan></text>
</g>
<g ewd:pinNo="22">
<text transform="matrix(0.88 0 0 1 18.0569 54.2358)"><tspan x="0" y="0" style="&st3; &st0;">2</tspan></text>
<text transform="matrix(0.88 0 0 1 21.4148 54.2358)"><tspan x="0" y="0" style="&st3; &st0;">2</tspan></text>
</g>
<g ewd:pinNo="19">
<text transform="matrix(0.88 0 0 1 186.6116 41.4883)"><tspan x="0" y="0" style="&st3; &st0;">1</tspan></text>
<text transform="matrix(0.88 0 0 1 189.97 41.4883)"><tspan x="0" y="0" style="&st3; &st0;">9</tspan></text>
</g>
<g ewd:pinNo="39">
<text transform="matrix(0.88 0 0 1 186.6116 54.2358)"><tspan x="0" y="0" style="&st3; &st0;">3</tspan></text>
<text transform="matrix(0.88 0 0 1 189.97 54.2358)"><tspan x="0" y="0" style="&st3; &st0;">9</tspan></text>
</g>
<g ewd:pinNo="5">
<text transform="matrix(0.88 0 0 1 49.4675 41.4883)"><tspan x="0" y="0" style="&st3; &st0;">5</tspan></text>
</g>
<g ewd:pinNo="25">
<text transform="matrix(0.88 0 0 1 47.8015 54.2358)"><tspan x="0" y="0" style="&st3; &st0;">2</tspan></text>
<text transform="matrix(0.88 0 0 1 51.1599 54.2358)"><tspan x="0" y="0" style="&st3; &st0;">5</tspan></text>
</g>
<g ewd:pinNo="6">
<text transform="matrix(0.88 0 0 1 59.3826 41.4883)"><tspan x="0" y="0" style="&st3; &st0;">6</tspan></text>
</g>
<g ewd:pinNo="26">
<text transform="matrix(0.88 0 0 1 57.7166 54.2358)"><tspan x="0" y="0" style="&st3; &st0;">2</tspan></text>
<text transform="matrix(0.88 0 0 1 61.075 54.2358)"><tspan x="0" y="0" style="&st3; &st0;">6</tspan></text>
</g>
<g ewd:pinNo="15">
<text transform="matrix(0.88 0 0 1 146.9519 41.4883)"><tspan x="0" y="0" style="&st3; &st0;">1</tspan></text>
<text transform="matrix(0.88 0 0 1 150.3098 41.4883)"><tspan x="0" y="0" style="&st3; &st0;">5</tspan></text>
</g>
<g ewd:pinNo="35">
<text transform="matrix(0.88 0 0 1 146.9519 54.2358)"><tspan x="0" y="0" style="&st3; &st0;">3</tspan></text>
<text transform="matrix(0.88 0 0 1 150.3098 54.2358)"><tspan x="0" y="0" style="&st3; &st0;">5</tspan></text>
</g>
<g ewd:pinNo="16">
<text transform="matrix(0.88 0 0 1 156.8669 41.4883)"><tspan x="0" y="0" style="&st3; &st0;">1</tspan></text>
<text transform="matrix(0.88 0 0 1 160.2249 41.4883)"><tspan x="0" y="0" style="&st3; &st0;">6</tspan></text>
</g>
<g ewd:pinNo="36">
<text transform="matrix(0.88 0 0 1 156.8669 54.2358)"><tspan x="0" y="0" style="&st3; &st0;">3</tspan></text>
<text transform="matrix(0.88 0 0 1 160.2249 54.2358)"><tspan x="0" y="0" style="&st3; &st0;">6</tspan></text>
</g>
</g>
</g>
</svg>
