﻿<?xml version="1.0"?>
<!-- Generator: Adobe Illustrator 10.0, SVG Export Plug-In . SVG Version: 3.0.0 Build 77)  -->
<!DOCTYPE svg PUBLIC "-//W3C//DTD SVG 1.0//EN" "http://www.w3.org/TR/2001/REC-SVG-20010904/DTD/svg10.dtd"[
<!ENTITY ns_flows "http://ns.adobe.com/Flows/1.0/">
<!ENTITY ns_svg "http://www.w3.org/2000/svg">
<!ENTITY ns_xlink "http://www.w3.org/1999/xlink">
<!ENTITY st0 "font-size:6.6349px;">
<!ENTITY st1 "fill:none;stroke:#000000;stroke-width:1.1331;stroke-linecap:round;stroke-linejoin:round;">
<!ENTITY st2 "fill:none;stroke:#000000;stroke-width:0.8499;stroke-linecap:round;stroke-linejoin:round;">
<!ENTITY st3 "font-family:'Arial';">
<!ATTLIST svg
xmlns:ewd CDATA #FIXED "http://shcl.co.jp/ewd"
xmlns:a CDATA #FIXED "http://ns.adobe.com/AdobeSVGViewerExtensions/3.0/"
ewd:ver CDATA #IMPLIED
>
<!ATTLIST g
xmlns:ewd CDATA #FIXED "http://shcl.co.jp/ewd"
ewd:pinNo CDATA #IMPLIED >
]>
<svg xmlns="&ns_svg;" xmlns:xlink="&ns_xlink;" ewd:ver="L2.1" xmlns:a="http://ns.adobe.com/AdobeSVGViewerExtensions/3.0/" width="73.088" height="57.365" viewBox="0 0 73.088 57.365" style="overflow:visible;enable-background:new 0 0 73.088 57.365" xml:space="preserve"  onload="call_execInitLoadProc_svg(&apos;connector&apos;)">
<script type="text/javascript" xlink:href="../../../../../system/js/ewd/fig/svgfig.js" />
<g id="レイヤー_1">
<g>
<path style="&st2;" d="M2.55,16.855h67.989" />
<path style="&st1;" d="M1.983,6.232h13.031" />
<path style="&st2;" d="M3.399,53.258h66.289" />
<path style="&st2;" d="M22.38,1.983h28.329" />
<path style="&st1;" d="M22.38,0.567h28.329" />
<path style="&st2;" d="M3.399,49.717v2.833" />
<path style="&st2;" d="M25.213,16.855V5.524" />
<path style="&st2;" d="M47.875,5.524v11.331" />
<path style="&st1;" d="M53.541,3.399v6.374" />
<path style="&st1;" d="M19.547,3.399v6.374" />
<path style="&st2;" d="M31.541,11.19h9.96" />
<path style="&st2;" d="M36.544,16.855V47.45" />
<path style="&st2;" d="M28.045,16.855V47.45" />
<path style="&st2;" d="M19.547,16.855V47.45" />
<path style="&st2;" d="M11.048,16.855V47.45" />
<path style="&st2;" d="M45.042,16.855V47.45" />
<path style="&st2;" d="M53.541,16.855V47.45" />
<path style="&st2;" d="M62.04,16.855V47.45" />
<path style="&st2;" d="M15.298,47.45v4.391" />
<path style="&st2;" d="M18.13,47.45v4.391" />
<path style="&st2;" d="M20.963,49.717v3.541" />
<path style="&st2;" d="M26.629,49.717v3.541" />
<path style="&st2;" d="M52.125,49.717v3.541" />
<path style="&st2;" d="M46.459,49.717v3.541" />
<path style="&st2;" d="M11.048,16.855v5.949" />
<path style="&st2;" d="M69.971,32.578H3.116" />
<path style="&st1;" d="M58.073,6.232h13.031" />
<path style="&st1;" d="M0.567,49.717V7.649" />
<path style="&st2;" d="M15.298,49.717H2.55" />
<path style="&st2;" d="M2.55,30.453V14.589" />
<path style="&st1;" d="M3.399,52.55v2.119" />
<path style="&st2;" d="M70.544,49.717H57.79" />
<path style="&st2;" d="M69.688,49.717v2.833" />
<path style="&st1;" d="M72.521,49.717V7.649" />
<path style="&st2;" d="M70.538,30.453V14.589" />
<path style="&st1;" d="M69.688,52.55v2.119" />
<path style="&st2;" d="M2.55,15.439h14.165" />
<path style="&st2;" d="M70.538,15.439H56.374" />
<path style="&st2;" d="M3.966,13.173h12.748" />
<path style="&st2;" d="M67.139,49.717V47.45" />
<path style="&st2;" d="M54.957,49.717H18.13" />
<path style="&st2;" d="M56.374,13.173h12.748" />
<path style="&st2;" d="M57.79,51.841V47.45" />
<path style="&st2;" d="M54.957,51.841V47.45" />
<path style="&st2;" d="M59.915,7.649v5.524" />
<path style="&st2;" d="M13.173,7.649v5.524" />
<path style="&st1;" d="M3.399,54.668c0,0.417,0.292,0.765,0.703,0.837" />
<path style="&st1;" d="M53.541,3.399c0-1.564-1.269-2.833-2.833-2.833" />
<path style="&st1;" d="M22.38,0.567c-1.564,0-2.833,1.268-2.833,2.833" />
<path style="&st2;" d="M53.541,4.816c0-1.564-1.269-2.833-2.833-2.833" />
<path style="&st2;" d="M22.38,1.983c-1.564,0-2.833,1.269-2.833,2.833" />
<path style="&st1;" d="M19.547,9.773c0,0.782,0.634,1.417,1.417,1.417" />
<path style="&st1;" d="M52.125,11.19c0.782,0,1.417-0.634,1.417-1.417" />
<path style="&st1;" d="M16.714,7.932c0-0.939-0.761-1.7-1.7-1.7" />
<path style="&st1;" d="M58.073,6.232c-0.938,0-1.7,0.761-1.7,1.7" />
<path style="&st2;" d="M56.374,53.258c0.782,0,1.417-0.634,1.417-1.417" />
<path style="&st2;" d="M54.957,51.841c0,0.782,0.634,1.417,1.417,1.417" />
<path style="&st2;" d="M15.298,51.841c0,0.782,0.634,1.417,1.417,1.417" />
<path style="&st2;" d="M16.714,53.258c0.782,0,1.416-0.634,1.416-1.417" />
<path style="&st1;" d="M1.983,6.232c-0.782,0-1.416,0.634-1.416,1.416" />
<path style="&st2;" d="M0.567,47.734c0,1.095,0.888,1.983,1.983,1.983" />
<path style="&st1;" d="M0.567,49.717c0,1.564,1.268,2.833,2.833,2.833" />
<path style="&st1;" d="M68.986,55.507c0.412-0.073,0.704-0.42,0.704-0.839" />
<path style="&st1;" d="M72.521,7.649c0-0.782-0.634-1.416-1.417-1.416" />
<path style="&st2;" d="M70.538,49.717c1.095,0,1.983-0.888,1.983-1.983" />
<path style="&st1;" d="M69.688,52.55c1.564,0,2.833-1.269,2.833-2.833" />
<path style="&st2;" d="M3.966,13.173c-0.782,0-1.417,0.634-1.417,1.417" />
<path style="&st2;" d="M70.538,14.589c0-0.782-0.634-1.417-1.417-1.417" />
<path style="&st2;" d="M59.915,7.649c0-0.782-0.634-1.416-1.416-1.416" />
<path style="&st2;" d="M14.589,6.232c-0.782,0-1.417,0.634-1.417,1.416" />
<path style="&st2;" d="M49.292,11.19V6.94l-1.417-1.416h-2.125" />
<path style="&st2;" d="M27.337,5.524h-2.125L23.796,6.94v4.25" />
<path style="&st2;" d="M34.419,4.816h-7.082v4.958h7.082V4.816" />
<path style="&st2;" d="M45.751,4.816h-7.082v4.958h7.082V4.816" />
<path style="&st2;" d="M41.501,9.773v5.666h-9.915V9.773" />
<path style="&st2;" d="M0.567,30.453h2.55v2.833h-2.55" />
<path style="&st2;" d="M72.521,30.453h-2.55v2.833h2.55" />
<path style="&st1;" d="M4.102,55.507l7.331,1.292h50.221l7.331-1.292" />
<path style="&st2;" d="M5.949,47.45L2.55,44.051V33.286" />
<path style="&st1;" d="M16.714,7.932v7.507h5.666l1.417-1.417V11.19h-2.833" />
<path style="&st1;" d="M56.374,7.932v7.507h-5.666l-1.417-1.417V11.19h2.833" />
<path style="&st2;" d="M4.674,13.173V8.125h0.895l1.326-1.892" />
<path style="&st2;" d="M10.53,13.173V8.125H9.635L8.312,6.232" />
<path style="&st2;" d="M5.949,49.717V47.45h61.19l3.399-3.399V33.286" />
<path style="&st2;" d="M62.51,13.173V8.125h0.898l1.323-1.892" />
<path style="&st2;" d="M68.368,13.173V8.125H67.47l-1.323-1.892" />
<g ewd:pinNo="1">
<text transform="matrix(0.88 0 0 1 5.1331 26.686)"><tspan x="0" y="0" style="&st3; &st0;">1</tspan></text>
</g>
<g ewd:pinNo="2">
<text transform="matrix(0.88 0 0 1 13.6316 26.686)"><tspan x="0" y="0" style="&st3; &st0;">2</tspan></text>
</g>
<g ewd:pinNo="3">
<text transform="matrix(0.88 0 0 1 22.1301 26.686)"><tspan x="0" y="0" style="&st3; &st0;">3</tspan></text>
</g>
<g ewd:pinNo="4">
<text transform="matrix(0.88 0 0 1 30.6287 26.686)"><tspan x="0" y="0" style="&st3; &st0;">4</tspan></text>
</g>
<g ewd:pinNo="5">
<text transform="matrix(0.88 0 0 1 39.1277 26.686)"><tspan x="0" y="0" style="&st3; &st0;">5</tspan></text>
</g>
<g ewd:pinNo="6">
<text transform="matrix(0.88 0 0 1 47.6262 26.686)"><tspan x="0" y="0" style="&st3; &st0;">6</tspan></text>
</g>
<g ewd:pinNo="7">
<text transform="matrix(0.88 0 0 1 56.1248 26.686)"><tspan x="0" y="0" style="&st3; &st0;">7</tspan></text>
</g>
<g ewd:pinNo="8">
<text transform="matrix(0.88 0 0 1 64.6233 26.686)"><tspan x="0" y="0" style="&st3; &st0;">8</tspan></text>
</g>
<g ewd:pinNo="9">
<text transform="matrix(0.88 0 0 1 5.1331 42.4082)"><tspan x="0" y="0" style="&st3; &st0;">9</tspan></text>
</g>
<g ewd:pinNo="10">
<text transform="matrix(0.88 0 0 1 11.9661 42.4082)"><tspan x="0" y="0" style="&st3; &st0;">1</tspan></text>
<text transform="matrix(0.88 0 0 1 15.324 42.4082)"><tspan x="0" y="0" style="&st3; &st0;">0</tspan></text>
</g>
<g ewd:pinNo="11">
<text transform="matrix(0.88 0 0 1 20.4646 42.4082)"><tspan x="0" y="0" style="&st3; &st0;">1</tspan></text>
<text transform="matrix(0.88 0 0 1 23.8225 42.4082)"><tspan x="0" y="0" style="&st3; &st0;">1</tspan></text>
</g>
<g ewd:pinNo="12">
<text transform="matrix(0.88 0 0 1 28.9631 42.4082)"><tspan x="0" y="0" style="&st3; &st0;">1</tspan></text>
<text transform="matrix(0.88 0 0 1 32.321 42.4082)"><tspan x="0" y="0" style="&st3; &st0;">2</tspan></text>
</g>
<g ewd:pinNo="13">
<text transform="matrix(0.88 0 0 1 37.4617 42.4082)"><tspan x="0" y="0" style="&st3; &st0;">1</tspan></text>
<text transform="matrix(0.88 0 0 1 40.8201 42.4082)"><tspan x="0" y="0" style="&st3; &st0;">3</tspan></text>
</g>
<g ewd:pinNo="14">
<text transform="matrix(0.88 0 0 1 45.9602 42.4082)"><tspan x="0" y="0" style="&st3; &st0;">1</tspan></text>
<text transform="matrix(0.88 0 0 1 49.3186 42.4082)"><tspan x="0" y="0" style="&st3; &st0;">4</tspan></text>
</g>
<g ewd:pinNo="15">
<text transform="matrix(0.88 0 0 1 54.4587 42.4082)"><tspan x="0" y="0" style="&st3; &st0;">1</tspan></text>
<text transform="matrix(0.88 0 0 1 57.8171 42.4082)"><tspan x="0" y="0" style="&st3; &st0;">5</tspan></text>
</g>
<g ewd:pinNo="16">
<text transform="matrix(0.88 0 0 1 62.9573 42.4082)"><tspan x="0" y="0" style="&st3; &st0;">1</tspan></text>
<text transform="matrix(0.88 0 0 1 66.3157 42.4082)"><tspan x="0" y="0" style="&st3; &st0;">6</tspan></text>
</g>
</g>
</g>
</svg>
