﻿<?xml version="1.0" encoding="UTF-8"?>
<!-- Generator: Adobe Illustrator 10.0, SVG Export Plug-In . SVG Version: 3.0.0 Build 76)  -->
<!DOCTYPE svg PUBLIC "-//W3C//DTD SVG 1.0//EN"    "http://www.w3.org/TR/2001/REC-SVG-20010904/DTD/svg10.dtd" [
<!ENTITY ns_flows "http://ns.adobe.com/Flows/1.0/">
<!ENTITY ns_svg "http://www.w3.org/2000/svg">
<!ENTITY ns_xlink "http://www.w3.org/1999/xlink">
<!ATTLIST svg
xmlns:ewd CDATA #FIXED "http://shcl.co.jp/ewd"
xmlns:a CDATA #FIXED "http://ns.adobe.com/AdobeSVGViewerExtensions/3.0/"
ewd:ver CDATA #IMPLIED
>
<!ATTLIST g
ewd:pinNo CDATA #IMPLIED >
]>
<svg  xmlns="&ns_svg;" xmlns:xlink="&ns_xlink;" xmlns:a="http://ns.adobe.com/AdobeSVGViewerExtensions/3.0/"
width="61.51" height="86.162" viewBox="0 0 61.51 86.162" style="overflow:visible;enable-background:new 0 0 61.51 86.162"
xml:space="preserve" onload="call_execInitLoadProc_svg(&apos;connector&apos;)"><script type="text/javascript" xlink:href="../../../../../system/js/ewd/fig/svgfig.js"/>
<g id="&#x30EC;&#x30A4;&#x30E4;&#x30FC;">
<path style="fill:none;stroke:#000000;stroke-width:1.13;stroke-linecap:round;stroke-linejoin:round;" d="M16.596,0.565
c-0.833,0-1.51,0.676-1.51,1.51"/>
<path style="fill:none;stroke:#000000;stroke-width:1.13;stroke-linecap:round;stroke-linejoin:round;" d="M15.086,2.075v3.344"/>
<path style="fill:none;stroke:#000000;stroke-width:0.85;stroke-linecap:round;stroke-linejoin:round;" d="M10.284,5.418H5.454"/>
<path style="fill:none;stroke:#000000;stroke-width:1.13;stroke-linecap:round;stroke-linejoin:round;" d="M15.086,5.418h-4.802"
/>
<path style="fill:none;stroke:#000000;stroke-width:0.85;stroke-linecap:round;stroke-linejoin:round;" d="M19.399,5.418h-4.313"
/>
<path style="fill:none;stroke:#000000;stroke-width:0.85;stroke-linecap:round;stroke-linejoin:round;" d="M5.454,2.455
c0-0.915-0.742-1.657-1.657-1.657"/>
<path style="fill:none;stroke:#000000;stroke-width:0.85;stroke-linecap:round;stroke-linejoin:round;" d="M5.454,2.455v2.963"/>
<path style="fill:none;stroke:#000000;stroke-width:1.13;stroke-linecap:round;stroke-linejoin:round;" d="M0.565,2.455
c0-0.915,0.742-1.657,1.657-1.657"/>
<path style="fill:none;stroke:#000000;stroke-width:1.13;stroke-linecap:round;stroke-linejoin:round;" d="M0.565,2.455v77.204"/>
<path style="fill:none;stroke:#000000;stroke-width:1.13;stroke-linecap:round;stroke-linejoin:round;" d="M10.284,2.455
c0-0.915-0.742-1.657-1.657-1.657"/>
<path style="fill:none;stroke:#000000;stroke-width:1.13;stroke-linecap:round;stroke-linejoin:round;" d="M10.284,2.455v2.963"/>
<path style="fill:none;stroke:#000000;stroke-width:1.13;stroke-linecap:round;stroke-linejoin:round;" d="M8.627,0.798H2.222"/>
<path style="fill:none;stroke:#000000;stroke-width:0.85;stroke-linecap:round;stroke-linejoin:round;" d="M19.399,3.909v6.188"/>
<path style="fill:none;stroke:#000000;stroke-width:0.85;stroke-linecap:round;stroke-linejoin:round;" d="M28.566,3.909v4.188"/>
<path style="fill:none;stroke:#000000;stroke-width:0.85;stroke-linecap:round;stroke-linejoin:round;" d="M13.034,14.252V5.418"
/>
<path style="fill:none;stroke:#000000;stroke-width:0.85;stroke-linecap:round;stroke-linejoin:round;" d="M30.752,18.534h-8.19"
/>
<path style="fill:none;stroke:#000000;stroke-width:0.85;stroke-linecap:round;stroke-linejoin:round;" d="M11.569,18.533
c1.531-0.667,3.435-1.063,5.497-1.063s3.965,0.396,5.496,1.063"/>
<path style="fill:none;stroke:#000000;stroke-width:0.85;stroke-linecap:round;stroke-linejoin:round;" d="M11.57,18.534H5.471"/>
<path style="fill:none;stroke:#000000;stroke-width:0.85;stroke-linecap:round;stroke-linejoin:round;" d="M5.471,18.534
c-1.432,0-2.593,1.161-2.593,2.593"/>
<path style="fill:none;stroke:#000000;stroke-width:0.85;stroke-linecap:round;stroke-linejoin:round;" d="M5.471,49.659
c-1.432,0-2.593-1.162-2.593-2.594"/>
<path style="fill:none;stroke:#000000;stroke-width:0.85;stroke-linecap:round;stroke-linejoin:round;" d="M30.752,18.534h-8.188"
/>
<path style="fill:none;stroke:#000000;stroke-width:0.85;stroke-linecap:round;stroke-linejoin:round;" d="M2.878,21.127v25.938"
/>
<path style="fill:none;stroke:#000000;stroke-width:0.85;stroke-linecap:round;stroke-linejoin:round;" d="M15.237,49.659v-3.109"
/>
<path style="fill:none;stroke:#000000;stroke-width:0.85;stroke-linecap:round;stroke-linejoin:round;" d="M15.237,46.549H2.878"
/>
<path style="fill:none;stroke:#000000;stroke-width:0.85;stroke-linecap:round;stroke-linejoin:round;" d="M27.752,43.221v6.438"
/>
<path style="fill:none;stroke:#000000;stroke-width:0.85;stroke-linecap:round;stroke-linejoin:round;" d="M30.752,20.615H8.925
c-1.169,0-2.126,0.957-2.126,2.126v18.354c0,1.169,0.957,2.126,2.126,2.126h21.827"/>
<path style="fill:none;stroke:#000000;stroke-width:0.85;stroke-linecap:round;stroke-linejoin:round;" d="M25.69,43.221v6.438"/>
<path style="fill:none;stroke:#000000;stroke-width:0.85;stroke-linecap:round;stroke-linejoin:round;" d="M30.752,51.659H5.972
c-1.169,0-2.126,0.957-2.126,2.125v20.78c0,1.169,0.957,2.126,2.126,2.126h0.874"/>
<path style="fill:none;stroke:#000000;stroke-width:0.85;stroke-linecap:round;stroke-linejoin:round;" d="M29.299,53.815H7.91
c-0.585,0-1.063,0.479-1.063,1.063v24.781"/>
<path style="fill:none;stroke:#000000;stroke-width:0.85;stroke-linecap:round;stroke-linejoin:round;" d="M29.299,53.815v-2.156"
/>
<path style="fill:none;stroke:#000000;stroke-width:1.13;stroke-linecap:round;stroke-linejoin:round;" d="M3.377,81.565H2.691
c-1.169,0-2.126-0.914-2.126-1.906"/>
<path style="fill:none;stroke:#000000;stroke-width:0.85;stroke-linecap:round;stroke-linejoin:round;" d="M6.846,79.659
c0,0.992-0.957,1.906-2.125,1.906H3.377"/>
<path style="fill:none;stroke:#000000;stroke-width:0.85;stroke-linecap:round;stroke-linejoin:round;" d="M17.377,81.565
c0.584,0,1.063-0.479,1.063-1.063"/>
<path style="fill:none;stroke:#000000;stroke-width:0.85;stroke-linecap:round;stroke-linejoin:round;" d="M4.721,81.565h12.656"
/>
<path style="fill:none;stroke:#000000;stroke-width:0.85;stroke-linecap:round;stroke-linejoin:round;" d="M29.222,72.409v4.156"
/>
<path style="fill:none;stroke:#000000;stroke-width:0.85;stroke-linecap:round;stroke-linejoin:round;" d="M29.222,76.565h-4.688"
/>
<path style="fill:none;stroke:#000000;stroke-width:0.85;stroke-linecap:round;stroke-linejoin:round;" d="M24.535,76.565v5.5"/>
<path style="fill:none;stroke:#000000;stroke-width:0.85;stroke-linecap:round;stroke-linejoin:round;" d="M24.535,82.065h-6.438"
/>
<path style="fill:none;stroke:#000000;stroke-width:0.85;stroke-linecap:round;stroke-linejoin:round;" d="M18.096,81.279v4.317"
/>
<path style="fill:none;stroke:#000000;stroke-width:0.85;stroke-linecap:round;stroke-linejoin:round;" d="M7.766,85.068
c-0.328-0.198-0.514-0.472-0.514-0.847v-2.656"/>
<path style="fill:none;stroke:#000000;stroke-width:1.13;stroke-linecap:round;stroke-linejoin:round;" d="M30.752,85.596h-18
c-2.128,0-4.09,0.016-4.986-0.528"/>
<path style="fill:none;stroke:#000000;stroke-width:1.13;stroke-linecap:round;stroke-linejoin:round;" d="M7.769,85.066H4.441
c-0.585,0-1.063-0.479-1.063-1.063v-2.438"/>
<path style="fill:none;stroke:#000000;stroke-width:0.85;stroke-linecap:round;stroke-linejoin:round;" d="M5.002,81.565v2.719
c0,0.313,0.22,0.782,0.813,0.782"/>
<path style="fill:none;stroke:#000000;stroke-width:0.85;stroke-linecap:round;stroke-linejoin:round;" d="M8.487,5.418
c-0.609,0-2.016,0.49-2.016,1.662"/>
<path style="fill:none;stroke:#000000;stroke-width:0.85;stroke-linecap:round;stroke-linejoin:round;" d="M6.471,7.081v7.453"/>
<path style="fill:none;stroke:#000000;stroke-width:0.85;stroke-linecap:round;stroke-linejoin:round;" d="M6.471,14.534H2.299
c-0.563,0-1.734,0.822-1.734,1.666"/>
<path style="fill:none;stroke:#000000;stroke-width:1.13;stroke-linecap:round;stroke-linejoin:round;" d="M44.914,0.565H16.596"
/>
<path style="fill:none;stroke:#000000;stroke-width:1.13;stroke-linecap:round;stroke-linejoin:round;" d="M44.914,0.565
c0.834,0,1.51,0.676,1.51,1.51"/>
<path style="fill:none;stroke:#000000;stroke-width:1.13;stroke-linecap:round;stroke-linejoin:round;" d="M46.423,2.075v3.344"/>
<path style="fill:none;stroke:#000000;stroke-width:0.85;stroke-linecap:round;stroke-linejoin:round;" d="M51.226,5.418h4.83"/>
<path style="fill:none;stroke:#000000;stroke-width:1.13;stroke-linecap:round;stroke-linejoin:round;" d="M46.423,5.418h4.803"/>
<path style="fill:none;stroke:#000000;stroke-width:0.85;stroke-linecap:round;stroke-linejoin:round;" d="M42.11,5.418h4.313"/>
<path style="fill:none;stroke:#000000;stroke-width:0.85;stroke-linecap:round;stroke-linejoin:round;" d="M56.056,2.455
c0-0.915,0.742-1.657,1.657-1.657"/>
<path style="fill:none;stroke:#000000;stroke-width:0.85;stroke-linecap:round;stroke-linejoin:round;" d="M56.056,2.455v2.963"/>
<path style="fill:none;stroke:#000000;stroke-width:1.13;stroke-linecap:round;stroke-linejoin:round;" d="M60.945,2.455
c0-0.915-0.742-1.657-1.656-1.657"/>
<path style="fill:none;stroke:#000000;stroke-width:1.13;stroke-linecap:round;stroke-linejoin:round;" d="M60.945,2.455v77.204"
/>
<path style="fill:none;stroke:#000000;stroke-width:1.13;stroke-linecap:round;stroke-linejoin:round;" d="M51.226,2.455
c0-0.915,0.742-1.657,1.656-1.657"/>
<path style="fill:none;stroke:#000000;stroke-width:1.13;stroke-linecap:round;stroke-linejoin:round;" d="M51.226,2.455v2.963"/>
<path style="fill:none;stroke:#000000;stroke-width:1.13;stroke-linecap:round;stroke-linejoin:round;" d="M52.882,0.798h6.406"/>
<path style="fill:none;stroke:#000000;stroke-width:0.85;stroke-linecap:round;stroke-linejoin:round;" d="M46.423,3.909H15.086"
/>
<path style="fill:none;stroke:#000000;stroke-width:0.85;stroke-linecap:round;stroke-linejoin:round;" d="M42.11,3.909v6.188"/>
<path style="fill:none;stroke:#000000;stroke-width:0.85;stroke-linecap:round;stroke-linejoin:round;" d="M42.11,10.096H19.399"
/>
<path style="fill:none;stroke:#000000;stroke-width:0.85;stroke-linecap:round;stroke-linejoin:round;" d="M42.11,8.096H19.399"/>
<path style="fill:none;stroke:#000000;stroke-width:0.85;stroke-linecap:round;stroke-linejoin:round;" d="M32.941,3.909v4.188"/>
<path style="fill:none;stroke:#000000;stroke-width:0.85;stroke-linecap:round;stroke-linejoin:round;" d="M48.476,14.252H13.034"
/>
<path style="fill:none;stroke:#000000;stroke-width:0.85;stroke-linecap:round;stroke-linejoin:round;" d="M48.476,14.252V5.418"
/>
<path style="fill:none;stroke:#000000;stroke-width:0.85;stroke-linecap:round;stroke-linejoin:round;" d="M30.752,18.534h8.192"
/>
<path style="fill:none;stroke:#000000;stroke-width:0.85;stroke-linecap:round;stroke-linejoin:round;" d="M49.941,18.533
c-1.531-0.667-3.436-1.063-5.498-1.063s-3.967,0.396-5.498,1.063"/>
<path style="fill:none;stroke:#000000;stroke-width:0.85;stroke-linecap:round;stroke-linejoin:round;" d="M49.939,18.534h6.1"/>
<path style="fill:none;stroke:#000000;stroke-width:0.85;stroke-linecap:round;stroke-linejoin:round;" d="M56.039,18.534
c1.433,0,2.594,1.161,2.594,2.593"/>
<path style="fill:none;stroke:#000000;stroke-width:0.85;stroke-linecap:round;stroke-linejoin:round;" d="M56.039,49.659
c1.433,0,2.594-1.162,2.594-2.594"/>
<path style="fill:none;stroke:#000000;stroke-width:0.85;stroke-linecap:round;stroke-linejoin:round;" d="M30.752,18.534h8.19"/>
<path style="fill:none;stroke:#000000;stroke-width:0.85;stroke-linecap:round;stroke-linejoin:round;" d="M58.632,21.127v25.938"
/>
<path style="fill:none;stroke:#000000;stroke-width:0.85;stroke-linecap:round;stroke-linejoin:round;" d="M56.039,49.659H5.471"
/>
<path style="fill:none;stroke:#000000;stroke-width:0.85;stroke-linecap:round;stroke-linejoin:round;" d="M46.273,49.659v-3.109"
/>
<path style="fill:none;stroke:#000000;stroke-width:0.85;stroke-linecap:round;stroke-linejoin:round;" d="M46.273,46.549h12.359"
/>
<path style="fill:none;stroke:#000000;stroke-width:0.85;stroke-linecap:round;stroke-linejoin:round;" d="M33.753,43.221v6.438"
/>
<path style="fill:none;stroke:#000000;stroke-width:0.85;stroke-linecap:round;stroke-linejoin:round;" d="M30.752,20.615h21.833
c1.168,0,2.125,0.957,2.125,2.126v18.354c0,1.169-0.957,2.126-2.125,2.126H30.752"/>
<path style="fill:none;stroke:#000000;stroke-width:0.85;stroke-linecap:round;stroke-linejoin:round;" d="M35.816,43.221v6.438"
/>
<path style="fill:none;stroke:#000000;stroke-width:0.85;stroke-linecap:round;stroke-linejoin:round;" d="M30.752,51.659h24.786
c1.168,0,2.125,0.957,2.125,2.125v20.78c0,1.169-0.957,2.126-2.125,2.126h-0.875"/>
<path style="fill:none;stroke:#000000;stroke-width:0.85;stroke-linecap:round;stroke-linejoin:round;" d="M32.207,53.815h21.395
c0.584,0,1.063,0.479,1.063,1.063v24.781"/>
<path style="fill:none;stroke:#000000;stroke-width:0.85;stroke-linecap:round;stroke-linejoin:round;" d="M32.207,53.815v-2.156"
/>
<path style="fill:none;stroke:#000000;stroke-width:1.13;stroke-linecap:round;stroke-linejoin:round;" d="M58.132,81.565h0.688
c1.168,0,2.125-0.914,2.125-1.906"/>
<path style="fill:none;stroke:#000000;stroke-width:0.85;stroke-linecap:round;stroke-linejoin:round;" d="M54.664,79.659
c0,0.992,0.957,1.906,2.127,1.906h1.342"/>
<path style="fill:none;stroke:#000000;stroke-width:0.85;stroke-linecap:round;stroke-linejoin:round;" d="M43.07,80.502V69.909
c0-0.585-0.479-1.063-1.064-1.063H19.503c-0.585,0-1.063,0.478-1.063,1.063v10.594"/>
<path style="fill:none;stroke:#000000;stroke-width:0.85;stroke-linecap:round;stroke-linejoin:round;" d="M44.132,81.565
c-0.584,0-1.063-0.479-1.063-1.063"/>
<path style="fill:none;stroke:#000000;stroke-width:0.85;stroke-linecap:round;stroke-linejoin:round;" d="M56.791,81.565H44.132"
/>
<path style="fill:none;stroke:#000000;stroke-width:0.85;stroke-linecap:round;stroke-linejoin:round;" d="M43.07,72.409h-24.63"
/>
<path style="fill:none;stroke:#000000;stroke-width:0.85;stroke-linecap:round;stroke-linejoin:round;" d="M32.284,72.409v4.156"
/>
<path style="fill:none;stroke:#000000;stroke-width:0.85;stroke-linecap:round;stroke-linejoin:round;" d="M32.284,76.565h4.69"/>
<path style="fill:none;stroke:#000000;stroke-width:0.85;stroke-linecap:round;stroke-linejoin:round;" d="M36.974,76.565v5.5"/>
<path style="fill:none;stroke:#000000;stroke-width:0.85;stroke-linecap:round;stroke-linejoin:round;" d="M36.974,82.065h6.439"
/>
<path style="fill:none;stroke:#000000;stroke-width:0.85;stroke-linecap:round;stroke-linejoin:round;" d="M43.414,81.279v4.317"
/>
<path style="fill:none;stroke:#000000;stroke-width:0.85;stroke-linecap:round;stroke-linejoin:round;" d="M53.748,85.067
c0.326-0.199,0.51-0.471,0.51-0.846v-2.656"/>
<path style="fill:none;stroke:#000000;stroke-width:1.13;stroke-linecap:round;stroke-linejoin:round;" d="M30.752,85.596h18.005
c2.131,0,4.096,0.016,4.99-0.529"/>
<path style="fill:none;stroke:#000000;stroke-width:1.13;stroke-linecap:round;stroke-linejoin:round;" d="M53.741,85.066h3.329
c0.584,0,1.063-0.479,1.063-1.063v-2.438"/>
<path style="fill:none;stroke:#000000;stroke-width:0.85;stroke-linecap:round;stroke-linejoin:round;" d="M56.507,81.565v2.719
c0,0.313-0.22,0.782-0.813,0.782"/>
<path style="fill:none;stroke:#000000;stroke-width:0.85;stroke-linecap:round;stroke-linejoin:round;" d="M53.023,5.418
c0.609,0,2.016,0.49,2.016,1.662"/>
<path style="fill:none;stroke:#000000;stroke-width:0.85;stroke-linecap:round;stroke-linejoin:round;" d="M55.039,7.081v7.453"/>
<path style="fill:none;stroke:#000000;stroke-width:0.85;stroke-linecap:round;stroke-linejoin:round;" d="M55.039,14.534h4.172
c0.563,0,1.734,0.822,1.734,1.666"/>
<g ewd:pinNo="1">
<text transform="matrix(0.88 0 0 1 29.1323 34.1567)"><tspan x="0" y="0" style="font-family:'ArialMT'; font-size:6.63px;">1</tspan></text>
</g>
<g ewd:pinNo="2">
<text transform="matrix(0.88 0 0 1 11.5947 63.8979)"><tspan x="0" y="0" style="font-family:'ArialMT'; font-size:6.63px;">2</tspan></text>
</g>
<path style="fill:none;stroke:#000000;stroke-width:0.85;stroke-linecap:round;stroke-linejoin:round;" d="M17.573,67.674H8.862
V55.645h8.711V67.674z"/>
<g ewd:pinNo="3">
<text transform="matrix(0.88 0 0 1 20.3057 63.8979)"><tspan x="0" y="0" style="font-family:'ArialMT'; font-size:6.63px;">3</tspan></text>
</g>
<path style="fill:none;stroke:#000000;stroke-width:0.85;stroke-linecap:round;stroke-linejoin:round;" d="M26.284,67.674h-8.711
V55.645h8.711V67.674z"/>
<g ewd:pinNo="4">
<text transform="matrix(0.88 0 0 1 29.0171 63.8979)"><tspan x="0" y="0" style="font-family:'ArialMT'; font-size:6.63px;">4</tspan></text>
</g>
<path style="fill:none;stroke:#000000;stroke-width:0.85;stroke-linecap:round;stroke-linejoin:round;" d="M34.995,67.674h-8.711
V55.645h8.711V67.674z"/>
<g ewd:pinNo="5">
<text transform="matrix(0.88 0 0 1 37.728 63.8979)"><tspan x="0" y="0" style="font-family:'ArialMT'; font-size:6.63px;">5</tspan></text>
</g>
<path style="fill:none;stroke:#000000;stroke-width:0.85;stroke-linecap:round;stroke-linejoin:round;" d="M43.706,67.674h-8.711
V55.645h8.711V67.674z"/>
<g ewd:pinNo="6">
<text transform="matrix(0.88 0 0 1 46.439 63.8979)"><tspan x="0" y="0" style="font-family:'ArialMT'; font-size:6.63px;">6</tspan></text>
</g>
<path style="fill:none;stroke:#000000;stroke-width:0.85;stroke-linecap:round;stroke-linejoin:round;" d="M52.417,67.674h-8.711
V55.645h8.711V67.674z"/>
<g ewd:pinNo="8">
<text transform="matrix(0.88 0 0 1 46.439 75.9272)"><tspan x="0" y="0" style="font-family:'ArialMT'; font-size:6.63px;">8</tspan></text>
</g>
<path style="fill:none;stroke:#000000;stroke-width:0.85;stroke-linecap:round;stroke-linejoin:round;" d="M52.417,79.704h-8.711
V67.674h8.711V79.704z"/>
<g ewd:pinNo="7">
<text transform="matrix(0.88 0 0 1 11.5947 75.9272)"><tspan x="0" y="0" style="font-family:'ArialMT'; font-size:6.63px;">7</tspan></text>
</g>
<path style="fill:none;stroke:#000000;stroke-width:0.85;stroke-linecap:round;stroke-linejoin:round;" d="M17.573,79.704H8.862
V67.674h8.711V79.704z"/>
</g>
</svg>
