﻿<?xml version="1.0" encoding="utf-8"?>
<!-- Generator: Adobe Illustrator 13.0.3, SVG Export Plug-In . SVG Version: 6.00 Build 14948)  -->
<!DOCTYPE svg PUBLIC "-//W3C//DTD SVG 1.0//EN" "http://www.w3.org/TR/2001/REC-SVG-20010904/DTD/svg10.dtd" [
<!ENTITY st0 "fill:#99CA22;stroke:#000000;stroke-width:0.45;stroke-linecap:round;stroke-linejoin:round;">
<!ENTITY st1 "fill:#F7F619;stroke:#000000;stroke-width:0.45;stroke-linecap:round;stroke-linejoin:round;">
<!ENTITY st2 "fill:none;stroke:#FFFFFF;stroke-width:2;stroke-linejoin:round;">
<!ENTITY st3 "fill:#88CADF;stroke:#000000;stroke-width:0.45;stroke-linecap:round;stroke-linejoin:round;">
<!ENTITY st4 "fill:none;stroke:#000000;stroke-width:0.21;stroke-linecap:round;stroke-linejoin:round;">
<!ENTITY st5 "fill:#F5F21F;stroke:#000000;stroke-width:0.45;stroke-linecap:round;stroke-linejoin:round;">
<!ENTITY st6 "font-family:'Arial-BoldMT';">
<!ENTITY st7 "fill:none;stroke:#000000;stroke-width:0.5;stroke-linejoin:round;">
<!ENTITY st8 "fill:#FFFFFF;">
<!ENTITY st9 "font-family:'ArialMT';">
<!ENTITY st10 "font-size:10px;">
<!ENTITY st11 "fill:#99C523;stroke:#000000;stroke-width:0.45;stroke-linecap:round;stroke-linejoin:round;">
<!ENTITY st12 "fill:#FFFFFF;stroke:#000000;stroke-width:1.5;">
<!ENTITY st13 "fill:#CCCCCC;stroke:#000000;stroke-width:0.45;stroke-linecap:round;stroke-linejoin:round;">
<!ENTITY st14 "fill:#F8B20C;stroke:#000000;stroke-width:0.45;stroke-linecap:round;stroke-linejoin:round;">
<!ENTITY st15 "fill:#EF5094;stroke:#000000;stroke-width:0.45;stroke-linecap:round;stroke-linejoin:round;">
<!ENTITY st16 "fill:none;stroke:#FFFFFF;stroke-width:0.6;stroke-linecap:round;stroke-linejoin:round;">

<!ATTLIST svg
xmlns:ewd CDATA #FIXED "http://shcl.co.jp/ewd"
xmlns:a CDATA #FIXED "http://ns.adobe.com/AdobeSVGViewerExtensions/3.0/"
ewd:ver CDATA #IMPLIED
>
<!ATTLIST a
ewd:innerGroupID CDATA #IMPLIED
ewd:figtype CDATA #IMPLIED
ewd:code CDATA #IMPLIED
ewd:pinNo CDATA #IMPLIED >
]>
<svg version="1.0" id="レイヤー_1" onload="call_execInitLoadProc_svg('location')" xmlns:ewd="http://shcl.co.jp/ewd"
xmlns="http://www.w3.org/2000/svg" xmlns:xlink="http://www.w3.org/1999/xlink" x="0px" y="0px" width="518.74px"
height="312.164px" viewBox="0 0 518.74 312.164" style="enable-background:new 0 0 518.74 312.164;" xml:space="preserve" ewd:ver="L2.1">
<style type="text/css">
<![CDATA[

@font-face{font-family:'ArialMT';src:url("data:;base64,\
T1RUTwADACAAAQAQQ0ZGIBY0gEQAAADwAAALaEdQT1OvD72YAAAMWAAAAMRjbWFwA+UD/wAAADwA\
AAC0AAAAAQAAAAMAAAAMAAQAqAAAACYAIAAEAAYAIAAqAC8AMgA6AEYASABOAFAAUwBXAGEAZQBp\
AG8AdAB3AHn//wAAACAAKAAuADEAOgBGAEgAT
ABQAFIAVwBhAGUAaQBsAHIAdwB5////4f/a/9f/\
1v/P/8T/w//A/7//vv+7/7L/r/+s/6r/qP+m/6UAAQAAAAAAAAAAAAAAAAAAAAAAAAAAAAAAAAAA\
AAAAAAAAAAAAAAAAAQAEAgABAQEIQXJpYWxNVAABAQE7+BsB+BgE+BwMFRz6r/0tHBAAHAgMBR6g\
AEiCgSX/i4seoABIgoEl/4uLDAf3XA/3kxD3lRGSHAthEgACAQFlc
kFyaWFsKFIpIFRyYWRlbWFy\
ayBvZiBUaGUgTW9ub3R5cGUgQ29ycG9yYXRpb24gcGxjIHJlZ2lzdGVyZWQgaW4gdGhlIFVTIFBh\
dCAmIFRNIE9mZi4gYW5kIGVsc2V3aGVyZS4vRlNUeXBlIDAgZGVmAAABAAEAAAkCAA8BABIBABsA\
ACcAACkAAC0CADEAADMBADgAAEIAAEYAAEoAAE0DAFMCAFgAAFoAAAAAHwIAAQAcAB4Ac
ADFAR8B\
KwE+AWgB8gIMAiYCRQJWApYCvQMfA6wEkwT5Bd8GbQaKBpkHJgd9B/4IPQkQCWkJtAoe+fD3lBYc\
BQD6lBz7AAf+dKsV+lQcBMD+VAYOIA6R+HP8QxUo9xE39ydG9zwIRvc8afdC90ga9zOl9yy+9yUe\
x/c96Pc89xH3Owj3FQY6+x9WKHFQYi9rK3QnCG77EX37EfsSGvvV7/vU91v71B4OkfeR/EMV+xUG\
91v31O/
31PfVGvcRffcRbvcPHnTvbOti53HHVe869yAI9xUG9xH7O+j7PMf7PQi++yWl+yz7Mxr7\
SGn7Qkb7PB5G+zw3+yco+xEIDvcNyxwErRW59yL1Zthqu3AZfvcNhd6KuAj3JQaJSYM4fijQrtmr\
5Ki5+yIYNm84eDqCtGjETNUw+ww2GGTAXtJW5lotX0NmWvsK4BjY6sPKrKo1nDmdPqAIDiD3Thb3\
Yfdh+2EHDiByBPg9HAXsBfc
kBvw8HPoUBQ75jxb7SBwEewZgYlJhRWJEYkxsU3YI90IH8LrjxdbO\
1s7BzarKCPcIBg76m/dBFftB/l0HiraStZqzpM2yzMLLwcvZ1fLf9zP3F/cA8sPYCMPXp9PPGtJy\
yFi8HrxYSKM5GzRGcVdXH1dXcUOKL/tNnhiY9x669N7UCNPe9wOv9x8b9yH3A2Q93R/dPbQq+wca\
UH9Sc1Iec1JjUFRMU0wuNfsV+wH7ADBGTmxrbGp
ya3dqCA4g90357RX3Yfdh+2EH+2H97RX3Yfdh\
+2EHDvjT9zwWHAW6+nH7Qf2v/Fr5RPtB/UT9LgcO+bf3OBYcBbr3Vvzu+Y747vdWHPpG+1b5R/2O\
/UcHDvcqFhwFuvdWHPrz+Wb7QQcO+pr3LBYcBbr3uAf37/6iqyqiQ5pbGZzApdqu8vfz+pAY95kc\
+kb7TxwEywb8Phz7NQX7Qwb8PBwE4AUc+yAHDvm39zAWHAW691sH+ZY
c+4EFHAR/904c+kb7Wwf9\
lhwEgAUc+4AHDvlG9zIWHAW6+L0H7NaGgr4f03/HdLxqvGmyXKlOCKhOmklCGvsRYyI8NR40PPsk\
YPtjG/wM/OgG+ZUE+A8G9xHkorrAH8C6pczgGsh8wGy3Hmy2YqhYmQiUak+PMxv8CwYO+bf3NRYc\
Bbr5Hgf3F+5+cc8fz3DBXbRICLRIn0I6GiNpM0hEHkhEI137IXi+crJzpnPEV8BKvj33k/w
jGPuI\
BvtW98VS413OZroZZrprq26ebp5tmG2SCJB1Z41ZG/t1/R8G+ccE+DUG5NCUnr0fvZ2xqKW0CKWz\
mLe6GtByxFm4HrhYPKH7ARv8ZAYO+Ubn+GsV90ublEKfT6tcGapcvGXObghuztZ83hvVzJahxB/E\
obWpp7IIprGZtbgauX6zcK4ecK1fqE6iZJo0o/sbrPsbqy2pVahFsFe4acIIaMF6yM4a1aDQtcwe\
tcvIvNysC
Kzc5JzuG/cB63po3h/eaMpXuEe4R6M+jjX7Tn0Ygehp0VK6CLpRNqP7BRv7CTV2YFYf\
VWBwV04aVp5gsWkesGntaPcyaPcxZ/cAbMZw4GTKWbRPCLROn0Y8Gj11Ql5GHl5GS1U4ZQhkNy14\
Ihv7GfsDnrIyHzGyRcVY2VjYcOOI7QgOHATp+DIW/BkcBboF91sG93P+VaMmoCecKBmw9zGh5ZKj\
96v6chj3fgb3Zv16wPtMsftBo
vs2GZ7oo/Wp9wz3evpCGPdXBvwmHPpGBftPBvvJ+vFx6HzFhqAZ\
fEh8UX5c+8v+8RgO+dD3FxVIUktjTnQIdE1Jf0Qb+wkyqMRMH0zEbNPkGr+Xu6O2HqK2qq2ypbGl\
tp+7mK6UwZTSlPclnPag0KMIjKSLmpIa1Hq/aaketF1HnzAbNk18bmMfYm1tVnhA+0SjGJvWpciw\
urC5wK/QpAik0NyX5hvm1IB2xB/EdrRwpmumap1il
loIkWyOVDsa+4QH+zuPIZNfHpJemmGiYgj7\
UAZ4sH+3hr0IfPgmFUpwKXX7F3hBgFd/bH5sfnR3enIIenGDbmwaW51jsGsea6/Ae9Eb0MmaqsEf\
wamztKTACJ60lcfaGg758vfqFfdOdG77AVQ3PE8ZTzwlbfsPG/sv+w+76zAfMOpd9xr3QRr3R7n3\
HufuHu7n9wu89ycb9yL3CFsq5R/lKrj7HPtDGoCLe4p2Hv2sBpL7Cawyx
k0ITcbVbOQbzcOcrrof\
uq6wwqbXCPzj97cV+OUGg+R0zma4CNBSQK4wGzhGb1RTH1JUbEGFLggO+3H3HBwE6xX3Y/dI+2MH\
+0gc+xUV+rr3SP66Bw77cfcXFhwFuvdIHPpGBw76mvcbFvq69zX7KQesv7i1wqsIqsLKm9Ib2st7\
ar4fvWquXqBQCPcQ3/cByfcbG/TcblHEH8RQpzH7DRr9bftH+TEH04W/gKsef6p2pWyeCJ5sZ
5Vi\
G0BNclpaH1pZcjv7ARr8/ftI+UYH23zHbrMes25bn0gbWF1+cGAfYHBrZHhYCHhYgUEqGvy7Bw73\
Gxb6uvc2+ysH9wnZ9wXF9ycby8aAdMEfwHSzbKZmpmadXpZYCJJqjlA4Gv0h+0j5GgfUhMJ9sB59\
r3KoaKEIoGdhllsbPklzWlQfU1pvL/scGvzYBw7P+KcV91nC9yX3Aeoe2ub3BLL3Fxv3JvcLWyzo\
H+grufsY+z0
a+x13IGI9HmI8T049YAhgPDZ1Lhv7KfsMu+owHy/qXfce90ca900W+xypJcZIHkfG\
1mnlG+TWrc/GH8bPqfP3Hxr3F23vUM8ezk9BrTIbMUBpSFAfUEhtJfscGg6R9xkW+rr3Nvs1B7TW\
sr2uowijrrGXtRvIyHhkyh9N+zsFpV9fmF8bZGd/dGwfbHN0an5hCHdLgUU/GvzABw738Mr30RX3\
RqeVRKdUuWUZZbjLeN0b3sicrbM
fs6yfs7gatHmraKIecptOnymk+xisMKhYpFijZK1xtghwtn66\
vxq6lrehtB6gs6mssKanoLGcvJoImbu/ksIb3tV/c8ofynO5a6liqWKgVJZG+0RzGIPCdLVlqgiq\
ZFWaRRs4UH1waB9ocHlrZhp0knaaeB6aeKJ7qn6dhMB843P3E2nkb752vXWya6hiCKhimVdOGk96\
U2hWHmhWWGJJbghuSUB8OBv7HiKoxEMfQsRd4Hf3BQg
OIPik9zUVpfszBYBYXoZjG0pYlaBnH2eg\
cqZ8rQh8rITS9wAa+Pf7GPcg9xj3mwf3R/cABfwH90n7IPtJ/QEHWI5qknwekXyVgJqCCIKZn4em\
G5+ljZCsHw75t/ffFvvZ+roF904G9z38+cr7eI6WndSt9xsZ9z35AgX3TQb3M/z8wPtfyPdh90r4\
+gX3Qwb74P66BftPBvs9+RBi90n7a/3FBQ738PcT/C0Vd/c9BYCyroaoG7O
rkpijH6OYn56ao5ad\
nrik0o6VkZqSnvwn+rwY91YG93H8+6g9pDmiNRmg3qPbqNr3d/j/GPdIBvwo/sxg+wlpO3NfGWtQ\
Zl9icAhvYll9UhtoZZKaYB8OHARzFPk4FQABAAAACgAeACwAAURGTFQACAAEAAAAAP//AAEAAAAB\
a2VybgAIAAAAAQAAAAEABAACAAAAAQAIAAEAdgAEAAAACQAcACIAKAA2AEAARgBkAGoAcAABAAf
/\
aAABAAX/HQADAAH/tAAS/2gAHv+0AAIAAf/bAAX++AABABL/2wAHAAX/jwAJ/9sAE/+0ABT/2wAZ\
/9sAGv/bAB7/7gABAAX/jwABAAX/jwABAAX/aAABAAkABwAKAAwADwAQABIAGgAdAB4=")}

@font-face{font-family:'Arial-BoldMT';src:url("data:;base64,\
T1RUTwADACAAAQAQQ0ZGIOZ/0WcAAACAAAAFL0dQT1Ovjb8UAAAFsAAAAFBjbWFwAPUAzAAAADwA\
AABEAAAAAQAAAAMAAAAMAAQAOAAAAAoACAACAAIAMgBSAGIAZv//AAAAMQBRAGEAZf///9D/sv+k\
/6IAAQAAAAAAAAAAAAABAAQCAAEBAQ1B
cmlhbC1Cb2xkTVQAAQEBOvgbAfgUBPgcDBUc+vr9lxwQ\
ABwIFQUeoABIgoEl/4uLHqAASIKBJf+LiwwH92APjBD3bRGTHAUnEgACAQFlckFyaWFsKFIpIFRy\
YWRlbWFyayBvZiBUaGUgTW9ub3R5cGUgQ29ycG9yYXRpb24gcGxjIHJlZ2lzdGVyZWQgaW4gdGhl\
IFVTIFBhdCAmIFRNIE9mZi4gYW5kIGVsc2V3aGVyZS4vRlNU
eXBlIDAgZGVmAAABABIBADIBAEIB\
AEYBAAkCAAEAGwBAAMQBjQIeAvADagPuBDhZ95QWHAUA+pQc+wAH/nSrFfpUHATA/lQGDvm6Fvut\
+rcGJCv7DUT7H10I95MH1KPbueHO4c7G2avkCPd4Bg76oPeZFfuZ/m0Hlu6r6MDkwOP19wn3Mfcm\
9xP3CtjbqLUIssWexMQaynq7aq0erGlcnFAbUF15aGgfaGh3UIY5+6ynGJz3L7/3
A+POCM7j9wKt\
9xgb9yX3BWQ93h/ePbQq+wgaSX9MdFAec09lTFhKaWBOTDI6MjpTVXRwc3B4cXxyCA6SHAUx904V\
1FfaYuBs+wH7ZRhemGCeYKKCkEm2+w7dCGErIXb7CRv7dftFzfcZ+xMf+xT3GUv3TveEGveDy/dP\
9xT3GR73GfcU90LN928b9233QUn7GfcTH/cT+xnL+0/7gxr7E3n7A2grHnBCYURQRgj7gvc7FbG4\
qM
GeygieypTU3Rr3PWb3E0DfHt5AKrX7DRv7DSphN0AfQDdl+xL7PRr7P7H7FNY2HjbW6WD3Bxu2\
s5KZsR9Psk6qTaHe9z0Y7GroWeRICA4g9yoWHAW6+QMH9zH3Bn5x0h/ScMNctkgItkigPjQa+wJr\
MEpEHkpDK177FXjLZsBitV60XsM80vsG90f7shj79gb7avfTP/cGV9NvqRlvqG2gbJYIlmxZkEcb\
T/z4BvniBPdvBvci5J
GXrh+ul6egn6gIn6iVsLcavH6zcaoecKlmnluTCI5zQ437DBv7ewYO9/n5\
dhX7k7mo8rzX0bwZvNHzpPceG/cR6XxuyB/IbbdlpF4IpF2XN/sOGoj73AUukEaUXx6UXptcpFgI\
+6oGhJ6CpoCwhpyIlomQW1xYaFR0CHRUUX9NG/sBNanGTB9MxmvW5hrHmcGouh6ourOvv6S+pNag\
7J73F6Tmor6gCKcHwX6ycKIeonBZlkEbWW
SBeG8fb3d0aHpaCPgM+3gVZ39SfT16PXpYe3N7CGZx\
eWpjGmSaaahuHm6osX24G767nKy5H62koaqWsAiSo4+5zhoO++P3GxYcBbr3rfykB+7i8bz3Cxv3\
FfZcLuAf4C21+xv7Qxr7SWD7IDUpHik0Ilr7DxtOUJqqUB9QqVi4YMYI+zAHnfi+FfsCnDquVh5A\
vMtm3BvJwKbAtx+2wKHe9wYa9w1141/BHsBfU6ZGG0hTcVdeH1
5WdTwgGg75jvfmFfesXGckUj0+\
VhlVPSpw+wkb+037HMf3DTIfRexo9w73Jxr3RLn3HufvHu7n9wi99yEb9zL3EVcj5h/mIrf7NIf7\
awj9VAaNOKJKtl0IXLbBdMwbt7CXo6kfqaOisprACJv3sBWJ3HbJY7YItWNaoFIbTlh1XmMfY153\
T4w+CA7+HKP6uhX3MNsG5JXOnrcenreur76nCKa+y5nZG9vZf3PYH2X7WAWWXmCQYh
tiboJ4eh95\
eIJmVRpA92b7cftm/d37rfnd+zAHDhwEcxQcBjIVAAABAAAACgAeACwAAURGTFQACAAEAAAAAP//\
AAEAAAABa2VybgAIAAAAAQAAAAEABAACAAAAAQAIAAEAEgAEAAAAAQAMAAEAAf+PAAEAAQAB")}
]]>
</style>
<script type="text/javascript" xlink:href="../../../../../system/js/ewd/fig/svgfig.js"></script>

<g id="イラスト">
<path style="&st5;" d="M194.725,183.406l-0.499-1.607l0.678-0.305l0.499,1.606L194.725,183.406z"/>
<path style="&st5;" d="M196.354,182.736l-0.499-1.607l0.748-0.373l0.499,1.605L196.354,182.736z"/>
<path style="&st5;" d="M198.13,181.988l-0.5-1.607l1.029-0.374l0.499,1.607L198.13,181.988z"/>
<path style="&st5;" d="M199.579,179.708c1.929-0.644,4.438-0.077,6.393,1.442l1.06,0.828c1.92,1.5,5.134,4.013,6.666,5.084
c0.766,0.536,1.204,1.394,1.267,2.479c0.104,1.801-0.912,4.188-2.312,5.434c-1.971,1.752-7.162,2.533-10.294,0.027l-9.161-7.291
c-1.167-0.926-3.403-1.547-4.76-1.547c-0.465,0-0.841-0.377-0.841-0.842s0.376-0.842,0.841-0.842c1.669,0,4.297,0.715,5.806,1.911
l9.166,7.296c2.522,2.018,6.779,1.225,8.125,0.026c1.024-0.91,1.825-2.776,1.75-4.079c-0.032-0.559-0.218-0.961-0.552-1.193
c-1.568-1.1-4.679-3.527-6.737-5.138l-1.058-0.825c-1.498-1.164-3.438-1.639-4.844-1.171L199.579,179.708z"/>
<g>
<path style="&st1;" d="M188.807,191.855v-2.25l-1.893-1.144l-3.046,0.833v2.251l1.893,1.142L188.807,191.855z"/>
<path style="&st4;" d="M183.869,189.297l1.893,1.144"/>
<path style="&st4;" d="M185.761,192.688v-2.248l3.046-0.834"/>
</g>
<g>
<path style="&st11;" d="M190.7,192.998v-2.251l-1.893-1.142l-3.045,0.832v2.25l1.892,1.143L190.7,192.998z"/>
<path style="&st4;" d="M185.761,190.438l1.892,1.143"/>
<path style="&st4;" d="M187.653,193.83v-2.25l3.046-0.833"/>
</g>
<path style="&st0;" d="M187.871,197.936c-0.303,0.132-0.622,0.248-0.958,0.354c-0.136,0.041-0.271,0.027-0.398-0.01l-0.103,0.024
c-0.3,0.076-0.594-0.106-0.67-0.407c-0.075-0.296,0.112-0.596,0.402-0.679c0.087-0.121,0.203-0.224,0.356-0.271
c2.185-0.673,3.076-1.8,3.175-2.559c0.085-0.655-0.396-1.104-0.815-1.366c-0.329-0.205-0.428-0.641-0.223-0.968
c0.206-0.33,0.638-0.43,0.966-0.224c1.07,0.669,1.603,1.667,1.463,2.738c-0.071,0.547-0.315,1.075-0.698,1.563
C189.914,196.686,188.978,197.386,187.871,197.936z"/>
<g>
<path style="&st3;" d="M321.713,149.802v-2.251l-1.94-1.205l-4.173,1.138v2.251l1.941,1.205L321.713,149.802z"/>
<path style="&st4;" d="M315.6,147.485l1.941,1.206"/>
<path style="&st4;" d="M317.541,150.941v-2.25l4.172-1.139"/>
</g>
<g>
<path style="&st3;" d="M354.927,158.283v-3.139l-1.894-1.142l-1.672,0.415v3.14l1.893,1.142L354.927,158.283z"/>
<path style="&st4;" d="M351.361,154.417l1.893,1.142"/>
<path style="&st4;" d="M353.254,158.695v-3.137l1.673-0.415"/>
</g>
<path style="&st3;" d="M351.958,158.873c0.172-0.072,0.216-0.046,0.327-0.098c0.188-0.086,0.366-0.196,0.526-0.324l-0.806-0.484
c-0.023,0.015-0.047,0.033-0.073,0.045c-0.145,0.066-0.35,0.154-0.6,0.261C351.503,158.486,351.958,158.873,351.958,158.873z"/>
<g>
<path style="&st3;" d="M350.777,162.77v-2.483l-1.896-1.144l-1.672,0.414v2.484l1.895,1.143L350.777,162.77z"/>
<path style="&st4;" d="M347.212,159.557l1.895,1.144"/>
<path style="&st4;" d="M349.104,163.184V160.7l1.673-0.414"/>
</g>
<path style="&st0;" d="M168.818,200.044c-0.2-0.235-0.554-0.265-0.791-0.063c-0.014,0.011-1.398,1.178-2.859,1.784
c-1.124,0.47-1.812,0.244-2.374-0.771c-0.278-0.503-0.612-1.302-0.936-2.074l-0.62-1.427c-0.647-1.356-1.638-2.023-2.792-1.879
c-0.656,0.082-1.616,0.514-2.349,0.886l0.679,0.422v0.496c0.645-0.319,1.37-0.636,1.809-0.689c0.244-0.031,0.985-0.123,1.64,1.25
l0.597,1.375c0.335,0.801,0.681,1.629,0.989,2.186c0.836,1.513,2.146,1.949,3.787,1.266c1.626-0.677,3.093-1.914,3.154-1.966
C168.99,200.635,169.019,200.281,168.818,200.044z"/>
<path style="&st0;" d="M187.512,197.37c-0.137-0.444-0.608-0.694-1.052-0.558c-3.176,0.978-7.154,1.834-10.352,2.522l-1.221,0.264
c-3.054,0.664-6.601-0.448-8.761-1.849c-2.259-1.46-4.576-4.035-4.599-4.062c-0.027-0.031-0.06-0.063-0.091-0.089l-0.329-0.273
c-0.952-0.8-1.937-1.628-3.668-1.917l-0.548-0.087c-1.469-0.229-2.738-0.428-4.181-1.684c-2.521-2.19-5.855-2.732-8.918-1.448
c-2.8,1.173-4.911,4.48-4.911,7.694c0,3.467,0.904,13.479,2.091,17.533c0.342,1.168,1.198,2.949,2.484,4.125
c0.926,0.846,7.34,4.872,8.068,5.327c0.02,0.013,0.04,0.023,0.06,0.034l0.133,0.067c1.528,0.793,3.261,1.69,4.825,1.978
c1.797,0.326,10.596,0.844,13.301,0.996v-1.688c-2.779-0.159-11.336-0.663-13-0.966c-1.315-0.24-2.929-1.076-4.352-1.813
c0,0-0.065-0.033-0.102-0.054c-2.705-1.692-7.189-4.567-7.799-5.126c-0.964-0.881-1.701-2.318-2.004-3.354
c-1.107-3.783-2.023-13.633-2.023-17.063c0-2.491,1.74-5.248,3.878-6.144c2.459-1.031,5.137-0.597,7.163,1.168
c1.809,1.572,3.519,1.839,5.026,2.074l0.53,0.084c1.278,0.214,1.977,0.801,2.862,1.545c0,0,0.222,0.187,0.292,0.244
c0.264,0.293,2.539,2.78,4.895,4.306c2.453,1.587,6.507,2.845,10.033,2.079l1.218-0.265c3.229-0.694,7.247-1.562,10.491-2.561
C187.399,198.285,187.648,197.814,187.512,197.37z"/>
<path style="&st5;" d="M183.969,186.745c-0.277,0.789-0.09,1.641,0.493,2.39l1.219-0.333c-0.592-0.536-0.839-1.157-0.654-1.685
c0.22-0.626,1.159-1.305,3.135-1.327c0.029-0.001,0.054-0.013,0.082-0.019c0.022,0,0.044,0,0.065-0.007
c0.01-0.004,0.019-0.011,0.029-0.015c0.038-0.015,0.071-0.032,0.104-0.052c0.02-0.01,0.04-0.021,0.057-0.031
c0.008-0.007,0.014-0.016,0.021-0.022c0.03-0.025,0.054-0.057,0.078-0.089c0.014-0.017,0.03-0.03,0.041-0.05
c0.005-0.009,0.006-0.019,0.01-0.025c0.017-0.034,0.028-0.068,0.038-0.104c0.009-0.021,0.02-0.04,0.023-0.063
c0.001-0.007-0.001-0.012,0-0.018c0-0.004,0.004-0.009,0.004-0.014c0.001-0.011-0.002-0.021-0.003-0.03
c0-0.011,0.006-0.02,0.006-0.029c0-0.026-0.013-0.053-0.018-0.08c-0.001-0.021,0-0.045-0.006-0.064
c-0.003-0.013-0.01-0.02-0.014-0.029c-0.014-0.038-0.032-0.07-0.054-0.105c-0.009-0.021-0.017-0.039-0.03-0.057
c-0.006-0.007-0.015-0.013-0.021-0.02c-0.028-0.031-0.06-0.059-0.093-0.082c-0.015-0.013-0.029-0.028-0.047-0.038
c-0.008-0.005-0.017-0.006-0.026-0.01c-0.034-0.019-0.07-0.029-0.108-0.038c-0.02-0.009-0.04-0.021-0.062-0.023
c-0.009-0.001-0.02-0.001-0.029-0.003h-0.001c-3.261-0.479-6.768,0.021-11.363,1.618c-3.324,1.155-5.874,3.313-6.346,5.372
c-0.124,0.539-0.096,1.044,0.07,1.501l1.096-0.304c-0.124-0.277-0.155-0.588-0.073-0.946c0.31-1.354,2.171-3.337,5.525-4.528
c-0.417,0.563-0.67,1.198-0.708,1.875c-0.058,1.021,0.361,1.995,1.127,2.728v-0.773l0.64-0.177
c-0.446-0.482-0.683-1.079-0.647-1.711c0.061-1.074,0.875-2.002,2.232-2.546c1.618-0.646,3.18-0.997,4.961-1.088
C184.376,185.984,184.113,186.335,183.969,186.745z"/>
<g>
<path style="&st3;" d="M355.662,163.496v-3.141l-1.895-1.143l-1.672,0.414v3.14l1.895,1.143L355.662,163.496z"/>
<path style="&st4;" d="M352.098,159.629l1.895,1.144"/>
<path style="&st4;" d="M353.99,163.909v-3.14l1.672-0.414"/>
</g>
<g>
<path style="&st3;" d="M350.777,159.518v-1.943l-1.896-1.142l-1.672,0.414v1.944l1.895,1.143L350.777,159.518z"/>
<path style="&st4;" d="M347.212,156.845l1.895,1.143"/>
<path style="&st4;" d="M349.104,159.932v-1.944l1.673-0.413"/>
</g>
<g>
<path style="&st15;" d="M305.216,159.6v-2.252l-1.893-1.142l-3.046,0.833v2.25l1.892,1.143L305.216,159.6z"/>
<path style="&st4;" d="M300.277,157.04l1.892,1.142"/>
<path style="&st4;" d="M302.169,160.432v-2.25l3.047-0.834"/>
</g>
<g>
<path style="&st15;" d="M312.513,158.486v-2.25l-2.802-1.852l-2.301,0.635v2.25l2.801,1.854L312.513,158.486z"/>
<path style="&st4;" d="M307.41,155.02l2.801,1.853"/>
<path style="&st4;" d="M310.211,159.123v-2.251l2.302-0.635"/>
</g>
<g>
<path style="&st15;" d="M318.59,156.618v-2.251l-2.801-1.853l-2.302,0.635v2.25l2.801,1.852L318.59,156.618z"/>
<path style="&st4;" d="M313.487,153.15l2.801,1.853"/>
<path style="&st4;" d="M316.288,157.252v-2.25l2.302-0.635"/>
</g>
<g>
<path style="&st1;" d="M182.64,194.68v-2.252l-2.801-1.852l-2.301,0.635v2.252l2.8,1.853L182.64,194.68z"/>
<path style="&st4;" d="M177.538,191.211l2.8,1.854"/>
<path style="&st4;" d="M180.338,195.314v-2.252l2.302-0.637"/>
</g>
<g>
<path style="&st1;" d="M175.627,196.643v-2.25l-2.801-1.853l-2.301,0.634v2.252l2.8,1.853L175.627,196.643z"/>
<path style="&st4;" d="M170.525,193.174l2.8,1.854"/>
<path style="&st4;" d="M173.325,197.277v-2.25l2.302-0.638"/>
</g>
<g>
<path style="&st3;" d="M307.107,160.74v-2.251l-1.894-1.143l-3.047,0.832v2.252l1.893,1.143L307.107,160.74z"/>
<path style="&st4;" d="M302.169,158.182l1.893,1.144"/>
<path style="&st4;" d="M304.062,161.573v-2.25l3.048-0.834"/>
</g>
<g>
<path style="&st11;" d="M174.782,226.639v-2.25l-1.893-1.143l-3.045,0.833v2.251l1.892,1.141L174.782,226.639z"/>
<path style="&st4;" d="M169.844,224.079l1.892,1.144"/>
<path style="&st4;" d="M171.736,227.471v-2.248l3.046-0.834"/>
</g>
<g>
<path style="&st14;" d="M176.674,227.779v-2.25l-1.893-1.144l-3.046,0.833v2.25l1.893,1.145L176.674,227.779z"/>
<path style="&st4;" d="M171.736,225.221l1.893,1.144"/>
<path style="&st4;" d="M173.628,228.613v-2.252l3.046-0.832"/>
</g>
<path style="&st15;" d="M310.759,150.723c-1.319-0.849-3.176-1.184-5.669-1.023c-2.981,0.192-7.698,1.721-9.963,3.689
c-0.233,0.204-0.258,0.558-0.056,0.792c0.01,0.01,0.021,0.015,0.03,0.024c-0.054,0.095-0.084,0.204-0.071,0.321
c0.033,0.309,0.31,0.532,0.617,0.499c0.957-0.101,2.131,0.778,3.488,1.796c0.371,0.275,0.749,0.56,1.142,0.836v-0.618l0.774-0.213
c-0.425-0.297-0.839-0.602-1.243-0.904c-1.019-0.762-1.942-1.449-2.854-1.792c1.864-0.874,4.252-1.498,6.211-0.39
c1.518,0.857,3.331,2.006,4.244,2.593v-1.313l0.02-0.006c-0.995-0.632-2.452-1.539-3.711-2.25c-1.134-0.641-2.459-0.86-3.927-0.669
c1.858-0.702,3.874-1.178,5.369-1.274c2.215-0.142,3.895,0.143,4.99,0.847l3.336,2.144v-0.661l0.73-0.203L310.759,150.723z"/>
<g>
<path style="&st14;" d="M190.213,206.641v-3.14l-1.496-0.787l-2.023,0.579v3.141l1.495,0.787L190.213,206.641z"/>
<path style="&st4;" d="M186.695,203.293l1.495,0.789"/>
<path style="&st4;" d="M188.19,207.221v-3.139l2.023-0.581"/>
</g>
<path style="&st15;" d="M278.524,162.996c0.021-0.021,1.981-2.063,3.434-2.83c1.386-0.732,3.734-0.846,5.359,0.395
c0.912,0.693,1.896,1.612,2.937,2.589c0.931,0.868,1.895,1.771,2.843,2.539c2.323,1.881,5.343,2.329,7.179,1.066
c0.783-0.54,1.229-1.316,1.253-2.191c0.026-1.074-0.581-2.227-1.592-3.003c-0.001,0-0.194-0.148-0.194-0.148
c-1.646-1.265-3.349-2.573-4.644-4.041c-0.373-0.421-0.513-0.857-0.42-1.295c0.112-0.523,0.529-0.961,0.885-1.122
c0.425-0.192,0.313-0.811,0.119-1.234c-0.19-0.423-0.392-0.491-0.814-0.298c-0.901,0.41-1.621,1.313-1.833,2.302
c-0.205,0.959,0.08,1.941,0.803,2.761c1.402,1.59,3.249,3.009,4.879,4.262l0.194,0.147c0.573,0.44,0.948,1.095,0.934,1.623
c-0.009,0.337-0.18,0.614-0.521,0.853c-1.216,0.835-3.438,0.41-5.165-0.99c-0.903-0.729-1.844-1.608-2.752-2.46
c-1.073-1.004-2.088-1.951-3.065-2.696c-2.204-1.681-5.273-1.545-7.168-0.543c-1.689,0.896-3.771,3.063-3.86,3.154L278.524,162.996
z"/>
<path style="&st15;" d="M275.813,163.329l1.217,1.164l0.746-0.749l-1.215-1.163L275.813,163.329z"/>
<path style="&st15;" d="M274.505,164.686l1.217,1.164l0.563-0.606l-1.218-1.163L274.505,164.686z"/>
<path style="&st15;" d="M273.617,165.762l1.216,1.164l0.234-0.281l-1.218-1.163L273.617,165.762z"/>
<g>
<path style="&st11;" d="M156.777,199.17v-2.25l-1.942-1.205l-4.171,1.14v2.252l1.942,1.204L156.777,199.17z"/>
<path style="&st4;" d="M150.664,196.854l1.942,1.204"/>
<path style="&st4;" d="M152.606,200.311v-2.252l4.171-1.139"/>
</g>
<g>
<path style="&st11;" d="M200.358,187.293v-2.251l-2.801-1.853l-2.302,0.635v2.251l2.801,1.853L200.358,187.293z"/>
<path style="&st4;" d="M195.256,183.824l2.801,1.854"/>
<path style="&st4;" d="M198.057,187.928v-2.25l2.302-0.636"/>
</g>
<g>
<path style="&st11;" d="M159.686,216.787v-4.396l-2.801-1.852l-2.302,0.635v4.396l2.801,1.853L159.686,216.787z"/>
<path style="&st4;" d="M154.583,211.174l2.801,1.854"/>
<path style="&st4;" d="M157.384,217.422v-4.396l2.302-0.636"/>
</g>
<path style="&st0;" d="M160.02,193.195c0.016-0.025,1.587-2.521,2.405-3.609c0.616-0.82,2.745-1.829,5.694-2.697
c2.6-0.765,21.021-4.091,22.656-4.091c1.585,0,3.417,0.702,4.481,1.414v-0.388l0.979-0.271c-0.025-0.026-0.043-0.059-0.075-0.082
c-1.189-0.893-3.421-1.796-5.386-1.796c-1.979,0-20.603,3.44-22.972,4.139c-1.205,0.354-2.991,0.945-4.402,1.689
c0.394-0.673,0.794-1.354,1.182-2.019l2.683-4.537c0.394-0.619,1.239-1.104,2.204-1.265c0.042-0.009,0.08-0.012,0.121-0.017v-0.474
l1.779-0.438c-0.543-0.242-1.284-0.313-2.083-0.18c-1.29,0.214-2.398,0.875-2.967,1.768l-2.705,4.573
c-1.611,2.753-3.437,5.872-4.168,7.021c-0.033,0.055-0.05,0.109-0.064,0.169c-0.177,0.275-0.293,0.463-0.311,0.488"/>
<g>
<path style="&st11;" d="M176.746,182.547v-2.572l-2.801-1.853l-4.354,1.073v2.571l2.801,1.854L176.746,182.547z"/>
<path style="&st4;" d="M169.59,179.195l2.801,1.854"/>
<path style="&st4;" d="M172.391,183.622v-2.573l4.355-1.074"/>
</g>
<g>
<path style="&st3;" d="M299.325,149.167v-2.573l-2.801-1.852l-4.354,1.074v2.573l2.802,1.853L299.325,149.167z"/>
<path style="&st4;" d="M292.17,145.816l2.802,1.853"/>
<path style="&st4;" d="M294.972,150.242v-2.573l4.354-1.075"/>
</g>
<path style="&st0;" d="M157.373,224.455c2.055-0.921,3.444-2.659,3.755-4.734c0.382-2.549-0.342-4.348-2.154-5.344
c-0.271-0.147-0.612-0.05-0.762,0.223c-0.149,0.271-0.05,0.611,0.221,0.763c1.376,0.757,1.895,2.129,1.585,4.192
c-0.273,1.823-1.589,3.336-3.519,4.045"/>
<path style="&st14;" d="M191.096,198.364c-0.75,0.019-1.405,0.429-1.754,1.099c-0.501,0.961-1.144,2.354-1.363,3.521
c-0.057,0.305,0.144,0.597,0.448,0.651c0.305,0.06,0.598-0.142,0.655-0.444c0.204-1.089,0.874-2.479,1.255-3.211
c0.218-0.418,0.586-0.489,0.786-0.494c0.414-0.011,0.811,0.225,1.037,0.61l1.099,1.666l0.4,0.584
c0.407,0.679,1.684,1.526,3.132,1.192c0.071-0.021,4.741-1.313,5.559-1.495c0.169-0.038,0.249,0.014,0.299,0.063
c0.135,0.134,0.235,0.452,0.151,0.868c-1.458,7.287-3.068,13.597-4.418,17.311c-0.902,2.48-3.347,4.63-6.884,6.051
c-5.344,2.146-11.961,2.222-16.089,0.186c-0.278-0.14-0.614-0.023-0.751,0.254c-0.137,0.278-0.023,0.614,0.255,0.752
c4.394,2.168,11.386,2.105,17.004-0.148c3.837-1.541,6.508-3.923,7.521-6.708c1.369-3.765,2.996-10.133,4.464-17.472
c0.148-0.74-0.03-1.465-0.467-1.894c-0.35-0.342-0.821-0.469-1.327-0.354c-0.846,0.188-5.398,1.447-5.591,1.503
c-0.921,0.212-1.72-0.395-1.894-0.683l-0.451-0.662l-1.041-1.575C192.698,198.793,191.919,198.345,191.096,198.364z"/>
<path style="&st3;" d="M366.851,172.936l0.767-0.211c-0.931-0.541-2.146-1.009-3.353-1.434l-3.63-1.203
c-2.846-0.932-6.743-2.206-7.744-2.618l-1.324-0.523c-1.257-0.485-2.555-0.988-3.534-1.578l-1.229-0.721
c-1.586-0.923-3.983-2.316-5.546-3.453c-1.909-1.39-2.559-3.955-2.988-7.648c-0.475-4.079-1.117-7.004-3.009-9.888
c-1.397-2.133-4.19-3.302-7.114-2.977c-2.511,0.279-4.1,1.939-4.36,4.554c-0.188,1.871,0.133,4.682,0.949,8.357
c0.323,1.463-0.027,3.959-1.818,4.665c-2.058,0.814-5.909,1.95-8.361,2.344c-3.055,0.491-5.855,0.112-8.565-1.155
c-0.353-0.166-0.77-0.016-0.935,0.336c-0.164,0.352-0.014,0.77,0.339,0.934c2.974,1.396,6.044,1.812,9.386,1.271
c2.625-0.422,6.537-1.586,8.653-2.424c2.578-1.021,3.113-4.284,2.672-6.273c-0.783-3.528-1.096-6.19-0.924-7.912
c0.14-1.363,0.789-3.041,3.12-3.3c2.404-0.267,4.679,0.656,5.788,2.352c1.738,2.651,2.339,5.411,2.789,9.281
c0.472,4.069,1.232,6.933,3.556,8.621c1.619,1.178,4.057,2.594,5.666,3.53l1.214,0.711c1.084,0.649,2.438,1.177,3.746,1.684
l1.303,0.517c1.049,0.432,4.813,1.663,7.841,2.652l3.6,1.192c1.069,0.377,2.222,0.813,3.055,1.289v-0.969h-0.007V172.936z"/>
<path style="&st3;" d="M350.474,166.82c0.62-0.808,1.895-1.12,3.726-1.252c0.885-0.063,1.521-0.536,1.746-1.302
c0.259-0.877-0.087-2.041-0.753-2.541c-0.188-0.14-0.449-0.103-0.59,0.085c-0.141,0.187-0.103,0.448,0.084,0.59
c0.354,0.265,0.626,1.032,0.449,1.63c-0.125,0.426-0.461,0.661-0.999,0.698c-2.006,0.145-3.661,0.782-4.479,1.723"/>
<path style="&st3;" d="M350.521,166.713c0.026-0.561,0.299-1.304,0.584-2.091c0.42-1.146,0.895-2.445,0.817-3.705
c-0.076-1.297-0.661-2.172-1.791-2.674c-0.213-0.095-0.46,0.001-0.556,0.213c-0.094,0.213,0,0.461,0.214,0.556
c0.848,0.377,1.234,0.963,1.293,1.955c0.025,0.417-0.026,0.854-0.119,1.292c-0.165-0.424-0.43-0.751-0.809-0.893
c-0.221-0.082-0.461,0.028-0.542,0.245c-0.082,0.219,0.026,0.461,0.246,0.543c0.434,0.162,0.639,1.433,0.263,2.559
c-0.021,0.064-0.021,0.13-0.013,0.193c-0.225,0.635-0.404,1.233-0.431,1.766"/>
<g>
<path style="&st3;" d="M371.788,175.494v-2.251l-1.895-1.143l-3.045,0.832v2.25l1.894,1.144L371.788,175.494z"/>
<path style="&st4;" d="M366.851,172.936l1.894,1.143"/>
<path style="&st4;" d="M368.742,176.326v-2.25l3.046-0.833"/>
</g>
<g>
<path style="&st13;" d="M373.681,176.636v-2.252l-1.893-1.141l-3.046,0.833v2.25l1.893,1.143L373.681,176.636z"/>
<path style="&st4;" d="M368.742,174.076l1.893,1.142"/>
<path style="&st4;" d="M370.635,177.469v-2.251l3.046-0.834"/>
</g>
<g>
<path style="&st13;" d="M367.865,148.67v-3.139l-1.496-0.789l-2.023,0.581v3.139l1.495,0.788L367.865,148.67z"/>
<path style="&st4;" d="M364.346,145.323l1.495,0.789"/>
<path style="&st4;" d="M365.841,149.25v-3.138l2.024-0.581"/>
</g>
<g>
<path style="&st13;" d="M377.962,154.467v-3.14l-1.495-0.788l-2.021,0.58v3.139l1.495,0.789L377.962,154.467z"/>
<path style="&st4;" d="M374.443,151.12l1.495,0.789"/>
<path style="&st4;" d="M375.938,155.048v-3.139l2.021-0.582"/>
</g>
<path style="&st13;" d="M382.515,169.205c-2.222-1.11-4.834-1.094-8.729,0.059c-1.979,0.584-4.161,0.188-5.693-1.037
c-1.563-1.25-2.343-3.232-2.188-5.588c0.152-2.383,0.229-4.709,0.262-6.345l4.312-1.294c1.128-0.375,1.841-1.444,2.132-2.318
l1.31-3.834c0.227-0.674,0.778-0.64,0.942-0.613c0.337,0.055,0.676,0.298,0.676,0.716l0.022,2.123
c0.004,0.31,0.26,0.545,0.566,0.542c0.312-0.003,0.559-0.27,0.555-0.58l-0.021-2.085c0-0.918-0.665-1.669-1.618-1.823
c-0.817-0.132-1.811,0.238-2.187,1.365l-1.311,3.834c-0.212,0.635-0.732,1.379-1.421,1.608l-3.939,1.181
c0.001-0.212,0.003-0.4,0.003-0.555c0-0.809-0.284-1.461-0.825-1.888c-0.723-0.567-1.81-0.682-3.231-0.34
c-0.438,0.105-0.884,0.022-1.164-0.216c-0.222-0.189-0.32-0.453-0.296-0.785c0.052-0.683,1.386-0.756,2.496-0.698
c1.422,0.075,2.842,0.007,3.328-1.567l-0.647,0.185l-0.513-0.27c-0.2,0.396-0.647,0.608-2.109,0.532
c-0.872-0.046-3.525-0.185-3.674,1.733c-0.053,0.69,0.19,1.302,0.688,1.725c0.557,0.474,1.358,0.644,2.152,0.453
c1.042-0.25,1.851-0.204,2.274,0.131c0.266,0.209,0.397,0.547,0.397,1.007c0,1.271-0.059,4.578-0.278,8.005
c-0.176,2.729,0.751,5.053,2.608,6.537c1.844,1.473,4.353,1.934,6.712,1.235c3.601-1.063,5.967-1.104,7.91-0.131
c0.603,0.301,0.937,0.822,0.942,1.471c0.012,0.938-0.676,1.896-1.796,2.488c-2.791,1.482-6.601,1.708-8.764,1.167
c-0.302-0.075-0.604,0.106-0.683,0.407c-0.075,0.301,0.107,0.604,0.409,0.681c2.427,0.607,6.491,0.367,9.563-1.265
c1.49-0.793,2.407-2.133,2.392-3.494C384.063,170.605,383.48,169.688,382.515,169.205z"/>
<path style="&st3;" d="M349.924,167.503c2.292,0.917,4.714,2.958,6.854,4.759l1.19,0.997c0.178,0.148,0.44,0.122,0.589-0.055
c0.149-0.179,0.124-0.446-0.055-0.595l-1.185-0.992c-2.114-1.78-4.502-3.791-6.846-4.797"/>
<g>
<path style="&st3;" d="M361.286,174.168v-1.667l-1.895-1.142l-2.362,0.771v1.667l1.893,1.143L361.286,174.168z"/>
<path style="&st4;" d="M357.029,172.132l1.893,1.145"/>
<path style="&st4;" d="M358.922,174.939v-1.666l2.364-0.772"/>
</g>
<path style="&st3;" d="M324.455,148.199c-6.982-1.955-26.319-5.007-29.827-4.695c-0.615,0.055-1.363,0.345-1.62,0.993
c-0.082,0.209-0.153,0.583,0.074,1.044l1.171-0.264c-0.176-0.194-0.216-0.331-0.201-0.37c0.039-0.096,0.301-0.252,0.676-0.286
c1.591-0.142,6.729,0.463,12.404,1.338c-5.272,1.828-15.79,6.095-16.796,6.723c-0.678,0.424-1.118,1.122-1.209,1.917
c-0.038,0.344-0.001,0.68,0.09,0.996l1.076-0.296c-0.054-0.18-0.073-0.373-0.051-0.573c0.052-0.453,0.303-0.852,0.688-1.093
c1.129-0.705,14.611-6.129,18.463-7.229c0.05-0.014,0.089-0.042,0.128-0.066c5.569,0.909,11.543,2.077,14.632,2.941"/>
<g>
<path style="&st3;" d="M293.672,159.242v-2.25l-2.801-1.852l-2.302,0.635v2.25l2.801,1.854L293.672,159.242z"/>
<path style="&st4;" d="M288.569,155.774l2.801,1.853"/>
<path style="&st4;" d="M291.37,159.878v-2.251l2.302-0.635"/>
</g>
<path style="&st3;" d="M325.837,155.683c0-0.127-0.044-0.256-0.133-0.361c-2.473-2.938-9.031-4.268-10.597-4.268
c-0.726,0-1.092-0.275-1.212-0.434c0.063-0.018,1.486-0.416,1.486-0.416l0.929-0.293c0.242-0.076,0.406-0.305,0.406-0.547
c0-0.053-0.009-0.107-0.022-0.161c-0.096-0.294-0.396-0.463-0.689-0.37l-0.978,0.308l-1.363,0.382
c-0.713,0.143-0.987,0.668-0.941,1.125c0.074,0.752,0.986,1.528,2.387,1.528c1.544,0,7.638,1.372,9.736,3.868"/>
<path style="&st3;" d="M324.809,156.975c0.695,1.043,2.899,1.836,5.076,1.359c1.179-0.259,2.025-0.313,2.911,0.104v-0.326
l1.133-0.313c-1.562-1.027-2.922-0.859-4.285-0.562c-1.735,0.382-3.495-0.279-3.899-0.884"/>
<g>
<path style="&st3;" d="M337.898,161.579v-2.25l-2.803-1.854l-2.302,0.636v2.252l2.801,1.852L337.898,161.579z"/>
<path style="&st4;" d="M332.796,158.111l2.801,1.854"/>
<path style="&st4;" d="M335.597,162.215v-2.25l2.304-0.636"/>
</g>
<path style="&st3;" d="M343.273,163.256c0-1.021,0.896-2.128,2.133-2.633l1.125-0.443l-0.05,0.925l-0.759,0.299
c-0.9,0.369-1.607,1.184-1.607,1.854"/>
<g>
<path style="&st16;" d="M246.431,86.679c2.826-0.446,3.994-0.107,4.956,1.215c0.748,1.029,2.337,3.366,2.992,4.395
c0.654,1.029,1.264,2.141,1.496,3.459c1.402,7.948,5.42,19.324,7.854,26.928c0.747,2.338,0.935,4.021-2.807,5.423
c-3.739,1.402-17.006,5.296-22.253,6.171c-6.171,1.028-11.594,1.215-13.744-0.094c-2.151-1.309-3.46-2.992-4.582-6.358
c-1.122-3.366-2.134-13.161-1.496-19.728c0.935-9.631,3.179-13.838,9.443-16.27C233.893,89.648,241.101,87.521,246.431,86.679z"/>
<path style="&st16;" d="M226.141,134.645c-1.683-1.496-2.711-5.049-3.272-9.537c-0.561-4.488-0.468-8.976-0.281-13.745
c0.187-4.769,2.898-9.35,7.854-12.061c4.956-2.712,13.364-4.8,19.916-6.171c4.021-0.842,5.049,0.841,5.423,2.15"/>
<path style="&st16;" d="M263.541,121.742c3.646-0.935,7.479-1.215,9.164-1.215c1.683,0,2.991,0.841,3.646,2.244
c0.654,1.402,1.218,4.114,1.312,6.918c0.094,2.805,0,6.545-0.375,9.351c-0.373,2.805-1.471,6.972-3.085,10.378
c-2.524,5.33-5.05,14.867-5.983,22.813c-0.936,7.948-1.401,13.56-1.59,20.291c0,1.59-0.654,2.711-1.496,4.302
c-0.842,1.59-1.311,3.46-1.311,5.517c0,2.058-0.468,6.825-2.148,9.817c-1.683,2.991-3.741,4.954-5.236,6.171
c-0.977,0.794-2.244,1.311-3.554,1.684l-56.567,15.24"/>
<path style="&st16;" d="M266.274,194.602c2.313,4.561,2.877,8.696,2.386,12.834c-0.49,4.139-1.263,7.225-3.155,10.729
c-1.895,3.506-4.559,6.802-4.839,7.152c-0.281,0.352-0.631,0.632-0.982,0.771c-0.351,0.142-2.384,1.122-2.945,1.403
c-0.562,0.28-0.841,0.21-1.332-0.07c0,0-0.561-0.351-0.982-0.631c-0.421-0.281-0.491-0.562,0.351-1.333"/>
<path style="&st16;" d="M263.821,203.018c0.49,4.277-0.069,7.714-1.685,10.869c-1.612,3.155-3.855,9.607-6.241,12.974"/>
<path style="&st16;" d="M240.634,223.471c0,0,1.028,0.843,1.589,1.215c0.561,0.375,1.496,0.75,2.618,0.843l9.63-0.093l2.688-0.607
"/>
<path style="&st16;" d="M231.284,225.878c-0.21,1.753-0.631,8.136-0.631,8.768c0,0.631,0.21,1.051,0.561,1.331
c0.351,0.28,1.052,0.701,1.543,0.981c0.491,0.28,1.052,1.474,1.823,1.963c0,0,1.145,0.632,1.566,0.819
c0.421,0.187,0.841,0.326,1.449,0.42c0,0,1.356,0.374,1.73,0.421s0.888,0.327,1.262,0.562c0.374,0.233,4.488,2.432,5.096,2.664
c0.608,0.234,1.683,0.234,2.384,0.143c0.701-0.093,7.527-2.011,8.321-2.197c0.795-0.188,1.216-0.605,1.169-1.122
c-0.047-0.515-0.188-1.496-0.234-2.197c-0.046-0.7-0.514-1.12-1.636-2.01c-1.122-0.889-4.956-3.46-5.937-4.44"/>
<path style="&st16;" d="M239.348,231.139c0.21,2.384,1.172,4.352,3.436,6.102c1.542,1.191,3.085,2.104,3.085,2.104"/>
<path style="&st16;" d="M247.412,239.553c0,0,7.293-1.894,7.714-1.964c0.421-0.069,0.631-0.421,0.631-0.631"/>
<path style="&st16;" d="M307.72,223.563c0,0,7.294-1.895,7.714-1.964c0.421-0.069,0.634-0.42,0.634-0.632"/>
<path style="&st16;" d="M240.073,223.658c0.514,0.561,0.467,1.074,0,1.215c-0.467,0.141-0.421,0.374-0.421,0.98
c0,0.607,0.046,1.168,0.14,1.685c0.094,0.514,0.281,0.748,0.561,0.748"/>
<path style="&st16;" d="M239.746,226.604c0,0,7.386,5.375,7.9,5.797c0.515,0.42,1.028,0.42,1.403,0.047
c0.374-0.373,0.607-0.563,1.028-0.701c0,0,0.841-0.28,1.122-0.327c0.281-0.046,0.515,0.095,0.749,0.28
c0.233,0.188,0.561,0.141,0.794-0.094c0,0,0.188-0.188,0.375-0.468c0.187-0.28,0.28-0.516,0.28-0.936
c0-0.421-0.093-0.795-0.327-1.029c-0.234-0.231-0.701-0.514-0.701-0.514s0-0.375,0-0.563c0-0.188-0.14-0.42-0.468-0.653
l-2.898-1.916"/>
<path style="&st16;" d="M240.26,224.826l7.994,5.47v1.613c0.043,0.264,0.146,0.323,0.286,0.323"/>
<path style="&st16;" d="M180.793,212.157c-1.87,0.374-3.094-0.023-3.273-1.402c-1.215-9.351-1.636-16.925-1.355-24.498
c0.28-7.573,1.449-12.996,2.01-15.521c0.561-2.525,1.87-4.114,4.488-6.545c3.54-3.287,8.135-7.948,9.911-11.407
c1.776-3.459,3.833-7.574,4.675-9.444c0.841-1.87,2.898-3.74,7.386-5.61c3.244-1.351,10.846-3.646,17.672-5.61"/>
<path style="&st16;" d="M183.037,163.816c-8.321,1.775-26.46,6.64-38.242,11.688c-3.553,1.028-5.529,3.179-6.171,7.666
c-0.468,3.272,0,5.985,0.467,7.106c0.467,1.123,1.589,2.148,3.646,3.553c2.057,1.402,18.378,13.531,23.375,16.645
c5.704,3.554,7.854,4.302,12.062,4.396"/>
<path style="&st16;" d="M143.206,176.159c1.589-0.654,3.646,0,5.797,1.683c2.151,1.685,21.879,18.981,27.489,24.498"/>
<path style="&st16;" d="M175.253,217.322c1.823-0.701,2.872-2.247,4.278-3.786c1.472-1.613,2.805-2.524,5.82-3.576"/>
<path style="&st16;" d="M196.034,220.197c0.655,0.373,1.123,0.281,2.338,0.094c1.215-0.187,52.827-13.184,65.543-17.577"/>
<path style="&st16;" d="M140.05,191.656c0.701-1.053,2.314-1.332,4.488-1.332s4.488,0.141,5.891,0.421
c1.403,0.28,3.437,1.401,5.54,3.155c2.104,1.754,10.519,9.046,14.727,12.974c4.208,3.927,7.083,5.892,8.625,6.872"/>
<path style="&st16;" d="M141.032,177.771c0,0.42,0.28,0.7,1.542,1.473c1.262,0.771,6.452,3.787,8.555,5.47
c2.104,1.686,1.613,4.278,1.122,6.662"/>
<path style="&st16;" d="M138.531,188.314c-2.057,1.309-2.898,3.086-3.272,6.17c-0.374,3.086-0.748,11.5-0.28,15.803
c0.467,4.301,1.335,7.693,5.143,10.378c14.586,10.286,32.912,21.226,42.449,26.461c0.935,0.563,1.215,0.748,2.057,0.188
c0.841-0.563,1.145-0.891,2.548-1.171c1.402-0.279,4.137-0.842,4.137-0.842c2.034-3.086,3.927-7.293,4.488-8.766
c0.562-1.473,0.842-2.807,0.771-4.628c-0.07-1.823-0.406-4.489-0.28-7.363c0.164-3.739-0.584-6.873-1.894-9.351
c-2.524-0.631-3.997-1.311-4.698-2.08c-0.701-0.771-2.665-2.244-4.698-3.297c-2.702-1.396-5.33-0.632-6.031,1.543"/>
<path style="&st16;" d="M158.914,229.596c1.823,0.84,4.208,2.104,6.031,2.806c1.823,0.7,3.506,0.278,5.189-1.543
c1.683-1.823,5.759-8.688,7.994-12.201c1.963-3.086,4.24-3.955,6.873-1.543c3.366,3.085,3.085,11.358,0.561,18.23l-3.226,9.257"/>
<path style="&st16;" d="M135.352,213.652c0,0-5.049,1.311-5.984,1.496c-0.935,0.188-2.194,0.733-2.942,1.202
c-0.748,0.468-1.301,1.146-1.509,2.028c-0.208,0.886-0.572,3.02-0.572,3.903s0.208,1.092,0.208,1.092
c0.521-0.676,1.458-1.561,2.55-1.77"/>
<path style="&st16;" d="M125.072,221.503c0.156-0.468,0.833-0.571,1.874-0.155c1.041,0.416,4.111,2.028,5.776,3.02
c1.665,0.989,5.272,2.354,8.03,3.967"/>
<path style="&st16;" d="M131.565,216.832c1.753,1.122,2.595,0.631,3.366-0.141c0.771-0.772,1.192-0.912,1.192-0.912"/>
<path style="&st16;" d="M141.523,221.693l-0.748,7.388l30.668,22.438"/>
<path style="&st16;" d="M171.747,240.885c-0.351,0.142-0.491,0.701-0.631,1.474c-0.14,0.771-0.561,6.313-0.561,7.152
s0.421,1.473,0.912,1.822c0.491,0.353,10.87,6.452,11.921,7.013c1.052,0.563,2.595,0.912,3.717,0.771
c1.122-0.142,7.153-1.823,8.135-2.104c0.981-0.28,1.327-0.7,1.262-1.474c-0.094-1.122-0.234-1.729-1.309-2.524
c-1.075-0.795-1.87-1.354-2.524-1.821c-0.655-0.468-1.028-1.028-1.449-1.543c-0.421-0.516-0.936-1.028-1.917-1.638"/>
<path style="&st16;" d="M195.099,253.507c0,0-0.28,0.423-0.701,0.563c-0.42,0.142-7.994,2.175-8.695,2.386
c-0.701,0.21-1.473,0.069-2.104-0.352c-0.631-0.422-3.366-2.386-3.366-2.386c-1.894-1.473-2.945-4.207-2.735-8.345l0.023-0.864"/>
<path style="&st16;" d="M233.458,225.316c0,0,3.366,2.104,4.137,2.595s1.333,0.98,1.753,1.333"/>
<path style="&st16;" d="M185.001,247.126c0,0,1.683,1.265,2.244,1.638s0.982,0.188,1.262-0.188
c0.281-0.374,0.515-0.563,1.029-0.702l1.309-0.327c0,0,0.327,0.375,0.561,0.562c0.234,0.188,0.608,0,0.982-0.279
c0,0,0.328-0.373,0.468-0.701c0.14-0.326,0.187-0.701,0.093-1.122c-0.094-0.421-0.234-0.514-0.421-0.7l-0.748-0.563l-0.188,2.292"
/>
<path style="&st16;" d="M188.086,246.074l-0.07,2.033"/>
<path style="&st16;" d="M252.368,228.66l-0.126,2.233"/>
<path style="&st16;" d="M197.25,143.34c0.841-1.403,2.724-2.644,5.143-2.337c2.945,0.374,6.516,1.051,10.448,1.496
c3.717,0.421,6.943,0.07,10.099-0.631c3.155-0.702,17.882-4.418,26.788-6.942c8.906-2.525,20.617-5.54,23.492-6.522
c2.875-0.982,3.929-2.174,3.717-3.646"/>
<path style="&st16;" d="M222.939,141.868c0.35,3.366,0.981,12.062,0.911,16.689"/>
<path style="&st16;" d="M188.554,212.063c0.561-18.794,2.792-29.229,7.2-37.589c2.711-5.142,4.395-7.946,6.078-10.004
s6.545-3.553,8.882-3.927c2.338-0.375,4.967-0.485,7.761-0.937c2.898-0.468,6.642-1.104,10.004-1.775
c8.883-1.776,34.179-8.81,40.954-11.313c4.302-1.59,6.731-2.619,6.731-2.619"/>
<path style="&st16;" d="M226.889,134.832c2.244,1.122,5.049,3.272,5.704,4.675"/>
<path style="&st16;" d="M262.699,127.165c1.31,0.936,2.618,2.057,3.086,3.272"/>
<path style="&st16;" d="M273.219,128.403c0.233,4.746-0.421,12.413-2.29,17.461"/>
<path style="&st16;" d="M217.118,159.75c-0.561,2.384-2.906,4.904-4.769,8.273c-2.945,5.33-6.171,14.445-7.433,22.021
c-1.262,7.574-2.244,22.3-2.945,29.313"/>
<path style="&st16;" d="M274.479,144.743c-0.98,2.384-3.927,4.769-6.171,8.555c-2.243,3.787-5.854,12.186-6.872,18.653
c-1.544,9.815-1.684,19.636-1.963,31.979"/>
<path style="&st16;" d="M205.852,186.632c14.165-3.086,43.805-11.034,55.586-14.681"/>
<path style="&st16;" d="M205.057,189.902c14.166-3.084,42.496-9.957,55.89-15.218"/>
</g>
<g>
<path style="&st16;" d="M367.327,54.141c2.826-0.446,3.993-0.107,4.956,1.215c0.747,1.029,2.337,3.366,2.991,4.395
c0.653,1.028,1.264,2.141,1.494,3.459c1.403,7.948,5.423,19.325,7.854,26.928c0.748,2.338,0.935,4.021-2.806,5.423
c-3.739,1.403-17.008,5.297-22.254,6.171c-6.172,1.028-11.595,1.215-13.743-0.093c-2.15-1.309-3.46-2.992-4.582-6.358
c-1.122-3.366-2.134-13.16-1.496-19.729c0.936-9.63,3.179-13.838,9.441-16.269C354.789,57.11,361.997,54.982,367.327,54.141z"/>
<path style="&st16;" d="M347.038,102.106c-1.684-1.496-2.713-5.048-3.273-9.537c-0.56-4.489-0.468-8.976-0.278-13.745
c0.188-4.769,2.896-9.35,7.854-12.063c4.955-2.711,13.364-4.8,19.915-6.171c4.021-0.841,5.049,0.841,5.423,2.15"/>
<path style="&st16;" d="M384.438,89.204c3.646-0.935,7.479-1.215,9.161-1.215c1.686,0,2.993,0.841,3.646,2.244
c0.654,1.403,1.216,4.114,1.309,6.919c0.097,2.805,0,6.545-0.374,9.351c-0.373,2.805-1.471,6.972-3.085,10.378
c-2.522,5.33-5.049,14.867-5.981,22.814c-0.938,7.948-1.402,13.558-1.59,20.292c0,1.589-0.654,2.711-1.496,4.301
c-0.844,1.589-1.312,3.46-1.312,5.518s-0.467,6.824-2.147,9.816c-1.686,2.99-3.741,4.955-5.236,6.171
c-0.977,0.794-2.244,1.311-3.554,1.686l-56.567,15.238"/>
<path style="&st16;" d="M387.172,162.063c2.314,4.56,2.876,8.694,2.385,12.834c-0.489,4.138-1.263,7.223-3.153,10.729
c-1.896,3.506-4.561,6.802-4.839,7.152c-0.28,0.35-0.633,0.632-0.982,0.771c-0.11,0.045-0.391,0.175-0.74,0.339l-2.766-1.671"/>
<path style="&st16;" d="M384.718,170.479c0.491,4.277-0.068,7.715-1.683,10.87c-1.034,2.022-2.328,5.402-3.753,8.455
c0,0,0.457,0.381,1.088,0.17l2.313-0.771c0.28,0,0.633,0.352,0.633,0.352"/>
<path style="&st16;" d="M363.681,193.41c0,0,7.503,5.47,8.019,5.891c0.516,0.42,1.028,0.42,1.401,0.047
c0.374-0.373,0.607-0.562,1.028-0.7c0,0,0.842-0.28,1.122-0.328c0.28-0.045,0.516,0.096,0.748,0.28
c0.233,0.188,0.563,0.142,0.795-0.094c0,0,0.188-0.188,0.373-0.468c0.188-0.28,0.281-0.515,0.281-0.935
c0-0.423-0.094-0.796-0.327-1.029c-0.234-0.233-0.701-0.515-0.701-0.515s0-0.375,0-0.562c0-0.188-0.14-0.421-0.468-0.654
l-1.473-1.074"/>
<path style="&st16;" d="M364.312,191.727l7.994,5.472v1.612c0.044,0.265,0.146,0.323,0.286,0.323"/>
<path style="&st16;" d="M302.04,179.875c-2.174,0.141-3.444-0.28-3.623-1.658c-1.216-9.351-1.637-16.925-1.355-24.498
c0.28-7.574,1.449-12.996,2.012-15.521c0.562-2.525,1.87-4.115,4.486-6.545c3.539-3.287,8.137-7.948,9.911-11.407
c1.776-3.459,3.834-7.573,4.677-9.444c0.842-1.869,2.896-3.74,7.387-5.61c3.243-1.351,10.847-3.646,17.672-5.609"/>
<path style="&st16;" d="M303.934,131.278c-5.845,1.248-16.531,4.019-26.46,7.307"/>
<path style="&st16;" d="M274.491,149.221c5.25,4.562,13.654,11.989,19.096,16.997"/>
<path style="&st16;" d="M316.93,187.659c0.655,0.374,1.123,0.28,2.338,0.094c1.218-0.187,52.828-13.185,65.544-17.578"/>
<path style="&st16;" d="M272.699,152.848c1.308,1.657,0.879,3.904,0.448,5.99"/>
<path style="&st16;" d="M303.092,209.607c0,0,7.574,5.61,8.136,5.984c0.562,0.373,0.98,0.188,1.263-0.188
c0.281-0.373,0.516-0.563,1.028-0.7l1.31-0.328c0,0,0.327,0.375,0.561,0.563c0.234,0.188,0.608,0,0.981-0.279
c0,0,0.328-0.374,0.468-0.702c0.142-0.326,0.188-0.7,0.094-1.122c-0.094-0.42-0.231-0.514-0.421-0.7l-0.747-0.562l-0.188,2.291"/>
<path style="&st16;" d="M311.998,214.938l0.07-1.612l-8.348-5.681"/>
<path style="&st16;" d="M376.42,195.561l-0.126,2.234"/>
<path style="&st16;" d="M318.146,110.802c0.844-1.402,2.727-2.644,5.145-2.337c2.945,0.374,6.517,1.051,10.449,1.496
c3.716,0.42,6.94,0.07,10.098-0.631c3.155-0.701,17.882-4.418,26.788-6.942c8.905-2.524,20.616-5.539,23.492-6.521
c2.875-0.982,3.927-2.174,3.716-3.646"/>
<path style="&st16;" d="M343.835,109.329c0.352,3.366,0.981,12.062,0.912,16.69"/>
<path style="&st16;" d="M309.45,179.525c0.562-18.795,2.792-29.229,7.2-37.588c2.711-5.142,4.394-7.947,6.075-10.004
c1.685-2.057,6.547-3.553,8.885-3.927c2.337-0.374,4.967-0.485,7.761-0.935c2.896-0.467,6.641-1.104,10.004-1.776
c8.883-1.776,34.179-8.81,40.953-11.313c4.301-1.59,6.729-2.619,6.729-2.619"/>
<path style="&st16;" d="M347.785,102.293c2.244,1.122,5.05,3.272,5.704,4.675"/>
<path style="&st16;" d="M383.596,94.626c1.312,0.935,2.618,2.057,3.086,3.273"/>
<path style="&st16;" d="M394.115,95.866c0.231,4.745-0.421,12.412-2.291,17.461"/>
<path style="&st16;" d="M338.015,127.211c-0.562,2.384-2.904,4.904-4.769,8.275c-2.945,5.33-6.171,14.446-7.435,22.02
c-1.264,7.573-2.243,22.301-2.944,29.313"/>
<path style="&st16;" d="M395.377,112.205c-0.98,2.384-3.927,4.769-6.171,8.555c-2.244,3.786-5.855,12.184-6.872,18.653
c-1.543,9.817-1.684,19.635-1.964,31.978"/>
<path style="&st16;" d="M326.747,154.093c14.165-3.085,43.806-11.034,55.587-14.68"/>
<path style="&st16;" d="M325.953,157.365c14.165-3.085,42.496-9.958,55.89-15.217"/>
<path style="&st16;" d="M271.021,158.395c1.591,0.188,4.677,1.028,5.8,1.591c1.121,0.562,3.459,2.616,5.233,3.834
c1.776,1.216,3.646,2.711,6.077,4.301"/>
<path style="&st16;" d="M297.772,188.341c1.536,0.785,2.584,1.212,2.584,1.212"/>
<path style="&st16;" d="M268.123,173.073c3.553,2.339,7.013,4.114,10.472,5.704c3.461,1.589,7.106,3.179,9.351,4.207
c1.877,0.859,4.407,2.244,6.444,3.438"/>
<path style="&st16;" d="M299.299,203.857l1.271,0.911"/>
<path style="&st16;" d="M267.282,180.834l31.041,22.323"/>
<path style="&st16;" d="M267.001,185.042l31.322,22.58"/>
<path style="&st16;" d="M291.591,166.436c0.328-0.278,0.89-0.232,1.355-0.188c0,0,2.196,0.234,2.712,0.328
c0.516,0.093,0.982,0.468,1.075,1.122c0,0,0.748,8.788,0.795,9.723c0.048,0.938,0.141,1.686,0.048,2.198
c-0.095,0.514-0.468,0.979-1.122,1.074c-0.655,0.094-4.066-0.188-4.676-0.373c-0.607-0.188-0.924-0.477-1.17-0.89
c-0.605-1.028-1.215-2.104-1.494-3.601c-0.28-1.496-1.029-7.995-1.075-8.321c-0.047-0.328,0.093-0.562,0.514-0.701l1.544-0.515
l3.879,0.654c0.517,0.562,1.216,0.749,1.591,0.795"/>
<path style="&st16;" d="M292.099,168.381c0,0,0.616,6.517,0.804,7.825c0.188,1.31,0.653,2.619,1.684,3.834"/>
<path style="&st16;" d="M288.67,166.734l-0.104,0.421c0,0,2.311,0.454,2.868,0.523c0.563,0.069,1.228-0.034,1.646-0.104
l1.119-0.279"/>
<path style="&st16;" d="M295.938,180.787l0.327,3.554l0.142,0.936l3.132,7.668l1.964,7.198c0,0,0.607,3.087,0.607,3.602
c0,0.514-0.654,0.7-0.937,0.232l-0.503-1.063l-0.666,0.14l-0.771-0.313"/>
<path style="&st16;" d="M293.556,180.611l0.279,3.541l0.246,1.191l2.244,7.608c0,0,1.928,9.854,2.067,10.414
c0.141,0.56,0.91,0.733,1.087,0.033l0.069-0.386"/>
<path style="&st16;" d="M270.272,183.078c0,0,0-1.309,0-1.542c0-0.234,0.232-0.422,0.515-0.515c0,0,1.87-0.517,2.149-0.517
c0.28,0,0.563,0.047,0.89,0.28l23.422,16.83"/>
<path style="&st16;" d="M273.358,180.555l-5.518-4.16"/>
<path style="&st16;" d="M306.037,177.491c0,0-1.823,0.842-2.805,1.473c-0.982,0.631-1.823,1.684-2.176,2.313
c-0.351,0.632-0.811,2.313-0.771,4.207c0.069,3.438,0.468,10.729,1.216,14.655"/>
<path style="&st16;" d="M297.692,178.964c0.631,0.771,2.943,3.507,2.943,3.507"/>
<path style="&st16;" d="M303.863,179.595c2.032-0.351,3.927,1.053,5.47,3.719c1.543,2.663,2.104,4.907,2.314,7.993
c0.21,3.086-0.281,5.681-0.771,7.783c-0.491,2.104-2.034,7.715-2.034,7.715"/>
<path style="&st16;" d="M302.157,203.977c0,0,4.813,3.271,5.563,3.646c0.749,0.374,1.217,0.328,2.104,0.328
c0,0,4.065-0.234,4.485-0.328c0.423-0.093,0.798-0.327,0.938-0.608c0.808-1.614,1.168-2.276,1.448-3.015
c0.562-1.474,0.842-2.806,0.771-4.629s-0.406-4.489-0.28-7.363c0.163-3.738-0.584-6.872-1.894-9.35
c-2.524-0.632-3.997-1.311-4.698-2.08c-0.701-0.771-2.665-2.244-4.699-3.296c-2.699-1.397-5.327-0.633-6.028,1.542"/>
<path style="&st16;" d="M296.407,206.313c-0.89,0.327-1.59,1.311-1.637,2.012c0,0-0.096,1.074-0.096,1.401
c0,0.328,0.221,0.771,0.608,1.311c1.215,1.685,1.026,3.646,0.936,5.188c0,0,0,3.602,0,4.35c0,0.747,0.326,1.589,1.263,2.057
c0.882,0.497,7.952,4.977,8.509,5.188c0.606,0.232,1.683,0.232,2.384,0.142c0.701-0.094,7.527-2.011,8.322-2.196
c0.794-0.188,1.216-0.608,1.169-1.123s-0.188-1.495-0.234-2.196s-0.514-1.123-1.636-2.011c-0.528-0.418-1.671-1.189-2.807-2.032
c-0.98-0.728-1.263-1.429-1.331-2.549"/>
<path style="&st16;" d="M305.991,223.098c0,0-1.59-1.217-2.899-2.339c-1.309-1.122-1.683-3.833-1.683-6.355v-1.59"/>
<path style="&st16;" d="M296.828,208.417l4.207,3.085"/>
<path style="&st16;" d="M312.068,207.926c0,0,3.015,2.385,3.296,2.597c0.278,0.209,0.396,0.561,0.396,1.052"/>
<path style="&st16;" d="M297.901,207.669c0.375,0.095,0.7-0.327,0.843-0.841c0.141-0.516,0.375-1.169,0.795-1.497
c0.422-0.326,0.795-0.374,1.028-0.374c0.232,0,0.652,0.095,0.889,0.328c0,0,1.589,1.122,1.964,1.402
c0.373,0.278,0.496,1.021-0.094,1.168c-0.374,0.095-0.327,0.42-0.327,0.842c0,0.421,0.047,1.31,0.188,1.822
c0.141,0.516,0.421,0.747,0.746,0.747"/>
<path style="&st16;" d="M381.633,189.623l0.069,0.842c0,0-11.359,3.437-11.921,3.506c-0.563,0.07-0.771-0.069-1.052-0.421
l-2.104-3.997"/>
<path style="&st16;" d="M373.007,187.589c0.912,0.632,2.385,0.912,3.507,0.563c1.122-0.351,2.452,0.854,2.771,1.653"/>
<path style="&st16;" d="M355.826,192.218c0,0-0.631,8.557-0.701,9.326c-0.07,0.771,0.141,1.401,0.842,1.824
c0,0,1.026,0.671,1.332,0.841c0.632,0.353,0.981,1.684,1.823,2.314c0.842,0.629,4.979,3.015,6.101,3.575
c1.122,0.562,2.525,0.562,3.857,0.279s7.784-1.963,8.906-2.454s1.683-2.032,1.189-2.943c-0.489-0.912-1.021-1.339-2.032-2.034
c-2.243-1.542-2.944-2.313-3.928-3.786"/>
<path style="&st16;" d="M351.899,193.41l0.699,0.701l1.265,0.701l-0.07,0.909c0,0,0.842,2.175,1.542,2.875"/>
<path style="&st16;" d="M358.141,191.797l3.296,2.314"/>
<path style="&st16;" d="M362.418,195.232c-0.28,0.352-0.491,1.121-0.491,1.823c0,0.7,0.07,1.822-0.067,2.663
c-0.143,0.844-0.281,2.104-0.353,2.525c-0.07,0.42,0.069,1.472,0.49,1.894c0.421,0.42,4.066,3.227,4.066,3.227"/>
<path style="&st16;" d="M368.168,207.575c0,0,8.485-2.104,9.116-2.314c0.632-0.21,0.702-0.488,0.702-0.771"/>
<path style="&st16;" d="M363.891,190.254c0.771,0.771,0.568,1.354,0,1.543c-0.351,0.117-0.396,0.21-0.396,0.631
c0,0.422,0.187,1.404,0.231,1.777c0.049,0.374,0.563,0.795,0.797,0.795"/>
</g>
<g>
<path style="&st4;" d="M246.431,86.679c2.826-0.446,3.994-0.107,4.956,1.215c0.748,1.029,2.337,3.366,2.992,4.395
c0.654,1.029,1.264,2.141,1.496,3.459c1.402,7.948,5.42,19.324,7.854,26.928c0.747,2.338,0.935,4.021-2.807,5.423
c-3.739,1.402-17.006,5.296-22.253,6.171c-6.171,1.028-11.594,1.215-13.744-0.094c-2.151-1.309-3.46-2.992-4.582-6.358
c-1.122-3.366-2.134-13.161-1.496-19.728c0.935-9.631,3.179-13.838,9.443-16.27C233.893,89.648,241.101,87.521,246.431,86.679z"/>
<path style="&st4;" d="M226.141,134.645c-1.683-1.496-2.711-5.049-3.272-9.537c-0.561-4.488-0.468-8.976-0.281-13.745
c0.187-4.769,2.898-9.35,7.854-12.061c4.956-2.712,13.364-4.8,19.916-6.171c4.021-0.842,5.049,0.841,5.423,2.15"/>
<path style="&st4;" d="M263.541,121.742c3.646-0.935,7.479-1.215,9.164-1.215c1.683,0,2.991,0.841,3.646,2.244
c0.654,1.402,1.218,4.114,1.312,6.918c0.094,2.805,0,6.545-0.375,9.351c-0.373,2.805-1.471,6.972-3.085,10.378
c-2.524,5.33-5.05,14.867-5.983,22.813c-0.936,7.948-1.401,13.56-1.59,20.291c0,1.59-0.654,2.711-1.496,4.302
c-0.842,1.59-1.311,3.46-1.311,5.517c0,2.058-0.468,6.825-2.148,9.817c-1.683,2.991-3.741,4.954-5.236,6.171
c-0.977,0.794-2.244,1.311-3.554,1.684l-56.567,15.24"/>
<path style="&st4;" d="M266.274,194.602c2.313,4.561,2.877,8.696,2.386,12.834c-0.49,4.139-1.263,7.225-3.155,10.729
c-1.895,3.506-4.559,6.802-4.839,7.152c-0.281,0.352-0.631,0.632-0.982,0.771c-0.351,0.142-2.384,1.122-2.945,1.403
c-0.562,0.28-0.841,0.21-1.332-0.07c0,0-0.561-0.351-0.982-0.631c-0.421-0.281-0.491-0.562,0.351-1.333"/>
<path style="&st4;" d="M263.821,203.018c0.49,4.277-0.069,7.714-1.685,10.869c-1.612,3.155-3.855,9.607-6.241,12.974"/>
<path style="&st4;" d="M240.634,223.471c0,0,1.028,0.843,1.589,1.215c0.561,0.375,1.496,0.75,2.618,0.843l9.63-0.093l2.688-0.607"
/>
<path style="&st4;" d="M231.284,225.878c-0.21,1.753-0.631,8.136-0.631,8.768c0,0.631,0.21,1.051,0.561,1.331
c0.351,0.28,1.052,0.701,1.543,0.981c0.491,0.28,1.052,1.474,1.823,1.963c0,0,1.145,0.632,1.566,0.819
c0.421,0.187,0.841,0.326,1.449,0.42c0,0,1.356,0.374,1.73,0.421s0.888,0.327,1.262,0.562c0.374,0.233,4.488,2.432,5.096,2.664
c0.608,0.234,1.683,0.234,2.384,0.143c0.701-0.093,7.527-2.011,8.321-2.197c0.795-0.188,1.216-0.605,1.169-1.122
c-0.047-0.515-0.188-1.496-0.234-2.197c-0.046-0.7-0.514-1.12-1.636-2.01c-1.122-0.889-4.956-3.46-5.937-4.44"/>
<path style="&st4;" d="M239.348,231.139c0.21,2.384,1.172,4.352,3.436,6.102c1.542,1.191,3.085,2.104,3.085,2.104"/>
<path style="&st4;" d="M247.412,239.553c0,0,7.293-1.894,7.714-1.964c0.421-0.069,0.631-0.421,0.631-0.631"/>
<path style="&st4;" d="M307.72,223.563c0,0,7.294-1.895,7.714-1.964c0.421-0.069,0.634-0.42,0.634-0.632"/>
<path style="&st4;" d="M240.073,223.658c0.514,0.561,0.467,1.074,0,1.215c-0.467,0.141-0.421,0.374-0.421,0.98
c0,0.607,0.046,1.168,0.14,1.685c0.094,0.514,0.281,0.748,0.561,0.748"/>
<path style="&st4;" d="M239.746,226.604c0,0,7.386,5.375,7.9,5.797c0.515,0.42,1.028,0.42,1.403,0.047
c0.374-0.373,0.607-0.563,1.028-0.701c0,0,0.841-0.28,1.122-0.327c0.281-0.046,0.515,0.095,0.749,0.28
c0.233,0.188,0.561,0.141,0.794-0.094c0,0,0.188-0.188,0.375-0.468c0.187-0.28,0.28-0.516,0.28-0.936
c0-0.421-0.093-0.795-0.327-1.029c-0.234-0.231-0.701-0.514-0.701-0.514s0-0.375,0-0.563c0-0.188-0.14-0.42-0.468-0.653
l-2.898-1.916"/>
<path style="&st4;" d="M240.26,224.826l7.994,5.47v1.613c0.043,0.264,0.146,0.323,0.286,0.323"/>
<path style="&st4;" d="M180.793,212.157c-1.87,0.374-3.094-0.023-3.273-1.402c-1.215-9.351-1.636-16.925-1.355-24.498
c0.28-7.573,1.449-12.996,2.01-15.521c0.561-2.525,1.87-4.114,4.488-6.545c3.54-3.287,8.135-7.948,9.911-11.407
c1.776-3.459,3.833-7.574,4.675-9.444c0.841-1.87,2.898-3.74,7.386-5.61c3.244-1.351,10.846-3.646,17.672-5.61"/>
<path style="&st4;" d="M183.037,163.816c-8.321,1.775-26.46,6.64-38.242,11.688c-3.553,1.028-5.529,3.179-6.171,7.666
c-0.468,3.272,0,5.985,0.467,7.106c0.467,1.123,1.589,2.148,3.646,3.553c2.057,1.402,18.378,13.531,23.375,16.645
c5.704,3.554,7.854,4.302,12.062,4.396"/>
<path style="&st4;" d="M143.206,176.159c1.589-0.654,3.646,0,5.797,1.683c2.151,1.685,21.879,18.981,27.489,24.498"/>
<path style="&st4;" d="M175.253,217.322c1.823-0.701,2.872-2.247,4.278-3.786c1.472-1.613,2.805-2.524,5.82-3.576"/>
<path style="&st4;" d="M196.034,220.197c0.655,0.373,1.123,0.281,2.338,0.094c1.215-0.187,52.827-13.184,65.543-17.577"/>
<path style="&st4;" d="M140.05,191.656c0.701-1.053,2.314-1.332,4.488-1.332s4.488,0.141,5.891,0.421
c1.403,0.28,3.437,1.401,5.54,3.155c2.104,1.754,10.519,9.046,14.727,12.974c4.208,3.927,7.083,5.892,8.625,6.872"/>
<path style="&st4;" d="M141.032,177.771c0,0.42,0.28,0.7,1.542,1.473c1.262,0.771,6.452,3.787,8.555,5.47
c2.104,1.686,1.613,4.278,1.122,6.662"/>
<path style="&st4;" d="M138.531,188.314c-2.057,1.309-2.898,3.086-3.272,6.17c-0.374,3.086-0.748,11.5-0.28,15.803
c0.467,4.301,1.335,7.693,5.143,10.378c14.586,10.286,32.912,21.226,42.449,26.461c0.935,0.563,1.215,0.748,2.057,0.188
c0.841-0.563,1.145-0.891,2.548-1.171c1.402-0.279,4.137-0.842,4.137-0.842c2.034-3.086,3.927-7.293,4.488-8.766
c0.562-1.473,0.842-2.807,0.771-4.628c-0.07-1.823-0.406-4.489-0.28-7.363c0.164-3.739-0.584-6.873-1.894-9.351
c-2.524-0.631-3.997-1.311-4.698-2.08c-0.701-0.771-2.665-2.244-4.698-3.297c-2.702-1.396-5.33-0.632-6.031,1.543"/>
<path style="&st4;" d="M158.914,229.596c1.823,0.84,4.208,2.104,6.031,2.806c1.823,0.7,3.506,0.278,5.189-1.543
c1.683-1.823,5.759-8.688,7.994-12.201c1.963-3.086,4.24-3.955,6.873-1.543c3.366,3.085,3.085,11.358,0.561,18.23l-3.226,9.257"/>
<path style="&st4;" d="M135.352,213.652c0,0-5.049,1.311-5.984,1.496c-0.935,0.188-2.194,0.733-2.942,1.202
c-0.748,0.468-1.301,1.146-1.509,2.028c-0.208,0.886-0.572,3.02-0.572,3.903s0.208,1.092,0.208,1.092
c0.521-0.676,1.458-1.561,2.55-1.77"/>
<path style="&st4;" d="M125.072,221.503c0.156-0.468,0.833-0.571,1.874-0.155c1.041,0.416,4.111,2.028,5.776,3.02
c1.665,0.989,5.272,2.354,8.03,3.967"/>
<path style="&st4;" d="M131.565,216.832c1.753,1.122,2.595,0.631,3.366-0.141c0.771-0.772,1.192-0.912,1.192-0.912"/>
<path style="&st4;" d="M141.523,221.693l-0.748,7.388l30.668,22.438"/>
<path style="&st4;" d="M171.747,240.885c-0.351,0.142-0.491,0.701-0.631,1.474c-0.14,0.771-0.561,6.313-0.561,7.152
s0.421,1.473,0.912,1.822c0.491,0.353,10.87,6.452,11.921,7.013c1.052,0.563,2.595,0.912,3.717,0.771
c1.122-0.142,7.153-1.823,8.135-2.104c0.981-0.28,1.327-0.7,1.262-1.474c-0.094-1.122-0.234-1.729-1.309-2.524
c-1.075-0.795-1.87-1.354-2.524-1.821c-0.655-0.468-1.028-1.028-1.449-1.543c-0.421-0.516-0.936-1.028-1.917-1.638"/>
<path style="&st4;" d="M195.099,253.507c0,0-0.28,0.423-0.701,0.563c-0.42,0.142-7.994,2.175-8.695,2.386
c-0.701,0.21-1.473,0.069-2.104-0.352c-0.631-0.422-3.366-2.386-3.366-2.386c-1.894-1.473-2.945-4.207-2.735-8.345l0.023-0.864"/>
<path style="&st4;" d="M233.458,225.316c0,0,3.366,2.104,4.137,2.595s1.333,0.98,1.753,1.333"/>
<path style="&st4;" d="M185.001,247.126c0,0,1.683,1.265,2.244,1.638s0.982,0.188,1.262-0.188
c0.281-0.374,0.515-0.563,1.029-0.702l1.309-0.327c0,0,0.327,0.375,0.561,0.562c0.234,0.188,0.608,0,0.982-0.279
c0,0,0.328-0.373,0.468-0.701c0.14-0.326,0.187-0.701,0.093-1.122c-0.094-0.421-0.234-0.514-0.421-0.7l-0.748-0.563l-0.188,2.292"
/>
<path style="&st4;" d="M188.086,246.074l-0.07,2.033"/>
<path style="&st4;" d="M252.368,228.66l-0.126,2.233"/>
<path style="&st4;" d="M197.25,143.34c0.841-1.403,2.724-2.644,5.143-2.337c2.945,0.374,6.516,1.051,10.448,1.496
c3.717,0.421,6.943,0.07,10.099-0.631c3.155-0.702,17.882-4.418,26.788-6.942c8.906-2.525,20.617-5.54,23.492-6.522
c2.875-0.982,3.929-2.174,3.717-3.646"/>
<path style="&st4;" d="M222.939,141.868c0.35,3.366,0.981,12.062,0.911,16.689"/>
<path style="&st4;" d="M188.554,212.063c0.561-18.794,2.792-29.229,7.2-37.589c2.711-5.142,4.395-7.946,6.078-10.004
s6.545-3.553,8.882-3.927c2.338-0.375,4.967-0.485,7.761-0.937c2.898-0.468,6.642-1.104,10.004-1.775
c8.883-1.776,34.179-8.81,40.954-11.313c4.302-1.59,6.731-2.619,6.731-2.619"/>
<path style="&st4;" d="M226.889,134.832c2.244,1.122,5.049,3.272,5.704,4.675"/>
<path style="&st4;" d="M262.699,127.165c1.31,0.936,2.618,2.057,3.086,3.272"/>
<path style="&st4;" d="M273.219,128.403c0.233,4.746-0.421,12.413-2.29,17.461"/>
<path style="&st4;" d="M217.118,159.75c-0.561,2.384-2.906,4.904-4.769,8.273c-2.945,5.33-6.171,14.445-7.433,22.021
c-1.262,7.574-2.244,22.3-2.945,29.313"/>
<path style="&st4;" d="M274.479,144.743c-0.98,2.384-3.927,4.769-6.171,8.555c-2.243,3.787-5.854,12.186-6.872,18.653
c-1.544,9.815-1.684,19.636-1.963,31.979"/>
<path style="&st4;" d="M205.852,186.632c14.165-3.086,43.805-11.034,55.586-14.681"/>
<path style="&st4;" d="M205.057,189.902c14.166-3.084,42.496-9.957,55.89-15.218"/>
</g>
<g>
<path style="&st4;" d="M367.327,54.141c2.826-0.446,3.993-0.107,4.956,1.215c0.747,1.029,2.337,3.366,2.991,4.395
c0.653,1.028,1.264,2.141,1.494,3.459c1.403,7.948,5.423,19.325,7.854,26.928c0.748,2.338,0.935,4.021-2.806,5.423
c-3.739,1.403-17.008,5.297-22.254,6.171c-6.172,1.028-11.595,1.215-13.743-0.093c-2.15-1.309-3.46-2.992-4.582-6.358
c-1.122-3.366-2.134-13.16-1.496-19.729c0.936-9.63,3.179-13.838,9.441-16.269C354.789,57.11,361.997,54.982,367.327,54.141z"/>
<path style="&st4;" d="M347.038,102.106c-1.684-1.496-2.713-5.048-3.273-9.537c-0.56-4.489-0.468-8.976-0.278-13.745
c0.188-4.769,2.896-9.35,7.854-12.063c4.955-2.711,13.364-4.8,19.915-6.171c4.021-0.841,5.049,0.841,5.423,2.15"/>
<path style="&st4;" d="M384.438,89.204c3.646-0.935,7.479-1.215,9.161-1.215c1.686,0,2.993,0.841,3.646,2.244
c0.654,1.403,1.216,4.114,1.309,6.919c0.097,2.805,0,6.545-0.374,9.351c-0.373,2.805-1.471,6.972-3.085,10.378
c-2.522,5.33-5.049,14.867-5.981,22.814c-0.938,7.948-1.402,13.558-1.59,20.292c0,1.589-0.654,2.711-1.496,4.301
c-0.844,1.589-1.312,3.46-1.312,5.518s-0.467,6.824-2.147,9.816c-1.686,2.99-3.741,4.955-5.236,6.171
c-0.977,0.794-2.244,1.311-3.554,1.686l-56.567,15.238"/>
<path style="&st4;" d="M387.172,162.063c2.314,4.56,2.876,8.694,2.385,12.834c-0.489,4.138-1.263,7.223-3.153,10.729
c-1.896,3.506-4.561,6.802-4.839,7.152c-0.28,0.35-0.633,0.632-0.982,0.771c-0.11,0.045-0.391,0.175-0.74,0.339l-2.766-1.671"/>
<path style="&st4;" d="M384.718,170.479c0.491,4.277-0.068,7.715-1.683,10.87c-1.034,2.022-2.328,5.402-3.753,8.455
c0,0,0.457,0.381,1.088,0.17l2.313-0.771c0.28,0,0.633,0.352,0.633,0.352"/>
<path style="&st4;" d="M363.681,193.41c0,0,7.503,5.47,8.019,5.891c0.516,0.42,1.028,0.42,1.401,0.047
c0.374-0.373,0.607-0.562,1.028-0.7c0,0,0.842-0.28,1.122-0.328c0.28-0.045,0.516,0.096,0.748,0.28
c0.233,0.188,0.563,0.142,0.795-0.094c0,0,0.188-0.188,0.373-0.468c0.188-0.28,0.281-0.515,0.281-0.935
c0-0.423-0.094-0.796-0.327-1.029c-0.234-0.233-0.701-0.515-0.701-0.515s0-0.375,0-0.562c0-0.188-0.14-0.421-0.468-0.654
l-1.473-1.074"/>
<path style="&st4;" d="M364.312,191.727l7.994,5.472v1.612c0.044,0.265,0.146,0.323,0.286,0.323"/>
<path style="&st4;" d="M302.04,179.875c-2.174,0.141-3.444-0.28-3.623-1.658c-1.216-9.351-1.637-16.925-1.355-24.498
c0.28-7.574,1.449-12.996,2.012-15.521c0.562-2.525,1.87-4.115,4.486-6.545c3.539-3.287,8.137-7.948,9.911-11.407
c1.776-3.459,3.834-7.573,4.677-9.444c0.842-1.869,2.896-3.74,7.387-5.61c3.243-1.351,10.847-3.646,17.672-5.609"/>
<path style="&st4;" d="M303.934,131.278c-5.845,1.248-16.531,4.019-26.46,7.307"/>
<path style="&st4;" d="M274.491,149.221c5.25,4.562,13.654,11.989,19.096,16.997"/>
<path style="&st4;" d="M316.93,187.659c0.655,0.374,1.123,0.28,2.338,0.094c1.218-0.187,52.828-13.185,65.544-17.578"/>
<path style="&st4;" d="M272.699,152.848c1.308,1.657,0.879,3.904,0.448,5.99"/>
<path style="&st4;" d="M303.092,209.607c0,0,7.574,5.61,8.136,5.984c0.562,0.373,0.98,0.188,1.263-0.188
c0.281-0.373,0.516-0.563,1.028-0.7l1.31-0.328c0,0,0.327,0.375,0.561,0.563c0.234,0.188,0.608,0,0.981-0.279
c0,0,0.328-0.374,0.468-0.702c0.142-0.326,0.188-0.7,0.094-1.122c-0.094-0.42-0.231-0.514-0.421-0.7l-0.747-0.562l-0.188,2.291"/>
<path style="&st4;" d="M311.998,214.938l0.07-1.612l-8.348-5.681"/>
<path style="&st4;" d="M376.42,195.561l-0.126,2.234"/>
<path style="&st4;" d="M318.146,110.802c0.844-1.402,2.727-2.644,5.145-2.337c2.945,0.374,6.517,1.051,10.449,1.496
c3.716,0.42,6.94,0.07,10.098-0.631c3.155-0.701,17.882-4.418,26.788-6.942c8.905-2.524,20.616-5.539,23.492-6.521
c2.875-0.982,3.927-2.174,3.716-3.646"/>
<path style="&st4;" d="M343.835,109.329c0.352,3.366,0.981,12.062,0.912,16.69"/>
<path style="&st4;" d="M309.45,179.525c0.562-18.795,2.792-29.229,7.2-37.588c2.711-5.142,4.394-7.947,6.075-10.004
c1.685-2.057,6.547-3.553,8.885-3.927c2.337-0.374,4.967-0.485,7.761-0.935c2.896-0.467,6.641-1.104,10.004-1.776
c8.883-1.776,34.179-8.81,40.953-11.313c4.301-1.59,6.729-2.619,6.729-2.619"/>
<path style="&st4;" d="M347.785,102.293c2.244,1.122,5.05,3.272,5.704,4.675"/>
<path style="&st4;" d="M383.596,94.626c1.312,0.935,2.618,2.057,3.086,3.273"/>
<path style="&st4;" d="M394.115,95.866c0.231,4.745-0.421,12.412-2.291,17.461"/>
<path style="&st4;" d="M338.015,127.211c-0.562,2.384-2.904,4.904-4.769,8.275c-2.945,5.33-6.171,14.446-7.435,22.02
c-1.264,7.573-2.243,22.301-2.944,29.313"/>
<path style="&st4;" d="M395.377,112.205c-0.98,2.384-3.927,4.769-6.171,8.555c-2.244,3.786-5.855,12.184-6.872,18.653
c-1.543,9.817-1.684,19.635-1.964,31.978"/>
<path style="&st4;" d="M326.747,154.093c14.165-3.085,43.806-11.034,55.587-14.68"/>
<path style="&st4;" d="M325.953,157.365c14.165-3.085,42.496-9.958,55.89-15.217"/>
<path style="&st4;" d="M271.021,158.395c1.591,0.188,4.677,1.028,5.8,1.591c1.121,0.562,3.459,2.616,5.233,3.834
c1.776,1.216,3.646,2.711,6.077,4.301"/>
<path style="&st4;" d="M297.772,188.341c1.536,0.785,2.584,1.212,2.584,1.212"/>
<path style="&st4;" d="M268.123,173.073c3.553,2.339,7.013,4.114,10.472,5.704c3.461,1.589,7.106,3.179,9.351,4.207
c1.877,0.859,4.407,2.244,6.444,3.438"/>
<path style="&st4;" d="M299.299,203.857l1.271,0.911"/>
<path style="&st4;" d="M267.282,180.834l31.041,22.323"/>
<path style="&st4;" d="M267.001,185.042l31.322,22.58"/>
<path style="&st4;" d="M291.591,166.436c0.328-0.278,0.89-0.232,1.355-0.188c0,0,2.196,0.234,2.712,0.328
c0.516,0.093,0.982,0.468,1.075,1.122c0,0,0.748,8.788,0.795,9.723c0.048,0.938,0.141,1.686,0.048,2.198
c-0.095,0.514-0.468,0.979-1.122,1.074c-0.655,0.094-4.066-0.188-4.676-0.373c-0.607-0.188-0.924-0.477-1.17-0.89
c-0.605-1.028-1.215-2.104-1.494-3.601c-0.28-1.496-1.029-7.995-1.075-8.321c-0.047-0.328,0.093-0.562,0.514-0.701l1.544-0.515
l3.879,0.654c0.517,0.562,1.216,0.749,1.591,0.795"/>
<path style="&st4;" d="M292.099,168.381c0,0,0.616,6.517,0.804,7.825c0.188,1.31,0.653,2.619,1.684,3.834"/>
<path style="&st4;" d="M288.67,166.734l-0.104,0.421c0,0,2.311,0.454,2.868,0.523c0.563,0.069,1.228-0.034,1.646-0.104
l1.119-0.279"/>
<path style="&st4;" d="M295.938,180.787l0.327,3.554l0.142,0.936l3.132,7.668l1.964,7.198c0,0,0.607,3.087,0.607,3.602
c0,0.514-0.654,0.7-0.937,0.232l-0.503-1.063l-0.666,0.14l-0.771-0.313"/>
<path style="&st4;" d="M293.556,180.611l0.279,3.541l0.246,1.191l2.244,7.608c0,0,1.928,9.854,2.067,10.414
c0.141,0.56,0.91,0.733,1.087,0.033l0.069-0.386"/>
<path style="&st4;" d="M270.272,183.078c0,0,0-1.309,0-1.542c0-0.234,0.232-0.422,0.515-0.515c0,0,1.87-0.517,2.149-0.517
c0.28,0,0.563,0.047,0.89,0.28l23.422,16.83"/>
<path style="&st4;" d="M273.358,180.555l-5.518-4.16"/>
<path style="&st4;" d="M306.037,177.491c0,0-1.823,0.842-2.805,1.473c-0.982,0.631-1.823,1.684-2.176,2.313
c-0.351,0.632-0.811,2.313-0.771,4.207c0.069,3.438,0.468,10.729,1.216,14.655"/>
<path style="&st4;" d="M297.692,178.964c0.631,0.771,2.943,3.507,2.943,3.507"/>
<path style="&st4;" d="M303.863,179.595c2.032-0.351,3.927,1.053,5.47,3.719c1.543,2.663,2.104,4.907,2.314,7.993
c0.21,3.086-0.281,5.681-0.771,7.783c-0.491,2.104-2.034,7.715-2.034,7.715"/>
<path style="&st4;" d="M302.157,203.977c0,0,4.813,3.271,5.563,3.646c0.749,0.374,1.217,0.328,2.104,0.328
c0,0,4.065-0.234,4.485-0.328c0.423-0.093,0.798-0.327,0.938-0.608c0.808-1.614,1.168-2.276,1.448-3.015
c0.562-1.474,0.842-2.806,0.771-4.629s-0.406-4.489-0.28-7.363c0.163-3.738-0.584-6.872-1.894-9.35
c-2.524-0.632-3.997-1.311-4.698-2.08c-0.701-0.771-2.665-2.244-4.699-3.296c-2.699-1.397-5.327-0.633-6.028,1.542"/>
<path style="&st4;" d="M296.407,206.313c-0.89,0.327-1.59,1.311-1.637,2.012c0,0-0.096,1.074-0.096,1.401
c0,0.328,0.221,0.771,0.608,1.311c1.215,1.685,1.026,3.646,0.936,5.188c0,0,0,3.602,0,4.35c0,0.747,0.326,1.589,1.263,2.057
c0.882,0.497,7.952,4.977,8.509,5.188c0.606,0.232,1.683,0.232,2.384,0.142c0.701-0.094,7.527-2.011,8.322-2.196
c0.794-0.188,1.216-0.608,1.169-1.123s-0.188-1.495-0.234-2.196s-0.514-1.123-1.636-2.011c-0.528-0.418-1.671-1.189-2.807-2.032
c-0.98-0.728-1.263-1.429-1.331-2.549"/>
<path style="&st4;" d="M305.991,223.098c0,0-1.59-1.217-2.899-2.339c-1.309-1.122-1.683-3.833-1.683-6.355v-1.59"/>
<path style="&st4;" d="M296.828,208.417l4.207,3.085"/>
<path style="&st4;" d="M312.068,207.926c0,0,3.015,2.385,3.296,2.597c0.278,0.209,0.396,0.561,0.396,1.052"/>
<path style="&st4;" d="M297.901,207.669c0.375,0.095,0.7-0.327,0.843-0.841c0.141-0.516,0.375-1.169,0.795-1.497
c0.422-0.326,0.795-0.374,1.028-0.374c0.232,0,0.652,0.095,0.889,0.328c0,0,1.589,1.122,1.964,1.402
c0.373,0.278,0.496,1.021-0.094,1.168c-0.374,0.095-0.327,0.42-0.327,0.842c0,0.421,0.047,1.31,0.188,1.822
c0.141,0.516,0.421,0.747,0.746,0.747"/>
<path style="&st4;" d="M381.633,189.623l0.069,0.842c0,0-11.359,3.437-11.921,3.506c-0.563,0.07-0.771-0.069-1.052-0.421
l-2.104-3.997"/>
<path style="&st4;" d="M373.007,187.589c0.912,0.632,2.385,0.912,3.507,0.563c1.122-0.351,2.452,0.854,2.771,1.653"/>
<path style="&st4;" d="M355.826,192.218c0,0-0.631,8.557-0.701,9.326c-0.07,0.771,0.141,1.401,0.842,1.824
c0,0,1.026,0.671,1.332,0.841c0.632,0.353,0.981,1.684,1.823,2.314c0.842,0.629,4.979,3.015,6.101,3.575
c1.122,0.562,2.525,0.562,3.857,0.279s7.784-1.963,8.906-2.454s1.683-2.032,1.189-2.943c-0.489-0.912-1.021-1.339-2.032-2.034
c-2.243-1.542-2.944-2.313-3.928-3.786"/>
<path style="&st4;" d="M351.899,193.41l0.699,0.701l1.265,0.701l-0.07,0.909c0,0,0.842,2.175,1.542,2.875"/>
<path style="&st4;" d="M358.141,191.797l3.296,2.314"/>
<path style="&st4;" d="M362.418,195.232c-0.28,0.352-0.491,1.121-0.491,1.823c0,0.7,0.07,1.822-0.067,2.663
c-0.143,0.844-0.281,2.104-0.353,2.525c-0.07,0.42,0.069,1.472,0.49,1.894c0.421,0.42,4.066,3.227,4.066,3.227"/>
<path style="&st4;" d="M368.168,207.575c0,0,8.485-2.104,9.116-2.314c0.632-0.21,0.702-0.488,0.702-0.771"/>
<path style="&st4;" d="M363.891,190.254c0.771,0.771,0.568,1.354,0,1.543c-0.351,0.117-0.396,0.21-0.396,0.631
c0,0.422,0.187,1.404,0.231,1.777c0.049,0.374,0.563,0.795,0.797,0.795"/>
</g>
</g>
<g id="Code">
<path style="&st2;" d="M106.823,301.891v-35.914l66.38-40.569"/>
<path style="&st2;" d="M321.822,16.882V44.84L303.87,158.905"/>
<path style="&st7;" d="M321.822,9.796v35.045L303.87,158.905"/>
<a ewd:code="Qa1" ewd:figtype="w2w" style="cursor:pointer;" >
<path style="&st12;" d="M333.87,16.919V2.746h-24.096v14.173H333.87z"/>
<text id="SVGID_1_" transform="matrix(1 0 0 1 312.3721 13.333)" style="&st6; &st10;">Qa1</text>
<title>Floor Wire and Front Seat RH Wire (Front Seat RH)</title></a>
<path style="&st2;" d="M364.322,16.882V44.84l4.798,128.814"/>
<path style="&st2;" d="M398.822,16.882V44.84L369.12,173.655"/>
<path style="&st7;" d="M398.822,9.796v35.045L369.12,173.655"/>
<a ewd:code="ea2" ewd:figtype="w2w" style="cursor:pointer;" >
<path style="&st12;" d="M410.87,16.919V2.746h-24.096v14.173H410.87z"/>
<text id="SVGID_2_" transform="matrix(1 0 0 1 390.4795 13.333)" style="&st6; &st10;">ea2</text>
<title>Front Seat RH No. 2 Wire and Front Seat RH Wire (Front Seat RH)</title></a>
<path style="&st7;" d="M106.823,301.891v-35.914l66.38-40.569"/>
<a ewd:code="fb2" ewd:figtype="w2w" style="cursor:pointer;" >
<path style="&st12;" d="M118.87,308.977v-14.174H94.776v14.174H118.87z"/>
<text id="SVGID_3_" transform="matrix(1 0 0 1 99.3232 305.3906)" style="&st6; &st10;">fb2</text>
<title>Front Seat LH No. 2 Wire and Front Seat LH Wire (Front Seat LH)</title></a>
<path style="&st2;" d="M171.823,301.891v-35.914l14.713-75.569"/>
<path style="&st7;" d="M171.823,301.891v-35.914l14.713-75.569"/>
<a ewd:code="Rb1" ewd:figtype="w2w" style="cursor:pointer;" >
<path style="&st12;" d="M183.87,308.977v-14.174h-24.094v14.174H183.87z"/>
<text id="SVGID_4_" transform="matrix(1 0 0 1 162.3774 305.3906)" style="&st6; &st10;">Rb1</text>
<title>Floor No. 2 Wire and Front Seat LH Wire (Front Seat LH)</title></a>
<path style="&st2;" d="M246.953,290.376l0.021-15.222l-49.104-52.75"/>
<text id="SVGID_5_" transform="matrix(1 0 0 1 215.3701 298.917)" style="&st9; &st10;">Front Seat LH</text>
<text id="SVGID_6_" transform="matrix(1 0 0 1 215.3701 308.917)" style="&st9; &st10;">No. 2 Wire</text>
<path style="&st7;" d="M246.953,290.376l0.021-15.222l-49.104-52.75"/>
<path style="&st2;" d="M51.203,212.322H76.37l63.5-11.917"/>
<path style="&st7;" d="M51.203,212.322H76.37l63.5-11.917"/>
<path style="&st2;" d="M176.739,22.576v22.265"/>
<path style="&st2;" d="M176.739,22.576v22.265l26.464,135.897"/>
<path style="&st7;" d="M176.739,22.576v22.265l26.464,135.897"/>
<text id="SVGID_7_" transform="matrix(1 0 0 1 3.3701 210.7783)" style="&st9; &st10;">Front Seat</text>
<text id="SVGID_8_" transform="matrix(1 0 0 1 3.3701 220.7783)" style="&st9; &st10;">LH Wire</text>
<text id="SVGID_9_" transform="matrix(1 0 0 1 152.3701 11.0283)" style="&st9; &st10;">Floor No. 2</text>
<text id="SVGID_10_" transform="matrix(1 0 0 1 152.3701 21.0283)" style="&st9; &st10;">Wire</text>
<path style="&st2;" d="M265.472,11.905v32.936"/>
<path style="&st2;" d="M265.472,11.905v32.936l21.065,114.564"/>
<path style="&st7;" d="M265.472,11.905v32.936l21.065,114.564"/>
<text id="SVGID_11_" transform="matrix(1 0 0 1 243.3701 11.0283)" style="&st9; &st10;">Floor Wire</text>
<text id="SVGID_12_" transform="matrix(1 0 0 1 469.7158 234.5713)" style="&st9; &st10;">Front Seat</text>
<text id="SVGID_13_" transform="matrix(1 0 0 1 469.7158 244.5713)" style="&st9; &st10;">RH Wire</text>
<path style="&st2;" d="M468.239,235.07H438.87l-120.5-74.665"/>
<path style="&st7;" d="M468.239,235.07H438.87l-120.5-74.665"/>
<text id="SVGID_14_" transform="matrix(1 0 0 1 451.7158 189.0713)" style="&st9; &st10;">Front Seat</text>
<text id="SVGID_15_" transform="matrix(1 0 0 1 451.7158 199.0713)" style="&st9; &st10;">RH No. 2 Wire</text>
<path style="&st2;" d="M450.239,189.57H438.87l-55.5-16.998"/>
<path style="&st7;" d="M450.239,189.57H438.87l-55.5-16.998"/>
<path style="&st7;" d="M364.322,9.796v35.045l4.798,128.814"/>
<a ewd:code="ea1" ewd:figtype="w2w" style="cursor:pointer;" >
<path style="&st12;" d="M376.37,16.919V2.746h-24.096v14.173H376.37z"/>
<text id="SVGID_16_" transform="matrix(1 0 0 1 355.9795 13.333)" style="&st6; &st10;">ea1</text>
<title>Front Seat RH No. 2 Wire and Front Seat RH Wire (Front Seat RH)</title></a>
<text id="SVGID_17_" transform="matrix(1 0 0 1 369.0215 26.0889)" style="&st9; &st10;">(*1)</text>
<text id="SVGID_18_" transform="matrix(1 0 0 1 403.5215 26.0889)" style="&st9; &st10;">(*2)</text>
<text id="SVGID_19_" transform="matrix(1 0 0 1 2.2441 11.3799)" style="&st9; &st10;">* 1:w/ Seat Position Memory</text>
<text id="SVGID_20_" transform="matrix(1 0 0 1 2.2441 21.3018)" style="&st9; &st10;">* 2:w/o Seat Position Memory</text>
</g>
</svg>
