﻿<?xml version="1.0" encoding="UTF-8"?>
<!DOCTYPE svg PUBLIC "-//W3C//DTD SVG 1.0//EN" "http://www.w3.org/TR/2001/REC-SVG-20010904/DTD/svg10.dtd"[
<!ENTITY ns_flows "http://ns.adobe.com/Flows/1.0/">
<!ENTITY ns_svg "http://www.w3.org/2000/svg">
<!ENTITY ns_xlink "http://www.w3.org/1999/xlink">
	<!ENTITY st0 "fill:none;stroke:#F8E616;stroke-width:5.1;stroke-linejoin:round;">
	<!ENTITY st1 "fill:none;stroke:#FB0F0C;stroke-width:5.1;stroke-linejoin:round;">
	<!ENTITY st2 "fill:none;stroke:#9A9999;stroke-width:5.1;stroke-linejoin:round;">
	<!ENTITY st3 "fill:none;stroke:#99280B;stroke-width:5.1;stroke-linejoin:round;">
		<!ENTITY st4 "fill:none;stroke:#000000;stroke-width:0.85;stroke-linecap:round;stroke-linejoin:round;stroke-dasharray:3 1.5;enable-background:new    ;">
	<!ENTITY st5 "fill:none;stroke:#000000;stroke-width:5.1;stroke-linejoin:round;">
	<!ENTITY st6 "fill:none;stroke:#199DBF;stroke-width:1.13;stroke-linejoin:round;">
	<!ENTITY st7 "fill:none;stroke:#000000;stroke-linecap:round;stroke-linejoin:round;">
	<!ENTITY st8 "stroke:#000000;stroke-width:0.28;stroke-linecap:round;stroke-linejoin:round;enable-background:new    ;">
	<!ENTITY st9 "enable-background:new    ;">
		<!ENTITY st10 "fill:none;stroke:#000000;stroke-width:1.42;stroke-linecap:round;stroke-linejoin:round;enable-background:new    ;">
	<!ENTITY st11 "fill:none;stroke:#EE67AA;stroke-width:5.1;stroke-linejoin:round;">
	<!ENTITY st12 "fill:none;stroke:#199DBF;stroke-width:5.1;stroke-linejoin:round;">
	<!ENTITY st13 "opacity:0.5;fill:none;stroke:#34ACCE;stroke-linejoin:round;stroke-dasharray:6;">
	<!ENTITY st14 "fill:none;stroke:#FFFFFF;stroke-width:4.53;stroke-linejoin:round;">
		<!ENTITY st15 "fill:none;stroke:#000000;stroke-width:0.85;stroke-linecap:round;stroke-linejoin:round;enable-background:new    ;">
	<!ENTITY st16 "fill:none;stroke:#56107C;stroke-width:5.1;stroke-linejoin:round;">
	<!ENTITY st17 "font-size:6px;">
	<!ENTITY st18 "fill:none;stroke:#FFFFFF;stroke-width:2.27;stroke-linejoin:round;">
	<!ENTITY st19 "fill:none;stroke:#FB0F0C;stroke-width:1.13;stroke-linejoin:round;">
	<!ENTITY st20 "fill:none;stroke:#168638;stroke-width:5.1;stroke-linejoin:round;">
	<!ENTITY st21 "fill:none;stroke:#000000;stroke-width:1.13;stroke-linejoin:round;">
		<!ENTITY st22 "fill:none;stroke:#000000;stroke-width:1.13;stroke-linecap:round;stroke-linejoin:round;stroke-dasharray:3 1.5;enable-background:new    ;">
	<!ENTITY st23 "fill:none;stroke:#FFFFFF;stroke-width:4.53;stroke-linejoin:round;enable-background:new    ;">
	<!ENTITY st24 "fill:#FFFFFF;stroke:#000000;stroke-width:1.41;stroke-linecap:round;stroke-linejoin:round;">
	<!ENTITY st25 "fill:none;stroke:#F8E616;stroke-width:5.1;stroke-linejoin:round;enable-background:new    ;">
	<!ENTITY st26 "fill:none;stroke:#3E65AC;stroke-width:3;">
	<!ENTITY st27 "fill:#CCCCCC;stroke:#CCCCCC;stroke-width:0.1;stroke-linecap:round;stroke-linejoin:round;">
	<!ENTITY st28 "fill:none;stroke:#000000;stroke-width:5.1;stroke-linejoin:round;enable-background:new    ;">
	<!ENTITY st29 "font-family:'ArialMT';">
	<!ENTITY st30 "fill:none;stroke:#000000;stroke-width:0.85;stroke-linejoin:round;">
	<!ENTITY st31 "opacity:0.5;fill:none;stroke:#34ACCE;stroke-linejoin:round;">
	<!ENTITY st32 "fill:#CFE6E7;stroke:#000000;stroke-width:1.133;stroke-linecap:round;stroke-linejoin:round;">
	<!ENTITY st33 "fill:none;stroke:#9A9999;stroke-width:5.1;stroke-linejoin:round;enable-background:new    ;">
	<!ENTITY st34 "fill:none;stroke:#99D5E0;stroke-width:5.1;stroke-linejoin:round;">
	<!ENTITY st35 "fill:none;stroke:#99280B;stroke-width:5.1;stroke-linejoin:round;enable-background:new    ;">
	<!ENTITY st36 "fill:none;stroke:#FFFFFF;stroke-width:1.13;stroke-linejoin:round;enable-background:new    ;">
	<!ENTITY st37 "fill:none;stroke:#7EC57E;stroke-width:5.1;stroke-linejoin:round;">
<!ATTLIST svg
xmlns:ewd CDATA #FIXED "http://shcl.co.jp/ewd"
xmlns:a CDATA #FIXED "http://ns.adobe.com/AdobeSVGViewerExtensions/3.0/"
ewd:ver CDATA #IMPLIED
>
<!ATTLIST a
ewd:lineID CDATA #IMPLIED
ewd:groupID CDATA #IMPLIED
ewd:figtype CDATA #IMPLIED
ewd:code CDATA #IMPLIED
ewd:figID CDATA #IMPLIED
ewd:pinNo CDATA #IMPLIED
ewd:comment CDATA #IMPLIED >
<!ATTLIST g
ewd:lineID CDATA #IMPLIED
ewd:groupID CDATA #IMPLIED
ewd:figtype CDATA #IMPLIED
ewd:code CDATA #IMPLIED
ewd:figID CDATA #IMPLIED
ewd:pinNo CDATA #IMPLIED
ewd:comment CDATA #IMPLIED >
<!ATTLIST text
ewd:textID CDATA #IMPLIED >
<!ATTLIST title
ewd:textID CDATA #IMPLIED >
]>
<svg 
viewBox='0 0 15555.3 729.44'
height='729.44'
width='15555.3'
xml:space="preserve"
xmlns="&ns_svg;"
xmlns:ewd="http://shcl.co.jp/ewd"
xmlns:xlink="&ns_xlink;" ewd:ver="L2.1">
<g ewd:code="GH1" ewd:figID="6236" ewd:figtype="w2w" ewd:pinNo="14">
<path style="&st10;" d="M15320.11,150.03h8.5"/>
<path style="&st10;" d="M15324.35,140.97l4.25,4.25l4.25-4.25"/>
<path style="&st10;" d="M15332.85,144.37l-4.25,4.24l-4.25-4.24"/>
<text transform="matrix(1 0 0 1 15310.4395 156.2466)" style="&st9;"><tspan x="0" y="0" style="&st29; &st17;">14</tspan></text>
</g>
<g ewd:code="GH1" ewd:figID="6237" ewd:figtype="w2w" ewd:pinNo="13">
<path style="&st10;" d="M15362.6,150.03h8.5"/>
<path style="&st10;" d="M15375.34,144.37l-4.25,4.24l-4.24-4.24"/>
<path style="&st10;" d="M15366.85,140.97l4.24,4.25l4.25-4.25"/>
<text transform="matrix(1 0 0 1 15352.9297 156.2466)" style="&st9;"><tspan x="0" y="0" style="&st29; &st17;">13</tspan></text>
</g>
<g ewd:code="GA1" ewd:figID="6238" ewd:figtype="w2w" ewd:pinNo="10">
<path style="&st10;" d="M15439.09,150.03h8.5"/>
<path style="&st10;" d="M15451.83,144.37l-4.25,4.24l-4.25-4.24"/>
<path style="&st10;" d="M15443.33,140.97l4.25,4.25l4.25-4.25"/>
<text transform="matrix(1 0 0 1 15429.4199 156.2466)" style="&st9;"><tspan x="0" y="0" style="&st29; &st17;">10</tspan></text>
</g>
<g ewd:code="GA2" ewd:figID="6239" ewd:figtype="w2w" ewd:pinNo="12">
<text transform="matrix(1 0 0 1 15429.4199 164.7466)" style="&st9;"><tspan x="0" y="0" style="&st29; &st17;">12</tspan></text>
</g>
<g ewd:code="GA1" ewd:figID="6240" ewd:figtype="w2w" ewd:pinNo="16">
<text transform="matrix(1 0 0 1 15488.9102 164.7466)" style="&st9;"><tspan x="0" y="0" style="&st29; &st17;">16</tspan></text>
</g>
<g ewd:code="GA1" ewd:figID="6241" ewd:figtype="w2w" ewd:pinNo="12">
<path style="&st10;" d="M15498.58,150.03h8.5"/>
<path style="&st10;" d="M15511.32,144.37l-4.25,4.24l-4.25-4.24"/>
<path style="&st10;" d="M15502.82,140.97l4.25,4.25l4.25-4.25"/>
<text transform="matrix(1 0 0 1 15488.9102 156.2466)" style="&st9;"><tspan x="0" y="0" style="&st29; &st17;">12</tspan></text>
</g>
<g ewd:code="FUSE16" ewd:figID="4006" ewd:figtype="rb">
<path style="&st7;" d="M15460.34,82.04V39.55h-25.5v42.49H15460.34"/>
<path style="&st15;" d="M15447.59,73.54v34"/>
<path style="&st10;" d="M15449.71,107.54h-4.25"/>
<path style="&st10;" d="M15449.71,116.04h-4.25"/>
<path style="&st8;" d="M15447.58,102.64l-2.83-2.83v4.25l2.83,2.83l2.83-2.83v-4.25L15447.58,102.64"/>
<path style="&st10;" d="M15460.33,82.04V39.55h-25.5v42.49H15460.33"/>
<path style="&st10;" d="M15447.59,50.88c-2.74,1.61-3.65,5.14-2.04,7.88"/>
<path style="&st10;" d="M15445.55,58.76c0.52,0.88,1.16,1.52,2.04,2.04"/>
<path style="&st10;" d="M15447.59,70.71c2.74-1.61,3.65-5.14,2.04-7.88"/>
<path style="&st10;" d="M15449.63,62.83c-0.52-0.88-1.16-1.51-2.04-2.03"/>
<path style="&st15;" d="M15449,49.46c0-0.78-0.63-1.41-1.41-1.41"/>
<path style="&st15;" d="M15447.59,48.05c-0.78,0-1.42,0.63-1.42,1.41"/>
<path style="&st15;" d="M15446.17,49.46c0,0.79,0.64,1.42,1.42,1.42"/>
<path style="&st15;" d="M15447.59,50.88c0.78,0,1.41-0.63,1.41-1.42"/>
<path style="&st15;" d="M15449,72.13c0-0.79-0.63-1.42-1.41-1.42"/>
<path style="&st15;" d="M15447.59,70.71c-0.78,0-1.42,0.63-1.42,1.42"/>
<path style="&st15;" d="M15446.17,72.13c0,0.78,0.64,1.41,1.42,1.41"/>
<path style="&st15;" d="M15447.59,73.54c0.78,0,1.41-0.63,1.41-1.41"/>
<path style="&st10;" d="M15445.46,107.54c-2.34,0-4.25,1.9-4.25,4.25"/>
<path style="&st10;" d="M15441.21,111.79c0,2.34,1.91,4.25,4.25,4.25"/>
<path style="&st10;" d="M15449.71,116.04c2.35,0,4.25-1.91,4.25-4.25"/>
<path style="&st10;" d="M15453.96,111.79c0-2.35-1.9-4.25-4.25-4.25"/>
<text transform="matrix(1 0 0 1 15440.8027 90.2363)" style="&st9;"><tspan x="0" y="0" style="&st29; &st17;">2</tspan></text>
<text transform="matrix(1 0 0 1 15438.4824 35.8467)" style="&st9;"><tspan x="0" y="0" style="&st29; &st17;">(BAT)</tspan></text>
<text transform="matrix(1 0 0 1 15446.0039 113.7568)" style="&st9;"><tspan x="0" y="0" style="&st29; &st17;">1</tspan></text>
<text transform="matrix(1 0 0 1 15464.8926 57.1064)" style="&st9;"><tspan x="0" y="0" style="&st29; &st17;">10A</tspan></text>
<text transform="matrix(1 0 0 1 15464.8926 63.1064)" style="&st9;"><tspan x="0" y="0" style="&st29; &st17;">RAD</tspan></text>
<text transform="matrix(1 0 0 1 15464.8926 69.1064)" style="&st9;"><tspan x="0" y="0" style="&st29; &st17;">NO.2</tspan></text>
</g>
<g ewd:code="FUSE43" ewd:figID="4007" ewd:figtype="rb">
<path style="&st7;" d="M15519.83,82.04V39.55h-25.5v42.49H15519.83"/>
<path style="&st15;" d="M15507.08,73.54v34"/>
<path style="&st10;" d="M15509.2,107.54h-4.25"/>
<path style="&st10;" d="M15509.2,116.04h-4.25"/>
<path style="&st8;" d="M15507.07,102.64l-2.83-2.83v4.25l2.83,2.83l2.83-2.83v-4.25L15507.07,102.64"/>
<path style="&st10;" d="M15519.82,82.04V39.55h-25.5v42.49H15519.82"/>
<path style="&st10;" d="M15507.08,50.88c-2.74,1.61-3.65,5.14-2.04,7.88"/>
<path style="&st10;" d="M15505.04,58.76c0.52,0.88,1.16,1.52,2.04,2.04"/>
<path style="&st10;" d="M15507.08,70.71c2.74-1.61,3.65-5.14,2.04-7.88"/>
<path style="&st10;" d="M15509.12,62.83c-0.52-0.88-1.16-1.51-2.04-2.03"/>
<path style="&st15;" d="M15508.49,49.46c0-0.78-0.63-1.41-1.41-1.41"/>
<path style="&st15;" d="M15507.08,48.05c-0.78,0-1.42,0.63-1.42,1.41"/>
<path style="&st15;" d="M15505.66,49.46c0,0.79,0.64,1.42,1.42,1.42"/>
<path style="&st15;" d="M15507.08,50.88c0.78,0,1.41-0.63,1.41-1.42"/>
<path style="&st15;" d="M15508.49,72.13c0-0.79-0.63-1.42-1.41-1.42"/>
<path style="&st15;" d="M15507.08,70.71c-0.78,0-1.42,0.63-1.42,1.42"/>
<path style="&st15;" d="M15505.66,72.13c0,0.78,0.64,1.41,1.42,1.41"/>
<path style="&st15;" d="M15507.08,73.54c0.78,0,1.41-0.63,1.41-1.41"/>
<path style="&st10;" d="M15504.95,107.54c-2.34,0-4.25,1.9-4.25,4.25"/>
<path style="&st10;" d="M15500.7,111.79c0,2.34,1.91,4.25,4.25,4.25"/>
<path style="&st10;" d="M15509.2,116.04c2.35,0,4.25-1.91,4.25-4.25"/>
<path style="&st10;" d="M15513.45,111.79c0-2.35-1.9-4.25-4.25-4.25"/>
<text transform="matrix(1 0 0 1 15500.2949 90.2363)" style="&st9;"><tspan x="0" y="0" style="&st29; &st17;">2</tspan></text>
<text transform="matrix(1 0 0 1 15505.4941 113.7568)" style="&st9;"><tspan x="0" y="0" style="&st29; &st17;">1</tspan></text>
<text transform="matrix(1 0 0 1 15524.3848 59.9365)" style="&st9;"><tspan x="0" y="0" style="&st29; &st17;">30A</tspan></text>
<text transform="matrix(1 0 0 1 15524.3848 65.9365)" style="&st9;"><tspan x="0" y="0" style="&st29; &st17;">AMP</tspan></text>
<text transform="matrix(1 0 0 1 15497.9746 35.8467)" style="&st9;"><tspan x="0" y="0" style="&st29; &st17;">(BAT)</tspan></text>
</g>
<g ewd:code="H1" ewd:figID="2011" ewd:figtype="gp">
<path style="&st15;" d="M15215.29,710.94h5.66"/>
<path style="&st15;" d="M15216.7,713.77h2.84"/>
<path style="&st15;" d="M15213.87,708.1h8.5"/>
<path style="&st15;" d="M15209.62,705.27h17"/>
<path style="&st15;" d="M15218.12,701.02v4.25"/>
</g>
<g ewd:code="H13" ewd:figID="97" ewd:figtype="conn">
<path style="&st10;" d="M15107.64,281.76v8.5l-4.25,8.5h25.5l-4.25-8.5v-8.5H15107.64"/>
<path style="&st10;" d="M15107.64,290.26h17"/>
<text ewd:textID="29" transform="matrix(1 0 0 1 15088.123 313.4668)" style="&st9; &st29; &st17;">Front No. 1 Speaker <tspan x="0" y="7">Assembly LH</tspan></text>
<text transform="matrix(1 0 0 1 15088.123 306.3667)" style="&st9;"><tspan x="0" y="0" style="&st29; &st17;">H13</tspan></text>
<text transform="matrix(1 0 0 1 15100.8652 282.3164)" style="&st9;"><tspan x="0" y="0" style="&st29; &st17;">2</tspan></text>
<text transform="matrix(1 0 0 1 15127.4824 282.3164)" style="&st9;"><tspan x="0" y="0" style="&st29; &st17;">1</tspan></text>
</g>
<g ewd:code="H22" ewd:figID="96" ewd:figtype="conn">
<path style="&st10;" d="M15073.64,175.53v33.99h84.99v-33.99H15073.64"/>
<text ewd:textID="37" transform="matrix(0 -1 1 0 15173.3535 212.0469)" style="&st9; &st29; &st17;">Front No. 3 Speaker <tspan x="0" y="7">Assembly LH</tspan></text>
<text transform="matrix(0 -1 1 0 15166.2539 212.0469)" style="&st9;"><tspan x="0" y="0" style="&st29; &st17;">H22</tspan></text>
<text transform="matrix(1 0 0 1 15084.6348 171.8364)" style="&st9;"><tspan x="0" y="0" style="&st29; &st17;">1</tspan></text>
<text transform="matrix(1 0 0 1 15081.1836 183.1567)" style="&st9;"><tspan x="0" y="0" style="&st29; &st17;">TWL+</tspan></text>
<text transform="matrix(1 0 0 1 15132.1738 183.1567)" style="&st9;"><tspan x="0" y="0" style="&st29; &st17;">TWL-</tspan></text>
<text transform="matrix(1 0 0 1 15134.8535 171.8364)" style="&st9;"><tspan x="0" y="0" style="&st29; &st17;">2</tspan></text>
<text transform="matrix(1 0 0 1 15083.8652 217.7065)" style="&st9;"><tspan x="0" y="0" style="&st29; &st17;">3</tspan></text>
<text transform="matrix(1 0 0 1 15088.6348 205.8164)" style="&st9;"><tspan x="0" y="0" style="&st29; &st17;">+</tspan></text>
<text transform="matrix(1 0 0 1 15139.6348 205.8164)" style="&st9;"><tspan x="0" y="0" style="&st29; &st17;">-</tspan></text>
<text transform="matrix(1 0 0 1 15134.8535 217.7065)" style="&st9;"><tspan x="0" y="0" style="&st29; &st17;">4</tspan></text>
</g>
<g ewd:code="H26" ewd:figID="98" ewd:figtype="conn">
<path style="&st15;" d="M15216.93,667.44l-0.27,0.47l-0.1,0.53l0.1,0.54l0.27,0.47l0.41,0.34l0.51,0.19h0.54l0.51-0.19l0.41-0.34l0.27-0.47l0.1-0.54l-0.1-0.53l-0.27-0.47l-0.41-0.34l-0.51-0.19h-0.54l-0.51,0.19L15216.93,667.44l0.39,0.71v0.59l0.38,0.44l0.57,0.1l0.5-0.29l0.2-0.55l-0.2-0.54l-0.5-0.29l-0.57,0.1l0.42,0.73"/>
<path style="&st15;" d="M15260.61,659.95v8.49h-42.49"/>
<path style="&st15;" d="M15218.12,659.95v25.49"/>
<path style="&st10;" d="M15209.62,659.95h59.49v16.99h-59.49V659.95"/>
<text transform="matrix(1 0 0 1 15272.2637 661.8872)" style="&st9;"><tspan x="0" y="0" style="&st29; &st17;">H26</tspan></text>
<text ewd:textID="45" transform="matrix(1 0 0 1 15272.2637 668.9966)" style="&st9; &st29; &st17;">Junction Connector</text>
<text transform="matrix(1 0 0 1 15211.3438 656.2563)" style="&st9;"><tspan x="0" y="0" style="&st29; &st17;">3</tspan></text>
<text transform="matrix(1 0 0 1 15253.834 656.2563)" style="&st9;"><tspan x="0" y="0" style="&st29; &st17;">4</tspan></text>
</g>
<text transform="matrix(0 -1 1 0 15256.9238 137.8364)" style="&st9;"><tspan x="0" y="0" style="&st29; &st17;">BR</tspan></text>
<text transform="matrix(0 -1 1 0 15214.4336 137.8364)" style="&st9;"><tspan x="0" y="0" style="&st29; &st17;">BR</tspan></text>
<text transform="matrix(0 -1 1 0 15086.9551 245.8467)" style="&st9;"><tspan x="0" y="0" style="&st29; &st17;">P</tspan></text>
<text transform="matrix(0 -1 1 0 15137.9434 245.8467)" style="&st9;"><tspan x="0" y="0" style="&st29; &st17;">V</tspan></text>
<text transform="matrix(0 -1 1 0 15367.4141 180.1865)" style="&st9;"><tspan x="0" y="0" style="&st29; &st17;">SB</tspan></text>
<text transform="matrix(0 -1 1 0 15324.9141 180.1865)" style="&st9;"><tspan x="0" y="0" style="&st29; &st17;">SB</tspan></text>
<text transform="matrix(0 -1 1 0 15324.9141 120.6968)" style="&st9;"><tspan x="0" y="0" style="&st29; &st17;">SB</tspan></text>
<text transform="matrix(0 -1 1 0 15367.4141 120.6968)" style="&st9;"><tspan x="0" y="0" style="&st29; &st17;">SB</tspan></text>
<text transform="matrix(0 -1 1 0 15443.8926 132.1367)" style="&st9;"><tspan x="0" y="0" style="&st29; &st17;">W</tspan></text>
<text transform="matrix(0 -1 1 0 15086.9551 135.3564)" style="&st9;"><tspan x="0" y="0" style="&st29; &st17;">P</tspan></text>
<text transform="matrix(0 -1 1 0 15137.9434 135.3564)" style="&st9;"><tspan x="0" y="0" style="&st29; &st17;">V</tspan></text>
<text transform="matrix(1 0 0 1 15457.5039 164.7466)" style="&st9;"><tspan x="0" y="0" style="&st29; &st17;">(LHD)</tspan></text>
<text transform="matrix(1 0 0 1 15457.5039 156.2466)" style="&st9;"><tspan x="0" y="0" style="&st29; &st17;">(RHD)</tspan></text>
</svg>
