﻿<?xml version="1.0" encoding="UTF-8"?>
<!DOCTYPE svg PUBLIC "-//W3C//DTD SVG 1.0//EN" "http://www.w3.org/TR/2001/REC-SVG-20010904/DTD/svg10.dtd"[
<!ENTITY ns_flows "http://ns.adobe.com/Flows/1.0/">
<!ENTITY ns_svg "http://www.w3.org/2000/svg">
<!ENTITY ns_xlink "http://www.w3.org/1999/xlink">
	<!ENTITY st0 "fill:none;stroke:#FB0F0C;stroke-width:5.1;stroke-linejoin:round;">
	<!ENTITY st1 "fill:none;stroke:#9A9999;stroke-width:5.1;stroke-linejoin:round;">
	<!ENTITY st2 "fill:none;stroke:#99280B;stroke-width:5.1;stroke-linejoin:round;">
		<!ENTITY st3 "fill:none;stroke:#000000;stroke-width:0.85;stroke-linecap:round;stroke-linejoin:round;stroke-dasharray:3 1.5;enable-background:new    ;">
	<!ENTITY st4 "fill:none;stroke:#000000;stroke-width:5.1;stroke-linejoin:round;">
	<!ENTITY st5 "fill:none;stroke:#000000;stroke-linecap:round;stroke-linejoin:round;">
	<!ENTITY st6 "fill:#1D63A2;">
	<!ENTITY st7 "stroke:#000000;stroke-width:0.28;stroke-linecap:round;stroke-linejoin:round;enable-background:new    ;">
	<!ENTITY st8 "enable-background:new    ;">
		<!ENTITY st9 "fill:none;stroke:#000000;stroke-width:1.42;stroke-linecap:round;stroke-linejoin:round;enable-background:new    ;">
	<!ENTITY st10 "fill:none;stroke:#EE67AA;stroke-width:5.1;stroke-linejoin:round;">
	<!ENTITY st11 "fill:none;stroke:#FFFFFF;stroke-width:4;">
	<!ENTITY st12 "fill:none;stroke:#199DBF;stroke-width:5.1;stroke-linejoin:round;">
	<!ENTITY st13 "opacity:0.5;fill:none;stroke:#34ACCE;stroke-linejoin:round;stroke-dasharray:6;">
	<!ENTITY st14 "fill:none;stroke:#FFFFFF;stroke-width:4.53;stroke-linejoin:round;">
	<!ENTITY st15 "fill:#F6140D;">
	<!ENTITY st16 "fill:none;stroke:#000000;stroke-width:0.601;stroke-linecap:round;stroke-linejoin:round;">
		<!ENTITY st17 "fill:none;stroke:#000000;stroke-width:0.85;stroke-linecap:round;stroke-linejoin:round;enable-background:new    ;">
	<!ENTITY st18 "fill:none;stroke:#56107C;stroke-width:5.1;stroke-linejoin:round;">
	<!ENTITY st19 "font-size:6px;">
	<!ENTITY st20 "fill:none;stroke:#168638;stroke-width:5.1;stroke-linejoin:round;">
	<!ENTITY st21 "fill:none;stroke:#000000;stroke-width:1.13;stroke-linejoin:round;">
		<!ENTITY st22 "fill:none;stroke:#000000;stroke-width:1.13;stroke-linecap:round;stroke-linejoin:round;stroke-dasharray:3 1.5;enable-background:new    ;">
	<!ENTITY st23 "fill:#FFFFFF;stroke:#000000;stroke-width:1.41;stroke-linecap:round;stroke-linejoin:round;">
	<!ENTITY st24 "fill:none;stroke:#550E7B;stroke-width:5.1;stroke-linejoin:round;">
	<!ENTITY st25 "fill:none;stroke:#000000;stroke-width:1.133;stroke-linecap:round;stroke-linejoin:round;">
	<!ENTITY st26 "fill:none;stroke:#3E65AC;stroke-width:3;">
	<!ENTITY st27 "fill:#CCCCCC;stroke:#CCCCCC;stroke-width:0.1;stroke-linecap:round;stroke-linejoin:round;">
	<!ENTITY st28 "stroke:#FFFFFF;stroke-width:2;">
	<!ENTITY st29 "fill:none;stroke:#000000;stroke-width:5;">
	<!ENTITY st30 "fill:none;stroke:#000000;stroke-width:5.1;stroke-linejoin:round;enable-background:new    ;">
	<!ENTITY st31 "font-family:'ArialMT';">
	<!ENTITY st32 "opacity:0.5;fill:none;stroke:#34ACCE;stroke-linejoin:round;">
	<!ENTITY st33 "fill:none;stroke:#000000;stroke-width:1.42;stroke-linecap:round;stroke-linejoin:round;">
	<!ENTITY st34 "fill:#CFE6E7;stroke:#000000;stroke-width:1.133;stroke-linecap:round;stroke-linejoin:round;">
	<!ENTITY st35 "font-size:12px;">
	<!ENTITY st36 "fill:none;stroke:#F7E416;stroke-width:5.1;stroke-linejoin:round;">
	<!ENTITY st37 "fill:none;stroke:#99D5E0;stroke-width:5.1;stroke-linejoin:round;">
	<!ENTITY st38 "fill:none;stroke:#000000;stroke-width:0.85;stroke-linecap:round;stroke-linejoin:round;stroke-dasharray:3 1.5;">
		<!ENTITY st39 "fill:none;stroke:#000000;stroke-width:0.601;stroke-linecap:round;stroke-linejoin:round;enable-background:new    ;">
	<!ENTITY st40 "fill:none;stroke:#000000;stroke-width:0.85;stroke-linecap:round;stroke-linejoin:round;">
	<!ENTITY st41 "fill:none;stroke:#7EC57E;stroke-width:5.1;stroke-linejoin:round;">
<!ATTLIST svg
xmlns:ewd CDATA #FIXED "http://shcl.co.jp/ewd"
xmlns:a CDATA #FIXED "http://ns.adobe.com/AdobeSVGViewerExtensions/3.0/"
ewd:ver CDATA #IMPLIED
>
<!ATTLIST a
ewd:lineID CDATA #IMPLIED
ewd:groupID CDATA #IMPLIED
ewd:figtype CDATA #IMPLIED
ewd:code CDATA #IMPLIED
ewd:figID CDATA #IMPLIED
ewd:pinNo CDATA #IMPLIED
ewd:comment CDATA #IMPLIED >
<!ATTLIST g
ewd:lineID CDATA #IMPLIED
ewd:groupID CDATA #IMPLIED
ewd:figtype CDATA #IMPLIED
ewd:code CDATA #IMPLIED
ewd:figID CDATA #IMPLIED
ewd:pinNo CDATA #IMPLIED
ewd:comment CDATA #IMPLIED >
<!ATTLIST text
ewd:textID CDATA #IMPLIED >
<!ATTLIST title
ewd:textID CDATA #IMPLIED >
]>
<svg 
viewBox='0 0 7790.45 729.44'
height='729.44'
width='7790.45'
xml:space="preserve"
xmlns="&ns_svg;"
xmlns:ewd="http://shcl.co.jp/ewd"
xmlns:xlink="&ns_xlink;" ewd:ver="L2.1">
<g ewd:code="GH1" ewd:figID="6049" ewd:figtype="w2w" ewd:pinNo="33">
<path style="&st9;" d="M2752.89,132.47l-4.25-4.25l-4.25,4.25"/>
<path style="&st9;" d="M2752.89,129.07l-4.25-4.25l-4.25,4.25"/>
<text transform="matrix(1 0 0 1 2730.4629 121.1284)" style="&st8;"><tspan x="0" y="0" style="&st31; &st19;">33</tspan></text>
</g>
<g ewd:code="GA2" ewd:figID="6050" ewd:figtype="w2w" ewd:pinNo="11">
<path style="&st9;" d="M2804.3,144.1l4.24,4.25l4.25-4.25"/>
<path style="&st9;" d="M2812.79,147.5l-4.25,4.25l-4.24-4.25"/>
<text transform="matrix(1 0 0 1 2790.8086 159.3843)" style="&st8;"><tspan x="0" y="0" style="&st31; &st19;">11</tspan></text>
</g>
<g ewd:code="GA1" ewd:figID="6051" ewd:figtype="w2w" ewd:pinNo="9">
<text transform="matrix(1 0 0 1 2793.7002 167.8843)" style="&st8;"><tspan x="0" y="0" style="&st31; &st19;">9</tspan></text>
</g>
<g ewd:code="GH1" ewd:figID="6052" ewd:figtype="w2w" ewd:pinNo="6">
<path style="&st9;" d="M2812.79,222.56l-4.25-4.25l-4.25,4.25"/>
<path style="&st9;" d="M2812.79,219.16l-4.25-4.25l-4.25,4.25"/>
<text transform="matrix(1 0 0 1 2793.7002 211.2236)" style="&st8;"><tspan x="0" y="0" style="&st31; &st19;">6</tspan></text>
</g>
<g ewd:code="FUSE100" ewd:figID="4004" ewd:figtype="rb">
<path style="&st5;" d="M2796.24,39.13v42.49h25.49V39.13H2796.24"/>
<path style="&st9;" d="M2796.24,39.13v42.49h25.49V39.13H2796.24"/>
<path style="&st9;" d="M2808.98,50.46c-2.73,1.61-3.64,5.14-2.03,7.88"/>
<path style="&st9;" d="M2806.95,58.34c0.52,0.88,1.15,1.52,2.03,2.04"/>
<path style="&st9;" d="M2808.98,70.29c2.74-1.61,3.65-5.14,2.04-7.88"/>
<path style="&st9;" d="M2811.02,62.41c-0.52-0.88-1.15-1.51-2.04-2.03"/>
<path style="&st17;" d="M2810.4,49.04c0-0.78-0.63-1.41-1.42-1.41"/>
<path style="&st17;" d="M2808.98,47.63c-0.78,0-1.41,0.63-1.41,1.41"/>
<path style="&st17;" d="M2807.57,49.04c0,0.79,0.63,1.42,1.41,1.42"/>
<path style="&st17;" d="M2808.98,50.46c0.79,0,1.42-0.63,1.42-1.42"/>
<path style="&st17;" d="M2810.4,71.71c0-0.79-0.63-1.42-1.42-1.42"/>
<path style="&st17;" d="M2808.98,70.29c-0.78,0-1.41,0.63-1.41,1.42"/>
<path style="&st17;" d="M2807.57,71.71c0,0.78,0.63,1.41,1.41,1.41"/>
<path style="&st17;" d="M2808.98,73.12c0.79,0,1.42-0.63,1.42-1.41"/>
<path style="&st7;" d="M2808.98,102.24l-2.83-2.83v4.25l2.83,2.83l2.83-2.83v-4.25L2808.98,102.24"/>
<path style="&st17;" d="M2808.98,107.14V73.12"/>
<path style="&st9;" d="M2811.11,107.14h-4.25"/>
<path style="&st9;" d="M2811.11,115.63h-4.25"/>
<path style="&st9;" d="M2806.86,107.14c-2.35,0-4.25,1.9-4.25,4.24"/>
<path style="&st9;" d="M2802.61,111.38c0,2.35,1.9,4.25,4.25,4.25"/>
<path style="&st9;" d="M2811.11,115.63c2.34,0,4.25-1.9,4.25-4.25"/>
<path style="&st9;" d="M2815.36,111.38c0-2.34-1.91-4.24-4.25-4.24"/>
<text transform="matrix(1 0 0 1 2800.3721 35.4253)" style="&st8;"><tspan x="0" y="0" style="&st31; &st19;">(BAT)</tspan></text>
<text transform="matrix(1 0 0 1 2806.9219 113.3501)" style="&st8;"><tspan x="0" y="0" style="&st31; &st19;">1</tspan></text>
<text transform="matrix(1 0 0 1 2826.292 57.0151)" style="&st8;"><tspan x="0" y="0" style="&st31; &st19;">20A</tspan></text>
<text transform="matrix(1 0 0 1 2826.292 63.0151)" style="&st8;"><tspan x="0" y="0" style="&st31; &st19;">RAD </tspan><tspan x="0" y="7" style="&st31; &st19;">NO.1</tspan></text>
<text transform="matrix(1 0 0 1 2801.9443 89.8149)" style="&st8;"><tspan x="0" y="0" style="&st31; &st19;">2</tspan></text>
</g>
<g ewd:code="2" ewd:figID="3006" ewd:figtype="jb">
<path style="&st5;" d="M2637.63,39.26v42.49h25.49V39.26H2637.63"/>
<path style="&st9;" d="M2637.63,39.26v42.49h25.49V39.26H2637.63"/>
<path style="&st9;" d="M2650.37,50.59c-2.73,1.61-3.64,5.14-2.03,7.88"/>
<path style="&st9;" d="M2648.34,58.47c0.52,0.88,1.15,1.52,2.03,2.04"/>
<path style="&st9;" d="M2650.37,70.42c2.74-1.61,3.65-5.14,2.04-7.88"/>
<path style="&st9;" d="M2652.41,62.54c-0.52-0.88-1.15-1.51-2.04-2.03"/>
<path style="&st17;" d="M2651.79,49.17c0-0.78-0.63-1.41-1.42-1.41"/>
<path style="&st17;" d="M2650.37,47.76c-0.78,0-1.41,0.63-1.41,1.41"/>
<path style="&st17;" d="M2648.96,49.17c0,0.79,0.63,1.42,1.41,1.42"/>
<path style="&st17;" d="M2650.37,50.59c0.79,0,1.42-0.63,1.42-1.42"/>
<path style="&st17;" d="M2651.79,71.84c0-0.79-0.63-1.42-1.42-1.42"/>
<path style="&st17;" d="M2650.37,70.42c-0.78,0-1.41,0.63-1.41,1.42"/>
<path style="&st17;" d="M2648.96,71.84c0,0.78,0.63,1.41,1.41,1.41"/>
<path style="&st17;" d="M2650.37,73.25c0.79,0,1.42-0.63,1.42-1.41"/>
<path style="&st7;" d="M2650.37,102.37l-2.83-2.83v4.25l2.83,2.83l2.83-2.83v-4.25L2650.37,102.37"/>
<path style="&st17;" d="M2650.37,107.27V73.25"/>
<path style="&st9;" d="M2652.5,107.27h-4.25"/>
<path style="&st9;" d="M2652.5,115.76h-4.25"/>
<path style="&st9;" d="M2648.25,107.27c-2.35,0-4.25,1.9-4.25,4.24"/>
<path style="&st9;" d="M2644,111.51c0,2.35,1.9,4.25,4.25,4.25"/>
<path style="&st9;" d="M2652.5,115.76c2.34,0,4.25-1.9,4.25-4.25"/>
<path style="&st9;" d="M2656.75,111.51c0-2.34-1.91-4.24-4.25-4.24"/>
<text transform="matrix(1 0 0 1 2645.7568 35.5562)" style="&st8;"><tspan x="0" y="0" style="&st31; &st19;">(IG)</tspan></text>
<text transform="matrix(1 0 0 1 2646.3066 113.481)" style="&st8;"><tspan x="0" y="0" style="&st31; &st19;">2D</tspan></text>
<text transform="matrix(1 0 0 1 2635.3828 113.481)" style="&st8;"><tspan x="0" y="0" style="&st31; &st19;">39</tspan></text>
<text transform="matrix(1 0 0 1 2667.6768 59.646)" style="&st8;"><tspan x="0" y="0" style="&st31; &st19;">10A</tspan></text>
<text transform="matrix(1 0 0 1 2667.6768 65.646)" style="&st8;"><tspan x="0" y="0" style="&st31; &st19;">ECU-IG </tspan><tspan x="0" y="7" style="&st31; &st19;">NO.2</tspan></text>
</g>
<g ewd:code="3JB" ewd:figID="3005" ewd:figtype="jb">
<path style="&st9;" d="M2652.05,205.83h-4.25"/>
<path style="&st9;" d="M2652.05,197.33h-4.25"/>
<path style="&st9;" d="M2652.05,163.34h-4.25"/>
<path style="&st9;" d="M2652.05,154.84h-4.25"/>
<path style="&st17;" d="M2649.92,197.33v-33.99"/>
<path style="&st7;" d="M2649.92,192.44l-2.83-2.84v4.25l2.83,2.84l2.83-2.84v-4.25L2649.92,192.44"/>
<path style="&st7;" d="M2649.92,168.23l2.83,2.83v-4.24l-2.83-2.84l-2.83,2.84v4.24L2649.92,168.23"/>
<path style="&st9;" d="M2647.8,154.84c-2.35,0-4.25,1.9-4.25,4.25"/>
<path style="&st9;" d="M2643.55,159.09c0,2.34,1.9,4.25,4.25,4.25"/>
<path style="&st9;" d="M2652.05,163.34c2.34,0,4.25-1.91,4.25-4.25"/>
<path style="&st9;" d="M2656.3,159.09c0-2.35-1.91-4.25-4.25-4.25"/>
<path style="&st9;" d="M2647.8,197.33c-2.35,0-4.25,1.9-4.25,4.25"/>
<path style="&st9;" d="M2643.55,201.58c0,2.35,1.9,4.25,4.25,4.25"/>
<path style="&st9;" d="M2652.05,205.83c2.34,0,4.25-1.9,4.25-4.25"/>
<path style="&st9;" d="M2656.3,201.58c0-2.35-1.91-4.25-4.25-4.25"/>
<text transform="matrix(1 0 0 1 2645.4727 161.0562)" style="&st8;"><tspan x="0" y="0" style="&st31; &st19;">3B</tspan></text>
<text transform="matrix(1 0 0 1 2645.6113 203.5464)" style="&st8;"><tspan x="0" y="0" style="&st31; &st19;">3A</tspan></text>
<text transform="matrix(1 0 0 1 2633.2949 161.0562)" style="&st8;"><tspan x="0" y="0" style="&st31; &st19;">36</tspan></text>
<text transform="matrix(1 0 0 1 2633.2949 203.5464)" style="&st8;"><tspan x="0" y="0" style="&st31; &st19;">19</tspan></text>
</g>
<g ewd:code="H24" ewd:figID="5" ewd:figtype="conn">
<path style="&st9;" d="M2528.57,148.64h21.75v21.4h-21.75V148.64"/>
<path style="&st17;" d="M2539.45,148.64v21.4"/>
<path style="&st9;" d="M2543.97,144.11c0-2.5-2.02-4.53-4.53-4.53"/>
<path style="&st9;" d="M2539.45,139.58c-2.5,0-4.53,2.03-4.53,4.53"/>
<path style="&st9;" d="M2534.92,144.11c0,2.5,2.03,4.53,4.53,4.53"/>
<path style="&st9;" d="M2539.45,148.64c2.51,0,4.53-2.03,4.53-4.53"/>
<path style="&st9;" d="M2543.97,174.57c0-2.5-2.02-4.53-4.53-4.53"/>
<path style="&st9;" d="M2539.45,170.04c-2.5,0-4.53,2.03-4.53,4.53"/>
<path style="&st9;" d="M2534.92,174.57c0,2.5,2.03,4.53,4.53,4.53"/>
<path style="&st9;" d="M2539.45,179.1c2.51,0,4.53-2.03,4.53-4.53"/>
<text transform="matrix(0 -1 1 0 2557.9297 172.5684)" style="&st8;"><tspan x="0" y="0" style="&st31; &st19;">H24(A)</tspan></text>
<text ewd:textID="33" transform="matrix(0 -1 1 0 2565.0391 172.5684)" style="&st8; &st31; &st19;">Junction Connector</text>
<text transform="matrix(1 0 0 1 2537.1152 146.0781)" style="&st8;"><tspan x="0" y="0" style="&st31; &st19;">A</tspan></text>
<text transform="matrix(1 0 0 1 2529.0674 146.0781)" style="&st8;"><tspan x="0" y="0" style="&st31; &st19;">9</tspan></text>
<text transform="matrix(1 0 0 1 2537.1152 176.5371)" style="&st8;"><tspan x="0" y="0" style="&st31; &st19;">A</tspan></text>
<text transform="matrix(1 0 0 1 2529.0674 176.5371)" style="&st8;"><tspan x="0" y="0" style="&st31; &st19;">8</tspan></text>
</g>
<g ewd:code="H24,H25" ewd:figID="6" ewd:figtype="conn">
<path style="&st9;" d="M2737.76,178.92v25.51h21.75v-25.51H2737.76"/>
<path style="&st38;" d="M2737.76,187.43h21.75"/>
<path style="&st38;" d="M2737.76,195.93h21.75"/>
<path style="&st40;" d="M2748.64,178.92v25.51"/>
<path style="&st9;" d="M2753.17,174.4c0-2.5-2.02-4.53-4.53-4.53"/>
<path style="&st9;" d="M2748.64,169.86c-2.5,0-4.53,2.03-4.53,4.53"/>
<path style="&st9;" d="M2744.11,174.4c0,2.5,2.03,4.53,4.53,4.53"/>
<path style="&st9;" d="M2748.64,178.92c2.51,0,4.53-2.03,4.53-4.53"/>
<path style="&st9;" d="M2753.17,208.96c0-2.5-2.02-4.53-4.53-4.53"/>
<path style="&st9;" d="M2748.64,204.43c-2.5,0-4.53,2.03-4.53,4.53"/>
<path style="&st9;" d="M2744.11,208.96c0,2.51,2.03,4.54,4.53,4.54"/>
<path style="&st9;" d="M2748.64,213.5c2.51,0,4.53-2.03,4.53-4.54"/>
<text transform="matrix(1 0 0 1 2746.3066 176.3647)" style="&st8;"><tspan x="0" y="0" style="&st31; &st19;">A</tspan></text>
<text transform="matrix(1 0 0 1 2735.3672 176.3647)" style="&st8;"><tspan x="0" y="0" style="&st31; &st19;">11</tspan></text>
<text transform="matrix(1 0 0 1 2738.2588 210.9321)" style="&st8;"><tspan x="0" y="0" style="&st31; &st19;">1</tspan></text>
<text transform="matrix(1 0 0 1 2746.3066 210.9321)" style="&st8;"><tspan x="0" y="0" style="&st31; &st19;">B</tspan></text>
<text transform="matrix(0 -1 1 0 2767.1211 206.9634)" style="&st8;"><tspan x="0" y="0" style="&st31; &st19;">H24(A),H25(B)</tspan></text>
<text ewd:textID="33" transform="matrix(0 -1 1 0 2774.2305 206.9634)" style="&st8; &st31; &st19;">Junction Connector</text>
</g>
<g ewd:code="H50,H52,H48,H49,H51,H69,z10,z12" ewd:figID="7" ewd:figtype="conn">
<path style="&st9;" d="M2861.97,69v34.01h4075.39V69H2861.97"/>
<path style="&st9;" d="M2887.14,107.55c0-2.51-2.03-4.54-4.54-4.54"/>
<path style="&st9;" d="M2882.6,103.01c-2.5,0-4.53,2.03-4.53,4.54"/>
<path style="&st9;" d="M2878.07,107.55c0,2.5,2.03,4.53,4.53,4.53"/>
<path style="&st9;" d="M2882.6,112.08c2.51,0,4.54-2.03,4.54-4.53"/>
<path style="&st9;" d="M2920.01,107.55c0-2.51-2.03-4.54-4.54-4.54"/>
<path style="&st9;" d="M2915.47,103.01c-2.5,0-4.53,2.03-4.53,4.54"/>
<path style="&st9;" d="M2910.94,107.55c0,2.5,2.03,4.53,4.53,4.53"/>
<path style="&st9;" d="M2915.47,112.08c2.51,0,4.54-2.03,4.54-4.53"/>
<path style="&st9;" d="M2952.91,107.55c0-2.51-2.03-4.54-4.54-4.54"/>
<path style="&st9;" d="M2948.37,103.01c-2.5,0-4.53,2.03-4.53,4.54"/>
<path style="&st9;" d="M2943.84,107.55c0,2.5,2.03,4.53,4.53,4.53"/>
<path style="&st9;" d="M2948.37,112.08c2.51,0,4.54-2.03,4.54-4.53"/>
<path style="&st9;" d="M2985.79,107.55c0-2.51-2.03-4.54-4.54-4.54"/>
<path style="&st9;" d="M2981.25,103.01c-2.5,0-4.53,2.03-4.53,4.54"/>
<path style="&st9;" d="M2976.72,107.55c0,2.5,2.03,4.53,4.53,4.53"/>
<path style="&st9;" d="M2981.25,112.08c2.51,0,4.54-2.03,4.54-4.53"/>
<path style="&st9;" d="M3018.65,107.55c0-2.51-2.03-4.54-4.54-4.54"/>
<path style="&st9;" d="M3014.11,103.01c-2.5,0-4.53,2.03-4.53,4.54"/>
<path style="&st9;" d="M3009.58,107.55c0,2.5,2.03,4.53,4.53,4.53"/>
<path style="&st9;" d="M3014.11,112.08c2.51,0,4.54-2.03,4.54-4.53"/>
<path style="&st9;" d="M3048.66,107.55c0-2.51-2.03-4.54-4.54-4.54"/>
<path style="&st9;" d="M3044.12,103.01c-2.5,0-4.53,2.03-4.53,4.54"/>
<path style="&st9;" d="M3039.59,107.55c0,2.5,2.03,4.53,4.53,4.53"/>
<path style="&st9;" d="M3044.12,112.08c2.51,0,4.54-2.03,4.54-4.53"/>
<path style="&st9;" d="M3081.53,107.55c0-2.51-2.03-4.54-4.54-4.54"/>
<path style="&st9;" d="M3076.99,103.01c-2.5,0-4.53,2.03-4.53,4.54"/>
<path style="&st9;" d="M3072.46,107.55c0,2.5,2.03,4.53,4.53,4.53"/>
<path style="&st9;" d="M3076.99,112.08c2.51,0,4.54-2.03,4.54-4.53"/>
<path style="&st9;" d="M3192.86,107.55c0-2.51-2.03-4.54-4.54-4.54"/>
<path style="&st9;" d="M3188.33,103.01c-2.5,0-4.53,2.03-4.53,4.54"/>
<path style="&st9;" d="M3183.79,107.55c0,2.5,2.03,4.53,4.53,4.53"/>
<path style="&st9;" d="M3188.33,112.08c2.51,0,4.54-2.03,4.54-4.53"/>
<path style="&st9;" d="M3222.87,107.55c0-2.51-2.03-4.54-4.54-4.54"/>
<path style="&st9;" d="M3218.33,103.01c-2.5,0-4.53,2.03-4.53,4.54"/>
<path style="&st9;" d="M3213.8,107.55c0,2.5,2.03,4.53,4.53,4.53"/>
<path style="&st9;" d="M3218.33,112.08c2.51,0,4.54-2.03,4.54-4.53"/>
<path style="&st9;" d="M3255.75,107.55c0-2.51-2.03-4.54-4.54-4.54"/>
<path style="&st9;" d="M3251.21,103.01c-2.5,0-4.53,2.03-4.53,4.54"/>
<path style="&st9;" d="M3246.68,107.55c0,2.5,2.03,4.53,4.53,4.53"/>
<path style="&st9;" d="M3251.21,112.08c2.51,0,4.54-2.03,4.54-4.53"/>
<path style="&st9;" d="M3288.63,107.55c0-2.51-2.03-4.54-4.54-4.54"/>
<path style="&st9;" d="M3284.09,103.01c-2.5,0-4.53,2.03-4.53,4.54"/>
<path style="&st9;" d="M3279.56,107.55c0,2.5,2.03,4.53,4.53,4.53"/>
<path style="&st9;" d="M3284.09,112.08c2.51,0,4.54-2.03,4.54-4.53"/>
<path style="&st9;" d="M3321.51,107.55c0-2.51-2.03-4.54-4.54-4.54"/>
<path style="&st9;" d="M3316.97,103.01c-2.5,0-4.53,2.03-4.53,4.54"/>
<path style="&st9;" d="M3312.44,107.55c0,2.5,2.03,4.53,4.53,4.53"/>
<path style="&st9;" d="M3316.97,112.08c2.51,0,4.54-2.03,4.54-4.53"/>
<path style="&st9;" d="M4595.55,107.55c0-2.51-2.03-4.54-4.54-4.54"/>
<path style="&st9;" d="M4591.01,103.01c-2.5,0-4.53,2.03-4.53,4.54"/>
<path style="&st9;" d="M4586.48,107.55c0,2.5,2.03,4.53,4.53,4.53"/>
<path style="&st9;" d="M4591.01,112.08c2.51,0,4.54-2.03,4.54-4.53"/>
<path style="&st9;" d="M6478.57,107.55c0-2.51-2.03-4.54-4.54-4.54"/>
<path style="&st9;" d="M6474.03,103.01c-2.5,0-4.53,2.03-4.53,4.54"/>
<path style="&st9;" d="M6469.5,107.55c0,2.5,2.03,4.53,4.53,4.53"/>
<path style="&st9;" d="M6474.03,112.08c2.51,0,4.54-2.03,4.54-4.53"/>
<path style="&st9;" d="M4858.1,107.55c0-2.51-2.03-4.54-4.54-4.54"/>
<path style="&st9;" d="M4853.57,103.01c-2.5,0-4.53,2.03-4.53,4.54"/>
<path style="&st9;" d="M4849.03,107.55c0,2.5,2.03,4.53,4.53,4.53"/>
<path style="&st9;" d="M4853.57,112.08c2.51,0,4.54-2.03,4.54-4.53"/>
<path style="&st9;" d="M4798.1,107.55c0-2.51-2.03-4.54-4.54-4.54"/>
<path style="&st9;" d="M4793.57,103.01c-2.5,0-4.53,2.03-4.53,4.54"/>
<path style="&st9;" d="M4789.03,107.55c0,2.5,2.03,4.53,4.53,4.53"/>
<path style="&st9;" d="M4793.57,112.08c2.51,0,4.54-2.03,4.54-4.53"/>
<path style="&st9;" d="M6886.91,107.55c0-2.51-2.03-4.54-4.54-4.54"/>
<path style="&st9;" d="M6882.37,103.01c-2.5,0-4.53,2.03-4.53,4.54"/>
<path style="&st9;" d="M6877.83,107.55c0,2.5,2.03,4.53,4.53,4.53"/>
<path style="&st9;" d="M6882.37,112.08c2.51,0,4.54-2.03,4.54-4.53"/>
<path style="&st9;" d="M6926.91,107.55c0-2.51-2.03-4.54-4.54-4.54"/>
<path style="&st9;" d="M6922.37,103.01c-2.5,0-4.53,2.03-4.53,4.54"/>
<path style="&st9;" d="M6917.83,107.55c0,2.5,2.03,4.53,4.53,4.53"/>
<path style="&st9;" d="M6922.37,112.08c2.51,0,4.54-2.03,4.54-4.53"/>
<path style="&st9;" d="M3401.51,107.55c0-2.51-2.03-4.54-4.54-4.54"/>
<path style="&st9;" d="M3396.97,103.01c-2.5,0-4.53,2.03-4.53,4.54"/>
<path style="&st9;" d="M3392.44,107.55c0,2.5,2.03,4.53,4.53,4.53"/>
<path style="&st9;" d="M3396.97,112.08c2.51,0,4.54-2.03,4.54-4.53"/>
<path style="&st9;" d="M3444.01,107.55c0-2.51-2.03-4.54-4.54-4.54"/>
<path style="&st9;" d="M3439.47,103.01c-2.5,0-4.53,2.03-4.53,4.54"/>
<path style="&st9;" d="M3434.94,107.55c0,2.5,2.03,4.53,4.53,4.53"/>
<path style="&st9;" d="M3439.47,112.08c2.51,0,4.54-2.03,4.54-4.53"/>
<path style="&st9;" d="M3486.54,107.55c0-2.51-2.03-4.54-4.54-4.54"/>
<path style="&st9;" d="M3482,103.01c-2.5,0-4.53,2.03-4.53,4.54"/>
<path style="&st9;" d="M3477.47,107.55c0,2.5,2.03,4.53,4.53,4.53"/>
<path style="&st9;" d="M3482,112.08c2.51,0,4.54-2.03,4.54-4.53"/>
<path style="&st9;" d="M3529.05,107.55c0-2.51-2.03-4.54-4.54-4.54"/>
<path style="&st9;" d="M3524.52,103.01c-2.5,0-4.53,2.03-4.53,4.54"/>
<path style="&st9;" d="M3519.98,107.55c0,2.5,2.03,4.53,4.53,4.53"/>
<path style="&st9;" d="M3524.52,112.08c2.51,0,4.54-2.03,4.54-4.53"/>
<path style="&st9;" d="M3571.55,107.55c0-2.51-2.03-4.54-4.54-4.54"/>
<path style="&st9;" d="M3567.01,103.01c-2.5,0-4.53,2.03-4.53,4.54"/>
<path style="&st9;" d="M3562.48,107.55c0,2.5,2.03,4.53,4.53,4.53"/>
<path style="&st9;" d="M3567.01,112.08c2.51,0,4.54-2.03,4.54-4.53"/>
<path style="&st9;" d="M3698.36,107.55c0-2.51-2.03-4.54-4.54-4.54"/>
<path style="&st9;" d="M3693.82,103.01c-2.5,0-4.53,2.03-4.53,4.54"/>
<path style="&st9;" d="M3689.29,107.55c0,2.5,2.03,4.53,4.53,4.53"/>
<path style="&st9;" d="M3693.82,112.08c2.51,0,4.54-2.03,4.54-4.53"/>
<path style="&st9;" d="M3739.5,107.55c0-2.51-2.03-4.54-4.54-4.54"/>
<path style="&st9;" d="M3734.96,103.01c-2.5,0-4.53,2.03-4.53,4.54"/>
<path style="&st9;" d="M3730.43,107.55c0,2.5,2.03,4.53,4.53,4.53"/>
<path style="&st9;" d="M3734.96,112.08c2.51,0,4.54-2.03,4.54-4.53"/>
<path style="&st9;" d="M3810.52,107.55c0-2.51-2.03-4.54-4.54-4.54"/>
<path style="&st9;" d="M3805.99,103.01c-2.5,0-4.53,2.03-4.53,4.54"/>
<path style="&st9;" d="M3801.45,107.55c0,2.5,2.03,4.53,4.53,4.53"/>
<path style="&st9;" d="M3805.99,112.08c2.51,0,4.54-2.03,4.54-4.53"/>
<path style="&st9;" d="M3853.08,107.55c0-2.51-2.03-4.54-4.54-4.54"/>
<path style="&st9;" d="M3848.54,103.01c-2.5,0-4.53,2.03-4.53,4.54"/>
<path style="&st9;" d="M3844.01,107.55c0,2.5,2.03,4.53,4.53,4.53"/>
<path style="&st9;" d="M3848.54,112.08c2.51,0,4.54-2.03,4.54-4.53"/>
<path style="&st9;" d="M4021.06,107.55c0-2.51-2.03-4.54-4.54-4.54"/>
<path style="&st9;" d="M4016.52,103.01c-2.5,0-4.53,2.03-4.53,4.54"/>
<path style="&st9;" d="M4011.99,107.55c0,2.5,2.03,4.53,4.53,4.53"/>
<path style="&st9;" d="M4016.52,112.08c2.51,0,4.54-2.03,4.54-4.53"/>
<path style="&st9;" d="M4063.53,107.55c0-2.51-2.03-4.54-4.54-4.54"/>
<path style="&st9;" d="M4058.99,103.01c-2.5,0-4.53,2.03-4.53,4.54"/>
<path style="&st9;" d="M4054.46,107.55c0,2.5,2.03,4.53,4.53,4.53"/>
<path style="&st9;" d="M4058.99,112.08c2.51,0,4.54-2.03,4.54-4.53"/>
<path style="&st9;" d="M4106.29,107.55c0-2.51-2.03-4.54-4.54-4.54"/>
<path style="&st9;" d="M4101.75,103.01c-2.5,0-4.53,2.03-4.53,4.54"/>
<path style="&st9;" d="M4097.22,107.55c0,2.5,2.03,4.53,4.53,4.53"/>
<path style="&st9;" d="M4101.75,112.08c2.51,0,4.54-2.03,4.54-4.53"/>
<path style="&st9;" d="M5450.13,107.55c0-2.51-2.03-4.54-4.54-4.54"/>
<path style="&st9;" d="M5445.59,103.01c-2.5,0-4.53,2.03-4.53,4.54"/>
<path style="&st9;" d="M5441.06,107.55c0,2.5,2.03,4.53,4.53,4.53"/>
<path style="&st9;" d="M5445.59,112.08c2.51,0,4.54-2.03,4.54-4.53"/>
<path style="&st9;" d="M5482.58,107.55c0-2.51-2.03-4.54-4.54-4.54"/>
<path style="&st9;" d="M5478.05,103.01c-2.5,0-4.53,2.03-4.53,4.54"/>
<path style="&st9;" d="M5473.51,107.55c0,2.5,2.03,4.53,4.53,4.53"/>
<path style="&st9;" d="M5478.05,112.08c2.51,0,4.54-2.03,4.54-4.53"/>
<path style="&st9;" d="M5515.13,107.55c0-2.51-2.03-4.54-4.54-4.54"/>
<path style="&st9;" d="M5510.59,103.01c-2.5,0-4.53,2.03-4.53,4.54"/>
<path style="&st9;" d="M5506.06,107.55c0,2.5,2.03,4.53,4.53,4.53"/>
<path style="&st9;" d="M5510.59,112.08c2.51,0,4.54-2.03,4.54-4.53"/>
<path style="&st9;" d="M5587.56,107.55c0-2.51-2.03-4.54-4.54-4.54"/>
<path style="&st9;" d="M5583.02,103.01c-2.5,0-4.53,2.03-4.53,4.54"/>
<path style="&st9;" d="M5578.49,107.55c0,2.5,2.03,4.53,4.53,4.53"/>
<path style="&st9;" d="M5583.02,112.08c2.51,0,4.54-2.03,4.54-4.53"/>
<path style="&st9;" d="M5631.65,107.55c0-2.51-2.03-4.54-4.54-4.54"/>
<path style="&st9;" d="M5627.11,103.01c-2.5,0-4.53,2.03-4.53,4.54"/>
<path style="&st9;" d="M5622.58,107.55c0,2.5,2.03,4.53,4.53,4.53"/>
<path style="&st9;" d="M5627.11,112.08c2.51,0,4.54-2.03,4.54-4.53"/>
<path style="&st9;" d="M5664.23,107.55c0-2.51-2.03-4.54-4.54-4.54"/>
<path style="&st9;" d="M5659.69,103.01c-2.5,0-4.53,2.03-4.53,4.54"/>
<path style="&st9;" d="M5655.16,107.55c0,2.5,2.03,4.53,4.53,4.53"/>
<path style="&st9;" d="M5659.69,112.08c2.51,0,4.54-2.03,4.54-4.53"/>
<path style="&st9;" d="M5416.51,107.55c0-2.51-2.03-4.54-4.54-4.54"/>
<path style="&st9;" d="M5411.98,103.01c-2.5,0-4.53,2.03-4.53,4.54"/>
<path style="&st9;" d="M5407.44,107.55c0,2.5,2.03,4.53,4.53,4.53"/>
<path style="&st9;" d="M5411.98,112.08c2.51,0,4.54-2.03,4.54-4.53"/>
<path style="&st9;" d="M5547.66,107.55c0-2.51-2.03-4.54-4.54-4.54"/>
<path style="&st9;" d="M5543.12,103.01c-2.5,0-4.53,2.03-4.53,4.54"/>
<path style="&st9;" d="M5538.59,107.55c0,2.5,2.03,4.53,4.53,4.53"/>
<path style="&st9;" d="M5543.12,112.08c2.51,0,4.54-2.03,4.54-4.53"/>
<path style="&st9;" d="M5696.67,107.55c0-2.51-2.03-4.54-4.54-4.54"/>
<path style="&st9;" d="M5692.13,103.01c-2.5,0-4.53,2.03-4.53,4.54"/>
<path style="&st9;" d="M5687.6,107.55c0,2.5,2.03,4.53,4.53,4.53"/>
<path style="&st9;" d="M5692.13,112.08c2.51,0,4.54-2.03,4.54-4.53"/>
<path style="&st9;" d="M4919.06,103.01c-2.5,0-4.53,2.03-4.53,4.54"/>
<path style="&st9;" d="M4974.58,107.55c0-2.51-2.03-4.54-4.54-4.54"/>
<path style="&st9;" d="M4970.05,103.01c-2.5,0-4.53,2.03-4.53,4.54"/>
<path style="&st9;" d="M4965.51,107.55c0,2.5,2.03,4.53,4.53,4.53"/>
<path style="&st9;" d="M4970.05,112.08c2.51,0,4.54-2.03,4.54-4.53"/>
<path style="&st9;" d="M5025.58,107.55c0-2.51-2.03-4.54-4.53-4.54"/>
<path style="&st9;" d="M5021.05,103.01c-2.51,0-4.54,2.03-4.54,4.54"/>
<path style="&st9;" d="M5016.5,107.55c0,2.5,2.03,4.53,4.54,4.53"/>
<path style="&st9;" d="M5021.05,112.08c2.5,0,4.53-2.03,4.53-4.53"/>
<path style="&st9;" d="M4923.59,107.55c0-2.51-2.03-4.54-4.54-4.54"/>
<path style="&st9;" d="M4914.52,107.55c0,2.5,2.03,4.53,4.53,4.53"/>
<path style="&st9;" d="M4919.06,112.08c2.51,0,4.54-2.03,4.54-4.53"/>
<path style="&st9;" d="M5784.92,107.55c0-2.51-2.03-4.54-4.54-4.54"/>
<path style="&st9;" d="M5780.39,103.01c-2.5,0-4.53,2.03-4.53,4.54"/>
<path style="&st9;" d="M5775.85,107.55c0,2.5,2.03,4.53,4.53,4.53"/>
<path style="&st9;" d="M5780.39,112.08c2.51,0,4.54-2.03,4.54-4.53"/>
<path style="&st9;" d="M5827.44,107.55c0-2.51-2.03-4.54-4.54-4.54"/>
<path style="&st9;" d="M5822.9,103.01c-2.5,0-4.53,2.03-4.53,4.54"/>
<path style="&st9;" d="M5818.37,107.55c0,2.5,2.03,4.53,4.53,4.53"/>
<path style="&st9;" d="M5822.9,112.08c2.51,0,4.54-2.03,4.54-4.53"/>
<path style="&st9;" d="M5869.95,107.55c0-2.51-2.03-4.54-4.54-4.54"/>
<path style="&st9;" d="M5865.42,103.01c-2.5,0-4.53,2.03-4.53,4.54"/>
<path style="&st9;" d="M5860.88,107.55c0,2.5,2.03,4.53,4.53,4.53"/>
<path style="&st9;" d="M5865.42,112.08c2.51,0,4.54-2.03,4.54-4.53"/>
<path style="&st9;" d="M5912.47,107.55c0-2.51-2.03-4.54-4.54-4.54"/>
<path style="&st9;" d="M5907.93,103.01c-2.5,0-4.53,2.03-4.53,4.54"/>
<path style="&st9;" d="M5903.4,107.55c0,2.5,2.03,4.53,4.53,4.53"/>
<path style="&st9;" d="M5907.93,112.08c2.51,0,4.54-2.03,4.54-4.53"/>
<path style="&st9;" d="M5261.97,107.55c0-2.51-2.03-4.54-4.54-4.54"/>
<path style="&st9;" d="M5257.43,103.01c-2.5,0-4.53,2.03-4.53,4.54"/>
<path style="&st9;" d="M5252.9,107.55c0,2.5,2.03,4.53,4.53,4.53"/>
<path style="&st9;" d="M5257.43,112.08c2.51,0,4.54-2.03,4.54-4.53"/>
<path style="&st9;" d="M5294.42,107.55c0-2.51-2.03-4.54-4.54-4.54"/>
<path style="&st9;" d="M5289.89,103.01c-2.5,0-4.53,2.03-4.53,4.54"/>
<path style="&st9;" d="M5285.35,107.55c0,2.5,2.03,4.53,4.53,4.53"/>
<path style="&st9;" d="M5289.89,112.08c2.51,0,4.54-2.03,4.54-4.53"/>
<path style="&st9;" d="M5326.97,107.55c0-2.51-2.03-4.54-4.54-4.54"/>
<path style="&st9;" d="M5322.43,103.01c-2.5,0-4.53,2.03-4.53,4.54"/>
<path style="&st9;" d="M5317.9,107.55c0,2.5,2.03,4.53,4.53,4.53"/>
<path style="&st9;" d="M5322.43,112.08c2.51,0,4.54-2.03,4.54-4.53"/>
<path style="&st9;" d="M5228.35,107.55c0-2.51-2.03-4.54-4.54-4.54"/>
<path style="&st9;" d="M5223.82,103.01c-2.5,0-4.53,2.03-4.53,4.54"/>
<path style="&st9;" d="M5219.28,107.55c0,2.5,2.03,4.53,4.53,4.53"/>
<path style="&st9;" d="M5223.82,112.08c2.51,0,4.54-2.03,4.54-4.53"/>
<path style="&st9;" d="M5359.5,107.55c0-2.51-2.03-4.54-4.54-4.54"/>
<path style="&st9;" d="M5354.96,103.01c-2.5,0-4.53,2.03-4.53,4.54"/>
<path style="&st9;" d="M5350.43,107.55c0,2.5,2.03,4.53,4.53,4.53"/>
<path style="&st9;" d="M5354.96,112.08c2.51,0,4.54-2.03,4.54-4.53"/>
<text transform="matrix(1 0 0 1 2880.4814 109.5176)" style="&st8;"><tspan x="0" y="0" style="&st31; &st19;">D</tspan></text>
<text transform="matrix(1 0 0 1 2871.8145 109.5176)" style="&st8;"><tspan x="0" y="0" style="&st31; &st19;">4</tspan></text>
<text transform="matrix(1 0 0 1 2876.458 99.2598)" style="&st8;"><tspan x="0" y="0" style="&st31; &st19;">+B1</tspan></text>
<text transform="matrix(1 0 0 1 2913.3516 109.5176)" style="&st8;"><tspan x="0" y="0" style="&st31; &st19;">E</tspan></text>
<text transform="matrix(1 0 0 1 2904.6846 109.5176)" style="&st8;"><tspan x="0" y="0" style="&st31; &st19;">1</tspan></text>
<text transform="matrix(1 0 0 1 2912.3281 99.2598)" style="&st8;"><tspan x="0" y="0" style="&st31; &st19;">IG</tspan></text>
<text transform="matrix(1 0 0 1 2946.251 109.5176)" style="&st8;"><tspan x="0" y="0" style="&st31; &st19;">D</tspan></text>
<text transform="matrix(1 0 0 1 2937.584 109.5176)" style="&st8;"><tspan x="0" y="0" style="&st31; &st19;">3</tspan></text>
<text transform="matrix(1 0 0 1 2940.2275 99.2598)" style="&st8;"><tspan x="0" y="0" style="&st31; &st19;">ACC1</tspan></text>
<text transform="matrix(1 0 0 1 2979.1299 109.5176)" style="&st8;"><tspan x="0" y="0" style="&st31; &st19;">E</tspan></text>
<text transform="matrix(1 0 0 1 2970.4629 109.5176)" style="&st8;"><tspan x="0" y="0" style="&st31; &st19;">8</tspan></text>
<text transform="matrix(1 0 0 1 2975.1064 99.2598)" style="&st8;"><tspan x="0" y="0" style="&st31; &st19;">TX1-</tspan></text>
<text transform="matrix(1 0 0 1 3011.9902 109.5176)" style="&st8;"><tspan x="0" y="0" style="&st31; &st19;">E</tspan></text>
<text transform="matrix(1 0 0 1 3003.3232 109.5176)" style="&st8;"><tspan x="0" y="0" style="&st31; &st19;">7</tspan></text>
<text transform="matrix(1 0 0 1 3006.9668 99.2598)" style="&st8;"><tspan x="0" y="0" style="&st31; &st19;">TX1+</tspan></text>
<text transform="matrix(1 0 0 1 3042 109.5176)" style="&st8;"><tspan x="0" y="0" style="&st31; &st19;">E</tspan></text>
<text transform="matrix(1 0 0 1 3029.9961 109.5176)" style="&st8;"><tspan x="0" y="0" style="&st31; &st19;">16</tspan></text>
<text transform="matrix(1 0 0 1 3035.4766 99.2598)" style="&st8;"><tspan x="0" y="0" style="&st31; &st19;">MUT1</tspan></text>
<text transform="matrix(1 0 0 1 3074.8701 109.5176)" style="&st8;"><tspan x="0" y="0" style="&st31; &st19;">D</tspan></text>
<text transform="matrix(1 0 0 1 3066.2031 109.5176)" style="&st8;"><tspan x="0" y="0" style="&st31; &st19;">5</tspan></text>
<text transform="matrix(1 0 0 1 3071.8467 99.2598)" style="&st8;"><tspan x="0" y="0" style="&st31; &st19;">FR-</tspan></text>
<text transform="matrix(1 0 0 1 3186.2041 109.5176)" style="&st8;"><tspan x="0" y="0" style="&st31; &st19;">D</tspan></text>
<text transform="matrix(1 0 0 1 3177.5371 109.5176)" style="&st8;"><tspan x="0" y="0" style="&st31; &st19;">1</tspan></text>
<text transform="matrix(1 0 0 1 3183.1807 99.2598)" style="&st8;"><tspan x="0" y="0" style="&st31; &st19;">FR+</tspan></text>
<text transform="matrix(1 0 0 1 3216.2139 109.5176)" style="&st8;"><tspan x="0" y="0" style="&st31; &st19;">D</tspan></text>
<text transform="matrix(1 0 0 1 3207.5469 109.5176)" style="&st8;"><tspan x="0" y="0" style="&st31; &st19;">6</tspan></text>
<text transform="matrix(1 0 0 1 3214.1904 99.2598)" style="&st8;"><tspan x="0" y="0" style="&st31; &st19;">FL-</tspan></text>
<text transform="matrix(1 0 0 1 3249.0938 109.5176)" style="&st8;"><tspan x="0" y="0" style="&st31; &st19;">D</tspan></text>
<text transform="matrix(1 0 0 1 3240.4268 109.5176)" style="&st8;"><tspan x="0" y="0" style="&st31; &st19;">2</tspan></text>
<text transform="matrix(1 0 0 1 3247.0703 99.2598)" style="&st8;"><tspan x="0" y="0" style="&st31; &st19;">FL+</tspan></text>
<text transform="matrix(1 0 0 1 3281.9736 109.5176)" style="&st8;"><tspan x="0" y="0" style="&st31; &st19;">C</tspan></text>
<text transform="matrix(1 0 0 1 3273.3066 109.5176)" style="&st8;"><tspan x="0" y="0" style="&st31; &st19;">6</tspan></text>
<text transform="matrix(1 0 0 1 3279.4502 99.2598)" style="&st8;"><tspan x="0" y="0" style="&st31; &st19;">RL-</tspan></text>
<text transform="matrix(1 0 0 1 3314.8516 109.5176)" style="&st8;"><tspan x="0" y="0" style="&st31; &st19;">C</tspan></text>
<text transform="matrix(1 0 0 1 3306.1846 109.5176)" style="&st8;"><tspan x="0" y="0" style="&st31; &st19;">2</tspan></text>
<text transform="matrix(1 0 0 1 3311.3281 99.2598)" style="&st8;"><tspan x="0" y="0" style="&st31; &st19;">RL+</tspan></text>
<text transform="matrix(1 0 0 1 4588.8926 109.5176)" style="&st8;"><tspan x="0" y="0" style="&st31; &st19;">D</tspan></text>
<text transform="matrix(1 0 0 1 4580.2256 109.5176)" style="&st8;"><tspan x="0" y="0" style="&st31; &st19;">7</tspan></text>
<text transform="matrix(1 0 0 1 4582.8691 99.2598)" style="&st8;"><tspan x="0" y="0" style="&st31; &st19;">GND1</tspan></text>
<text transform="matrix(1 0 0 1 6471.9111 109.5176)" style="&st8;"><tspan x="0" y="0" style="&st31; &st19;">E</tspan></text>
<text transform="matrix(1 0 0 1 6463.2441 109.5176)" style="&st8;"><tspan x="0" y="0" style="&st31; &st19;">2</tspan></text>
<text transform="matrix(1 0 0 1 6467.3877 99.2598)" style="&st8;"><tspan x="0" y="0" style="&st31; &st19;">REV</tspan></text>
<text transform="matrix(1 0 0 1 4851.4443 109.5176)" style="&st8;"><tspan x="0" y="0" style="&st31; &st19;">E</tspan></text>
<text transform="matrix(1 0 0 1 4839.4404 109.5176)" style="&st8;"><tspan x="0" y="0" style="&st31; &st19;">15</tspan></text>
<text transform="matrix(1 0 0 1 4847.9209 99.2598)" style="&st8;"><tspan x="0" y="0" style="&st31; &st19;">PKB</tspan></text>
<text transform="matrix(1 0 0 1 4791.4443 109.5176)" style="&st8;"><tspan x="0" y="0" style="&st31; &st19;">E</tspan></text>
<text transform="matrix(1 0 0 1 4779.4404 109.5176)" style="&st8;"><tspan x="0" y="0" style="&st31; &st19;">17</tspan></text>
<text transform="matrix(1 0 0 1 4787.9209 99.2598)" style="&st8;"><tspan x="0" y="0" style="&st31; &st19;">SPD</tspan></text>
<text transform="matrix(1 0 0 1 6880.2451 109.5176)" style="&st8;"><tspan x="0" y="0" style="&st31; &st19;">E</tspan></text>
<text transform="matrix(1 0 0 1 6871.5781 109.5176)" style="&st8;"><tspan x="0" y="0" style="&st31; &st19;">9</tspan></text>
<text transform="matrix(1 0 0 1 6874.2217 99.2598)" style="&st8;"><tspan x="0" y="0" style="&st31; &st19;">CANH</tspan></text>
<text transform="matrix(1 0 0 1 6920.2451 109.5176)" style="&st8;"><tspan x="0" y="0" style="&st31; &st19;">E</tspan></text>
<text transform="matrix(1 0 0 1 6908.2412 109.5176)" style="&st8;"><tspan x="0" y="0" style="&st31; &st19;">10</tspan></text>
<text transform="matrix(1 0 0 1 6914.2217 99.2598)" style="&st8;"><tspan x="0" y="0" style="&st31; &st19;">CANL</tspan></text>
<text transform="matrix(1 0 0 1 3394.8516 109.5176)" style="&st8;"><tspan x="0" y="0" style="&st31; &st19;">E</tspan></text>
<text transform="matrix(1 0 0 1 3386.1846 109.5176)" style="&st8;"><tspan x="0" y="0" style="&st31; &st19;">6</tspan></text>
<text transform="matrix(1 0 0 1 3388.8281 99.2598)" style="&st8;"><tspan x="0" y="0" style="&st31; &st19;">SNS2</tspan></text>
<text transform="matrix(1 0 0 1 3437.3457 109.5176)" style="&st8;"><tspan x="0" y="0" style="&st31; &st19;">E</tspan></text>
<text transform="matrix(1 0 0 1 3428.6787 109.5176)" style="&st8;"><tspan x="0" y="0" style="&st31; &st19;">4</tspan></text>
<text transform="matrix(1 0 0 1 3430.8223 99.2598)" style="&st8;"><tspan x="0" y="0" style="&st31; &st19;">MACC</tspan></text>
<text transform="matrix(1 0 0 1 3479.8799 109.5176)" style="&st8;"><tspan x="0" y="0" style="&st31; &st19;">E</tspan></text>
<text transform="matrix(1 0 0 1 3471.2129 109.5176)" style="&st8;"><tspan x="0" y="0" style="&st31; &st19;">5</tspan></text>
<text transform="matrix(1 0 0 1 3475.3564 99.2598)" style="&st8;"><tspan x="0" y="0" style="&st31; &st19;">MIN+</tspan></text>
<text transform="matrix(1 0 0 1 3522.3945 109.5176)" style="&st8;"><tspan x="0" y="0" style="&st31; &st19;">E</tspan></text>
<text transform="matrix(1 0 0 1 3510.3906 109.5176)" style="&st8;"><tspan x="0" y="0" style="&st31; &st19;">19</tspan></text>
<text transform="matrix(1 0 0 1 3518.3711 99.2598)" style="&st8;"><tspan x="0" y="0" style="&st31; &st19;">MIN-</tspan></text>
<text transform="matrix(1 0 0 1 3564.8896 109.5176)" style="&st8;"><tspan x="0" y="0" style="&st31; &st19;">E</tspan></text>
<text transform="matrix(1 0 0 1 3552.8857 109.5176)" style="&st8;"><tspan x="0" y="0" style="&st31; &st19;">18</tspan></text>
<text transform="matrix(1 0 0 1 3557.8662 99.2598)" style="&st8;"><tspan x="0" y="0" style="&st31; &st19;">SGND</tspan></text>
<text transform="matrix(1 0 0 1 3691.6982 109.5176)" style="&st8;"><tspan x="0" y="0" style="&st31; &st19;">B</tspan></text>
<text transform="matrix(1 0 0 1 3683.0313 109.5176)" style="&st8;"><tspan x="0" y="0" style="&st31; &st19;">4</tspan></text>
<text transform="matrix(1 0 0 1 3687.6748 99.2598)" style="&st8;"><tspan x="0" y="0" style="&st31; &st19;">CDL+</tspan></text>
<text transform="matrix(1 0 0 1 3732.8408 109.5176)" style="&st8;"><tspan x="0" y="0" style="&st31; &st19;">B</tspan></text>
<text transform="matrix(1 0 0 1 3724.1738 109.5176)" style="&st8;"><tspan x="0" y="0" style="&st31; &st19;">5</tspan></text>
<text transform="matrix(1 0 0 1 3728.8174 99.2598)" style="&st8;"><tspan x="0" y="0" style="&st31; &st19;">CDL-</tspan></text>
<text transform="matrix(1 0 0 1 3803.8643 109.5176)" style="&st8;"><tspan x="0" y="0" style="&st31; &st19;">B</tspan></text>
<text transform="matrix(1 0 0 1 3795.1973 109.5176)" style="&st8;"><tspan x="0" y="0" style="&st31; &st19;">2</tspan></text>
<text transform="matrix(1 0 0 1 3799.8408 99.2598)" style="&st8;"><tspan x="0" y="0" style="&st31; &st19;">CDR+</tspan></text>
<text transform="matrix(1 0 0 1 3846.418 109.5176)" style="&st8;"><tspan x="0" y="0" style="&st31; &st19;">B</tspan></text>
<text transform="matrix(1 0 0 1 3837.751 109.5176)" style="&st8;"><tspan x="0" y="0" style="&st31; &st19;">3</tspan></text>
<text transform="matrix(1 0 0 1 3842.3945 99.2598)" style="&st8;"><tspan x="0" y="0" style="&st31; &st19;">CDR-</tspan></text>
<text transform="matrix(1 0 0 1 4014.3965 109.5176)" style="&st8;"><tspan x="0" y="0" style="&st31; &st19;">B</tspan></text>
<text transform="matrix(1 0 0 1 4005.7295 109.5176)" style="&st8;"><tspan x="0" y="0" style="&st31; &st19;">8</tspan></text>
<text transform="matrix(1 0 0 1 4007.873 99.2598)" style="&st8;"><tspan x="0" y="0" style="&st31; &st19;">MUTE</tspan></text>
<text transform="matrix(1 0 0 1 4056.873 109.5195)" style="&st8;"><tspan x="0" y="0" style="&st31; &st19;">B</tspan></text>
<text transform="matrix(1 0 0 1 4048.2061 109.5195)" style="&st8;"><tspan x="0" y="0" style="&st31; &st19;">9</tspan></text>
<text transform="matrix(1 0 0 1 4052.8496 99.2617)" style="&st8;"><tspan x="0" y="0" style="&st31; &st19;">TX+</tspan></text>
<text transform="matrix(1 0 0 1 4099.6309 109.5195)" style="&st8;"><tspan x="0" y="0" style="&st31; &st19;">B</tspan></text>
<text transform="matrix(1 0 0 1 4087.627 109.5195)" style="&st8;"><tspan x="0" y="0" style="&st31; &st19;">10</tspan></text>
<text transform="matrix(1 0 0 1 4096.6074 99.2617)" style="&st8;"><tspan x="0" y="0" style="&st31; &st19;">TX-</tspan></text>
<text transform="matrix(1 0 0 1 5443.4678 109.5176)" style="&st8;"><tspan x="0" y="0" style="&st31; &st19;">E</tspan></text>
<text transform="matrix(1 0 0 1 5431.4639 109.5176)" style="&st8;"><tspan x="0" y="0" style="&st31; &st19;">28</tspan></text>
<text transform="matrix(1 0 0 1 5439.4443 99.2598)" style="&st8;"><tspan x="0" y="0" style="&st31; &st19;">VAL+</tspan></text>
<text transform="matrix(1 0 0 1 5475.9248 109.5176)" style="&st8;"><tspan x="0" y="0" style="&st31; &st19;">E</tspan></text>
<text transform="matrix(1 0 0 1 5463.9209 109.5176)" style="&st8;"><tspan x="0" y="0" style="&st31; &st19;">26</tspan></text>
<text transform="matrix(1 0 0 1 5470.4014 99.2598)" style="&st8;"><tspan x="0" y="0" style="&st31; &st19;">VAR+</tspan></text>
<text transform="matrix(1 0 0 1 5508.4717 109.5176)" style="&st8;"><tspan x="0" y="0" style="&st31; &st19;">E</tspan></text>
<text transform="matrix(1 0 0 1 5496.4678 109.5176)" style="&st8;"><tspan x="0" y="0" style="&st31; &st19;">27</tspan></text>
<text transform="matrix(1 0 0 1 5505.9482 99.2598)" style="&st8;"><tspan x="0" y="0" style="&st31; &st19;">VA-</tspan></text>
<text transform="matrix(1 0 0 1 5580.8975 109.5176)" style="&st8;"><tspan x="0" y="0" style="&st31; &st19;">E</tspan></text>
<text transform="matrix(1 0 0 1 5568.8936 109.5176)" style="&st8;"><tspan x="0" y="0" style="&st31; &st19;">25</tspan></text>
<text transform="matrix(1 0 0 1 5575.374 99.2598)" style="&st8;"><tspan x="0" y="0" style="&st31; &st19;">ADPG</tspan></text>
<text transform="matrix(1 0 0 1 5624.9932 109.5176)" style="&st8;"><tspan x="0" y="0" style="&st31; &st19;">E</tspan></text>
<text transform="matrix(1 0 0 1 5612.9893 109.5176)" style="&st8;"><tspan x="0" y="0" style="&st31; &st19;">13</tspan></text>
<text transform="matrix(1 0 0 1 5621.9697 99.2598)" style="&st8;"><tspan x="0" y="0" style="&st31; &st19;">VV+</tspan></text>
<text transform="matrix(1 0 0 1 5657.5654 109.5176)" style="&st8;"><tspan x="0" y="0" style="&st31; &st19;">E</tspan></text>
<text transform="matrix(1 0 0 1 5645.5615 109.5176)" style="&st8;"><tspan x="0" y="0" style="&st31; &st19;">14</tspan></text>
<text transform="matrix(1 0 0 1 5654.542 99.2598)" style="&st8;"><tspan x="0" y="0" style="&st31; &st19;">VV-</tspan></text>
<text transform="matrix(1 0 0 1 5409.8545 109.5176)" style="&st8;"><tspan x="0" y="0" style="&st31; &st19;">F</tspan></text>
<text transform="matrix(1 0 0 1 5401.1875 109.5176)" style="&st8;"><tspan x="0" y="0" style="&st31; &st19;">1</tspan></text>
<text transform="matrix(1 0 0 1 5405.8311 99.2598)" style="&st8;"><tspan x="0" y="0" style="&st31; &st19;">USV</tspan></text>
<text transform="matrix(1 0 0 1 5541.001 109.5171)" style="&st8;"><tspan x="0" y="0" style="&st31; &st19;">E</tspan></text>
<text transform="matrix(1 0 0 1 5529.4424 109.5171)" style="&st8;"><tspan x="0" y="0" style="&st31; &st19;">11</tspan></text>
<text transform="matrix(1 0 0 1 5533.9775 99.2593)" style="&st8;"><tspan x="0" y="0" style="&st31; &st19;">AGND</tspan></text>
<text transform="matrix(1 0 0 1 5690.0127 109.5171)" style="&st8;"><tspan x="0" y="0" style="&st31; &st19;">E</tspan></text>
<text transform="matrix(1 0 0 1 5678.0088 109.5171)" style="&st8;"><tspan x="0" y="0" style="&st31; &st19;">12</tspan></text>
<text transform="matrix(1 0 0 1 4904.9307 109.5171)" style="&st8;"><tspan x="0" y="0" style="&st31; &st19;">21</tspan></text>
<text transform="matrix(1 0 0 1 5006.9209 109.5186)" style="&st8;"><tspan x="0" y="0" style="&st31; &st19;">22</tspan></text>
<text transform="matrix(1 0 0 1 4955.9209 109.5171)" style="&st8;"><tspan x="0" y="0" style="&st31; &st19;">23</tspan></text>
<text transform="matrix(1 0 0 1 5687.9893 99.2593)" style="&st8;"><tspan x="0" y="0" style="&st31; &st19;">SG</tspan></text>
<text transform="matrix(1 0 0 1 4916.7256 109.5088)" style="&st8;"><tspan x="0" y="0" style="&st31; &st19;">E</tspan></text>
<text transform="matrix(1 0 0 1 4911.7861 99.3188)" style="&st8;"><tspan x="0" y="0" style="&st31; &st19;">SW1</tspan></text>
<text transform="matrix(1 0 0 1 4961.6045 99.3188)" style="&st8;"><tspan x="0" y="0" style="&st31; &st19;">SWG</tspan></text>
<text transform="matrix(1 0 0 1 5013.376 99.3188)" style="&st8;"><tspan x="0" y="0" style="&st31; &st19;">SW2</tspan></text>
<text transform="matrix(1 0 0 1 4967.7158 109.5088)" style="&st8;"><tspan x="0" y="0" style="&st31; &st19;">E</tspan></text>
<text transform="matrix(1 0 0 1 5018.7061 109.5088)" style="&st8;"><tspan x="0" y="0" style="&st31; &st19;">E</tspan></text>
<text transform="matrix(1 0 0 1 5778.2646 109.5176)" style="&st8;"><tspan x="0" y="0" style="&st31; &st19;">A</tspan></text>
<text transform="matrix(1 0 0 1 5766.7061 109.5176)" style="&st8;"><tspan x="0" y="0" style="&st31; &st19;">11</tspan></text>
<text transform="matrix(1 0 0 1 5773.7412 99.2598)" style="&st8;"><tspan x="0" y="0" style="&st31; &st19;">CA+</tspan></text>
<text transform="matrix(1 0 0 1 5820.7793 109.5176)" style="&st8;"><tspan x="0" y="0" style="&st31; &st19;">A</tspan></text>
<text transform="matrix(1 0 0 1 5808.7754 109.5176)" style="&st8;"><tspan x="0" y="0" style="&st31; &st19;">24</tspan></text>
<text transform="matrix(1 0 0 1 5819.7559 99.2598)" style="&st8;"><tspan x="0" y="0" style="&st31; &st19;">V-</tspan></text>
<text transform="matrix(1 0 0 1 5863.2939 109.5176)" style="&st8;"><tspan x="0" y="0" style="&st31; &st19;">A</tspan></text>
<text transform="matrix(1 0 0 1 5851.29 109.5176)" style="&st8;"><tspan x="0" y="0" style="&st31; &st19;">12</tspan></text>
<text transform="matrix(1 0 0 1 5862.2705 99.2598)" style="&st8;"><tspan x="0" y="0" style="&st31; &st19;">V+</tspan></text>
<text transform="matrix(1 0 0 1 5905.8086 109.5176)" style="&st8;"><tspan x="0" y="0" style="&st31; &st19;">A</tspan></text>
<text transform="matrix(1 0 0 1 5893.8047 109.5176)" style="&st8;"><tspan x="0" y="0" style="&st31; &st19;">23</tspan></text>
<text transform="matrix(1 0 0 1 5898.7852 99.2598)" style="&st8;"><tspan x="0" y="0" style="&st31; &st19;">CGND</tspan></text>
<text ewd:textID="45" transform="matrix(1 0 0 1 3833.8057 63.9116)" style="&st8; &st31; &st19;">Radio &amp; Display Receiver Assembly</text>
<text ewd:textID="45" transform="matrix(1 0 0 1 3308.0938 63.9116)" style="&st8; &st31; &st19;">Radio &amp; Display Receiver Assembly</text>
<text ewd:textID="45" transform="matrix(1 0 0 1 2929.0938 63.9116)" style="&st8; &st31; &st19;">Radio &amp; Display Receiver Assembly</text>
<text transform="matrix(1 0 0 1 2929.0938 56.8013)" style="&st8;"><tspan x="0" y="0" style="&st31; &st19;">H50(A),H52(B),H48(C),H49(D),H51(E),H69(F),z10(G),z12(H)</tspan></text>
<text transform="matrix(1 0 0 1 3308.0938 56.8013)" style="&st8;"><tspan x="0" y="0" style="&st31; &st19;">H50(A),H52(B),H48(C),H49(D),H51(E),H69(F),z10(G),z12(H)</tspan></text>
<text ewd:textID="45" transform="matrix(1 0 0 1 4342.5693 63.9116)" style="&st8; &st31; &st19;">Radio &amp; Display Receiver Assembly</text>
<text ewd:textID="45" transform="matrix(1 0 0 1 4897.543 63.9116)" style="&st8; &st31; &st19;">Radio &amp; Display Receiver Assembly</text>
<text ewd:textID="45" transform="matrix(1 0 0 1 5400.0176 63.9116)" style="&st8; &st31; &st19;">Radio &amp; Display Receiver Assembly</text>
<text ewd:textID="45" transform="matrix(1 0 0 1 5909.4902 63.9116)" style="&st8; &st31; &st19;">Radio &amp; Display Receiver Assembly</text>
<text ewd:textID="45" transform="matrix(1 0 0 1 6389.9688 63.9116)" style="&st8; &st31; &st19;">Radio &amp; Display Receiver Assembly</text>
<text ewd:textID="45" transform="matrix(1 0 0 1 6791.3018 63.9116)" style="&st8; &st31; &st19;">Radio &amp; Display Receiver Assembly</text>
<text transform="matrix(1 0 0 1 5255.3076 109.5176)" style="&st8;"><tspan x="0" y="0" style="&st31; &st19;">H</tspan></text>
<text transform="matrix(1 0 0 1 5246.6406 109.5176)" style="&st8;"><tspan x="0" y="0" style="&st31; &st19;">3</tspan></text>
<text transform="matrix(1 0 0 1 5251.2842 99.2598)" style="&st8;"><tspan x="0" y="0" style="&st31; &st19;">ACC2</tspan></text>
<text transform="matrix(1 0 0 1 5287.7646 109.5176)" style="&st8;"><tspan x="0" y="0" style="&st31; &st19;">H</tspan></text>
<text transform="matrix(1 0 0 1 5279.0977 109.5176)" style="&st8;"><tspan x="0" y="0" style="&st31; &st19;">4</tspan></text>
<text transform="matrix(1 0 0 1 5282.2412 99.2598)" style="&st8;"><tspan x="0" y="0" style="&st31; &st19;">+B2</tspan></text>
<text transform="matrix(1 0 0 1 5320.3115 109.5176)" style="&st8;"><tspan x="0" y="0" style="&st31; &st19;">H</tspan></text>
<text transform="matrix(1 0 0 1 5311.6445 109.5176)" style="&st8;"><tspan x="0" y="0" style="&st31; &st19;">8</tspan></text>
<text transform="matrix(1 0 0 1 5314.7881 99.2598)" style="&st8;"><tspan x="0" y="0" style="&st31; &st19;">GND2</tspan></text>
<text transform="matrix(1 0 0 1 5221.6943 109.5176)" style="&st8;"><tspan x="0" y="0" style="&st31; &st19;">H</tspan></text>
<text transform="matrix(1 0 0 1 5213.0273 109.5176)" style="&st8;"><tspan x="0" y="0" style="&st31; &st19;">2</tspan></text>
<text transform="matrix(1 0 0 1 5217.6709 99.2598)" style="&st8;"><tspan x="0" y="0" style="&st31; &st19;">SPDO</tspan></text>
<text transform="matrix(1 0 0 1 5352.8408 109.5166)" style="&st8;"><tspan x="0" y="0" style="&st31; &st19;">G</tspan></text>
<text transform="matrix(1 0 0 1 5344.1738 109.5166)" style="&st8;"><tspan x="0" y="0" style="&st31; &st19;">1</tspan></text>
<text transform="matrix(1 0 0 1 5351.8174 99.2588)" style="&st8;"><tspan x="0" y="0" style="&st31; &st19;">LV</tspan></text>
<text transform="matrix(1 0 0 1 4342.5693 56.8013)" style="&st8;"><tspan x="0" y="0" style="&st31; &st19;">H50(A),H52(B),H48(C),H49(D),H51(E),H69(F),z10(G),z12(H)</tspan></text>
<text transform="matrix(1 0 0 1 3833.8057 56.8013)" style="&st8;"><tspan x="0" y="0" style="&st31; &st19;">H50(A),H52(B),H48(C),H49(D),H51(E),H69(F),z10(G),z12(H)</tspan></text>
<text transform="matrix(1 0 0 1 4897.543 56.8013)" style="&st8;"><tspan x="0" y="0" style="&st31; &st19;">H50(A),H52(B),H48(C),H49(D),H51(E),H69(F),z10(G),z12(H)</tspan></text>
<text transform="matrix(1 0 0 1 5400.0176 56.8013)" style="&st8;"><tspan x="0" y="0" style="&st31; &st19;">H50(A),H52(B),H48(C),H49(D),H51(E),H69(F),z10(G),z12(H)</tspan></text>
<text transform="matrix(1 0 0 1 5909.4902 56.8013)" style="&st8;"><tspan x="0" y="0" style="&st31; &st19;">H50(A),H52(B),H48(C),H49(D),H51(E),H69(F),z10(G),z12(H)</tspan></text>
<text transform="matrix(1 0 0 1 6791.3018 56.8013)" style="&st8;"><tspan x="0" y="0" style="&st31; &st19;">H50(A),H52(B),H48(C),H49(D),H51(E),H69(F),z10(G),z12(H)</tspan></text>
<text transform="matrix(1 0 0 1 6389.9688 56.8013)" style="&st8;"><tspan x="0" y="0" style="&st31; &st19;">H50(A),H52(B),H48(C),H49(D),H51(E),H69(F),z10(G),z12(H)</tspan></text>
</g>
<text transform="matrix(0 -1 1 0 2744.9336 150.7891)" style="&st8;"><tspan x="0" y="0" style="&st31; &st19;">L</tspan></text>
<text transform="matrix(0 -1 1 0 2744.9336 250.0327)" style="&st8;"><tspan x="0" y="0" style="&st31; &st19;">L</tspan></text>
<text transform="matrix(0 -1 1 0 2744.9336 102.4561)" style="&st8;"><tspan x="0" y="0" style="&st31; &st19;">L</tspan></text>
<text transform="matrix(1 0 0 1 2569.6494 532.7505)" style="&st8;"><tspan x="0" y="0" style="&st31; &st19;">B</tspan></text>
<text transform="matrix(1 0 0 1 2568.8193 508.9458)" style="&st8;"><tspan x="0" y="0" style="&st31; &st19;">W</tspan></text>
<text transform="matrix(1 0 0 1 2569.6494 485.0532)" style="&st8;"><tspan x="0" y="0" style="&st31; &st19;">B</tspan></text>
<text transform="matrix(1 0 0 1 2568.8193 461.2505)" style="&st8;"><tspan x="0" y="0" style="&st31; &st19;">W</tspan></text>
<text transform="matrix(1 0 0 1 2569.3174 437.3765)" style="&st8;"><tspan x="0" y="0" style="&st31; &st19;">G</tspan></text>
<text transform="matrix(1 0 0 1 2569.4844 413.563)" style="&st8;"><tspan x="0" y="0" style="&st31; &st19;">R</tspan></text>
<text transform="matrix(1 0 0 1 2567.1504 389.6978)" style="&st8;"><tspan x="0" y="0" style="&st31; &st19;">GR</tspan></text>
<text transform="matrix(1 0 0 1 2569.6494 365.8579)" style="&st8;"><tspan x="0" y="0" style="&st31; &st19;">B</tspan></text>
<text transform="matrix(1 0 0 1 2568.8193 342.0181)" style="&st8;"><tspan x="0" y="0" style="&st31; &st19;">W</tspan></text>
<text transform="matrix(1 0 0 1 2567.1504 318.1782)" style="&st8;"><tspan x="0" y="0" style="&st31; &st19;">GR</tspan></text>
<text transform="matrix(0 -1 1 0 2804.834 133.0918)" style="&st8;"><tspan x="0" y="0" style="&st31; &st19;">R</tspan></text>
<text transform="matrix(0 -1 1 0 2804.834 189.5918)" style="&st8;"><tspan x="0" y="0" style="&st31; &st19;">R</tspan></text>
<text transform="matrix(0 -1 1 0 2804.834 250.5308)" style="&st8;"><tspan x="0" y="0" style="&st31; &st19;">R</tspan></text>
<text transform="matrix(1 0 0 1 2567.6484 556.7495)" style="&st8;"><tspan x="0" y="0" style="&st31; &st19;">SB</tspan></text>
<text transform="matrix(1 0 0 1 2566.8164 568.0796)" style="&st8;"><tspan x="0" y="0" style="&st31; &st19;">(*7)</tspan></text>
<text transform="matrix(1 0 0 1 2567.1504 580.7495)" style="&st8;"><tspan x="0" y="0" style="&st31; &st19;">GR</tspan></text>
<text transform="matrix(1 0 0 1 2566.8164 592.0796)" style="&st8;"><tspan x="0" y="0" style="&st31; &st19;">(*7)</tspan></text>
<text transform="matrix(1 0 0 1 2623.6494 532.7505)" style="&st8;"><tspan x="0" y="0" style="&st31; &st19;">B</tspan></text>
<text transform="matrix(1 0 0 1 2622.8193 508.9458)" style="&st8;"><tspan x="0" y="0" style="&st31; &st19;">W</tspan></text>
<text transform="matrix(1 0 0 1 2623.6494 485.0532)" style="&st8;"><tspan x="0" y="0" style="&st31; &st19;">B</tspan></text>
<text transform="matrix(1 0 0 1 2622.8193 461.2505)" style="&st8;"><tspan x="0" y="0" style="&st31; &st19;">W</tspan></text>
<text transform="matrix(1 0 0 1 2623.3174 437.3765)" style="&st8;"><tspan x="0" y="0" style="&st31; &st19;">G</tspan></text>
<text transform="matrix(1 0 0 1 2623.4844 413.563)" style="&st8;"><tspan x="0" y="0" style="&st31; &st19;">R</tspan></text>
<text transform="matrix(1 0 0 1 2569.4844 638.9448)" style="&st8;"><tspan x="0" y="0" style="&st31; &st19;">R</tspan></text>
<text transform="matrix(1 0 0 1 2623.4844 638.9448)" style="&st8;"><tspan x="0" y="0" style="&st31; &st19;">R</tspan></text>
<text transform="matrix(1 0 0 1 2621.1504 389.6978)" style="&st8;"><tspan x="0" y="0" style="&st31; &st19;">GR</tspan></text>
<text transform="matrix(1 0 0 1 2623.6494 365.8579)" style="&st8;"><tspan x="0" y="0" style="&st31; &st19;">B</tspan></text>
<text transform="matrix(1 0 0 1 2622.8193 342.0181)" style="&st8;"><tspan x="0" y="0" style="&st31; &st19;">W</tspan></text>
<text transform="matrix(1 0 0 1 2621.1504 318.1782)" style="&st8;"><tspan x="0" y="0" style="&st31; &st19;">GR</tspan></text>
<text transform="matrix(1 0 0 1 2621.6484 556.7495)" style="&st8;"><tspan x="0" y="0" style="&st31; &st19;">SB</tspan></text>
<text transform="matrix(1 0 0 1 2620.8164 568.0796)" style="&st8;"><tspan x="0" y="0" style="&st31; &st19;">(*7)</tspan></text>
<text transform="matrix(1 0 0 1 2621.1504 580.7495)" style="&st8;"><tspan x="0" y="0" style="&st31; &st19;">GR</tspan></text>
<text transform="matrix(1 0 0 1 2620.8164 592.0796)" style="&st8;"><tspan x="0" y="0" style="&st31; &st19;">(*7)</tspan></text>
<text transform="matrix(1 0 0 1 2787.5352 295.1587)" style="&st8;"><tspan x="0" y="0" style="&st31; &st19;">L</tspan></text>
<text transform="matrix(0 -1 1 0 2878.8613 232.9121)" style="&st8;"><tspan x="0" y="0" style="&st31; &st19;">R</tspan></text>
<text transform="matrix(1 0 0 1 2842.7842 269.2227)" style="&st8;"><tspan x="0" y="0" style="&st31; &st19;">R</tspan></text>
<text transform="matrix(0 -1 1 0 2911.7412 232.4141)" style="&st8;"><tspan x="0" y="0" style="&st31; &st19;">L</tspan></text>
<text transform="matrix(0 -1 1 0 2944.6211 235.2456)" style="&st8;"><tspan x="0" y="0" style="&st31; &st19;">GR</tspan></text>
<text transform="matrix(0 -1 1 0 2977.5 233.5771)" style="&st8;"><tspan x="0" y="0" style="&st31; &st19;">W</tspan></text>
<text transform="matrix(0 -1 1 0 2646.2188 133.5977)" style="&st8;"><tspan x="0" y="0" style="&st31; &st19;">L</tspan></text>
<text transform="matrix(0 -1 1 0 2535.7422 135.9312)" style="&st8;"><tspan x="0" y="0" style="&st31; &st19;">SB</tspan></text>
<text transform="matrix(0 -1 1 0 2535.7451 241.9214)" style="&st8;"><tspan x="0" y="0" style="&st31; &st19;">SB</tspan></text>
<text transform="matrix(0 -1 1 0 2547.0752 242.7534)" style="&st8;"><tspan x="0" y="0" style="&st31; &st19;">(*7)</tspan></text>
<text transform="matrix(0 -1 1 0 2646.2188 228.4272)" style="&st8;"><tspan x="0" y="0" style="&st31; &st19;">L</tspan></text>
<text transform="matrix(1 0 0 1 2818.4473 159.3843)" style="&st8;"><tspan x="0" y="0" style="&st31; &st19;">(LHD)</tspan></text>
<text transform="matrix(1 0 0 1 2818.4473 167.8843)" style="&st8;"><tspan x="0" y="0" style="&st31; &st19;">(RHD)</tspan></text>
</svg>
