﻿<?xml version="1.0" encoding="UTF-8"?>
<!DOCTYPE svg PUBLIC "-//W3C//DTD SVG 1.0//EN" "http://www.w3.org/TR/2001/REC-SVG-20010904/DTD/svg10.dtd"[
<!ENTITY ns_flows "http://ns.adobe.com/Flows/1.0/">
<!ENTITY ns_svg "http://www.w3.org/2000/svg">
<!ENTITY ns_xlink "http://www.w3.org/1999/xlink">
	<!ENTITY st0 "fill:none;stroke:#F8E616;stroke-width:5.1;stroke-linejoin:round;">
	<!ENTITY st1 "fill:none;stroke:#FB0F0C;stroke-width:5.1;stroke-linejoin:round;">
	<!ENTITY st2 "fill:none;stroke:#9A9999;stroke-width:5.1;stroke-linejoin:round;">
	<!ENTITY st3 "fill:none;stroke:#99280B;stroke-width:5.1;stroke-linejoin:round;">
		<!ENTITY st4 "fill:none;stroke:#000000;stroke-width:0.85;stroke-linecap:round;stroke-linejoin:round;stroke-dasharray:3 1.5;enable-background:new    ;">
	<!ENTITY st5 "fill:none;stroke:#000000;stroke-width:5.1;stroke-linejoin:round;">
	<!ENTITY st6 "fill:none;stroke:#000000;stroke-linecap:round;stroke-linejoin:round;">
	<!ENTITY st7 "stroke:#000000;stroke-width:0.28;stroke-linecap:round;stroke-linejoin:round;enable-background:new    ;">
	<!ENTITY st8 "enable-background:new    ;">
		<!ENTITY st9 "fill:none;stroke:#000000;stroke-width:1.42;stroke-linecap:round;stroke-linejoin:round;enable-background:new    ;">
	<!ENTITY st10 "fill:none;stroke:#EE67AA;stroke-width:5.1;stroke-linejoin:round;">
	<!ENTITY st11 "fill:none;stroke:#199DBF;stroke-width:5.1;stroke-linejoin:round;">
	<!ENTITY st12 "opacity:0.5;fill:none;stroke:#34ACCE;stroke-linejoin:round;stroke-dasharray:6;">
	<!ENTITY st13 "fill:none;stroke:#FFFFFF;stroke-width:4.53;stroke-linejoin:round;">
		<!ENTITY st14 "fill:none;stroke:#000000;stroke-width:0.85;stroke-linecap:round;stroke-linejoin:round;enable-background:new    ;">
	<!ENTITY st15 "fill:none;stroke:#56107C;stroke-width:5.1;stroke-linejoin:round;">
	<!ENTITY st16 "font-size:6px;">
	<!ENTITY st17 "fill:none;stroke:#168638;stroke-width:5.1;stroke-linejoin:round;">
		<!ENTITY st18 "fill:none;stroke:#000000;stroke-width:1.13;stroke-linecap:round;stroke-linejoin:round;stroke-dasharray:3 1.5;enable-background:new    ;">
	<!ENTITY st19 "fill:none;stroke:#FFFFFF;stroke-width:4.53;stroke-linejoin:round;enable-background:new    ;">
	<!ENTITY st20 "fill:#FFFFFF;stroke:#000000;stroke-width:1.41;stroke-linecap:round;stroke-linejoin:round;">
	<!ENTITY st21 "fill:none;stroke:#3E65AC;stroke-width:3;">
	<!ENTITY st22 "fill:#CCCCCC;stroke:#CCCCCC;stroke-width:0.1;stroke-linecap:round;stroke-linejoin:round;">
	<!ENTITY st23 "fill:none;stroke:#000000;stroke-width:5.1;stroke-linejoin:round;enable-background:new    ;">
	<!ENTITY st24 "font-family:'ArialMT';">
	<!ENTITY st25 "fill:none;stroke:#000000;stroke-width:0.85;stroke-linejoin:round;">
	<!ENTITY st26 "opacity:0.5;fill:none;stroke:#34ACCE;stroke-linejoin:round;">
	<!ENTITY st27 "fill:#CFE6E7;stroke:#000000;stroke-width:1.133;stroke-linecap:round;stroke-linejoin:round;">
	<!ENTITY st28 "fill:none;stroke:#9A9999;stroke-width:5.1;stroke-linejoin:round;enable-background:new    ;">
	<!ENTITY st29 "fill:none;stroke:#99D5E0;stroke-width:5.1;stroke-linejoin:round;">
	<!ENTITY st30 "fill:none;stroke:#99280B;stroke-width:5.1;stroke-linejoin:round;enable-background:new    ;">
	<!ENTITY st31 "fill:none;stroke:#7EC57E;stroke-width:5.1;stroke-linejoin:round;">
<!ATTLIST svg
xmlns:ewd CDATA #FIXED "http://shcl.co.jp/ewd"
xmlns:a CDATA #FIXED "http://ns.adobe.com/AdobeSVGViewerExtensions/3.0/"
ewd:ver CDATA #IMPLIED
>
<!ATTLIST a
ewd:lineID CDATA #IMPLIED
ewd:groupID CDATA #IMPLIED
ewd:figtype CDATA #IMPLIED
ewd:code CDATA #IMPLIED
ewd:figID CDATA #IMPLIED
ewd:pinNo CDATA #IMPLIED
ewd:comment CDATA #IMPLIED >
<!ATTLIST g
ewd:lineID CDATA #IMPLIED
ewd:groupID CDATA #IMPLIED
ewd:figtype CDATA #IMPLIED
ewd:code CDATA #IMPLIED
ewd:figID CDATA #IMPLIED
ewd:pinNo CDATA #IMPLIED
ewd:comment CDATA #IMPLIED >
<!ATTLIST text
ewd:textID CDATA #IMPLIED >
<!ATTLIST title
ewd:textID CDATA #IMPLIED >
]>
<svg 
viewBox='0 0 2076.64 729.44'
height='729.44'
width='2076.64'
xml:space="preserve"
xmlns="&ns_svg;"
xmlns:ewd="http://shcl.co.jp/ewd"
xmlns:xlink="&ns_xlink;" ewd:ver="L2.1">
<g ewd:code="GH1" ewd:figID="633" ewd:figtype="w2w" ewd:pinNo="18">
<path style="&st9;" d="M1313.7,201.02h8.5"/>
<path style="&st9;" d="M1326.45,195.36l-4.25,4.25l-4.25-4.25"/>
<path style="&st9;" d="M1317.95,191.96l4.25,4.25l4.25-4.25"/>
<text transform="matrix(1 0 0 1 1304.0293 207.2354)" style="&st8;"><tspan x="0" y="0" style="&st24; &st16;">18</tspan></text>
</g>
<g ewd:code="GH1" ewd:figID="632" ewd:figtype="w2w" ewd:pinNo="19">
<path style="&st9;" d="M1279.71,201.02h8.49"/>
<path style="&st9;" d="M1292.45,195.36l-4.25,4.25l-4.25-4.25"/>
<path style="&st9;" d="M1283.95,191.96l4.25,4.25l4.25-4.25"/>
<text transform="matrix(1 0 0 1 1270.0391 207.2354)" style="&st8;"><tspan x="0" y="0" style="&st24; &st16;">19</tspan></text>
</g>
<g ewd:code="GH1" ewd:figID="631" ewd:figtype="w2w" ewd:pinNo="17">
<path style="&st9;" d="M1245.71,201.02h8.5"/>
<path style="&st9;" d="M1258.46,195.36l-4.25,4.25l-4.25-4.25"/>
<path style="&st9;" d="M1249.96,191.96l4.25,4.25l4.25-4.25"/>
<text transform="matrix(1 0 0 1 1236.0391 207.2354)" style="&st8;"><tspan x="0" y="0" style="&st24; &st16;">17</tspan></text>
</g>
<g ewd:code="GH1" ewd:figID="629" ewd:figtype="w2w" ewd:pinNo="">
<path style="&st9;" d="M1211.72,201.02h8.5"/>
<path style="&st9;" d="M1224.46,195.36l-4.24,4.25l-4.25-4.25"/>
<path style="&st9;" d="M1215.97,191.96l4.25,4.25l4.24-4.25"/>
<text transform="matrix(1 0 0 1 1202.0488 207.2354)" style="&st8;"><tspan x="0" y="0" style="&st24; &st16;">25</tspan></text>
</g>
<g ewd:code="GH1" ewd:figID="627" ewd:figtype="w2w" ewd:pinNo="24">
<path style="&st9;" d="M1177.72,201.02h8.5"/>
<path style="&st9;" d="M1190.47,195.36l-4.25,4.25l-4.25-4.25"/>
<path style="&st9;" d="M1181.97,191.96l4.25,4.25l4.25-4.25"/>
<text transform="matrix(1 0 0 1 1168.0488 207.2354)" style="&st8;"><tspan x="0" y="0" style="&st24; &st16;">24</tspan></text>
</g>
<g ewd:code="GH1" ewd:figID="625" ewd:figtype="w2w" ewd:pinNo="23">
<path style="&st9;" d="M1143.73,201.02h8.5"/>
<path style="&st9;" d="M1156.48,195.36l-4.25,4.25l-4.25-4.25"/>
<path style="&st9;" d="M1147.98,191.96l4.25,4.25l4.25-4.25"/>
<text transform="matrix(1 0 0 1 1134.0586 207.2354)" style="&st8;"><tspan x="0" y="0" style="&st24; &st16;">23</tspan></text>
</g>
<g ewd:code="GH1" ewd:figID="623" ewd:figtype="w2w" ewd:pinNo="22">
<path style="&st9;" d="M1109.73,201.02h8.5"/>
<path style="&st9;" d="M1122.48,195.36l-4.25,4.25l-4.25-4.25"/>
<path style="&st9;" d="M1113.98,191.96l4.25,4.25l4.25-4.25"/>
<text transform="matrix(1 0 0 1 1100.0586 207.2354)" style="&st8;"><tspan x="0" y="0" style="&st24; &st16;">22</tspan></text>
</g>
<g ewd:code="GH1" ewd:figID="622" ewd:figtype="w2w" ewd:pinNo="21">
<path style="&st9;" d="M1058.74,201.02h8.5"/>
<path style="&st9;" d="M1071.49,195.36l-4.25,4.25l-4.25-4.25"/>
<path style="&st9;" d="M1062.99,191.96l4.25,4.25l4.25-4.25"/>
<text transform="matrix(1 0 0 1 1049.0703 207.2354)" style="&st8;"><tspan x="0" y="0" style="&st24; &st16;">21</tspan></text>
</g>
<g ewd:code="WG1" ewd:figID="621" ewd:figtype="w2w" ewd:pinNo="16">
<path style="&st9;" d="M1058.74,286.01h8.5"/>
<path style="&st9;" d="M1062.99,276.94l4.25,4.25l4.25-4.25"/>
<path style="&st9;" d="M1071.49,280.34l-4.25,4.25l-4.25-4.25"/>
<text transform="matrix(1 0 0 1 1049.0703 292.2256)" style="&st8;"><tspan x="0" y="0" style="&st24; &st16;">16</tspan></text>
</g>
<g ewd:code="WG2" ewd:figID="624" ewd:figtype="w2w" ewd:pinNo="2">
<path style="&st9;" d="M1109.73,286.01h8.5"/>
<path style="&st9;" d="M1113.98,276.94l4.25,4.25l4.25-4.25"/>
<path style="&st9;" d="M1122.48,280.34l-4.25,4.25l-4.25-4.25"/>
<text transform="matrix(1 0 0 1 1103.3955 292.2256)" style="&st8;"><tspan x="0" y="0" style="&st24; &st16;">2</tspan></text>
</g>
<g ewd:code="WG2" ewd:figID="626" ewd:figtype="w2w" ewd:pinNo="1">
<path style="&st9;" d="M1143.73,286.01h8.5"/>
<path style="&st9;" d="M1156.48,280.34l-4.25,4.25l-4.25-4.25"/>
<path style="&st9;" d="M1147.98,276.94l4.25,4.25l4.25-4.25"/>
<text transform="matrix(1 0 0 1 1137.3955 292.2256)" style="&st8;"><tspan x="0" y="0" style="&st24; &st16;">1</tspan></text>
</g>
<g ewd:code="WG2" ewd:figID="628" ewd:figtype="w2w" ewd:pinNo="12">
<path style="&st9;" d="M1177.72,286.01h8.5"/>
<path style="&st9;" d="M1190.47,280.34l-4.25,4.25l-4.25-4.25"/>
<path style="&st9;" d="M1181.97,276.94l4.25,4.25l4.25-4.25"/>
<text transform="matrix(1 0 0 1 1168.0488 292.2256)" style="&st8;"><tspan x="0" y="0" style="&st24; &st16;">12</tspan></text>
</g>
<g ewd:code="WG2" ewd:figID="630" ewd:figtype="w2w" ewd:pinNo="">
<path style="&st9;" d="M1211.72,286.01h8.5"/>
<path style="&st9;" d="M1224.46,280.34l-4.24,4.25l-4.25-4.25"/>
<path style="&st9;" d="M1215.97,276.94l4.25,4.25l4.24-4.25"/>
<text transform="matrix(1 0 0 1 1202.4941 292.2256)" style="&st8;"><tspan x="0" y="0" style="&st24; &st16;">11</tspan></text>
</g>
<g ewd:code="W7" ewd:figID="6" ewd:figtype="conn">
<path style="&st9;" d="M1050.24,362.5v84.98h161.48V362.5H1050.24"/>
<path style="&st14;" d="M1186.22,362.5v59.49"/>
<path style="&st14;" d="M1152.23,362.5v59.49"/>
<path style="&st14;" d="M1067.24,362.5v59.49"/>
<path style="&st14;" d="M1118.23,362.5v59.49"/>
<path style="&st9;" d="M1058.74,421.99v16.99h135.98v-16.99H1058.74"/>
<path style="&st9;" d="M1058.74,387.99v17h135.98v-17H1058.74"/>
<text transform="matrix(1 0 0 1 1142.2637 358.8057)" style="&st8;"><tspan x="0" y="0" style="&st24; &st16;">12</tspan></text>
<text ewd:textID="16" transform="matrix(1 0 0 1 1047.7227 462.1958)" style="&st8; &st24; &st16;">Map Light Assembly</text>
<text transform="matrix(1 0 0 1 1176.2539 358.8057)" style="&st8;"><tspan x="0" y="0" style="&st24; &st16;">13</tspan></text>
<text transform="matrix(1 0 0 1 1047.7227 455.0864)" style="&st8;"><tspan x="0" y="0" style="&st24; &st16;">W7</tspan></text>
<text transform="matrix(1 0 0 1 1109.043 358.8057)" style="&st8;"><tspan x="0" y="0" style="&st24; &st16;">11</tspan></text>
<text transform="matrix(1 0 0 1 1057.2734 358.8057)" style="&st8;"><tspan x="0" y="0" style="&st24; &st16;">14</tspan></text>
<text transform="matrix(1 0 0 1 1189.0527 370.686)" style="&st8;"><tspan x="0" y="0" style="&st24; &st16;">MCO-</tspan></text>
<text transform="matrix(1 0 0 1 1155.0625 370.686)" style="&st8;"><tspan x="0" y="0" style="&st24; &st16;">MCO+</tspan></text>
<text transform="matrix(1 0 0 1 1121.0742 370.686)" style="&st8;"><tspan x="0" y="0" style="&st24; &st16;">MACC</tspan></text>
<text transform="matrix(1 0 0 1 1070.0742 370.686)" style="&st8;"><tspan x="0" y="0" style="&st24; &st16;">SNS2</tspan></text>
<text ewd:textID="17" transform="matrix(1 0 0 1 1108.2227 432.4458)" style="&st8; &st24; &st16;">Microphone</text>
</g>
<g ewd:code="G40,z8" ewd:figID="19" ewd:figtype="conn">
<path style="&st14;" d="M1356.19,430.48v-24.93"/>
<path style="&st14;" d="M1305.2,430.48v-24.93"/>
<path style="&st14;" d="M1254.21,430.48v-24.93"/>
<path style="&st9;" d="M1228.71,430.48h280.46v-24.93h-280.46V430.48"/>
<path style="&st9;" d="M1360.73,401.02c0-2.5-2.03-4.53-4.54-4.53"/>
<path style="&st9;" d="M1356.19,396.49c-2.5,0-4.53,2.03-4.53,4.53"/>
<path style="&st9;" d="M1351.66,401.02c0,2.51,2.03,4.53,4.53,4.53"/>
<path style="&st9;" d="M1356.19,405.55c2.51,0,4.54-2.02,4.54-4.53"/>
<path style="&st9;" d="M1309.73,401.02c0-2.5-2.03-4.53-4.53-4.53"/>
<path style="&st9;" d="M1305.2,396.49c-2.5,0-4.53,2.03-4.53,4.53"/>
<path style="&st9;" d="M1300.67,401.02c0,2.51,2.03,4.53,4.53,4.53"/>
<path style="&st9;" d="M1305.2,405.55c2.5,0,4.53-2.02,4.53-4.53"/>
<path style="&st9;" d="M1258.74,401.02c0-2.5-2.03-4.53-4.53-4.53"/>
<path style="&st9;" d="M1254.21,396.49c-2.5,0-4.53,2.03-4.53,4.53"/>
<path style="&st9;" d="M1249.68,401.02c0,2.51,2.03,4.53,4.53,4.53"/>
<path style="&st9;" d="M1254.21,405.55c2.5,0,4.53-2.02,4.53-4.53"/>
<path style="&st9;" d="M1258.74,435.02c0-2.51-2.03-4.54-4.53-4.54"/>
<path style="&st9;" d="M1254.21,430.48c-2.5,0-4.53,2.03-4.53,4.54"/>
<path style="&st9;" d="M1249.68,435.02c0,2.5,2.03,4.53,4.53,4.53"/>
<path style="&st9;" d="M1254.21,439.55c2.5,0,4.53-2.03,4.53-4.53"/>
<path style="&st9;" d="M1309.73,435.02c0-2.51-2.03-4.54-4.53-4.54"/>
<path style="&st9;" d="M1305.2,430.48c-2.5,0-4.53,2.03-4.53,4.54"/>
<path style="&st9;" d="M1300.67,435.02c0,2.5,2.03,4.53,4.53,4.53"/>
<path style="&st9;" d="M1305.2,439.55c2.5,0,4.53-2.03,4.53-4.53"/>
<path style="&st9;" d="M1360.73,435.02c0-2.51-2.03-4.54-4.54-4.54"/>
<path style="&st9;" d="M1356.19,430.48c-2.5,0-4.53,2.03-4.53,4.54"/>
<path style="&st9;" d="M1351.66,435.02c0,2.5,2.03,4.53,4.53,4.53"/>
<path style="&st9;" d="M1356.19,439.55c2.51,0,4.54-2.03,4.54-4.53"/>
<text transform="matrix(1 0 0 1 1359.0332 413.7456)" style="&st8;"><tspan x="0" y="0" style="&st24; &st16;">AU2</tspan></text>
<text transform="matrix(1 0 0 1 1345.3242 402.9858)" style="&st8;"><tspan x="0" y="0" style="&st24; &st16;">5</tspan></text>
<text transform="matrix(1 0 0 1 1353.8633 402.9858)" style="&st8;"><tspan x="0" y="0" style="&st24; &st16;">A</tspan></text>
<text transform="matrix(1 0 0 1 1308.0332 413.7456)" style="&st8;"><tspan x="0" y="0" style="&st24; &st16;">EAU</tspan></text>
<text transform="matrix(1 0 0 1 1294.3242 402.9858)" style="&st8;"><tspan x="0" y="0" style="&st24; &st16;">4</tspan></text>
<text transform="matrix(1 0 0 1 1302.873 402.9858)" style="&st8;"><tspan x="0" y="0" style="&st24; &st16;">A</tspan></text>
<text transform="matrix(1 0 0 1 1257.043 413.7456)" style="&st8;"><tspan x="0" y="0" style="&st24; &st16;">AU1</tspan></text>
<text transform="matrix(1 0 0 1 1243.334 402.9858)" style="&st8;"><tspan x="0" y="0" style="&st24; &st16;">6</tspan></text>
<text transform="matrix(1 0 0 1 1251.8828 402.9858)" style="&st8;"><tspan x="0" y="0" style="&st24; &st16;">A</tspan></text>
<text transform="matrix(1 0 0 1 1240.1543 436.9849)" style="&st8;"><tspan x="0" y="0" style="&st24; &st16;">10</tspan></text>
<text transform="matrix(1 0 0 1 1251.7441 436.9849)" style="&st8;"><tspan x="0" y="0" style="&st24; &st16;">D</tspan></text>
<text transform="matrix(1 0 0 1 1294.3242 436.9849)" style="&st8;"><tspan x="0" y="0" style="&st24; &st16;">8</tspan></text>
<text transform="matrix(1 0 0 1 1302.7344 436.9849)" style="&st8;"><tspan x="0" y="0" style="&st24; &st16;">D</tspan></text>
<text transform="matrix(1 0 0 1 1345.3242 436.9849)" style="&st8;"><tspan x="0" y="0" style="&st24; &st16;">9</tspan></text>
<text transform="matrix(1 0 0 1 1353.7227 436.9849)" style="&st8;"><tspan x="0" y="0" style="&st24; &st16;">D</tspan></text>
<text ewd:textID="27" transform="matrix(1 0 0 1 1387.6641 401.856)" style="&st8; &st24; &st16;">Spiral Cable Sub-Assembly</text>
<text transform="matrix(1 0 0 1 1387.6641 394.7456)" style="&st8;"><tspan x="0" y="0" style="&st24; &st16;">G40(A),z8(D)</tspan></text>
</g>
<g ewd:code="z8" ewd:figID="18" ewd:figtype="conn">
<path style="&st30;" d="M1254.21,465.04v-25.49"/>
<path style="&st23;" d="M1305.2,439.55v25.49"/>
<path style="&st19;" d="M1305.2,439.55v25.49"/>
<path style="&st28;" d="M1356.19,465.04v-25.49"/>
<path style="&st9;" d="M1439.76,541.53l22.97-4.26"/>
<path style="&st14;" d="M1436.93,541.53h-12.75"/>
<path style="&st9;" d="M1439.76,575.53l22.97-4.27"/>
<path style="&st14;" d="M1436.93,575.53h-12.75"/>
<path style="&st9;" d="M1320.78,507.54l22.97-4.27"/>
<path style="&st9;" d="M1439.76,609.52l22.97-4.26"/>
<path style="&st14;" d="M1436.93,609.52h-12.75"/>
<path style="&st14;" d="M1266.96,507.54h-12.75"/>
<path style="&st14;" d="M1305.2,507.54h-12.75"/>
<path style="&st9;" d="M1269.79,507.54l22.97-4.27"/>
<path style="&st14;" d="M1266.96,541.53h-12.75"/>
<path style="&st14;" d="M1305.2,541.53h-12.75"/>
<path style="&st9;" d="M1269.79,541.53l22.97-4.26"/>
<path style="&st14;" d="M1266.96,575.53h-12.75"/>
<path style="&st14;" d="M1305.2,575.53h-12.75"/>
<path style="&st9;" d="M1269.79,575.53l22.97-4.27"/>
<path style="&st14;" d="M1266.96,609.52h-12.75"/>
<path style="&st9;" d="M1269.79,609.52l22.97-4.26"/>
<path style="&st14;" d="M1422.99,574.52l-0.27,0.47l-0.1,0.54l0.1,0.53l0.27,0.47l0.41,0.34l0.51,0.19h0.54l0.51-0.19l0.41-0.34l0.28-0.47l0.09-0.53l-0.09-0.54l-0.28-0.47l-0.41-0.34l-0.51-0.19h-0.54l-0.51,0.19L1422.99,574.52l0.39,0.71v0.59l0.38,0.44l0.57,0.1l0.5-0.29l0.2-0.54l-0.2-0.55l-0.5-0.29l-0.57,0.1l0.42,0.74"/>
<path style="&st14;" d="M1473.98,574.52l-0.27,0.47l-0.1,0.54l0.1,0.53l0.27,0.47l0.41,0.34l0.51,0.19h0.54l0.51-0.19l0.41-0.34l0.28-0.47l0.09-0.53l-0.09-0.54l-0.28-0.47l-0.41-0.34l-0.51-0.19h-0.54l-0.51,0.19L1473.98,574.52l0.39,0.71v0.59l0.38,0.44l0.57,0.1l0.5-0.29l0.2-0.54l-0.2-0.55l-0.5-0.29l-0.57,0.1l0.42,0.74"/>
<path style="&st14;" d="M1473.98,540.53l-0.27,0.47l-0.1,0.53l0.1,0.53l0.27,0.48l0.41,0.34l0.51,0.19h0.54l0.51-0.19l0.41-0.34l0.28-0.48l0.09-0.53l-0.09-0.53l-0.28-0.47l-0.41-0.35l-0.51-0.18h-0.54l-0.51,0.18L1473.98,540.53l0.39,0.71v0.58l0.38,0.45l0.57,0.1l0.5-0.29l0.2-0.55l-0.2-0.54l-0.5-0.29l-0.57,0.1l0.42,0.73"/>
<path style="&st14;" d="M1422.99,540.53l-0.27,0.47l-0.1,0.53l0.1,0.53l0.27,0.48l0.41,0.34l0.51,0.19h0.54l0.51-0.19l0.41-0.34l0.28-0.48l0.09-0.53l-0.09-0.53l-0.28-0.47l-0.41-0.35l-0.51-0.18h-0.54l-0.51,0.18L1422.99,540.53l0.39,0.71v0.58l0.38,0.45l0.57,0.1l0.5-0.29l0.2-0.55l-0.2-0.54l-0.5-0.29l-0.57,0.1l0.42,0.73"/>
<path style="&st14;" d="M1475.17,541.53h-12.75"/>
<path style="&st14;" d="M1475.17,575.53h-12.75"/>
<path style="&st14;" d="M1253.02,481.04l-0.28,0.47l-0.09,0.53l0.09,0.53l0.28,0.47l0.41,0.35l0.51,0.19h0.54l0.51-0.19l0.41-0.35l0.27-0.47l0.1-0.53l-0.1-0.53l-0.27-0.47l-0.41-0.35l-0.51-0.18h-0.54l-0.51,0.18L1253.02,481.04l0.39,0.71v0.58l0.37,0.45l0.58,0.1l0.5-0.29l0.2-0.55l-0.2-0.54l-0.5-0.29l-0.58,0.1l0.43,0.73"/>
<path style="&st14;" d="M1355,481.04l-0.27,0.47l-0.1,0.53l0.1,0.53l0.27,0.47l0.41,0.35l0.51,0.19h0.54l0.51-0.19l0.41-0.35l0.28-0.47l0.09-0.53l-0.09-0.53l-0.28-0.47l-0.41-0.35l-0.51-0.18h-0.54l-0.51,0.18L1355,481.04l0.39,0.71v0.58l0.38,0.45l0.57,0.1l0.5-0.29l0.2-0.55l-0.2-0.54l-0.5-0.29l-0.57,0.1l0.42,0.73"/>
<path style="&st14;" d="M1304.01,506.54l-0.27,0.47l-0.1,0.53l0.1,0.53l0.27,0.47l0.41,0.35l0.51,0.18h0.54l0.51-0.18l0.41-0.35l0.28-0.47l0.09-0.53l-0.09-0.53l-0.28-0.47l-0.41-0.35l-0.51-0.19h-0.54l-0.51,0.19L1304.01,506.54l0.39,0.71v0.58l0.38,0.44l0.57,0.1l0.5-0.29l0.2-0.54l-0.2-0.55l-0.5-0.29l-0.57,0.1l0.42,0.74"/>
<path style="&st14;" d="M1304.01,540.53l-0.27,0.47l-0.1,0.53l0.1,0.53l0.27,0.48l0.41,0.34l0.51,0.19h0.54l0.51-0.19l0.41-0.34l0.28-0.48l0.09-0.53l-0.09-0.53l-0.28-0.47l-0.41-0.35l-0.51-0.18h-0.54l-0.51,0.18L1304.01,540.53l0.39,0.71v0.58l0.38,0.45l0.57,0.1l0.5-0.29l0.2-0.55l-0.2-0.54l-0.5-0.29l-0.57,0.1l0.42,0.73"/>
<path style="&st14;" d="M1304.01,574.52l-0.27,0.47l-0.1,0.54l0.1,0.53l0.27,0.47l0.41,0.34l0.51,0.19h0.54l0.51-0.19l0.41-0.34l0.28-0.47l0.09-0.53l-0.09-0.54l-0.28-0.47l-0.41-0.34l-0.51-0.19h-0.54l-0.51,0.19L1304.01,574.52l0.39,0.71v0.59l0.38,0.44l0.57,0.1l0.5-0.29l0.2-0.54l-0.2-0.55l-0.5-0.29l-0.57,0.1l0.42,0.74"/>
<path style="&st14;" d="M1304.01,481.04l-0.27,0.47l-0.1,0.53l0.1,0.53l0.27,0.47l0.41,0.35l0.51,0.19h0.54l0.51-0.19l0.41-0.35l0.28-0.47l0.09-0.53l-0.09-0.53l-0.28-0.47l-0.41-0.35l-0.51-0.18h-0.54l-0.51,0.18L1304.01,481.04l0.39,0.71v0.58l0.38,0.45l0.57,0.1l0.5-0.29l0.2-0.55l-0.2-0.54l-0.5-0.29l-0.57,0.1l0.42,0.73"/>
<path style="&st14;" d="M1390.19,482.04h16.99"/>
<path style="&st14;" d="M1407.18,482.04h17"/>
<path style="&st9;" d="M1407.18,465.04v152.98h84.99V465.04H1407.18"/>
<path style="&st9;" d="M1237.21,465.04v152.98h152.98V465.04H1237.21"/>
<path style="&st14;" d="M1356.19,482.04h34"/>
<path style="&st14;" d="M1475.17,609.52h-12.75"/>
<path style="&st14;" d="M1475.17,609.52V473.54h-101.98v135.98h-67.99"/>
<path style="&st14;" d="M1424.18,609.52v-8.5l-2.83-1.41l5.66-2.84l-5.66-2.83l5.66-2.83l-5.66-2.84l5.66-2.83l-2.83-1.41v-8.5"/>
<path style="&st14;" d="M1424.18,575.53v-8.5l-2.83-1.42l5.66-2.83l-5.66-2.83l5.66-2.84l-5.66-2.83l5.66-2.83l-2.83-1.42v-8.5"/>
<path style="&st14;" d="M1424.18,541.53v-8.5l-2.83-1.41l5.66-2.84l-5.66-2.83l5.66-2.83l-5.66-2.83l5.66-2.84l-2.83-1.41v-34"/>
<path style="&st14;" d="M1356.19,507.54v-25.5"/>
<path style="&st14;" d="M1347.69,482.04h8.5"/>
<path style="&st14;" d="M1356.19,507.54h-12.75"/>
<path style="&st14;" d="M1262.71,482.04h8.5l1.41-2.83l2.84,5.67l2.83-5.67l2.83,5.67l2.83-5.67l2.84,5.67l1.41-2.84h8.5"/>
<path style="&st14;" d="M1317.95,507.54h-12.75"/>
<path style="&st14;" d="M1296.7,482.04h17"/>
<path style="&st14;" d="M1305.2,609.52h-12.75"/>
<path style="&st14;" d="M1313.7,482.04h8.5l1.41-2.83l2.84,5.67l2.83-5.67l2.83,5.67l2.84-5.67l2.83,5.67l1.42-2.84h8.49"/>
<path style="&st14;" d="M1254.21,609.52v-8.5l-2.83-1.41l5.66-2.84l-5.66-2.83l5.66-2.83l-5.66-2.84l5.66-2.83l-2.83-1.41v-8.5"/>
<path style="&st14;" d="M1254.21,575.53v-8.5l-2.83-1.42l5.66-2.83l-5.66-2.83l5.66-2.84l-5.66-2.83l5.66-2.83l-2.83-1.42v-8.5"/>
<path style="&st14;" d="M1254.21,541.53v-8.5l-2.83-1.41l5.66-2.84l-5.66-2.83l5.66-2.83l-5.66-2.83l5.66-2.84l-2.83-1.41v-51"/>
<path style="&st14;" d="M1253.02,540.53l-0.28,0.47l-0.09,0.53l0.09,0.53l0.28,0.48l0.41,0.34l0.51,0.19h0.54l0.51-0.19l0.41-0.34l0.27-0.48l0.1-0.53l-0.1-0.53l-0.27-0.47l-0.41-0.35l-0.51-0.18h-0.54l-0.51,0.18L1253.02,540.53l0.39,0.71v0.58l0.37,0.45l0.58,0.1l0.5-0.29l0.2-0.55l-0.2-0.54l-0.5-0.29l-0.58,0.1l0.43,0.73"/>
<path style="&st14;" d="M1253.02,574.52l-0.28,0.47l-0.09,0.54l0.09,0.53l0.28,0.47l0.41,0.34l0.51,0.19h0.54l0.51-0.19l0.41-0.34l0.27-0.47l0.1-0.53l-0.1-0.54l-0.27-0.47l-0.41-0.34l-0.51-0.19h-0.54l-0.51,0.19L1253.02,574.52l0.39,0.71v0.59l0.37,0.44l0.58,0.1l0.5-0.29l0.2-0.54l-0.2-0.55l-0.5-0.29l-0.58,0.1l0.43,0.74"/>
<path style="&st14;" d="M1253.02,506.54l-0.28,0.47l-0.09,0.53l0.09,0.53l0.28,0.47l0.41,0.35l0.51,0.18h0.54l0.51-0.18l0.41-0.35l0.27-0.47l0.1-0.53l-0.1-0.53l-0.27-0.47l-0.41-0.35l-0.51-0.19h-0.54l-0.51,0.19L1253.02,506.54l0.39,0.71v0.58l0.37,0.44l0.58,0.1l0.5-0.29l0.2-0.54l-0.2-0.55l-0.5-0.29l-0.58,0.1l0.43,0.74"/>
<path style="&st14;" d="M1254.21,482.04h8.5"/>
<path style="&st14;" d="M1304.01,608.52l-0.27,0.47l-0.1,0.53l0.1,0.53l0.27,0.47l0.41,0.35l0.51,0.19h0.54l0.51-0.19l0.41-0.35l0.28-0.47l0.09-0.53l-0.09-0.53l-0.28-0.47l-0.41-0.35l-0.51-0.18h-0.54l-0.51,0.18L1304.01,608.52l0.39,0.71v0.58l0.38,0.45l0.57,0.1l0.5-0.29l0.2-0.55l-0.2-0.55l-0.5-0.28l-0.57,0.09l0.42,0.74"/>
<path style="&st9;" d="M1228.71,626.52h280.46V439.55h-280.46V626.52"/>
<path style="&st14;" d="M1305.2,465.04v144.48"/>
<path style="&st14;" d="M1356.19,482.04v-17"/>
<path style="&st14;" d="M1439.76,541.53c0-0.78-0.63-1.41-1.41-1.41"/>
<path style="&st14;" d="M1438.35,540.12c-0.79,0-1.42,0.63-1.42,1.41"/>
<path style="&st14;" d="M1436.93,541.53c0,0.78,0.63,1.42,1.42,1.42"/>
<path style="&st14;" d="M1438.35,542.95c0.78,0,1.41-0.64,1.41-1.42"/>
<path style="&st14;" d="M1462.43,541.53c0-0.78-0.64-1.41-1.42-1.41"/>
<path style="&st14;" d="M1461.01,540.12c-0.78,0-1.42,0.63-1.42,1.41"/>
<path style="&st14;" d="M1459.59,541.53c0,0.78,0.64,1.42,1.42,1.42"/>
<path style="&st14;" d="M1461.01,542.95c0.78,0,1.42-0.64,1.42-1.42"/>
<path style="&st14;" d="M1439.76,575.53c0-0.79-0.63-1.42-1.41-1.42"/>
<path style="&st14;" d="M1438.35,574.11c-0.79,0-1.42,0.63-1.42,1.42"/>
<path style="&st14;" d="M1436.93,575.53c0,0.78,0.63,1.41,1.42,1.41"/>
<path style="&st14;" d="M1438.35,576.94c0.78,0,1.41-0.63,1.41-1.41"/>
<path style="&st14;" d="M1462.43,575.53c0-0.79-0.64-1.42-1.42-1.42"/>
<path style="&st14;" d="M1461.01,574.11c-0.78,0-1.42,0.63-1.42,1.42"/>
<path style="&st14;" d="M1459.59,575.53c0,0.78,0.64,1.41,1.42,1.41"/>
<path style="&st14;" d="M1461.01,576.94c0.78,0,1.42-0.63,1.42-1.41"/>
<path style="&st14;" d="M1439.76,609.52c0-0.78-0.63-1.42-1.41-1.42"/>
<path style="&st14;" d="M1438.35,608.1c-0.79,0-1.42,0.64-1.42,1.42"/>
<path style="&st14;" d="M1436.93,609.52c0,0.78,0.63,1.42,1.42,1.42"/>
<path style="&st14;" d="M1438.35,610.94c0.78,0,1.41-0.64,1.41-1.42"/>
<path style="&st14;" d="M1462.43,609.52c0-0.78-0.64-1.42-1.42-1.42"/>
<path style="&st14;" d="M1461.01,608.1c-0.78,0-1.42,0.64-1.42,1.42"/>
<path style="&st14;" d="M1459.59,609.52c0,0.78,0.64,1.42,1.42,1.42"/>
<path style="&st14;" d="M1461.01,610.94c0.78,0,1.42-0.64,1.42-1.42"/>
<path style="&st14;" d="M1343.44,507.54c0-0.78-0.63-1.42-1.41-1.42"/>
<path style="&st14;" d="M1342.03,506.12c-0.78,0-1.42,0.64-1.42,1.42"/>
<path style="&st14;" d="M1340.61,507.54c0,0.78,0.64,1.41,1.42,1.41"/>
<path style="&st14;" d="M1342.03,508.95c0.78,0,1.41-0.63,1.41-1.41"/>
<path style="&st14;" d="M1320.78,507.54c0-0.78-0.63-1.42-1.41-1.42"/>
<path style="&st14;" d="M1319.37,506.12c-0.79,0-1.42,0.64-1.42,1.42"/>
<path style="&st14;" d="M1317.95,507.54c0,0.78,0.63,1.41,1.42,1.41"/>
<path style="&st14;" d="M1319.37,508.95c0.78,0,1.41-0.63,1.41-1.41"/>
<path style="&st14;" d="M1269.79,609.52c0-0.78-0.63-1.42-1.42-1.42"/>
<path style="&st14;" d="M1268.37,608.1c-0.78,0-1.41,0.64-1.41,1.42"/>
<path style="&st14;" d="M1266.96,609.52c0,0.78,0.63,1.42,1.41,1.42"/>
<path style="&st14;" d="M1268.37,610.94c0.79,0,1.42-0.64,1.42-1.42"/>
<path style="&st14;" d="M1292.45,609.52c0-0.78-0.63-1.42-1.41-1.42"/>
<path style="&st14;" d="M1291.04,608.1c-0.79,0-1.42,0.64-1.42,1.42"/>
<path style="&st14;" d="M1289.62,609.52c0,0.78,0.63,1.42,1.42,1.42"/>
<path style="&st14;" d="M1291.04,610.94c0.78,0,1.41-0.64,1.41-1.42"/>
<path style="&st14;" d="M1292.45,575.53c0-0.79-0.63-1.42-1.41-1.42"/>
<path style="&st14;" d="M1291.04,574.11c-0.79,0-1.42,0.63-1.42,1.42"/>
<path style="&st14;" d="M1289.62,575.53c0,0.78,0.63,1.41,1.42,1.41"/>
<path style="&st14;" d="M1291.04,576.94c0.78,0,1.41-0.63,1.41-1.41"/>
<path style="&st14;" d="M1269.79,575.53c0-0.79-0.63-1.42-1.42-1.42"/>
<path style="&st14;" d="M1268.37,574.11c-0.78,0-1.41,0.63-1.41,1.42"/>
<path style="&st14;" d="M1266.96,575.53c0,0.78,0.63,1.41,1.41,1.41"/>
<path style="&st14;" d="M1268.37,576.94c0.79,0,1.42-0.63,1.42-1.41"/>
<path style="&st14;" d="M1292.45,541.53c0-0.78-0.63-1.41-1.41-1.41"/>
<path style="&st14;" d="M1291.04,540.12c-0.79,0-1.42,0.63-1.42,1.41"/>
<path style="&st14;" d="M1289.62,541.53c0,0.78,0.63,1.42,1.42,1.42"/>
<path style="&st14;" d="M1291.04,542.95c0.78,0,1.41-0.64,1.41-1.42"/>
<path style="&st14;" d="M1269.79,541.53c0-0.78-0.63-1.41-1.42-1.41"/>
<path style="&st14;" d="M1268.37,540.12c-0.78,0-1.41,0.63-1.41,1.41"/>
<path style="&st14;" d="M1266.96,541.53c0,0.78,0.63,1.42,1.41,1.42"/>
<path style="&st14;" d="M1268.37,542.95c0.79,0,1.42-0.64,1.42-1.42"/>
<path style="&st14;" d="M1292.45,507.54c0-0.78-0.63-1.42-1.41-1.42"/>
<path style="&st14;" d="M1291.04,506.12c-0.79,0-1.42,0.64-1.42,1.42"/>
<path style="&st14;" d="M1289.62,507.54c0,0.78,0.63,1.41,1.42,1.41"/>
<path style="&st14;" d="M1291.04,508.95c0.78,0,1.41-0.63,1.41-1.41"/>
<path style="&st14;" d="M1269.79,507.54c0-0.78-0.63-1.42-1.42-1.42"/>
<path style="&st14;" d="M1268.37,506.12c-0.78,0-1.41,0.64-1.41,1.42"/>
<path style="&st14;" d="M1266.96,507.54c0,0.78,0.63,1.41,1.41,1.41"/>
<path style="&st14;" d="M1268.37,508.95c0.79,0,1.42-0.63,1.42-1.41"/>
<text transform="matrix(1 0 0 1 1243.1934 634.1255)" style="&st8;"><tspan x="0" y="0" style="&st24; &st16;">z8(D)</tspan></text>
<text ewd:textID="21" transform="matrix(1 0 0 1 1435.584 533.5864)" style="&st8; &st24; &st16;">On Hook</text>
<text ewd:textID="20" transform="matrix(1 0 0 1 1435.584 567.5747)" style="&st8; &st24; &st16;">Off Hook</text>
<text ewd:textID="30" transform="matrix(0 -1 1 0 1400.6641 587.8247)" style="&st8; &st24; &st16;">Steering Pad Switch LH</text>
<text ewd:textID="31" transform="matrix(0 -1 1 0 1502.6543 588.3149)" style="&st8; &st24; &st16;">Steering Pad Switch RH</text>
<text ewd:textID="32" transform="matrix(1 0 0 1 1440.8535 601.5649)" style="&st8; &st24; &st16;">Voice</text>
<text transform="matrix(1 0 0 1 1320.2441 499.5864)" style="&st8;"><tspan x="0" y="0" style="&st24; &st16;">MODE</tspan></text>
<text ewd:textID="26" transform="matrix(1 0 0 1 1269.6426 499.5864)" style="&st8; &st24; &st16;">Seek+</text>
<text ewd:textID="33" transform="matrix(1 0 0 1 1265.7539 601.5649)" style="&st8; &st24; &st16;">Volume-</text>
<text ewd:textID="34" transform="matrix(1 0 0 1 1265.7539 567.5747)" style="&st8; &st24; &st16;">Volume+</text>
<text ewd:textID="25" transform="matrix(1 0 0 1 1269.6426 533.5864)" style="&st8; &st24; &st16;">Seek-</text>
<text transform="matrix(0 -1 1 0 1250.5137 457.0962)" style="&st8;"><tspan x="0" y="0" style="&st24; &st16;">BR</tspan></text>
<text transform="matrix(0 -1 1 0 1301.5137 455.645)" style="&st8;"><tspan x="0" y="0" style="&st24; &st16;">W</tspan></text>
<text transform="matrix(0 -1 1 0 1352.5039 457.5161)" style="&st8;"><tspan x="0" y="0" style="&st24; &st16;">GR</tspan></text>
<text ewd:textID="29" transform="matrix(1 0 0 1 1243.1934 641.2349)" style="&st8; &st24; &st16;">Steering Pad Switch Assembly</text>
</g>
<g ewd:code="H33-C,H40" ewd:figID="7" ewd:figtype="conn">
<path style="&st9;" d="M1347.69,243.52v-34h416.43v34H1347.69"/>
<path style="&st9;" d="M1751.66,248.05c0-2.51-2.03-4.53-4.53-4.53"/>
<path style="&st9;" d="M1747.13,243.52c-2.51,0-4.54,2.02-4.54,4.53"/>
<path style="&st9;" d="M1742.59,248.05c0,2.5,2.03,4.53,4.54,4.53"/>
<path style="&st9;" d="M1747.13,252.58c2.5,0,4.53-2.03,4.53-4.53"/>
<path style="&st9;" d="M1717.67,248.05c0-2.51-2.03-4.53-4.54-4.53"/>
<path style="&st9;" d="M1713.13,243.52c-2.5,0-4.53,2.02-4.53,4.53"/>
<path style="&st9;" d="M1708.6,248.05c0,2.5,2.03,4.53,4.53,4.53"/>
<path style="&st9;" d="M1713.13,252.58c2.51,0,4.54-2.03,4.54-4.53"/>
<path style="&st9;" d="M1683.67,248.05c0-2.51-2.03-4.53-4.53-4.53"/>
<path style="&st9;" d="M1679.14,243.52c-2.5,0-4.53,2.02-4.53,4.53"/>
<path style="&st9;" d="M1674.61,248.05c0,2.5,2.03,4.53,4.53,4.53"/>
<path style="&st9;" d="M1679.14,252.58c2.5,0,4.53-2.03,4.53-4.53"/>
<path style="&st9;" d="M1649.68,248.05c0-2.51-2.03-4.53-4.54-4.53"/>
<path style="&st9;" d="M1645.14,243.52c-2.5,0-4.53,2.02-4.53,4.53"/>
<path style="&st9;" d="M1640.61,248.05c0,2.5,2.03,4.53,4.53,4.53"/>
<path style="&st9;" d="M1645.14,252.58c2.51,0,4.54-2.03,4.54-4.53"/>
<path style="&st9;" d="M1751.66,204.99c0-2.5-2.03-4.53-4.53-4.53"/>
<path style="&st9;" d="M1747.13,200.46c-2.51,0-4.54,2.03-4.54,4.53"/>
<path style="&st9;" d="M1742.59,204.99c0,2.5,2.03,4.53,4.54,4.53"/>
<path style="&st9;" d="M1747.13,209.52c2.5,0,4.53-2.03,4.53-4.53"/>
<path style="&st9;" d="M1717.67,204.99c0-2.5-2.03-4.53-4.54-4.53"/>
<path style="&st9;" d="M1713.13,200.46c-2.5,0-4.53,2.03-4.53,4.53"/>
<path style="&st9;" d="M1708.6,204.99c0,2.5,2.03,4.53,4.53,4.53"/>
<path style="&st9;" d="M1713.13,209.52c2.51,0,4.54-2.03,4.54-4.53"/>
<path style="&st9;" d="M1683.67,204.99c0-2.5-2.03-4.53-4.53-4.53"/>
<path style="&st9;" d="M1679.14,200.46c-2.5,0-4.53,2.03-4.53,4.53"/>
<path style="&st9;" d="M1674.61,204.99c0,2.5,2.03,4.53,4.53,4.53"/>
<path style="&st9;" d="M1679.14,209.52c2.5,0,4.53-2.03,4.53-4.53"/>
<path style="&st9;" d="M1649.68,204.99c0-2.5-2.03-4.53-4.54-4.53"/>
<path style="&st9;" d="M1645.14,200.46c-2.5,0-4.53,2.03-4.53,4.53"/>
<path style="&st9;" d="M1640.61,204.99c0,2.5,2.03,4.53,4.53,4.53"/>
<path style="&st9;" d="M1645.14,209.52c2.51,0,4.54-2.03,4.54-4.53"/>
<path style="&st9;" d="M1615.68,204.99c0-2.5-2.03-4.53-4.53-4.53"/>
<path style="&st9;" d="M1611.15,200.46c-2.5,0-4.53,2.03-4.53,4.53"/>
<path style="&st9;" d="M1606.62,204.99c0,2.5,2.03,4.53,4.53,4.53"/>
<path style="&st9;" d="M1611.15,209.52c2.5,0,4.53-2.03,4.53-4.53"/>
<path style="&st9;" d="M1539.2,204.99c0-2.5-2.03-4.53-4.54-4.53"/>
<path style="&st9;" d="M1534.66,200.46c-2.5,0-4.53,2.03-4.53,4.53"/>
<path style="&st9;" d="M1530.13,204.99c0,2.5,2.03,4.53,4.53,4.53"/>
<path style="&st9;" d="M1534.66,209.52c2.51,0,4.54-2.03,4.54-4.53"/>
<path style="&st9;" d="M1505.2,204.99c0-2.5-2.03-4.53-4.53-4.53"/>
<path style="&st9;" d="M1500.67,200.46c-2.5,0-4.53,2.03-4.53,4.53"/>
<path style="&st9;" d="M1496.14,204.99c0,2.5,2.03,4.53,4.53,4.53"/>
<path style="&st9;" d="M1500.67,209.52c2.5,0,4.53-2.03,4.53-4.53"/>
<path style="&st9;" d="M1471.21,204.99c0-2.5-2.03-4.53-4.54-4.53"/>
<path style="&st9;" d="M1466.67,200.46c-2.5,0-4.53,2.03-4.53,4.53"/>
<path style="&st9;" d="M1462.14,204.99c0,2.5,2.03,4.53,4.53,4.53"/>
<path style="&st9;" d="M1466.67,209.52c2.51,0,4.54-2.03,4.54-4.53"/>
<path style="&st9;" d="M1437.21,204.99c0-2.5-2.03-4.53-4.53-4.53"/>
<path style="&st9;" d="M1432.68,200.46c-2.5,0-4.53,2.03-4.53,4.53"/>
<path style="&st9;" d="M1428.15,204.99c0,2.5,2.03,4.53,4.53,4.53"/>
<path style="&st9;" d="M1432.68,209.52c2.5,0,4.53-2.03,4.53-4.53"/>
<path style="&st9;" d="M1403.22,204.99c0-2.5-2.03-4.53-4.53-4.53"/>
<path style="&st9;" d="M1398.69,200.46c-2.51,0-4.54,2.03-4.54,4.53"/>
<path style="&st9;" d="M1394.15,204.99c0,2.5,2.03,4.53,4.54,4.53"/>
<path style="&st9;" d="M1398.69,209.52c2.5,0,4.53-2.03,4.53-4.53"/>
<path style="&st9;" d="M1369.22,204.99c0-2.5-2.03-4.53-4.53-4.53"/>
<path style="&st9;" d="M1364.69,200.46c-2.5,0-4.53,2.03-4.53,4.53"/>
<path style="&st9;" d="M1360.16,204.99c0,2.5,2.03,4.53,4.53,4.53"/>
<path style="&st9;" d="M1364.69,209.52c2.5,0,4.53-2.03,4.53-4.53"/>
<text transform="matrix(1 0 0 1 1710.6641 250.0156)" style="&st8;"><tspan x="0" y="0" style="&st24; &st16;">D</tspan></text>
<text transform="matrix(1 0 0 1 1702.2637 250.0156)" style="&st8;"><tspan x="0" y="0" style="&st24; &st16;">3</tspan></text>
<text transform="matrix(1 0 0 1 1744.6543 250.0156)" style="&st8;"><tspan x="0" y="0" style="&st24; &st16;">D</tspan></text>
<text transform="matrix(1 0 0 1 1736.2539 250.0156)" style="&st8;"><tspan x="0" y="0" style="&st24; &st16;">4</tspan></text>
<text transform="matrix(1 0 0 1 1676.6738 250.0156)" style="&st8;"><tspan x="0" y="0" style="&st24; &st16;">D</tspan></text>
<text transform="matrix(1 0 0 1 1668.2637 250.0156)" style="&st8;"><tspan x="0" y="0" style="&st24; &st16;">2</tspan></text>
<text transform="matrix(1 0 0 1 1642.6738 250.0156)" style="&st8;"><tspan x="0" y="0" style="&st24; &st16;">D</tspan></text>
<text transform="matrix(1 0 0 1 1635.043 250.0156)" style="&st8;"><tspan x="0" y="0" style="&st24; &st16;">1</tspan></text>
<text transform="matrix(1 0 0 1 1738.2637 217.1558)" style="&st8;"><tspan x="0" y="0" style="&st24; &st16;">USD1</tspan></text>
<text transform="matrix(1 0 0 1 1703.4238 217.1558)" style="&st8;"><tspan x="0" y="0" style="&st24; &st16;">URO+</tspan></text>
<text transform="matrix(1 0 0 1 1669.4336 217.1558)" style="&st8;"><tspan x="0" y="0" style="&st24; &st16;">URO-</tspan></text>
<text transform="matrix(1 0 0 1 1635.9336 217.1558)" style="&st8;"><tspan x="0" y="0" style="&st24; &st16;">ULO+</tspan></text>
<text transform="matrix(1 0 0 1 1601.9336 217.1558)" style="&st8;"><tspan x="0" y="0" style="&st24; &st16;">ULO-</tspan></text>
<text transform="matrix(1 0 0 1 1526.6133 217.1558)" style="&st8;"><tspan x="0" y="0" style="&st24; &st16;">TX1+</tspan></text>
<text transform="matrix(1 0 0 1 1492.623 217.1558)" style="&st8;"><tspan x="0" y="0" style="&st24; &st16;">TX1-</tspan></text>
<text transform="matrix(1 0 0 1 1457.6035 217.1558)" style="&st8;"><tspan x="0" y="0" style="&st24; &st16;">MUT1</tspan></text>
<text transform="matrix(1 0 0 1 1425.4043 217.1558)" style="&st8;"><tspan x="0" y="0" style="&st24; &st16;">ACC</tspan></text>
<text transform="matrix(1 0 0 1 1394.3438 217.1558)" style="&st8;"><tspan x="0" y="0" style="&st24; &st16;">+B</tspan></text>
<text transform="matrix(1 0 0 1 1356.9941 217.1558)" style="&st8;"><tspan x="0" y="0" style="&st24; &st16;">GND</tspan></text>
<text transform="matrix(1 0 0 1 1744.6543 206.9556)" style="&st8;"><tspan x="0" y="0" style="&st24; &st16;">C</tspan></text>
<text transform="matrix(1 0 0 1 1737.0332 206.9556)" style="&st8;"><tspan x="0" y="0" style="&st24; &st16;">1</tspan></text>
<text transform="matrix(1 0 0 1 1710.6641 206.9556)" style="&st8;"><tspan x="0" y="0" style="&st24; &st16;">C</tspan></text>
<text transform="matrix(1 0 0 1 1702.2637 206.9556)" style="&st8;"><tspan x="0" y="0" style="&st24; &st16;">2</tspan></text>
<text transform="matrix(1 0 0 1 1676.6738 206.9556)" style="&st8;"><tspan x="0" y="0" style="&st24; &st16;">C</tspan></text>
<text transform="matrix(1 0 0 1 1668.2637 206.9556)" style="&st8;"><tspan x="0" y="0" style="&st24; &st16;">3</tspan></text>
<text transform="matrix(1 0 0 1 1642.6738 206.9556)" style="&st8;"><tspan x="0" y="0" style="&st24; &st16;">C</tspan></text>
<text transform="matrix(1 0 0 1 1634.2734 206.9556)" style="&st8;"><tspan x="0" y="0" style="&st24; &st16;">4</tspan></text>
<text transform="matrix(1 0 0 1 1608.6836 206.9556)" style="&st8;"><tspan x="0" y="0" style="&st24; &st16;">C</tspan></text>
<text transform="matrix(1 0 0 1 1600.2734 206.9556)" style="&st8;"><tspan x="0" y="0" style="&st24; &st16;">5</tspan></text>
<text transform="matrix(1 0 0 1 1532.1934 206.9556)" style="&st8;"><tspan x="0" y="0" style="&st24; &st16;">C</tspan></text>
<text transform="matrix(1 0 0 1 1523.793 206.9556)" style="&st8;"><tspan x="0" y="0" style="&st24; &st16;">9</tspan></text>
<text transform="matrix(1 0 0 1 1498.2031 206.9556)" style="&st8;"><tspan x="0" y="0" style="&st24; &st16;">C</tspan></text>
<text transform="matrix(1 0 0 1 1486.6133 206.9556)" style="&st8;"><tspan x="0" y="0" style="&st24; &st16;">10</tspan></text>
<text transform="matrix(1 0 0 1 1464.2031 206.9556)" style="&st8;"><tspan x="0" y="0" style="&st24; &st16;">C</tspan></text>
<text transform="matrix(1 0 0 1 1455.8027 206.9556)" style="&st8;"><tspan x="0" y="0" style="&st24; &st16;">6</tspan></text>
<text transform="matrix(1 0 0 1 1430.2129 206.9556)" style="&st8;"><tspan x="0" y="0" style="&st24; &st16;">C</tspan></text>
<text transform="matrix(1 0 0 1 1419.4043 206.9556)" style="&st8;"><tspan x="0" y="0" style="&st24; &st16;">11</tspan></text>
<text transform="matrix(1 0 0 1 1396.2129 206.9556)" style="&st8;"><tspan x="0" y="0" style="&st24; &st16;">C</tspan></text>
<text transform="matrix(1 0 0 1 1384.6328 206.9556)" style="&st8;"><tspan x="0" y="0" style="&st24; &st16;">12</tspan></text>
<text transform="matrix(1 0 0 1 1362.2227 206.9556)" style="&st8;"><tspan x="0" y="0" style="&st24; &st16;">C</tspan></text>
<text transform="matrix(1 0 0 1 1353.8125 206.9556)" style="&st8;"><tspan x="0" y="0" style="&st24; &st16;">7</tspan></text>
<text ewd:textID="18" transform="matrix(1 0 0 1 1370.6738 258.2256)" style="&st8; &st24; &st16;">Multi-Media Interface ECU</text>
<text transform="matrix(1 0 0 1 1370.6738 251.1255)" style="&st8;"><tspan x="0" y="0" style="&st24; &st16;">H33(C),H40(D)</tspan></text>
<text ewd:textID="18" transform="matrix(1 0 0 1 1574.6328 258.2256)" style="&st8; &st24; &st16;">Multi-Media <tspan x="0" y="7">Interface ECU</tspan></text>
<text transform="matrix(1 0 0 1 1574.6328 251.1255)" style="&st8;"><tspan x="0" y="0" style="&st24; &st16;">H33(C),H40(D)</tspan></text>
</g>
<text transform="matrix(0 -1 1 0 1114.543 169.4956)" style="&st8;"><tspan x="0" y="0" style="&st24; &st16;">R</tspan></text>
<text transform="matrix(0 -1 1 0 1114.543 330.8257)" style="&st8;"><tspan x="0" y="0" style="&st24; &st16;">B</tspan></text>
<text transform="matrix(0 -1 1 0 1182.5332 330.9658)" style="&st8;"><tspan x="0" y="0" style="&st24; &st16;">R</tspan></text>
<text transform="matrix(0 -1 1 0 1148.5332 331.8555)" style="&st8;"><tspan x="0" y="0" style="&st24; &st16;">W</tspan></text>
<text transform="matrix(0 -1 1 0 1114.543 245.9854)" style="&st8;"><tspan x="0" y="0" style="&st24; &st16;">R</tspan></text>
<text transform="matrix(0 -1 1 0 1182.5332 246.8657)" style="&st8;"><tspan x="0" y="0" style="&st24; &st16;">W</tspan></text>
<text transform="matrix(0 -1 1 0 1148.5332 245.8457)" style="&st8;"><tspan x="0" y="0" style="&st24; &st16;">B</tspan></text>
<text ewd:textID="2" transform="matrix(0 -1 1 0 1089.043 183.0254)" style="&st8; &st24; &st16;">(Shielded)</text>
<text transform="matrix(0 -1 1 0 1148.5332 169.3555)" style="&st8;"><tspan x="0" y="0" style="&st24; &st16;">B</tspan></text>
<text transform="matrix(0 -1 1 0 1182.5332 170.3755)" style="&st8;"><tspan x="0" y="0" style="&st24; &st16;">W</tspan></text>
<text transform="matrix(0 -1 1 0 1063.5527 330.9658)" style="&st8;"><tspan x="0" y="0" style="&st24; &st16;">R</tspan></text>
<text transform="matrix(0 -1 1 0 1063.5527 169.4956)" style="&st8;"><tspan x="0" y="0" style="&st24; &st16;">R</tspan></text>
<text ewd:textID="2" transform="matrix(0 -1 1 0 1089.043 259.5156)" style="&st8; &st24; &st16;">(Shielded)</text>
<text ewd:textID="2" transform="matrix(0 -1 1 0 1089.043 344.4956)" style="&st8; &st24; &st16;">(Shielded)</text>
<text transform="matrix(0 -1 1 0 1100.373 173.2056)" style="&st8;"><tspan x="0" y="0" style="&st24; &st16;">(*5)</tspan></text>
<text transform="matrix(0 -1 1 0 1100.373 249.6958)" style="&st8;"><tspan x="0" y="0" style="&st24; &st16;">(*5)</tspan></text>
<text transform="matrix(0 -1 1 0 1100.373 334.6758)" style="&st8;"><tspan x="0" y="0" style="&st24; &st16;">(*5)</tspan></text>
<text transform="matrix(0 -1 1 0 1125.873 334.6758)" style="&st8;"><tspan x="0" y="0" style="&st24; &st16;">(*5)</tspan></text>
<text transform="matrix(0 -1 1 0 1159.8633 334.6758)" style="&st8;"><tspan x="0" y="0" style="&st24; &st16;">(*5)</tspan></text>
<text transform="matrix(0 -1 1 0 1193.8633 334.6758)" style="&st8;"><tspan x="0" y="0" style="&st24; &st16;">(*5)</tspan></text>
<text transform="matrix(0 -1 1 0 1193.8633 249.6958)" style="&st8;"><tspan x="0" y="0" style="&st24; &st16;">(*5)</tspan></text>
<text transform="matrix(0 -1 1 0 1159.8633 249.6958)" style="&st8;"><tspan x="0" y="0" style="&st24; &st16;">(*5)</tspan></text>
<text transform="matrix(0 -1 1 0 1125.873 249.6958)" style="&st8;"><tspan x="0" y="0" style="&st24; &st16;">(*5)</tspan></text>
<text transform="matrix(0 -1 1 0 1125.873 173.2056)" style="&st8;"><tspan x="0" y="0" style="&st24; &st16;">(*5)</tspan></text>
<text transform="matrix(0 -1 1 0 1159.8633 173.2056)" style="&st8;"><tspan x="0" y="0" style="&st24; &st16;">(*5)</tspan></text>
<text transform="matrix(0 -1 1 0 1193.8633 173.2056)" style="&st8;"><tspan x="0" y="0" style="&st24; &st16;">(*5)</tspan></text>
<text transform="matrix(0 -1 1 0 1074.8828 173.2056)" style="&st8;"><tspan x="0" y="0" style="&st24; &st16;">(*5)</tspan></text>
<text transform="matrix(0 -1 1 0 1074.8828 258.1855)" style="&st8;"><tspan x="0" y="0" style="&st24; &st16;">(*5)</tspan></text>
<text transform="matrix(0 -1 1 0 1063.5527 254.4854)" style="&st8;"><tspan x="0" y="0" style="&st24; &st16;">R</tspan></text>
<text transform="matrix(0 -1 1 0 1074.8828 334.6758)" style="&st8;"><tspan x="0" y="0" style="&st24; &st16;">(*5)</tspan></text>
<text transform="matrix(0 -1 1 0 1250.5137 170.3755)" style="&st8;"><tspan x="0" y="0" style="&st24; &st16;">W</tspan></text>
<text transform="matrix(0 -1 1 0 1250.5137 246.8657)" style="&st8;"><tspan x="0" y="0" style="&st24; &st16;">W</tspan></text>
<text transform="matrix(0 -1 1 0 1318.5039 245.8457)" style="&st8;"><tspan x="0" y="0" style="&st24; &st16;">B</tspan></text>
<text transform="matrix(0 -1 1 0 1284.5137 245.4854)" style="&st8;"><tspan x="0" y="0" style="&st24; &st16;">L</tspan></text>
<text transform="matrix(0 -1 1 0 1284.5137 169.0059)" style="&st8;"><tspan x="0" y="0" style="&st24; &st16;">L</tspan></text>
<text transform="matrix(0 -1 1 0 1318.5039 169.3555)" style="&st8;"><tspan x="0" y="0" style="&st24; &st16;">B</tspan></text>
<text transform="matrix(0 -1 1 0 1329.834 249.6958)" style="&st8;"><tspan x="0" y="0" style="&st24; &st16;">(*3)</tspan></text>
<text transform="matrix(0 -1 1 0 1295.8438 249.6958)" style="&st8;"><tspan x="0" y="0" style="&st24; &st16;">(*3)</tspan></text>
<text transform="matrix(0 -1 1 0 1261.8535 249.6958)" style="&st8;"><tspan x="0" y="0" style="&st24; &st16;">(*3)</tspan></text>
<text transform="matrix(0 -1 1 0 1261.8535 173.2056)" style="&st8;"><tspan x="0" y="0" style="&st24; &st16;">(*3)</tspan></text>
<text transform="matrix(0 -1 1 0 1295.8438 173.2056)" style="&st8;"><tspan x="0" y="0" style="&st24; &st16;">(*3)</tspan></text>
<text transform="matrix(0 -1 1 0 1329.834 173.2056)" style="&st8;"><tspan x="0" y="0" style="&st24; &st16;">(*3)</tspan></text>
<text transform="matrix(0 -1 1 0 1496.9727 169.3555)" style="&st8;"><tspan x="0" y="0" style="&st24; &st16;">P</tspan></text>
<text transform="matrix(0 -1 1 0 1462.9844 169.0059)" style="&st8;"><tspan x="0" y="0" style="&st24; &st16;">L</tspan></text>
<text transform="matrix(0 -1 1 0 1474.3125 173.2056)" style="&st8;"><tspan x="0" y="0" style="&st24; &st16;">(*4)</tspan></text>
<text transform="matrix(0 -1 1 0 1428.9844 171.6855)" style="&st8;"><tspan x="0" y="0" style="&st24; &st16;">SB</tspan></text>
<text transform="matrix(0 -1 1 0 1440.3242 173.2056)" style="&st8;"><tspan x="0" y="0" style="&st24; &st16;">(*4)</tspan></text>
<text transform="matrix(0 -1 1 0 1394.9941 171.7559)" style="&st8;"><tspan x="0" y="0" style="&st24; &st16;">LG</tspan></text>
<text transform="matrix(0 -1 1 0 1406.3242 173.2056)" style="&st8;"><tspan x="0" y="0" style="&st24; &st16;">(*4)</tspan></text>
<text transform="matrix(0 -1 1 0 1361.0039 172.2559)" style="&st8;"><tspan x="0" y="0" style="&st24; &st16;">GR</tspan></text>
<text transform="matrix(0 -1 1 0 1372.334 173.2056)" style="&st8;"><tspan x="0" y="0" style="&st24; &st16;">(*4)</tspan></text>
</svg>
