﻿<?xml version="1.0" encoding="UTF-8"?>
<!DOCTYPE svg PUBLIC "-//W3C//DTD SVG 1.0//EN" "http://www.w3.org/TR/2001/REC-SVG-20010904/DTD/svg10.dtd"[
<!ENTITY ns_flows "http://ns.adobe.com/Flows/1.0/">
<!ENTITY ns_svg "http://www.w3.org/2000/svg">
<!ENTITY ns_xlink "http://www.w3.org/1999/xlink">
	<!ENTITY st0 "fill:none;stroke:#F8E616;stroke-width:5.1;stroke-linejoin:round;">
	<!ENTITY st1 "fill:none;stroke:#FB0F0C;stroke-width:5.1;stroke-linejoin:round;">
	<!ENTITY st2 "fill:none;stroke:#9A9999;stroke-width:5.1;stroke-linejoin:round;">
	<!ENTITY st3 "fill:none;stroke:#99280B;stroke-width:5.1;stroke-linejoin:round;">
		<!ENTITY st4 "fill:none;stroke:#000000;stroke-width:0.85;stroke-linecap:round;stroke-linejoin:round;stroke-dasharray:3 1.5;enable-background:new    ;">
	<!ENTITY st5 "fill:none;stroke:#000000;stroke-width:5.1;stroke-linejoin:round;">
	<!ENTITY st6 "fill:none;stroke:#199DBF;stroke-width:1.13;stroke-linejoin:round;">
	<!ENTITY st7 "fill:none;stroke:#000000;stroke-linecap:round;stroke-linejoin:round;">
	<!ENTITY st8 "stroke:#000000;stroke-width:0.28;stroke-linecap:round;stroke-linejoin:round;enable-background:new    ;">
	<!ENTITY st9 "enable-background:new    ;">
		<!ENTITY st10 "fill:none;stroke:#000000;stroke-width:1.42;stroke-linecap:round;stroke-linejoin:round;enable-background:new    ;">
	<!ENTITY st11 "fill:none;stroke:#EE67AA;stroke-width:5.1;stroke-linejoin:round;">
	<!ENTITY st12 "fill:none;stroke:#199DBF;stroke-width:5.1;stroke-linejoin:round;">
	<!ENTITY st13 "opacity:0.5;fill:none;stroke:#34ACCE;stroke-linejoin:round;stroke-dasharray:6;">
	<!ENTITY st14 "fill:none;stroke:#FFFFFF;stroke-width:4.53;stroke-linejoin:round;">
		<!ENTITY st15 "fill:none;stroke:#000000;stroke-width:0.85;stroke-linecap:round;stroke-linejoin:round;enable-background:new    ;">
	<!ENTITY st16 "fill:none;stroke:#56107C;stroke-width:5.1;stroke-linejoin:round;">
	<!ENTITY st17 "font-size:6px;">
	<!ENTITY st18 "fill:none;stroke:#FFFFFF;stroke-width:2.27;stroke-linejoin:round;">
	<!ENTITY st19 "fill:none;stroke:#FB0F0C;stroke-width:1.13;stroke-linejoin:round;">
	<!ENTITY st20 "fill:none;stroke:#168638;stroke-width:5.1;stroke-linejoin:round;">
	<!ENTITY st21 "fill:none;stroke:#000000;stroke-width:1.13;stroke-linejoin:round;">
		<!ENTITY st22 "fill:none;stroke:#000000;stroke-width:1.13;stroke-linecap:round;stroke-linejoin:round;stroke-dasharray:3 1.5;enable-background:new    ;">
	<!ENTITY st23 "fill:#FFFFFF;stroke:#000000;stroke-width:1.41;stroke-linecap:round;stroke-linejoin:round;">
	<!ENTITY st24 "fill:none;stroke:#F8E616;stroke-width:5.1;stroke-linejoin:round;enable-background:new    ;">
	<!ENTITY st25 "fill:none;stroke:#3E65AC;stroke-width:3;">
	<!ENTITY st26 "fill:#CCCCCC;stroke:#CCCCCC;stroke-width:0.1;stroke-linecap:round;stroke-linejoin:round;">
	<!ENTITY st27 "fill:none;stroke:#000000;stroke-width:5.1;stroke-linejoin:round;enable-background:new    ;">
	<!ENTITY st28 "font-family:'ArialMT';">
	<!ENTITY st29 "opacity:0.5;fill:none;stroke:#34ACCE;stroke-linejoin:round;">
	<!ENTITY st30 "fill:#CFE6E7;stroke:#000000;stroke-width:1.133;stroke-linecap:round;stroke-linejoin:round;">
	<!ENTITY st31 "fill:none;stroke:#99D5E0;stroke-width:5.1;stroke-linejoin:round;">
	<!ENTITY st32 "fill:none;stroke:#FFFFFF;stroke-width:1.13;stroke-linejoin:round;enable-background:new    ;">
	<!ENTITY st33 "fill:none;stroke:#7EC57E;stroke-width:5.1;stroke-linejoin:round;">
<!ATTLIST svg
xmlns:ewd CDATA #FIXED "http://shcl.co.jp/ewd"
xmlns:a CDATA #FIXED "http://ns.adobe.com/AdobeSVGViewerExtensions/3.0/"
ewd:ver CDATA #IMPLIED
>
<!ATTLIST a
ewd:lineID CDATA #IMPLIED
ewd:groupID CDATA #IMPLIED
ewd:figtype CDATA #IMPLIED
ewd:code CDATA #IMPLIED
ewd:figID CDATA #IMPLIED
ewd:pinNo CDATA #IMPLIED
ewd:comment CDATA #IMPLIED >
<!ATTLIST g
ewd:lineID CDATA #IMPLIED
ewd:groupID CDATA #IMPLIED
ewd:figtype CDATA #IMPLIED
ewd:code CDATA #IMPLIED
ewd:figID CDATA #IMPLIED
ewd:pinNo CDATA #IMPLIED
ewd:comment CDATA #IMPLIED >
<!ATTLIST text
ewd:textID CDATA #IMPLIED >
<!ATTLIST title
ewd:textID CDATA #IMPLIED >
]>
<svg 
viewBox='0 0 6742.33 729.44'
height='729.44'
width='6742.33'
xml:space="preserve"
xmlns="&ns_svg;"
xmlns:ewd="http://shcl.co.jp/ewd"
xmlns:xlink="&ns_xlink;" ewd:ver="L2.1">
<g ewd:code="IG1" ewd:figID="636" ewd:figtype="w2w" ewd:pinNo="5">
<path style="&st10;" d="M1635.59,158.53h-8.5"/>
<path style="&st10;" d="M1631.34,164.2l-4.25-4.25l-4.25,4.25"/>
<path style="&st10;" d="M1631.34,167.59l-4.25-4.24l-4.25,4.24"/>
<text transform="matrix(1 0 0 1 1612.2544 156.2466)" style="&st9;"><tspan x="0" y="0" style="&st28; &st17;">5</tspan></text>
</g>
<g ewd:code="IG1" ewd:figID="637" ewd:figtype="w2w" ewd:pinNo="25">
<path style="&st10;" d="M1780.06,158.53h-8.5"/>
<path style="&st10;" d="M1775.81,167.59l-4.25-4.24l-4.25,4.24"/>
<path style="&st10;" d="M1775.81,164.2l-4.25-4.25l-4.25,4.25"/>
<text transform="matrix(1 0 0 1 1753.397 156.2466)" style="&st9;"><tspan x="0" y="0" style="&st28; &st17;">25</tspan></text>
</g>
<g ewd:code="GQ1" ewd:figID="706" ewd:figtype="w2w" ewd:pinNo="1">
<path style="&st10;" d="M1635.59,413.49h-8.5"/>
<path style="&st10;" d="M1631.34,419.15l-4.25-4.25l-4.25,4.25"/>
<path style="&st10;" d="M1631.34,422.55l-4.25-4.25l-4.25,4.25"/>
<text transform="matrix(1 0 0 1 1612.2544 411.2065)" style="&st9;"><tspan x="0" y="0" style="&st28; &st17;">1</tspan></text>
</g>
<g ewd:code="IG1" ewd:figID="644" ewd:figtype="w2w" ewd:pinNo="14">
<path style="&st10;" d="M2009.52,158.53h-8.49"/>
<path style="&st10;" d="M2005.27,164.2l-4.24-4.25l-4.25,4.25"/>
<path style="&st10;" d="M2005.27,167.59l-4.24-4.24l-4.25,4.24"/>
<text transform="matrix(1 0 0 1 1982.8569 156.2466)" style="&st9;"><tspan x="0" y="0" style="&st28; &st17;">14</tspan></text>
</g>
<g ewd:code="IG1" ewd:figID="642" ewd:figtype="w2w" ewd:pinNo="16">
<path style="&st10;" d="M1967.03,158.53h-8.5"/>
<path style="&st10;" d="M1962.78,164.2l-4.25-4.25l-4.25,4.25"/>
<path style="&st10;" d="M1962.78,167.59l-4.25-4.24l-4.25,4.24"/>
<text transform="matrix(1 0 0 1 1940.3569 156.2466)" style="&st9;"><tspan x="0" y="0" style="&st28; &st17;">16</tspan></text>
</g>
<g ewd:code="IG1" ewd:figID="640" ewd:figtype="w2w" ewd:pinNo="15">
<path style="&st10;" d="M1924.54,158.53h-8.5"/>
<path style="&st10;" d="M1920.29,164.2l-4.25-4.25l-4.25,4.25"/>
<path style="&st10;" d="M1920.29,167.59l-4.25-4.24l-4.25,4.24"/>
<text transform="matrix(1 0 0 1 1897.8667 156.2466)" style="&st9;"><tspan x="0" y="0" style="&st28; &st17;">15</tspan></text>
</g>
<g ewd:code="GA6" ewd:figID="645" ewd:figtype="w2w" ewd:pinNo="8">
<path style="&st10;" d="M2009.52,218.02h-8.49"/>
<path style="&st10;" d="M2005.27,223.69l-4.24-4.25l-4.25,4.25"/>
<path style="&st10;" d="M2005.27,227.08l-4.24-4.24l-4.25,4.24"/>
<text transform="matrix(1 0 0 1 1986.1938 215.7363)" style="&st9;"><tspan x="0" y="0" style="&st28; &st17;">8</tspan></text>
</g>
<g ewd:code="GA6" ewd:figID="643" ewd:figtype="w2w" ewd:pinNo="6">
<path style="&st10;" d="M1967.03,218.02h-8.5"/>
<path style="&st10;" d="M1962.78,223.69l-4.25-4.25l-4.25,4.25"/>
<path style="&st10;" d="M1962.78,227.08l-4.25-4.24l-4.25,4.24"/>
<text transform="matrix(1 0 0 1 1943.6938 215.7363)" style="&st9;"><tspan x="0" y="0" style="&st28; &st17;">6</tspan></text>
</g>
<g ewd:code="GA6" ewd:figID="641" ewd:figtype="w2w" ewd:pinNo="7">
<path style="&st10;" d="M1924.54,218.02h-8.5"/>
<path style="&st10;" d="M1920.29,223.69l-4.25-4.25l-4.25,4.25"/>
<path style="&st10;" d="M1920.29,227.08l-4.25-4.24l-4.25,4.24"/>
<text transform="matrix(1 0 0 1 1901.2036 215.7363)" style="&st9;"><tspan x="0" y="0" style="&st28; &st17;">7</tspan></text>
</g>
<g ewd:code="GA6" ewd:figID="639" ewd:figtype="w2w" ewd:pinNo="">
<path style="&st10;" d="M1882.05,218.02h-8.5"/>
<path style="&st10;" d="M1877.8,227.08l-4.25-4.24l-4.25,4.24"/>
<path style="&st10;" d="M1877.8,223.69l-4.25-4.25l-4.25,4.25"/>
<text transform="matrix(1 0 0 1 1858.7134 215.7363)" style="&st9;"><tspan x="0" y="0" style="&st28; &st17;">9</tspan></text>
</g>
<g ewd:code="IG1" ewd:figID="638" ewd:figtype="w2w" ewd:pinNo="13">
<path style="&st10;" d="M1882.05,158.53h-8.5"/>
<path style="&st10;" d="M1877.8,164.2l-4.25-4.25l-4.25,4.25"/>
<path style="&st10;" d="M1877.8,167.59l-4.25-4.24l-4.25,4.24"/>
<text transform="matrix(1 0 0 1 1855.3765 156.2466)" style="&st9;"><tspan x="0" y="0" style="&st28; &st17;">13</tspan></text>
</g>
<g ewd:code="158001" ewd:figID="501" ewd:figtype="sp">
<path style="&st10;" d="M1882.05,282.48l-4.98-4.97"/>
<path style="&st10;" d="M1865.05,289.54l4.97,4.97"/>
<path style="&st10;" d="M1877.07,294.51l4.98-4.97"/>
<path style="&st10;" d="M1870.02,277.51l-4.97,4.97"/>
</g>
<g ewd:code="4JB" ewd:figID="306" ewd:figtype="jb">
<path style="&st10;" d="M1629.21,260.51h-4.25"/>
<path style="&st10;" d="M1629.21,269.01h-4.25"/>
<path style="&st10;" d="M1629.21,303.01h-4.25"/>
<path style="&st10;" d="M1629.21,311.5h-4.25"/>
<path style="&st8;" d="M1627.09,273.91l2.83,2.83v-4.25l-2.83-2.83l-2.83,2.83v4.25L1627.09,273.91"/>
<path style="&st8;" d="M1627.09,298.11l-2.83-2.83v4.25l2.83,2.83l2.83-2.83v-4.25L1627.09,298.11"/>
<path style="&st15;" d="M1627.09,303.01v-34"/>
<path style="&st10;" d="M1624.96,260.51c-2.34,0-4.25,1.9-4.25,4.25"/>
<path style="&st10;" d="M1620.71,264.76c0,2.35,1.91,4.25,4.25,4.25"/>
<path style="&st10;" d="M1629.21,269.01c2.35,0,4.25-1.9,4.25-4.25"/>
<path style="&st10;" d="M1633.46,264.76c0-2.35-1.9-4.25-4.25-4.25"/>
<path style="&st10;" d="M1624.96,303.01c-2.34,0-4.25,1.9-4.25,4.24"/>
<path style="&st10;" d="M1620.71,307.25c0,2.35,1.91,4.25,4.25,4.25"/>
<path style="&st10;" d="M1629.21,311.5c2.35,0,4.25-1.9,4.25-4.25"/>
<path style="&st10;" d="M1633.46,307.25c0-2.34-1.9-4.24-4.25-4.24"/>
<text transform="matrix(1 0 0 1 1622.7808 309.2168)" style="&st9;"><tspan x="0" y="0" style="&st28; &st17;">4A</tspan></text>
<text transform="matrix(1 0 0 1 1610.4409 309.2168)" style="&st9;"><tspan x="0" y="0" style="&st28; &st17;">27</tspan></text>
<text transform="matrix(1 0 0 1 1622.7808 266.7266)" style="&st9;"><tspan x="0" y="0" style="&st28; &st17;">4B</tspan></text>
<text transform="matrix(1 0 0 1 1611.2212 266.7266)" style="&st9;"><tspan x="0" y="0" style="&st28; &st17;">51</tspan></text>
</g>
<g ewd:code="G5" ewd:figID="202" ewd:figtype="gp">
<path style="&st15;" d="M1770.15,713.77h2.83"/>
<path style="&st15;" d="M1768.73,710.94h5.67"/>
<path style="&st15;" d="M1767.31,708.1h8.5"/>
<path style="&st15;" d="M1763.07,705.27h16.99"/>
<path style="&st15;" d="M1771.56,701.02v4.25"/>
</g>
<g ewd:code="Q1" ewd:figID="201" ewd:figtype="gp">
<path style="&st15;" d="M1625.67,713.77h2.83"/>
<path style="&st15;" d="M1624.26,710.94h5.66"/>
<path style="&st15;" d="M1622.84,708.1h8.5"/>
<path style="&st15;" d="M1618.59,705.27h17"/>
<path style="&st15;" d="M1627.09,701.02v4.25"/>
</g>
<g ewd:code="G106" ewd:figID="41" ewd:figtype="conn">
<path style="&st10;" d="M1763.07,659.95h16.99v16.99h-16.99V659.95"/>
<path style="&st15;" d="M1771.56,659.95v25.49"/>
<text transform="matrix(1 0 0 1 1764.7808 656.2563)" style="&st9;"><tspan x="0" y="0" style="&st28; &st17;">4</tspan></text>
<text ewd:textID="26" transform="matrix(0 -1 1 0 1794.7808 679.4673)" style="&st9; &st28; &st17;">Junction Connector</text>
<text transform="matrix(0 -1 1 0 1787.6714 679.4673)" style="&st9;"><tspan x="0" y="0" style="&st28; &st17;">G106</tspan></text>
</g>
<g ewd:code="G81-A,G82-B" ewd:figID="39" ewd:figtype="conn">
<path style="&st10;" d="M1695.08,396.49v25.5h16.99v-25.5H1695.08"/>
<path style="&st22;" d="M1695.08,404.99h16.99"/>
<path style="&st22;" d="M1695.08,413.49h16.99"/>
<path style="&st15;" d="M1703.58,396.49v25.5"/>
<path style="&st10;" d="M1708.11,391.96c0-2.51-2.03-4.54-4.53-4.54"/>
<path style="&st10;" d="M1703.58,387.42c-2.51,0-4.54,2.03-4.54,4.54"/>
<path style="&st10;" d="M1699.04,391.96c0,2.5,2.03,4.53,4.54,4.53"/>
<path style="&st10;" d="M1703.58,396.49c2.5,0,4.53-2.03,4.53-4.53"/>
<path style="&st10;" d="M1708.11,426.52c0-2.51-2.03-4.53-4.53-4.53"/>
<path style="&st10;" d="M1703.58,421.99c-2.51,0-4.54,2.02-4.54,4.53"/>
<path style="&st10;" d="M1699.04,426.52c0,2.5,2.03,4.53,4.54,4.53"/>
<path style="&st10;" d="M1703.58,431.05c2.5,0,4.53-2.03,4.53-4.53"/>
<text transform="matrix(1 0 0 1 1701.2407 393.9263)" style="&st9;"><tspan x="0" y="0" style="&st28; &st17;">B</tspan></text>
<text transform="matrix(1 0 0 1 1689.521 393.9263)" style="&st9;"><tspan x="0" y="0" style="&st28; &st17;">10</tspan></text>
<text transform="matrix(1 0 0 1 1701.2407 428.4868)" style="&st9;"><tspan x="0" y="0" style="&st28; &st17;">A</tspan></text>
<text transform="matrix(1 0 0 1 1692.7007 428.4868)" style="&st9;"><tspan x="0" y="0" style="&st28; &st17;">7</tspan></text>
<text transform="matrix(0 -1 1 0 1719.6909 424.5063)" style="&st9;"><tspan x="0" y="0" style="&st28; &st17;">G81(A),G82(B)</tspan></text>
<text ewd:textID="26" transform="matrix(0 -1 1 0 1726.7905 424.5063)" style="&st9; &st28; &st17;">Junction Connector</text>
</g>
<g ewd:code="G128-C,G129-D" ewd:figID="40" ewd:figtype="conn">
<path style="&st15;" d="M1771.56,396.49v25.5"/>
<path style="&st22;" d="M1763.07,413.49h16.99"/>
<path style="&st22;" d="M1763.07,404.99h16.99"/>
<path style="&st10;" d="M1763.07,396.49v25.5h16.99v-25.5H1763.07"/>
<path style="&st10;" d="M1776.1,426.52c0-2.51-2.03-4.53-4.54-4.53"/>
<path style="&st10;" d="M1771.56,421.99c-2.5,0-4.53,2.02-4.53,4.53"/>
<path style="&st10;" d="M1767.03,426.52c0,2.5,2.03,4.53,4.53,4.53"/>
<path style="&st10;" d="M1771.56,431.05c2.51,0,4.54-2.03,4.54-4.53"/>
<path style="&st10;" d="M1776.1,391.96c0-2.51-2.03-4.54-4.54-4.54"/>
<path style="&st10;" d="M1771.56,387.42c-2.5,0-4.53,2.03-4.53,4.54"/>
<path style="&st10;" d="M1767.03,391.96c0,2.5,2.03,4.53,4.53,4.53"/>
<path style="&st10;" d="M1771.56,396.49c2.51,0,4.54-2.03,4.54-4.53"/>
<text transform="matrix(1 0 0 1 1769.0913 393.9263)" style="&st9;"><tspan x="0" y="0" style="&st28; &st17;">D</tspan></text>
<text ewd:textID="26" transform="matrix(0 -1 1 0 1794.7808 424.5063)" style="&st9; &st28; &st17;">Junction Connector</text>
<text transform="matrix(0 -1 1 0 1787.6714 424.5063)" style="&st9;"><tspan x="0" y="0" style="&st28; &st17;">G128(C),G129(D)</tspan></text>
<text transform="matrix(1 0 0 1 1760.6909 428.4868)" style="&st9;"><tspan x="0" y="0" style="&st28; &st17;">7</tspan></text>
<text transform="matrix(1 0 0 1 1769.0913 428.4868)" style="&st9;"><tspan x="0" y="0" style="&st28; &st17;">C</tspan></text>
<text transform="matrix(1 0 0 1 1757.5112 393.9263)" style="&st9;"><tspan x="0" y="0" style="&st28; &st17;">10</tspan></text>
</g>
<g ewd:code="G82-B" ewd:figID="10" ewd:figtype="conn">
<path style="&st10;" d="M1695.08,269.01v17h16.99v-17H1695.08"/>
<path style="&st15;" d="M1703.58,269.01v17"/>
<path style="&st10;" d="M1708.11,264.48c0-2.5-2.03-4.53-4.53-4.53"/>
<path style="&st10;" d="M1703.58,259.95c-2.51,0-4.54,2.03-4.54,4.53"/>
<path style="&st10;" d="M1699.04,264.48c0,2.5,2.03,4.53,4.54,4.53"/>
<path style="&st10;" d="M1703.58,269.01c2.5,0,4.53-2.03,4.53-4.53"/>
<path style="&st10;" d="M1708.11,290.54c0-2.5-2.03-4.53-4.53-4.53"/>
<path style="&st10;" d="M1703.58,286.01c-2.51,0-4.54,2.03-4.54,4.53"/>
<path style="&st10;" d="M1699.04,290.54c0,2.5,2.03,4.53,4.54,4.53"/>
<path style="&st10;" d="M1703.58,295.07c2.5,0,4.53-2.03,4.53-4.53"/>
<text transform="matrix(1 0 0 1 1701.2407 266.4468)" style="&st9;"><tspan x="0" y="0" style="&st28; &st17;">B</tspan></text>
<text transform="matrix(0 -1 1 0 1719.6909 288.5264)" style="&st9;"><tspan x="0" y="0" style="&st28; &st17;">G82(B)</tspan></text>
<text ewd:textID="26" transform="matrix(0 -1 1 0 1726.7905 288.5264)" style="&st9; &st28; &st17;">Junction Connector</text>
<text transform="matrix(1 0 0 1 1692.7007 292.5068)" style="&st9;"><tspan x="0" y="0" style="&st28; &st17;">9</tspan></text>
<text transform="matrix(1 0 0 1 1701.2407 292.5068)" style="&st9;"><tspan x="0" y="0" style="&st28; &st17;">B</tspan></text>
<text transform="matrix(1 0 0 1 1692.7007 266.4468)" style="&st9;"><tspan x="0" y="0" style="&st28; &st17;">7</tspan></text>
</g>
<g ewd:code="G129-D" ewd:figID="11" ewd:figtype="conn">
<path style="&st15;" d="M1771.56,269.01v17"/>
<path style="&st10;" d="M1763.07,269.01v17h16.99v-17H1763.07"/>
<path style="&st10;" d="M1776.1,290.54c0-2.5-2.03-4.53-4.54-4.53"/>
<path style="&st10;" d="M1771.56,286.01c-2.5,0-4.53,2.03-4.53,4.53"/>
<path style="&st10;" d="M1767.03,290.54c0,2.5,2.03,4.53,4.53,4.53"/>
<path style="&st10;" d="M1771.56,295.07c2.51,0,4.54-2.03,4.54-4.53"/>
<path style="&st10;" d="M1776.1,264.48c0-2.5-2.03-4.53-4.54-4.53"/>
<path style="&st10;" d="M1771.56,259.95c-2.5,0-4.53,2.03-4.53,4.53"/>
<path style="&st10;" d="M1767.03,264.48c0,2.5,2.03,4.53,4.53,4.53"/>
<path style="&st10;" d="M1771.56,269.01c2.51,0,4.54-2.03,4.54-4.53"/>
<text transform="matrix(1 0 0 1 1769.0913 266.4468)" style="&st9;"><tspan x="0" y="0" style="&st28; &st17;">D</tspan></text>
<text transform="matrix(1 0 0 1 1760.6909 266.4468)" style="&st9;"><tspan x="0" y="0" style="&st28; &st17;">7</tspan></text>
<text transform="matrix(1 0 0 1 1769.0913 292.5068)" style="&st9;"><tspan x="0" y="0" style="&st28; &st17;">D</tspan></text>
<text transform="matrix(1 0 0 1 1760.6909 292.5068)" style="&st9;"><tspan x="0" y="0" style="&st28; &st17;">9</tspan></text>
<text ewd:textID="26" transform="matrix(0 -1 1 0 1794.7808 288.5264)" style="&st9; &st28; &st17;">Junction Connector</text>
<text transform="matrix(0 -1 1 0 1787.6714 288.5264)" style="&st9;"><tspan x="0" y="0" style="&st28; &st17;">G129(D)</tspan></text>
</g>
<g ewd:code="A52" ewd:figID="12" ewd:figtype="conn">
<path style="&st10;" d="M1856.55,328.5v34h161.47v-34H1856.55"/>
<text transform="matrix(1 0 0 1 1871.021 370.106)" style="&st9;"><tspan x="0" y="0" style="&st28; &st17;">A52</tspan></text>
<text ewd:textID="25" transform="matrix(1 0 0 1 1871.021 377.2065)" style="&st9; &st28; &st17;">Front Television Camera Assembly</text>
<text transform="matrix(1 0 0 1 1866.7612 324.8066)" style="&st9;"><tspan x="0" y="0" style="&st28; &st17;">3</tspan></text>
<text transform="matrix(1 0 0 1 1910.0308 324.8066)" style="&st9;"><tspan x="0" y="0" style="&st28; &st17;">1</tspan></text>
<text transform="matrix(1 0 0 1 1951.7407 324.8066)" style="&st9;"><tspan x="0" y="0" style="&st28; &st17;">2</tspan></text>
<text transform="matrix(1 0 0 1 1994.2407 324.8066)" style="&st9;"><tspan x="0" y="0" style="&st28; &st17;">4</tspan></text>
<text transform="matrix(1 0 0 1 1863.521 336.1367)" style="&st9;"><tspan x="0" y="0" style="&st28; &st17;">BGND</tspan></text>
<text transform="matrix(1 0 0 1 1906.8911 336.1367)" style="&st9;"><tspan x="0" y="0" style="&st28; &st17;">BCB+</tspan></text>
<text transform="matrix(1 0 0 1 1949.3804 336.1367)" style="&st9;"><tspan x="0" y="0" style="&st28; &st17;">BCV+</tspan></text>
<text transform="matrix(1 0 0 1 1991.8804 336.1367)" style="&st9;"><tspan x="0" y="0" style="&st28; &st17;">BCV-</tspan></text>
</g>
<text transform="matrix(0 -1 1 0 1623.3911 217.2168)" style="&st9;"><tspan x="0" y="0" style="&st28; &st17;">W-B</tspan></text>
<text transform="matrix(0 -1 1 0 1623.3911 132.2266)" style="&st9;"><tspan x="0" y="0" style="&st28; &st17;">W-B</tspan></text>
<text transform="matrix(0 -1 1 0 1623.3911 387.186)" style="&st9;"><tspan x="0" y="0" style="&st28; &st17;">W-B</tspan></text>
<text transform="matrix(0 -1 1 0 1699.8804 217.2168)" style="&st9;"><tspan x="0" y="0" style="&st28; &st17;">W-B</tspan></text>
<text transform="matrix(0 -1 1 0 1711.2104 516.2271)" style="&st9;"><tspan x="0" y="0" style="&st28; &st17;">(LHD)</tspan></text>
<text transform="matrix(0 -1 1 0 1699.8804 344.6968)" style="&st9;"><tspan x="0" y="0" style="&st28; &st17;">W-B</tspan></text>
<text transform="matrix(0 -1 1 0 1711.2104 346.2466)" style="&st9;"><tspan x="0" y="0" style="&st28; &st17;">(LHD)</tspan></text>
<text transform="matrix(0 -1 1 0 1711.2104 218.7666)" style="&st9;"><tspan x="0" y="0" style="&st28; &st17;">(LHD)</tspan></text>
<text transform="matrix(0 -1 1 0 1623.3911 514.6665)" style="&st9;"><tspan x="0" y="0" style="&st28; &st17;">W-B</tspan></text>
<text transform="matrix(0 -1 1 0 1779.2007 219.2666)" style="&st9;"><tspan x="0" y="0" style="&st28; &st17;">(RHD)</tspan></text>
<text transform="matrix(0 -1 1 0 1779.2007 346.7466)" style="&st9;"><tspan x="0" y="0" style="&st28; &st17;">(RHD)</tspan></text>
<text transform="matrix(0 -1 1 0 1767.8706 344.6968)" style="&st9;"><tspan x="0" y="0" style="&st28; &st17;">W-B</tspan></text>
<text transform="matrix(0 -1 1 0 1779.2007 516.7173)" style="&st9;"><tspan x="0" y="0" style="&st28; &st17;">(RHD)</tspan></text>
<text transform="matrix(0 -1 1 0 1767.8706 132.2266)" style="&st9;"><tspan x="0" y="0" style="&st28; &st17;">W-B</tspan></text>
<text transform="matrix(0 -1 1 0 1767.8706 217.2168)" style="&st9;"><tspan x="0" y="0" style="&st28; &st17;">W-B</tspan></text>
<text transform="matrix(0 -1 1 0 1869.8511 129.7568)" style="&st9;"><tspan x="0" y="0" style="&st28; &st17;">GR</tspan></text>
<text transform="matrix(0 -1 1 0 1699.8804 514.6665)" style="&st9;"><tspan x="0" y="0" style="&st28; &st17;">W-B</tspan></text>
<text transform="matrix(0 -1 1 0 1767.8706 514.6665)" style="&st9;"><tspan x="0" y="0" style="&st28; &st17;">W-B</tspan></text>
<text transform="matrix(0 -1 1 0 1912.3413 126.8667)" style="&st9;"><tspan x="0" y="0" style="&st28; &st17;">B</tspan></text>
<text transform="matrix(0 -1 1 0 1954.8413 127.0068)" style="&st9;"><tspan x="0" y="0" style="&st28; &st17;">R</tspan></text>
<text transform="matrix(0 -1 1 0 1997.3306 127.8867)" style="&st9;"><tspan x="0" y="0" style="&st28; &st17;">W</tspan></text>
<text ewd:textID="1" transform="matrix(0 -1 1 0 1869.8511 204.2764)" style="&st9; &st28; &st17;">(Shielded)</text>
<text transform="matrix(0 -1 1 0 1912.3413 190.6064)" style="&st9;"><tspan x="0" y="0" style="&st28; &st17;">B</tspan></text>
<text transform="matrix(0 -1 1 0 1954.8413 190.7466)" style="&st9;"><tspan x="0" y="0" style="&st28; &st17;">R</tspan></text>
<text transform="matrix(0 -1 1 0 1997.3306 191.6265)" style="&st9;"><tspan x="0" y="0" style="&st28; &st17;">W</tspan></text>
<text ewd:textID="1" transform="matrix(0 -1 1 0 1869.8511 272.2568)" style="&st9; &st28; &st17;">(Shielded)</text>
<text transform="matrix(0 -1 1 0 1912.3413 258.5864)" style="&st9;"><tspan x="0" y="0" style="&st28; &st17;">B</tspan></text>
<text transform="matrix(0 -1 1 0 1954.8413 258.7363)" style="&st9;"><tspan x="0" y="0" style="&st28; &st17;">R</tspan></text>
<text transform="matrix(0 -1 1 0 1997.3306 259.6167)" style="&st9;"><tspan x="0" y="0" style="&st28; &st17;">W</tspan></text>
<text transform="matrix(0 -1 1 0 1869.8511 307.8066)" style="&st9;"><tspan x="0" y="0" style="&st28; &st17;">BR</tspan></text>
<text ewd:textID="2" transform="matrix(1 0 0 1 1888.021 500.436)" style="&st9; &st28; &st17;">* 1 :5-Door</text>
<text ewd:textID="3" transform="matrix(1 0 0 1 1888.021 508.936)" style="&st9; &st28; &st17;">* 2 :3-Door</text>
</svg>
