﻿<?xml version="1.0" encoding="UTF-8"?>
<!DOCTYPE svg PUBLIC "-//W3C//DTD SVG 1.0//EN" "http://www.w3.org/TR/2001/REC-SVG-20010904/DTD/svg10.dtd"[
<!ENTITY ns_flows "http://ns.adobe.com/Flows/1.0/">
<!ENTITY ns_svg "http://www.w3.org/2000/svg">
<!ENTITY ns_xlink "http://www.w3.org/1999/xlink">
	<!ENTITY st0 "fill:none;stroke:#F8E616;stroke-width:5.1;stroke-linejoin:round;">
	<!ENTITY st1 "fill:none;stroke:#FB0F0C;stroke-width:5.1;stroke-linejoin:round;">
	<!ENTITY st2 "fill:none;stroke:#9A9999;stroke-width:5.1;stroke-linejoin:round;">
	<!ENTITY st3 "fill:none;stroke:#99280B;stroke-width:5.1;stroke-linejoin:round;">
		<!ENTITY st4 "fill:none;stroke:#000000;stroke-width:0.85;stroke-linecap:round;stroke-linejoin:round;stroke-dasharray:3 1.5;enable-background:new    ;">
	<!ENTITY st5 "fill:none;stroke:#000000;stroke-width:5.1;stroke-linejoin:round;">
	<!ENTITY st6 "fill:none;stroke:#199DBF;stroke-width:1.13;stroke-linejoin:round;">
	<!ENTITY st7 "fill:none;stroke:#000000;stroke-linecap:round;stroke-linejoin:round;">
	<!ENTITY st8 "stroke:#000000;stroke-width:0.28;stroke-linecap:round;stroke-linejoin:round;enable-background:new    ;">
	<!ENTITY st9 "enable-background:new    ;">
		<!ENTITY st10 "fill:none;stroke:#000000;stroke-width:1.42;stroke-linecap:round;stroke-linejoin:round;enable-background:new    ;">
	<!ENTITY st11 "fill:none;stroke:#EE67AA;stroke-width:5.1;stroke-linejoin:round;">
	<!ENTITY st12 "fill:none;stroke:#199DBF;stroke-width:5.1;stroke-linejoin:round;">
	<!ENTITY st13 "opacity:0.5;fill:none;stroke:#34ACCE;stroke-linejoin:round;stroke-dasharray:6;">
	<!ENTITY st14 "fill:none;stroke:#FFFFFF;stroke-width:4.53;stroke-linejoin:round;">
		<!ENTITY st15 "fill:none;stroke:#000000;stroke-width:0.85;stroke-linecap:round;stroke-linejoin:round;enable-background:new    ;">
	<!ENTITY st16 "fill:none;stroke:#56107C;stroke-width:5.1;stroke-linejoin:round;">
	<!ENTITY st17 "font-size:6px;">
	<!ENTITY st18 "fill:none;stroke:#FFFFFF;stroke-width:2.27;stroke-linejoin:round;">
	<!ENTITY st19 "fill:none;stroke:#FB0F0C;stroke-width:1.13;stroke-linejoin:round;">
	<!ENTITY st20 "fill:none;stroke:#FFFFFF;stroke-width:1.13;stroke-linejoin:round;">
	<!ENTITY st21 "fill:none;stroke:#168638;stroke-width:5.1;stroke-linejoin:round;">
	<!ENTITY st22 "fill:none;stroke:#000000;stroke-width:1.13;stroke-linejoin:round;">
		<!ENTITY st23 "fill:none;stroke:#000000;stroke-width:1.13;stroke-linecap:round;stroke-linejoin:round;stroke-dasharray:3 1.5;enable-background:new    ;">
	<!ENTITY st24 "fill:#FFFFFF;stroke:#000000;stroke-width:1.41;stroke-linecap:round;stroke-linejoin:round;">
	<!ENTITY st25 "fill:none;stroke:#3E65AC;stroke-width:3;">
	<!ENTITY st26 "fill:#CCCCCC;stroke:#CCCCCC;stroke-width:0.1;stroke-linecap:round;stroke-linejoin:round;">
	<!ENTITY st27 "font-family:'ArialMT';">
	<!ENTITY st28 "fill:none;stroke:#168638;stroke-width:1.13;stroke-linejoin:round;">
	<!ENTITY st29 "opacity:0.5;fill:none;stroke:#34ACCE;stroke-linejoin:round;">
	<!ENTITY st30 "fill:#CFE6E7;stroke:#000000;stroke-width:1.133;stroke-linecap:round;stroke-linejoin:round;">
	<!ENTITY st31 "fill:none;stroke:#7EC57E;stroke-width:5.1;stroke-linejoin:round;">
<!ATTLIST svg
xmlns:ewd CDATA #FIXED "http://shcl.co.jp/ewd"
xmlns:a CDATA #FIXED "http://ns.adobe.com/AdobeSVGViewerExtensions/3.0/"
ewd:ver CDATA #IMPLIED
>
<!ATTLIST a
ewd:lineID CDATA #IMPLIED
ewd:groupID CDATA #IMPLIED
ewd:figtype CDATA #IMPLIED
ewd:code CDATA #IMPLIED
ewd:figID CDATA #IMPLIED
ewd:pinNo CDATA #IMPLIED
ewd:comment CDATA #IMPLIED >
<!ATTLIST g
ewd:lineID CDATA #IMPLIED
ewd:groupID CDATA #IMPLIED
ewd:figtype CDATA #IMPLIED
ewd:code CDATA #IMPLIED
ewd:figID CDATA #IMPLIED
ewd:pinNo CDATA #IMPLIED
ewd:comment CDATA #IMPLIED >
<!ATTLIST text
ewd:textID CDATA #IMPLIED >
<!ATTLIST title
ewd:textID CDATA #IMPLIED >
]>
<svg 
viewBox='0 0 6223.92 729.44'
height='729.44'
width='6223.92'
xml:space="preserve"
xmlns="&ns_svg;"
xmlns:ewd="http://shcl.co.jp/ewd"
xmlns:xlink="&ns_xlink;" ewd:ver="L2.1">
<g ewd:code="RS1" ewd:figID="638" ewd:figtype="w2w" ewd:pinNo="4">
<path style="&st10;" d="M553.09,472.98h-8.5"/>
<path style="&st10;" d="M548.84,478.64l-4.25-4.25l-4.25,4.25"/>
<path style="&st10;" d="M548.84,482.04l-4.25-4.25l-4.25,4.25"/>
<text transform="matrix(1 0 0 1 529.7563 470.6958)" style="&st9;"><tspan x="0" y="0" style="&st27; &st17;">4</tspan></text>
</g>
<g ewd:code="SR1" ewd:figID="639" ewd:figtype="w2w" ewd:pinNo="6">
<path style="&st10;" d="M587.08,464.48h8.5"/>
<path style="&st10;" d="M591.33,455.41l4.25,4.25l4.25-4.25"/>
<path style="&st10;" d="M599.83,458.81l-4.25,4.25l-4.25-4.25"/>
<text transform="matrix(1 0 0 1 580.7466 470.6958)" style="&st9;"><tspan x="0" y="0" style="&st27; &st17;">6</tspan></text>
</g>
<g ewd:code="SR1" ewd:figID="643" ewd:figtype="w2w" ewd:pinNo="5">
<path style="&st10;" d="M629.57,464.48h8.5"/>
<path style="&st10;" d="M642.32,458.81l-4.25,4.25l-4.25-4.25"/>
<path style="&st10;" d="M633.82,455.41l4.25,4.25l4.25-4.25"/>
<text transform="matrix(1 0 0 1 623.2358 470.6958)" style="&st9;"><tspan x="0" y="0" style="&st27; &st17;">5</tspan></text>
</g>
<g ewd:code="RS1" ewd:figID="645" ewd:figtype="w2w" ewd:pinNo="1">
<path style="&st10;" d="M697.56,472.98h-8.5"/>
<path style="&st10;" d="M693.31,478.64l-4.25-4.25l-4.24,4.25"/>
<path style="&st10;" d="M693.31,482.04l-4.25-4.25l-4.24,4.25"/>
<text transform="matrix(1 0 0 1 674.2358 470.6958)" style="&st9;"><tspan x="0" y="0" style="&st27; &st17;">1</tspan></text>
</g>
<g ewd:code="Sq1" ewd:figID="640" ewd:figtype="w2w" ewd:pinNo="3">
<path style="&st10;" d="M604.08,540.97h-8.5"/>
<path style="&st10;" d="M599.83,546.63l-4.25-4.25l-4.25,4.25"/>
<path style="&st10;" d="M599.83,550.03l-4.25-4.25l-4.25,4.25"/>
<text transform="matrix(1 0 0 1 580.7466 538.686)" style="&st9;"><tspan x="0" y="0" style="&st27; &st17;">3</tspan></text>
</g>
<g ewd:code="Sq1" ewd:figID="642" ewd:figtype="w2w" ewd:pinNo="4">
<path style="&st10;" d="M646.57,540.97h-8.5"/>
<path style="&st10;" d="M642.32,546.63l-4.25-4.25l-4.25,4.25"/>
<path style="&st10;" d="M642.32,550.03l-4.25-4.25l-4.25,4.25"/>
<text transform="matrix(1 0 0 1 623.2358 538.686)" style="&st9;"><tspan x="0" y="0" style="&st27; &st17;">4</tspan></text>
</g>
<g ewd:code="AR2" ewd:figID="641" ewd:figtype="w2w" ewd:pinNo="1">
<path style="&st10;" d="M604.08,404.99h-8.5"/>
<path style="&st10;" d="M599.83,414.05l-4.25-4.25l-4.25,4.25"/>
<path style="&st10;" d="M599.83,410.65l-4.25-4.25l-4.25,4.25"/>
<text transform="matrix(1 0 0 1 580.7466 402.7065)" style="&st9;"><tspan x="0" y="0" style="&st27; &st17;">1</tspan></text>
</g>
<g ewd:code="AR2" ewd:figID="644" ewd:figtype="w2w" ewd:pinNo="2">
<path style="&st10;" d="M646.57,404.99h-8.5"/>
<path style="&st10;" d="M642.32,414.05l-4.25-4.25l-4.25,4.25"/>
<path style="&st10;" d="M642.32,410.65l-4.25-4.25l-4.25,4.25"/>
<text transform="matrix(1 0 0 1 623.2358 402.7065)" style="&st9;"><tspan x="0" y="0" style="&st27; &st17;">2</tspan></text>
</g>
<g ewd:code="GA1" ewd:figID="602" ewd:figtype="w2w" ewd:pinNo="10">
<text transform="matrix(1 0 0 1 619.8989 215.7363)" style="&st9;"><tspan x="0" y="0" style="&st27; &st17;">10</tspan></text>
</g>
<g ewd:code="GA6" ewd:figID="601" ewd:figtype="w2w" ewd:pinNo="62">
<path style="&st10;" d="M646.57,226.52h-8.5"/>
<path style="&st10;" d="M642.32,235.58l-4.25-4.25l-4.25,4.25"/>
<path style="&st10;" d="M642.32,232.18l-4.25-4.25l-4.25,4.25"/>
<text transform="matrix(1 0 0 1 619.8989 224.2363)" style="&st9;"><tspan x="0" y="0" style="&st27; &st17;">62</tspan></text>
</g>
<g ewd:code="GA6" ewd:figID="603" ewd:figtype="w2w" ewd:pinNo="64">
<text transform="matrix(1 0 0 1 806.8696 207.2363)" style="&st9;"><tspan x="0" y="0" style="&st27; &st17;">64</tspan></text>
</g>
<g ewd:code="GA6" ewd:figID="604" ewd:figtype="w2w" ewd:pinNo="11">
<path style="&st10;" d="M816.54,218.02h8.5"/>
<path style="&st10;" d="M820.79,227.08l4.25-4.24l4.25,4.24"/>
<path style="&st10;" d="M829.29,223.69l-4.25-4.25l-4.25,4.25"/>
<text transform="matrix(1 0 0 1 807.3149 215.7363)" style="&st9;"><tspan x="0" y="0" style="&st27; &st17;">11</tspan></text>
</g>
<g ewd:code="GA1" ewd:figID="647" ewd:figtype="w2w" ewd:pinNo="5">
<path style="&st10;" d="M859.04,379.49h8.5"/>
<path style="&st10;" d="M863.29,370.43l4.24,4.25l4.25-4.25"/>
<path style="&st10;" d="M871.78,373.83l-4.25,4.25l-4.24-4.25"/>
<text transform="matrix(1 0 0 1 852.7065 385.7065)" style="&st9;"><tspan x="0" y="0" style="&st27; &st17;">5</tspan></text>
</g>
<g ewd:code="GA6" ewd:figID="646" ewd:figtype="w2w" ewd:pinNo="19">
<text transform="matrix(1 0 0 1 849.3696 394.2065)" style="&st9;"><tspan x="0" y="0" style="&st27; &st17;">19</tspan></text>
</g>
<g ewd:code="GA6" ewd:figID="649" ewd:figtype="w2w" ewd:pinNo="10">
<path style="&st10;" d="M918.53,379.49h8.5"/>
<path style="&st10;" d="M922.78,370.43l4.24,4.25l4.25-4.25"/>
<path style="&st10;" d="M931.27,373.83l-4.25,4.25l-4.24-4.25"/>
<text transform="matrix(1 0 0 1 908.8589 385.7065)" style="&st9;"><tspan x="0" y="0" style="&st27; &st17;">10</tspan></text>
</g>
<g ewd:code="GA6" ewd:figID="648" ewd:figtype="w2w" ewd:pinNo="66">
<text transform="matrix(1 0 0 1 908.8589 394.2065)" style="&st9;"><tspan x="0" y="0" style="&st27; &st17;">66</tspan></text>
</g>
<g ewd:code="GA1" ewd:figID="651" ewd:figtype="w2w" ewd:pinNo="6">
<path style="&st10;" d="M978.02,379.49h8.5"/>
<path style="&st10;" d="M982.27,370.43l4.24,4.25l4.25-4.25"/>
<path style="&st10;" d="M990.76,373.83l-4.25,4.25l-4.24-4.25"/>
<text transform="matrix(1 0 0 1 971.686 385.7065)" style="&st9;"><tspan x="0" y="0" style="&st27; &st17;">6</tspan></text>
</g>
<g ewd:code="GA6" ewd:figID="650" ewd:figtype="w2w" ewd:pinNo="67">
<text transform="matrix(1 0 0 1 968.3491 394.2065)" style="&st9;"><tspan x="0" y="0" style="&st27; &st17;">67</tspan></text>
</g>
<g ewd:code="3JB" ewd:figID="303" ewd:figtype="jb">
<path style="&st10;" d="M640.2,133.03h-4.25"/>
<path style="&st10;" d="M640.2,141.53h-4.25"/>
<path style="&st10;" d="M640.2,175.53h-4.25"/>
<path style="&st10;" d="M640.2,184.03h-4.25"/>
<path style="&st8;" d="M638.07,146.43l2.84,2.83v-4.25l-2.84-2.83l-2.83,2.83v4.25L638.07,146.43"/>
<path style="&st8;" d="M638.07,170.63l-2.83-2.83v4.25l2.83,2.83l2.84-2.83v-4.25L638.07,170.63"/>
<path style="&st15;" d="M638.07,175.53v-34"/>
<path style="&st10;" d="M635.95,133.03c-2.35,0-4.25,1.91-4.25,4.25"/>
<path style="&st10;" d="M631.7,137.28c0,2.35,1.9,4.25,4.25,4.25"/>
<path style="&st10;" d="M640.2,141.53c2.34,0,4.25-1.9,4.25-4.25"/>
<path style="&st10;" d="M644.45,137.28c0-2.34-1.91-4.25-4.25-4.25"/>
<path style="&st10;" d="M635.95,175.53c-2.35,0-4.25,1.9-4.25,4.25"/>
<path style="&st10;" d="M631.7,179.78c0,2.34,1.9,4.25,4.25,4.25"/>
<path style="&st10;" d="M640.2,184.03c2.34,0,4.25-1.91,4.25-4.25"/>
<path style="&st10;" d="M644.45,179.78c0-2.35-1.91-4.25-4.25-4.25"/>
<text transform="matrix(1 0 0 1 633.7632 139.2466)" style="&st9;"><tspan x="0" y="0" style="&st27; &st17;">3A</tspan></text>
<text transform="matrix(1 0 0 1 621.4331 139.2466)" style="&st9;"><tspan x="0" y="0" style="&st27; &st17;">36</tspan></text>
<text transform="matrix(1 0 0 1 633.7632 181.7466)" style="&st9;"><tspan x="0" y="0" style="&st27; &st17;">3A</tspan></text>
<text transform="matrix(1 0 0 1 621.4331 181.7466)" style="&st9;"><tspan x="0" y="0" style="&st27; &st17;">72</tspan></text>
</g>
<g ewd:code="4JB" ewd:figID="321" ewd:figtype="jb">
<path style="&st10;" d="M988.64,557.96h-4.25"/>
<path style="&st10;" d="M988.64,549.46h-4.25"/>
<path style="&st10;" d="M929.15,600.46h-4.25"/>
<path style="&st10;" d="M929.15,591.96h-4.25"/>
<path style="&st10;" d="M929.15,557.96h-4.25"/>
<path style="&st10;" d="M929.15,549.46h-4.25"/>
<path style="&st15;" d="M927.02,574.96h59.49v-17"/>
<path style="&st15;" d="M925.83,573.96l-0.27,0.47l-0.09,0.53l0.09,0.53l0.27,0.47l0.42,0.35l0.5,0.19h0.55l0.5-0.19l0.42-0.35l0.27-0.47l0.09-0.53l-0.09-0.53l-0.27-0.47l-0.42-0.35l-0.5-0.19h-0.55l-0.5,0.19L925.83,573.96l0.4,0.71v0.58l0.37,0.45l0.57,0.1l0.51-0.29l0.19-0.55l-0.19-0.55l-0.51-0.29l-0.57,0.1l0.42,0.74"/>
<path style="&st8;" d="M986.51,562.86l2.84,2.83v-4.25l-2.84-2.83l-2.83,2.83v4.25L986.51,562.86"/>
<path style="&st15;" d="M927.02,591.96v-34"/>
<path style="&st8;" d="M927.02,587.06l-2.83-2.83v4.25l2.83,2.83l2.84-2.83v-4.25L927.02,587.06"/>
<path style="&st8;" d="M927.02,562.86l2.84,2.83v-4.25l-2.84-2.83l-2.83,2.83v4.25L927.02,562.86"/>
<path style="&st10;" d="M992.89,553.71c0-2.34-1.9-4.25-4.25-4.25"/>
<path style="&st10;" d="M988.64,557.96c2.35,0,4.25-1.9,4.25-4.25"/>
<path style="&st10;" d="M980.14,553.71c0,2.35,1.9,4.25,4.25,4.25"/>
<path style="&st10;" d="M984.39,549.46c-2.35,0-4.25,1.91-4.25,4.25"/>
<path style="&st10;" d="M933.4,596.21c0-2.35-1.9-4.25-4.25-4.25"/>
<path style="&st10;" d="M929.15,600.46c2.35,0,4.25-1.91,4.25-4.25"/>
<path style="&st10;" d="M920.65,596.21c0,2.34,1.9,4.25,4.25,4.25"/>
<path style="&st10;" d="M924.9,591.96c-2.35,0-4.25,1.9-4.25,4.25"/>
<path style="&st10;" d="M933.4,553.71c0-2.34-1.9-4.25-4.25-4.25"/>
<path style="&st10;" d="M929.15,557.96c2.35,0,4.25-1.9,4.25-4.25"/>
<path style="&st10;" d="M920.65,553.71c0,2.35,1.9,4.25,4.25,4.25"/>
<path style="&st10;" d="M924.9,549.46c-2.35,0-4.25,1.91-4.25,4.25"/>
<text transform="matrix(1 0 0 1 969.8735 555.6763)" style="&st9;"><tspan x="0" y="0" style="&st27; &st17;">35</tspan></text>
<text transform="matrix(1 0 0 1 982.063 555.6763)" style="&st9;"><tspan x="0" y="0" style="&st27; &st17;">4C</tspan></text>
<text transform="matrix(1 0 0 1 910.3833 598.1763)" style="&st9;"><tspan x="0" y="0" style="&st27; &st17;">68</tspan></text>
<text transform="matrix(1 0 0 1 922.7231 598.1763)" style="&st9;"><tspan x="0" y="0" style="&st27; &st17;">4A</tspan></text>
<text transform="matrix(1 0 0 1 910.3833 555.6763)" style="&st9;"><tspan x="0" y="0" style="&st27; &st17;">35</tspan></text>
<text transform="matrix(1 0 0 1 922.7231 555.6763)" style="&st9;"><tspan x="0" y="0" style="&st27; &st17;">4B</tspan></text>
</g>
<g ewd:code="A1" ewd:figID="202" ewd:figtype="gp">
<path style="&st15;" d="M745.72,710.94h5.67"/>
<path style="&st15;" d="M747.14,713.77h2.83"/>
<path style="&st15;" d="M748.55,701.02v4.25"/>
<path style="&st15;" d="M740.06,705.27h16.99"/>
<path style="&st15;" d="M744.31,708.1h8.49"/>
</g>
<g ewd:code="A2" ewd:figID="203" ewd:figtype="gp">
<path style="&st15;" d="M789.63,713.77h2.83"/>
<path style="&st15;" d="M788.21,710.94h5.67"/>
<path style="&st15;" d="M786.8,708.1h8.5"/>
<path style="&st15;" d="M782.55,705.27h17"/>
<path style="&st15;" d="M791.05,701.02v4.25"/>
</g>
<g ewd:code="G3" ewd:figID="204" ewd:figtype="gp">
<path style="&st15;" d="M864.7,710.94h5.67"/>
<path style="&st15;" d="M866.12,713.77h2.83"/>
<path style="&st15;" d="M867.53,701.02v4.25"/>
<path style="&st15;" d="M859.04,705.27h16.99"/>
<path style="&st15;" d="M863.29,708.1h8.49"/>
</g>
<g ewd:code="G5" ewd:figID="205" ewd:figtype="gp">
<path style="&st15;" d="M925.61,713.77h2.83"/>
<path style="&st15;" d="M924.19,710.94h5.67"/>
<path style="&st15;" d="M922.78,708.1h8.49"/>
<path style="&st15;" d="M918.53,705.27h16.99"/>
<path style="&st15;" d="M927.02,701.02v4.25"/>
</g>
<g ewd:code="q1" ewd:figID="41" ewd:figtype="conn">
<path style="&st10;" d="M578.58,591.96h76.49v33.99h-76.49V591.96"/>
<text transform="matrix(1 0 0 1 576.063 633.5571)" style="&st9;"><tspan x="0" y="0" style="&st27; &st17;">q1</tspan></text>
<text ewd:textID="42" transform="matrix(1 0 0 1 576.063 640.6665)" style="&st9; &st27; &st17;">Rear Speed Sensor RH</text>
<text transform="matrix(1 0 0 1 588.6235 599.5864)" style="&st9;"><tspan x="0" y="0" style="&st27; &st17;">RR-</tspan></text>
<text transform="matrix(1 0 0 1 589.5728 588.2661)" style="&st9;"><tspan x="0" y="0" style="&st27; &st17;">1</tspan></text>
<text transform="matrix(1 0 0 1 631.1235 599.5864)" style="&st9;"><tspan x="0" y="0" style="&st27; &st17;">RR+</tspan></text>
<text transform="matrix(1 0 0 1 631.2827 588.2661)" style="&st9;"><tspan x="0" y="0" style="&st27; &st17;">2</tspan></text>
</g>
<g ewd:code="G8" ewd:figID="8" ewd:figtype="conn">
<path style="&st10;" d="M621.08,48.05v33.99h33.99V48.05H621.08"/>
<text transform="matrix(1 0 0 1 631.2827 90.2363)" style="&st9;"><tspan x="0" y="0" style="&st27; &st17;">8</tspan></text>
<text transform="matrix(1 0 0 1 631.1528 78.3467)" style="&st9;"><tspan x="0" y="0" style="&st27; &st17;">HAZ</tspan></text>
<text ewd:textID="51" transform="matrix(1 0 0 1 618.5532 38.3965)" style="&st9; &st27; &st17;">Turn Signal <tspan x="0" y="7">Flasher Assembly</tspan></text>
<text transform="matrix(1 0 0 1 618.5532 31.2969)" style="&st9;"><tspan x="0" y="0" style="&st27; &st17;">G8</tspan></text>
</g>
<g ewd:code="A42" ewd:figID="42" ewd:figtype="conn">
<path style="&st10;" d="M774.05,489.97h33.99v34h-33.99V489.97"/>
<text ewd:textID="17" transform="matrix(0 -1 1 0 822.7632 526.4868)" style="&st9; &st27; &st17;">Brake Fluid Level Warning <tspan x="0" y="7">Switch (Brake Master </tspan><tspan x="0" y="14">Cylinder Reservoir Assembly)</tspan></text>
<text transform="matrix(0 -1 1 0 815.6636 526.4868)" style="&st9;"><tspan x="0" y="0" style="&st27; &st17;">A42</tspan></text>
<text transform="matrix(1 0 0 1 784.2632 486.2759)" style="&st9;"><tspan x="0" y="0" style="&st27; &st17;">2</tspan></text>
<text transform="matrix(1 0 0 1 783.353 520.2661)" style="&st9;"><tspan x="0" y="0" style="&st27; &st17;">GND</tspan></text>
<text transform="matrix(1 0 0 1 784.7632 497.606)" style="&st9;"><tspan x="0" y="0" style="&st27; &st17;">LBL</tspan></text>
<text transform="matrix(1 0 0 1 785.0435 532.1567)" style="&st9;"><tspan x="0" y="0" style="&st27; &st17;">1</tspan></text>
</g>
<g ewd:code="G9" ewd:figID="44" ewd:figtype="conn">
<path style="&st10;" d="M927.03,491.39l5.66-22.66"/>
<path style="&st15;" d="M927.03,498.47v-4.25"/>
<path style="&st15;" d="M927.03,468.73v-4.25"/>
<path style="&st10;" d="M935.52,498.47v-33.99h-16.99v33.99H935.52"/>
<path style="&st15;" d="M928.44,492.81c0-0.79-0.63-1.42-1.41-1.42"/>
<path style="&st15;" d="M927.03,491.39c-0.79,0-1.42,0.63-1.42,1.42"/>
<path style="&st15;" d="M925.61,492.81c0,0.78,0.63,1.41,1.42,1.41"/>
<path style="&st15;" d="M927.03,494.22c0.78,0,1.41-0.63,1.41-1.41"/>
<path style="&st15;" d="M928.44,470.14c0-0.78-0.63-1.41-1.41-1.41"/>
<path style="&st15;" d="M927.03,468.73c-0.79,0-1.42,0.63-1.42,1.41"/>
<path style="&st15;" d="M925.61,470.14c0,0.79,0.63,1.42,1.42,1.42"/>
<path style="&st15;" d="M927.03,471.56c0.78,0,1.41-0.63,1.41-1.42"/>
<text ewd:textID="52" transform="matrix(0 -1 1 0 950.2427 500.9966)" style="&st9; &st27; &st17;">VSC Off Switch</text>
<text transform="matrix(0 -1 1 0 943.1333 500.9966)" style="&st9;"><tspan x="0" y="0" style="&st27; &st17;">G9</tspan></text>
<text transform="matrix(1 0 0 1 920.2427 506.6665)" style="&st9;"><tspan x="0" y="0" style="&st27; &st17;">3</tspan></text>
<text transform="matrix(1 0 0 1 920.2427 460.7856)" style="&st9;"><tspan x="0" y="0" style="&st27; &st17;">6</tspan></text>
</g>
<g ewd:code="G10" ewd:figID="46" ewd:figtype="conn">
<path style="&st10;" d="M986.52,491.39l5.66-22.66"/>
<path style="&st15;" d="M986.52,498.47v-4.25"/>
<path style="&st15;" d="M986.52,468.73v-4.25"/>
<path style="&st10;" d="M995.01,498.47v-33.99h-16.99v33.99H995.01"/>
<path style="&st15;" d="M987.93,492.81c0-0.79-0.63-1.42-1.41-1.42"/>
<path style="&st15;" d="M986.52,491.39c-0.79,0-1.42,0.63-1.42,1.42"/>
<path style="&st15;" d="M985.1,492.81c0,0.78,0.63,1.41,1.42,1.41"/>
<path style="&st15;" d="M986.52,494.22c0.78,0,1.41-0.63,1.41-1.41"/>
<path style="&st15;" d="M987.93,470.14c0-0.78-0.63-1.41-1.41-1.41"/>
<path style="&st15;" d="M986.52,468.73c-0.79,0-1.42,0.63-1.42,1.41"/>
<path style="&st15;" d="M985.1,470.14c0,0.79,0.63,1.42,1.42,1.42"/>
<path style="&st15;" d="M986.52,471.56c0.78,0,1.41-0.63,1.41-1.42"/>
<text transform="matrix(0 -1 1 0 1002.6235 500.9966)" style="&st9;"><tspan x="0" y="0" style="&st27; &st17;">G10</tspan></text>
<text ewd:textID="26" transform="matrix(0 -1 1 0 1009.7329 500.9966)" style="&st9; &st27; &st17;">Downhill Assist <tspan x="0" y="7">Control Switch</tspan></text>
<text transform="matrix(1 0 0 1 979.7329 460.7856)" style="&st9;"><tspan x="0" y="0" style="&st27; &st17;">4</tspan></text>
<text transform="matrix(1 0 0 1 980.5034 506.6665)" style="&st9;"><tspan x="0" y="0" style="&st27; &st17;">1</tspan></text>
</g>
<g ewd:code="G104" ewd:figID="43" ewd:figtype="conn">
<path style="&st10;" d="M859.04,659.95h16.99v16.99h-16.99V659.95"/>
<path style="&st15;" d="M867.53,659.95v25.49"/>
<text transform="matrix(0 -1 1 0 883.6431 679.4673)" style="&st9;"><tspan x="0" y="0" style="&st27; &st17;">G104</tspan></text>
<text ewd:textID="33" transform="matrix(0 -1 1 0 890.7534 679.4673)" style="&st9; &st27; &st17;">Junction Connector</text>
<text transform="matrix(1 0 0 1 860.7534 656.2563)" style="&st9;"><tspan x="0" y="0" style="&st27; &st17;">2</tspan></text>
</g>
<g ewd:code="G106" ewd:figID="45" ewd:figtype="conn">
<path style="&st10;" d="M918.53,659.95h16.99v16.99h-16.99V659.95"/>
<path style="&st15;" d="M927.02,659.95v25.49"/>
<text transform="matrix(0 -1 1 0 943.1333 679.4673)" style="&st9;"><tspan x="0" y="0" style="&st27; &st17;">G106</tspan></text>
<text ewd:textID="33" transform="matrix(0 -1 1 0 950.2427 679.4673)" style="&st9; &st27; &st17;">Junction Connector</text>
<text transform="matrix(1 0 0 1 920.2427 656.2563)" style="&st9;"><tspan x="0" y="0" style="&st27; &st17;">3</tspan></text>
</g>
<g ewd:code="G48" ewd:figID="9" ewd:figtype="conn">
<path style="&st10;" d="M808.04,158.53v-33.99h34v33.99H808.04"/>
<text transform="matrix(1 0 0 1 820.5933 154.8267)" style="&st9;"><tspan x="0" y="0" style="&st27; &st17;">TS</tspan></text>
<text transform="matrix(1 0 0 1 815.0728 166.7168)" style="&st9;"><tspan x="0" y="0" style="&st27; &st17;">12</tspan></text>
<text transform="matrix(1 0 0 1 805.5229 120.8364)" style="&st9;"><tspan x="0" y="0" style="&st27; &st17;">DLC3</tspan></text>
<text transform="matrix(1 0 0 1 805.5229 113.7266)" style="&st9;"><tspan x="0" y="0" style="&st27; &st17;">G48</tspan></text>
</g>
<text transform="matrix(0 -1 1 0 982.8228 452.2075)" style="&st9;"><tspan x="0" y="0" style="&st27; &st17;">LG</tspan></text>
<text transform="matrix(0 -1 1 0 982.8228 361.3364)" style="&st9;"><tspan x="0" y="0" style="&st27; &st17;">W-L</tspan></text>
<text transform="matrix(0 -1 1 0 923.3335 540.1665)" style="&st9;"><tspan x="0" y="0" style="&st27; &st17;">W-B</tspan></text>
<text transform="matrix(1 0 0 1 996.4331 394.2065)" style="&st9;"><tspan x="0" y="0" style="&st27; &st17;">(RHD)</tspan></text>
<text transform="matrix(0 -1 1 0 501.2329 504.647)" style="&st9;"><tspan x="0" y="0" style="&st27; &st17;">(*2)</tspan></text>
<text transform="matrix(0 -1 1 0 501.2329 445.1567)" style="&st9;"><tspan x="0" y="0" style="&st27; &st17;">(*2)</tspan></text>
<text transform="matrix(0 -1 1 0 634.3833 119.3867)" style="&st9;"><tspan x="0" y="0" style="&st27; &st17;">W</tspan></text>
<text transform="matrix(0 -1 1 0 634.3833 251.1167)" style="&st9;"><tspan x="0" y="0" style="&st27; &st17;">W</tspan></text>
<text transform="matrix(0 -1 1 0 634.3833 200.1265)" style="&st9;"><tspan x="0" y="0" style="&st27; &st17;">W</tspan></text>
<text ewd:textID="3" transform="matrix(1 0 0 1 729.0327 58.5166)" style="&st9; &st27; &st17;">* 2 :3-Door</text>
<text ewd:textID="2" transform="matrix(1 0 0 1 729.0327 50.0166)" style="&st9; &st27; &st17;">* 1 :5-Door</text>
<text transform="matrix(0 -1 1 0 552.2329 445.1567)" style="&st9;"><tspan x="0" y="0" style="&st27; &st17;">(*2)</tspan></text>
<text transform="matrix(0 -1 1 0 540.8931 442.3364)" style="&st9;"><tspan x="0" y="0" style="&st27; &st17;">W</tspan></text>
<text transform="matrix(0 -1 1 0 552.2329 504.647)" style="&st9;"><tspan x="0" y="0" style="&st27; &st17;">(*2)</tspan></text>
<text transform="matrix(0 -1 1 0 540.8931 501.8267)" style="&st9;"><tspan x="0" y="0" style="&st27; &st17;">W</tspan></text>
<text transform="matrix(0 -1 1 0 603.2231 504.2661)" style="&st9;"><tspan x="0" y="0" style="&st27; &st17;">(*1)</tspan></text>
<text transform="matrix(0 -1 1 0 591.8833 501.8267)" style="&st9;"><tspan x="0" y="0" style="&st27; &st17;">W</tspan></text>
<text transform="matrix(0 -1 1 0 645.7134 504.2661)" style="&st9;"><tspan x="0" y="0" style="&st27; &st17;">(*1)</tspan></text>
<text transform="matrix(0 -1 1 0 634.3833 500.7974)" style="&st9;"><tspan x="0" y="0" style="&st27; &st17;">B</tspan></text>
<text transform="matrix(0 -1 1 0 696.7026 504.647)" style="&st9;"><tspan x="0" y="0" style="&st27; &st17;">(*2)</tspan></text>
<text transform="matrix(0 -1 1 0 685.3735 500.7974)" style="&st9;"><tspan x="0" y="0" style="&st27; &st17;">B</tspan></text>
<text transform="matrix(0 -1 1 0 696.7026 445.1567)" style="&st9;"><tspan x="0" y="0" style="&st27; &st17;">(*2)</tspan></text>
<text transform="matrix(0 -1 1 0 685.3735 441.3071)" style="&st9;"><tspan x="0" y="0" style="&st27; &st17;">B</tspan></text>
<text transform="matrix(0 -1 1 0 645.7134 444.7759)" style="&st9;"><tspan x="0" y="0" style="&st27; &st17;">(*1)</tspan></text>
<text transform="matrix(0 -1 1 0 603.2231 444.7759)" style="&st9;"><tspan x="0" y="0" style="&st27; &st17;">(*1)</tspan></text>
<text transform="matrix(0 -1 1 0 863.8433 361.6968)" style="&st9;"><tspan x="0" y="0" style="&st27; &st17;">W-B</tspan></text>
<text transform="matrix(0 -1 1 0 923.3335 625.147)" style="&st9;"><tspan x="0" y="0" style="&st27; &st17;">W-B</tspan></text>
<text transform="matrix(0 -1 1 0 787.353 574.1567)" style="&st9;"><tspan x="0" y="0" style="&st27; &st17;">W-B</tspan></text>
<text transform="matrix(1 0 0 1 996.4331 385.7065)" style="&st9;"><tspan x="0" y="0" style="&st27; &st17;">(LHD)</tspan></text>
<text transform="matrix(0 -1 1 0 863.8433 540.1665)" style="&st9;"><tspan x="0" y="0" style="&st27; &st17;">W-B</tspan></text>
<text transform="matrix(0 -1 1 0 744.8628 574.1567)" style="&st9;"><tspan x="0" y="0" style="&st27; &st17;">W-B</tspan></text>
<text transform="matrix(0 -1 1 0 982.8228 540.1665)" style="&st9;"><tspan x="0" y="0" style="&st27; &st17;">W-B</tspan></text>
<text transform="matrix(0 -1 1 0 787.353 390.8364)" style="&st9;"><tspan x="0" y="0" style="&st27; &st17;">V-G</tspan></text>
<text transform="matrix(0 -1 1 0 591.8833 568.7856)" style="&st9;"><tspan x="0" y="0" style="&st27; &st17;">B</tspan></text>
<text transform="matrix(0 -1 1 0 634.3833 569.8169)" style="&st9;"><tspan x="0" y="0" style="&st27; &st17;">W</tspan></text>
<text transform="matrix(0 -1 1 0 923.3335 449.8071)" style="&st9;"><tspan x="0" y="0" style="&st27; &st17;">B</tspan></text>
<text transform="matrix(0 -1 1 0 923.3335 357.7368)" style="&st9;"><tspan x="0" y="0" style="&st27; &st17;">B</tspan></text>
<text transform="matrix(0 -1 1 0 591.8833 442.3364)" style="&st9;"><tspan x="0" y="0" style="&st27; &st17;">W</tspan></text>
<text transform="matrix(0 -1 1 0 634.3833 441.3071)" style="&st9;"><tspan x="0" y="0" style="&st27; &st17;">B</tspan></text>
<text transform="matrix(0 -1 1 0 591.8833 365.8462)" style="&st9;"><tspan x="0" y="0" style="&st27; &st17;">W</tspan></text>
<text transform="matrix(0 -1 1 0 634.3833 364.8267)" style="&st9;"><tspan x="0" y="0" style="&st27; &st17;">B</tspan></text>
<text ewd:textID="9" transform="matrix(1 0 0 1 729.0327 67.0068)" style="&st9; &st27; &st17;">*10 :Before Oct. 2010 Production, <tspan x="14.5" y="7">From Oct. 2010 Production w/ Dynamic Radar Cruise Control</tspan></text>
<text transform="matrix(0 -1 1 0 821.353 254.3364)" style="&st9;"><tspan x="0" y="0" style="&st27; &st17;">B</tspan></text>
<text transform="matrix(0 -1 1 0 821.353 186.3564)" style="&st9;"><tspan x="0" y="0" style="&st27; &st17;">B</tspan></text>
<text transform="matrix(1 0 0 1 647.9829 215.7363)" style="&st9;"><tspan x="0" y="0" style="&st27; &st17;">(LHD)</tspan></text>
<text transform="matrix(1 0 0 1 647.9829 224.2363)" style="&st9;"><tspan x="0" y="0" style="&st27; &st17;">(RHD)</tspan></text>
<text transform="matrix(1 0 0 1 834.9526 207.2363)" style="&st9;"><tspan x="0" y="0" style="&st27; &st17;">(RHD)</tspan></text>
<text transform="matrix(1 0 0 1 834.9526 215.7363)" style="&st9;"><tspan x="0" y="0" style="&st27; &st17;">(LHD)</tspan></text>
</svg>
