﻿<?xml version="1.0" encoding="UTF-8"?>
<!DOCTYPE svg PUBLIC "-//W3C//DTD SVG 1.0//EN" "http://www.w3.org/TR/2001/REC-SVG-20010904/DTD/svg10.dtd"[
<!ENTITY ns_flows "http://ns.adobe.com/Flows/1.0/">
<!ENTITY ns_svg "http://www.w3.org/2000/svg">
<!ENTITY ns_xlink "http://www.w3.org/1999/xlink">
	<!ENTITY st0 "fill:none;stroke:#F8E616;stroke-width:5.1;stroke-linejoin:round;">
	<!ENTITY st1 "fill:none;stroke:#FB0F0C;stroke-width:5.1;stroke-linejoin:round;">
	<!ENTITY st2 "fill:none;stroke:#9A9999;stroke-width:5.1;stroke-linejoin:round;">
	<!ENTITY st3 "fill:none;stroke:#99280B;stroke-width:5.1;stroke-linejoin:round;">
		<!ENTITY st4 "fill:none;stroke:#000000;stroke-width:0.85;stroke-linecap:round;stroke-linejoin:round;stroke-dasharray:3 1.5;enable-background:new    ;">
	<!ENTITY st5 "fill:none;stroke:#000000;stroke-width:5.1;stroke-linejoin:round;">
	<!ENTITY st6 "fill:none;stroke:#199DBF;stroke-width:1.13;stroke-linejoin:round;">
	<!ENTITY st7 "fill:none;stroke:#000000;stroke-linecap:round;stroke-linejoin:round;">
	<!ENTITY st8 "stroke:#000000;stroke-width:0.28;stroke-linecap:round;stroke-linejoin:round;enable-background:new    ;">
	<!ENTITY st9 "enable-background:new    ;">
		<!ENTITY st10 "fill:none;stroke:#000000;stroke-width:1.42;stroke-linecap:round;stroke-linejoin:round;enable-background:new    ;">
	<!ENTITY st11 "fill:none;stroke:#EE67AA;stroke-width:5.1;stroke-linejoin:round;">
	<!ENTITY st12 "fill:none;stroke:#199DBF;stroke-width:5.1;stroke-linejoin:round;">
	<!ENTITY st13 "opacity:0.5;fill:none;stroke:#34ACCE;stroke-linejoin:round;stroke-dasharray:6;">
	<!ENTITY st14 "fill:none;stroke:#FFFFFF;stroke-width:4.53;stroke-linejoin:round;">
		<!ENTITY st15 "fill:none;stroke:#000000;stroke-width:0.85;stroke-linecap:round;stroke-linejoin:round;enable-background:new    ;">
	<!ENTITY st16 "fill:none;stroke:#56107C;stroke-width:5.1;stroke-linejoin:round;">
	<!ENTITY st17 "font-size:6px;">
	<!ENTITY st18 "fill:none;stroke:#FFFFFF;stroke-width:2.27;stroke-linejoin:round;">
	<!ENTITY st19 "fill:none;stroke:#FB0F0C;stroke-width:1.13;stroke-linejoin:round;">
	<!ENTITY st20 "fill:none;stroke:#FFFFFF;stroke-width:1.13;stroke-linejoin:round;">
	<!ENTITY st21 "fill:none;stroke:#168638;stroke-width:5.1;stroke-linejoin:round;">
	<!ENTITY st22 "fill:none;stroke:#000000;stroke-width:1.13;stroke-linejoin:round;">
		<!ENTITY st23 "fill:none;stroke:#000000;stroke-width:1.13;stroke-linecap:round;stroke-linejoin:round;stroke-dasharray:3 1.5;enable-background:new    ;">
	<!ENTITY st24 "fill:#FFFFFF;stroke:#000000;stroke-width:1.41;stroke-linecap:round;stroke-linejoin:round;">
	<!ENTITY st25 "fill:none;stroke:#3E65AC;stroke-width:3;">
	<!ENTITY st26 "fill:#CCCCCC;stroke:#CCCCCC;stroke-width:0.1;stroke-linecap:round;stroke-linejoin:round;">
	<!ENTITY st27 "fill:none;stroke:#000000;stroke-width:5.1;stroke-linejoin:round;enable-background:new    ;">
	<!ENTITY st28 "font-family:'ArialMT';">
	<!ENTITY st29 "opacity:0.5;fill:none;stroke:#34ACCE;stroke-linejoin:round;">
	<!ENTITY st30 "fill:#CFE6E7;stroke:#000000;stroke-width:1.133;stroke-linecap:round;stroke-linejoin:round;">
	<!ENTITY st31 "fill:none;stroke:#99D5E0;stroke-width:5.1;stroke-linejoin:round;">
	<!ENTITY st32 "fill:none;stroke:#FFFFFF;stroke-width:1.13;stroke-linejoin:round;enable-background:new    ;">
	<!ENTITY st33 "fill:none;stroke:#7EC57E;stroke-width:5.1;stroke-linejoin:round;">
<!ATTLIST svg
xmlns:ewd CDATA #FIXED "http://shcl.co.jp/ewd"
xmlns:a CDATA #FIXED "http://ns.adobe.com/AdobeSVGViewerExtensions/3.0/"
ewd:ver CDATA #IMPLIED
>
<!ATTLIST a
ewd:lineID CDATA #IMPLIED
ewd:groupID CDATA #IMPLIED
ewd:figtype CDATA #IMPLIED
ewd:code CDATA #IMPLIED
ewd:figID CDATA #IMPLIED
ewd:pinNo CDATA #IMPLIED
ewd:comment CDATA #IMPLIED >
<!ATTLIST g
ewd:lineID CDATA #IMPLIED
ewd:groupID CDATA #IMPLIED
ewd:figtype CDATA #IMPLIED
ewd:code CDATA #IMPLIED
ewd:figID CDATA #IMPLIED
ewd:pinNo CDATA #IMPLIED
ewd:comment CDATA #IMPLIED >
<!ATTLIST text
ewd:textID CDATA #IMPLIED >
<!ATTLIST title
ewd:textID CDATA #IMPLIED >
]>
<svg onload="call_execInitLoadProc_svg('system')"
style='overflow:visible;enable-background:new 0 0 3113.46 729.44'
viewBox='0 0 3113.46 729.44'
height='729.44'
width='3113.46'
xml:space="preserve"
xmlns="&ns_svg;"
xmlns:ewd="http://shcl.co.jp/ewd"
xmlns:a="http://ns.adobe.com/AdobeSVGViewerExtensions/3.0/"
xmlns:xlink="&ns_xlink;" ewd:ver="L2.1">
<style type="text/css">
	<![CDATA[
@font-face{font-family:'ArialMT';src:url("data:;base64,\
T1RUTwADACAAAQAQQ0ZGIETqrC0AAAA8AAAbQ0dQT1OgQ7GxAAAb3AAAAhJjbWFwAaQCMgAAG4AA\
AABcAQAEAgABAQEIQXJpYWxNVAABAQE3+BsB+BgEHPqv/S0cEAAcCAwFHqAASIKBJf+Lix6gAEiC\
gSX/i4sMB/dKD/dgEPdiEZMcGzsSAAEBAWVBcmlhbChSKSBUcmFkZW1hcmsgb2YgVGhlIE1vbm90\
eXBlIENvcnBvcmF0aW9uIHBsYyByZWdpc3RlcmVkIGluIHRoZSBVUyBQYXQgJiBUTSBPZmYuIGFu\
ZCBlbHNld2hlcmUuAAABAAEAAAkSACIWADoBAEIIAEwFAFMIAAAARgIAAQAbAB4AcQDHASEBQAFp\
AXcBhAGYAi4CWALiA6EDywRQBRgFXgY+BxAHKwdpCCAIxwlJCWYJgAo8CloKaQq/CuwK/Qs9C2MM\
Fwx4DVIN3g7EDtwPQQ9uD9MQBBAsERIRjxISEpUTIxNtFCoUeRSWFMQU0xVgFbcWOBbCFwIX1Rgv\
GIwYuBkCGUMZrRndyveUFhwFAPqUHPsAB/50qxX6VBwEwP5UBg7+HA79q/hz/EMVKPcRN/cnRvc8\
CEb3PGn3QvdIGvczpfcsvvclHsf3Pej3PPcR9zsI9xUGOvsfVihxUGIvayt0Jwhu+xF9+xH7Ehr7\
1e/71Pdb+9QeDv2r95H8QxX7FQb3W/fU7/fU99Ua9xF99xFu9w8edO9s62LnccdV7zr3IAj3FQb3\
Efs76Ps8x/s9CL77JaX7LPszGvtIaftCRvs8Hkb7PDf7Jyj7EQgO/TjLHAStFbn3IvVm2Gq7cBl+\
9w2F3oq4CPclBolJgzh+KNCu2avkqLn7Ihg2bzh4OoK0aMRM1TD7DDYYZMBe0lbmWi1fQ2Za+wrg\
GNjqw8qsqjWcOZ0+oAgO+6n4lfeBFfgm/CP3PPgj+CP3Pvwj+CP7PPwj/CYHDv4c90oW92H3Yfth\
B0B+TnBdHnBcYWdRclnYGLGcp6OdrJ2rlbmNyAgO/avM+EwV90n4vftJBw7+HPdOFvdh92H7YQcO\
/hxyBPg9HAXsBfckBvw8HPoUBQ7g+WcV90Gd9yCv9R6u9MDd0sQIxNHjqPYb2tB7bMYfxmu8XbJQ\
sk+pQqE2CKE1lvsI+yUa+0B5+x9oIh5oIVY5RVIIUUQybiAb+yH7A77wOh8q9w5b91v3pxr3TRb7\
haf7NMQ8HjvD0GPeG97Qs9vEH8Pbp/c094Qa94Vv9zVT2h7aUkWzNxs4SWhFWh9NMmz7OfuFGg75\
jxb7SBwEewZgYlJhRWJEYkxsU3YI90IH8LrjxdbO1s7BzarKCPcIBg76m/dBFftB/l0HiraStZqz\
pM2yzMLLwcvZ1fLf9zP3F/cA8sPYCMPXp9PPGtJyyFi8HrxYSKM5GzRGcVdXH1dXcUOKL/tNnhiY\
9x669N7UCNPe9wOv9x8b9yH3A2Q93R/dPbQq+wcaUH9Sc1Iec1JjUFRMU0wuNfsV+wH7ADBGTmxr\
bGpya3dqCA7h+BcV90ijoCWuQr1eGV68yHTSG+DSqMbGH8XGqNPiGt5wz1XBHsBVRqY4G2lhhH5Y\
H5/3MgWKl5WKkhvY0J+zyB/Is6rJ3hrNdcJeth62XlKhRBtFUXVfXB9cX21JfjP7SKsYofcNvejZ\
zgjN2eys9wgb29V6ac4fzmi/XK9QCK5QnUxIGkx6UWlXHmlXWWJIbOJ3zmK7TAi7TKM8LBr7FFz7\
AC4yHjIu+wpe+yMb+xUhsdg2HzbYWu5/9w4IDvkqFvfz/RD3OQf5MfpKBfcn/kr3Wvs5+1r78wb7\
SPiYFfkpB/xf/SkFDuD4FBX3UZuZL6xGvl0ZXL7IdNMb4tSszMcfx8yp4vcAGvJu3FLGHsZRP6ku\
G1FXfnFcH1xwZ2lwYfs9oRj3IvmFBflt+0D83QY8/B4FyOPnquwb9xT3AF8y4x/jMrf7BvsfGvsZ\
ZPsGPioe+wst+xRQ+zcb+xn7AbDWNx821lvuf/cPCA76j/rnFftHfXvSdL5uqxm+Wk+lRBtSWHtr\
YB9SYl9OajxqPHr7BYr7J7bNwLzKqwirysyb0Bv3DPFfM+Af3zK1+wb7IBovdzZkPB5jPFRORmEI\
YUY8djMb+yr7DsL3AywfLPcCXPdK95Ea96+/92L09xUe9wTm9w/D9y8b9wfqa0rVH9RKtzKa+wYI\
/XP9DBVNmFCmUh6lUrBgum4Ibbq9fL8b18yqyMIfwsim3/Qa8HDbVcYexVVHqDkbOkZuUVIfUlBv\
PywaDuwcBPoV90H6SfsgBy4oLvsYMPs5L/s5RPs9WftCZ/sPdPsagfsmCPtNBo33B6L3ILb3N7b3\
N8r3Mtz3LNz3K+H3FObzCA73/vmvFUCmVLJnvghnvnnH0hr2seTY1B7U2PGv9xMb9xTyZkHZH9lA\
sjEgGkd5UGhZHmdYVWRCcOVu0Fu6Sgi6SqI9MBr7EV8hMjYeNjL7CGD7JRv7JfsItuEyHzLgX/b3\
FBrqo9u8zB67y9C35KIIZ/fFFUahUrhfHl+4xXXSG9DEobe4H7e2ocHKGs10w164HrhdUqFHG0ZS\
dV9eH15fdFZOGlH9ORVYl1mkWx6jW69mu3EIcLu/fsIb4dKnwsMfw8Kn0uAa4m7SUsQexFFDpzQb\
NkVvU1QfU1NvRTcaDvcE9+cV90GbmjqnULRmGWa0wHnMG8K8mKS1H7Skra2mtqa1ocSd0wid05TU\
1hqTi5eKmx5nUlpcTWgIZ0xIeUIb+w0kt+M3HzfjYfcI9yQa9ym39wvj5h7m4vcCuPcYG+rjcVja\
H9pYx0K0LAi0LJ/7HvtIGvtPd/spYvsDHmL7A082O1EIUTotbvsAG/sHLqvLQh9CymDlfPcHCPl1\
+RsV8nDdVMgeyFRIqT4bO0VqSlAfUEptNiMaLqc/xFEeUMPQbt4b3tCoxsEfwMWm3PIaDv4c9035\
7RX3Yfdh+2EH+2H97RX3Yfdh+2EHDiCIFvjHHAW6BfdlBvjsHPpGBftxBvs/+FAF/PkG+zX8UAX3\
bfjuFfiFBvst+Cpc9w9p8XTaGXgtcS5pLggOIPcqFhwFuvi6B/cE5Xxuzx/ObcBdsk4IsU2eSkga\
THpQaVQeaVRYXkZp5HHPX7tMCLpMo0E2GkZ9TG5QHm5QZ11ga2BrVnNLewh6SjyDLhv8AfnmFffR\
BuHJkZawH7yasaOkrQikrZe2vhq8f7Z0sB50sGmkYJkImGBAkiIb+7kG/vQE+AEGyreNkKQfuJOw\
mKmeqZ6kpp6vCJ6ulbS6GsJ9um+0Hm+zZKdanAibWUOTLhv75wYOkRwEtPiWFfdWWmL7M0L7DiI4\
GTch+xVh+y0b+zL7FKvMKB8oyz/oWPcOCFf3DnH3F/cgGvctqPcZxvcGHsX3Bd7i9wDGCMb29wuo\
9xUb9yf3D2ZA7x/vQNEisvsb+1NeGGn2WthKvAi8SjqjKRv7BS1wVUAfP1VWQ2wwCGwwfC0qGvsR\
nfsAsC4ery7DRdhdCF3Y3nTkG/cB56rK1h/Wyr7opvcPCA6R9zIWHAW6+I0H9wbihH3HH99402jG\
WNhKxTeyJgixJZ77CPsXGvsDfihxNR5xNWpEYlNiUl9fW2taalFzR3oIekY9gzIb++P3QRX3zQbs\
15Sdwh/CnbakrKy5ua/JpdkIpNiY6fcDGvctcvcKWd4eWN1OwkOnCJ9XN5X7Bxv7yAYOIPc2FhwF\
uvq4+0H99vxV+b/7QP2//If6GPtBBw77cvc8FhwFuvpx+0H9r/xa+UT7Qf1E/S4HDvcM+eD40xX3\
QAf5AYwF/LQHLD8oUiZlCGQmI3ggG/sk+xeqyfsJH/sKyDLkT/cJCE/3CW33FvckGvcjqfcZx/cQ\
Hsb3D+Hn9wTHCMf3BPcVqfcmG/XremnhH+Bozlu8TrxOsDukKPtDWxh11nDFarZqtl2tTqUIpE5I\
mEEbMj9+cEofSnBXZ2RfY19sW3VWCGYweCkhGvsXovsBuDMeuDPMSuFgCGDh5nbsG9/dm6zbH9ur\
yK20sAj3pQcOkfc4FhwFuvdW/O75jvju91Yc+kb7VvlH/Y79RwcO/hz3UxYcBbr3Vhz6RgcO/FXG\
+DQV90OjkPsEoD6wYhlisL92zRu8tZairh+uoaSpmLIImLGSyN8a+ob3Vv57B/sPfCxuSB5tSFxX\
S2gIaEpAeTQb+xUpsNVHH0bVavcCjvcmCA4g9yoWHAW691b9awf5bPlrBfebBvz7/Ob5Fv38BfuU\
Bvye+Xr7hPt+BfyQBw73KhYcBbr3Vhz68/lm+0EHDvd99ywWHAW697gH9+/+oqsqokOaWxmcwKXa\
rvL38/qQGPeZHPpG+08cBMsG/D4c+zUF+0MG/DwcBOAFHPsgBw6R9zAWHAW691sH+ZYc+4EFHAR/\
904c+kb7Wwf9lhwEgAUc+4AHDvcM7vleFfeHzPdT9xf3Hh73HfcX9zzQ92Mb9xv3DmtK9wEf9wFK\
3jHE+wcIxPsIp/sX+yca+ylt+xlP+wkeT/sJNjL7Ak8ITvsC+wtt+xMb+x77D6zO+wEf+wHOOeZT\
9wcIU/cHb/cO9xUa91yIFftFu/sf6iYeJer3C1j3Ixv3JvcMvvLqH+nyuvcl91Ea9wt39GPkHmLk\
UNA+vAi8PTSjKhv7HfsKXC0oHygsWfsx+3EaDiD3MhYcBbr4vQfs1oaCvh/Tf8d0vGq8abJcqU4I\
qE6aSUIa+xFjIjw1HjQ8+yRg+2Mb/Az86Ab5lQT4Dwb3EeSiusAfwLqlzOAayHzAbLcebLZiqFiZ\
CJRqT48zG/wLBg73DBwE9fcxFeVN3l7XblL7GxgisSLHIt0ITvsB+wxt+xcb+xn7DKvL+wAf+wDL\
OOVR9wgIUPcIbvcX9yUa9yWo9xfG9wsexvcL3uX3AckIyfcA9w2q9xob9xv3DmtL9wEf9wFK3jHE\
+wcIxPsIp/sX+yUa+w15+wBmKx5mKlQ3QUQI/D/3jBX3BGznXNRNCPcG88T3MPdlGvcLd/Jj5B5i\
5FDQPrwIvD00oyob+yX7DFooLB8sKFv7KPtZGvtTuvsm6iUeJen3DFj3JxvQzZilyB9OskunSJwI\
DpH3NRYcBbr5Hgf3F+5+cc8fz3DBXbRICLRIn0I6GiNpM0hEHkhEI137IXi+crJzpnPEV8BKvj33\
k/wjGPuIBvtW98VS413OZroZZrprq26ebp5tmG2SCJB1Z41ZG/t1/R8G+ccE+DUG5NCUnr0fvZ2x\
qKW0CKWzmLe6GtByxFm4HrhYPKH7ARv8ZAYOIOf4axX3S5uUQp9Pq1wZqly8Zc5uCG7O1nzeG9XM\
lqHEH8ShtamnsgimsZm1uBq5frNwrh5wrV+oTqJkmjSj+xus+xurLalVqEWwV7hpwghowXrIzhrV\
oNC1zB61y8i83KwIrNzknO4b9wHremjeH95oyle4R7hHoz6ONftOfRiB6GnRUroIulE2o/sFG/sJ\
NXZgVh9VYHBXThpWnmCxaR6wae1o9zJo9zFn9wBsxnDgZMpZtE8ItE6fRjwaPXVCXkYeXkZLVThl\
CGQ3LXgiG/sZ+wOesjIfMbJFxVjZWNhw44jtCA77cvinFhwFDfx390EcBIr7Qfx5HPrzBw6R+vQc\
BboV91b94wb7J3r7CWo0Hmo0T0U0VQhUNPsHcPshG/sd+wWjujQfNLpM0GblCGbkePcP9y8a+eP3\
Vv3iB/sTly2jTx6iTrRdxWoIasTSe94b9yPwq8zIH8jMqfcQ90waDiD41Rb8zBwFugX3Zgb4Ef69\
qjakO6BAGaLbpdup2/gg+r0Y91oG/NIc+kYFDvhg+DIW/BkcBboF91sG93P+VaMmoCecKBmw9zGh\
5ZKj96v6chj3fgb3Zv16wPtMsftBovs2GZ7oo/Wp9wz3evpCGPdXBvwmHPpGBftPBvvJ+vFx6HzF\
hqAZfEh8UX5c+8v+8RgOIPjPFvkBB/zJ+eEF94AG97X8TsA4vTm5OBm32MDhyuv3sPhDGPd2Bvzd\
/eEF/QEHDvtytBb3SAf5g/o/wM6+xbu8Gf3G90H6rvtBBv3L/o0yJAX6PPtBBg750PcXFUhSS2NO\
dAh0TUl/RBv7CTKoxEwfTMRs0+Qav5e7o7YeoraqrbKlsaW2n7uYrpTBlNKU9yWc9qDQowiMpIua\
khrUer9pqR60XUefMBs2TXxuYx9ibW1WeED7RKMYm9alyLC6sLnAr9CkCKTQ3JfmG+bUgHbEH8R2\
tHCma6ZqnWKWWgiRbI5UOxr7hAf7O48hk18ekl6aYaJiCPtQBniwf7eGvQh8+CYVSnApdfsXeEGA\
V39sfmx+dHd6cgh6cYNubBpbnWOwax5rr8B70RvQyZqqwR/BqbO0pMAInrSVx9oaDvfBFvs7HAW6\
90j8nwbq1+y79wobzMl+ccYfxXC7ZrFcsFupUaBICKBIlkM+GvtKXvshMSgeKDH7AFn7Ehv7ESi/\
9EQfifgqFfsTnC+uUh4uxNdd7Bvaz63QxB/Ez6jx9xsa9x9w8VTNHs1USKw9GzxHaUdSH1JGbij7\
FRoO/FX50PgZFfdFdHj7DlksPEYZRjspaPsIG/sl+wm76jMfMupf9xz3RRr3B57vseEeseHFzNm2\
CLbY4KDmG/cH6m5R1B/UULo4oCD7Q3AYetJuwWGvCK9gWJ1PGzBCa0pSH1JKbyT7IRr7I6Ykwkoe\
SsLSa+Mb0sahtrofurapzpjlCA75zBb3GgciSChW+xcbNj6iukQfRLpUzGTfCGTed+v3ARr1neuu\
4h6u4cDN0rkIudLaouIby8R+cL0fvXC0Z6pgCPii90cc+kYH/XT4phX7HKglxEgeSMTPadkb2s6r\
zMIfwsum7fcYGvclb/ZTzx7PU0atORs7SGpKVh9VSnAk+yEaDvny9+oV9050bvsBVDc8TxlPPCVt\
+w8b+y/7D7vrMB8w6l33GvdBGvdHufce5+4e7uf3C7z3Jxv3IvcIWyrlH+UquPsc+0MagIt7inYe\
/awGkvsJrDLGTQhNxtVs5BvNw5yuuh+6rrDCptcI/OP3txX45QaD5HTOZrgI0FJArjAbOEZvVFMf\
UlRsQYUuCA7+HPdGFvou+zP3IPcz9wUH0pHAmK4enLqqsbeoCKi2yJnaG77DhX/IH3D7MQWSZmeO\
ahtUZX90dB90dIBfSxop92P7IPtj/i4HDvEzFfdDcZJVoGSschlquMh62BvezJysuB+4rKq6m8eU\
sJDYivcJCC48KV37CRv7JvsFwPQ7Hzv0Y/cT9yca8J3psOEesODAzdG6CLrQ3aLpG/cR81gm3B/3\
FPc6/ioH+zl6+wpqRx5pRlZUQmMIY0IxdyAb+xMlp8U9Hz3EZeCO9wcI9yn5EhX7H6clwkseS8LR\
a94b3tCry8Mfw8qn7/ccGvcWbu1SzR7NUUWsOhs7R2tKUx9TSm8q+xQaDvcbFhwFuvdI/KIH7N/1\
vPcUG9rPfGzFH8VstWCkVAikVJc8Ixr9NftI+TUH5XjNZLQetGRTn0QbVll9cFwfXG9pZXdcCHdc\
gUk4GvzZBw7+jvccHATrFfdj90j7Ywf7SBz7FRX6uvdI/roHDvxV9xwWHAW690j92Af4PvhEBfd9\
Bvwq/B74U/0wBftyBvvz+LP7E/sOBfw5Bw7+jvcXFhwFuvdIHPpGBw73ffcbFvq69zX7KQesv7i1\
wqsIqsLKm9Ib2st7ar4fvWquXqBQCPcQ3/cByfcbG/TcblHEH8RQpzH7DRr9bftH+TEH04W/gKse\
f6p2pWyeCJ5sZ5ViG0BNclpaH1pZcjv7ARr8/ftI+UYH23zHbrMes25bn0gbWF1+cGAfYHBrZHhY\
CHhYgUEqGvy7Bw73Gxb6uvc2+ysH9wnZ9wXF9ycby8aAdMEfwHSzbKZmpmadXpZYCJJqjlA4Gv0h\
+0j5GgfUhMJ9sB59r3KoaKEIoGdhllsbPklzWlQfU1pvL/scGvzYBw7P+KcV91nC9yX3Aeoe2ub3\
BLL3Fxv3JvcLWyzoH+grufsY+z0a+x13IGI9HmI8T049YAhgPDZ1Lhv7KfsMu+owHy/qXfce90ca\
900W+xypJcZIHkfG1mnlG+TWrc/GH8bPqfP3Hxr3F23vUM8ezk9BrTIbMUBpSFAfUEhtJfscGg73\
G/wrFRwFvfc4+x4HssG2tLymCKa8xpjQG+bbdFzQH9BcwEquNgiuNp0tJhr7AXgqZDQeZDRSSEFd\
CFxAPXQ5G09VmKRcH1ukZKtssgj8mQd6+jgV+x2nJsJKHkrCzmraG9vQrc/EH8TOp/T3Ihr3G2/x\
VM4ezlNIrT4bPkhnRFAfUENtI/sdGg79q/cZFvq69zb7NQe01rK9rqMIo66xl7UbyMh4ZMofTfs7\
BaVfX5hfG2Rnf3RsH2xzdGp+YQh3S4FFPxr8wAcO/FXK99EV90anlUSnVLllGWW4y3jdG97InK2z\
H7Osn7O4GrR5q2iiHnKbTp8ppPsYrDCoWKRYo2StcbYIcLZ+ur8aupa3obQeoLOprLCmp6CxnLya\
CJm7v5LCG97Vf3PKH8pzuWupYqlioFSWRvtEcxiDwnS1ZaoIqmRVmkUbOFB9cGgfaHB5a2YadJJ2\
mngemniie6p+nYTAfONz9xNp5G++dr11smuoYgioYplXThpPelNoVh5oVlhiSW4IbklAfDgb+x4i\
qMRDH0LEXeB39wUIDv4c+KT3NRWl+zMFgFhehmMbSliVoGcfZ6BypnytCHyshNL3ABr49/sY9yD3\
GPebB/dH9wAF/Af3Sfsg+0n9AQdYjmqSfB6RfJWAmoIIgpmfh6Ybn6WNkKwfDvnTFvcwB/sMOPsE\
T/siG0xRl6NVH1SjY6lxsHCvebeAwAiErofD2Br5JvdI/OEHLY9MkmoellyjZrBwCHCwuH3BG8G+\
mae6H7qmrbGfuwieupXQ5hr4zfdI/roHDvxV+EIW/Cj6ugX3Ugb3eP0QpEahRKBBGZvDoc6o2veA\
+RwY900G/Cb+ugUOkfffFvvZ+roF904G9z38+cr7eI6WndSt9xsZ9z35AgX3TQb3M/z8wPtfyPdh\
90r4+gX3Qwb74P66BftPBvs9+RBi90n7a/3FBQ78VZoW+Bj4vPv7+JIF93UG9zf7japco2Oeaxmo\
t6aypK33R/ePGPdrBvwD/Ij4H/zGBftxBvtu995R5Pur/DcFDvxV9xP8LRV39z0FgLKuhqgbs6uS\
mKMfo5ifnpqjlp2euKTSjpWRmpKe/Cf6vBj3Vgb3cfz7qD2kOaI1GaDeo9uo2vd3+P8Y90gG/Cj+\
zGD7CWk7c18Za1BmX2JwCG9iWX1SG2hlkppgHw78VbMW9yYH+Tj5nAWHPkiJUBv8Rfcm+fj7Cwb8\
0/02+wP7DwWR3NaO0hv4f/svBg4cBHMUHAXBFQAAAAABAAAAAwAAAAwABABQAAAAEAAQAAMAAAAg\
ADoAVwBaAGkAcAB6//8AAAAgACgAQQBZAGEAawBy////4f/a/9T/0//N/8z/ywABAAAAAAAAAAAA\
AAAAAAAAAAABAAAACgAeACwAAURGTFQACAAEAAAAAP//AAEAAAABa2VybgAIAAAAAQAAAAEABAAC\
AAAAAQAIAAEBtgAEAAAAEAAqADgAPgBgAG4AiACaAKwA8gEkAVIBiAGOAZgBogGsAAMAFf+PACj/\
2wAs/9sAAQAL/2gACAAB/48AKP9oACr/aAAr/7QALP9oAEH/2wBC/9sARP/bAAMABv8dAAj/HQAV\
/48ABgAB/7QAKP9oACr/aAAr/2gALP9oAET/tAAEAAH/2wAG/vgACP74ABX/aAAEACj/2wAq/9sA\
K//bACz/2wARAAH/2wAG/x0AB/+PAAj/HQAU/x0AFf9oACP/2wAu/x0AMP8dADL/HQA2/7QAO/8d\
AD3/tAA+/x0AQP+0AEL/jwBE/48ADAAG/0QAB/+PAAj/RAAU/7QAFf9oAC7/aAAy/48ANv/bADv/\
jwA9/7QAQP+0AET/tAALAAb/jwAH/9sACP+PABT/2wAV/7QALv+0ADL/2wA7/9sAPf/bAED/2wBE\
/+4ADQAB/9sABv74AAf/RAAI/vgAFP+PABX/aAAu/2gAMv9EADb/tAA7/0QAPP9oAED/jwBB/48A\
AQAz/9sAAgAG/48ACP+PAAIABv9oAAj/aAACAAb/jwAI/48AAgAG/2gACP9oAAEAEAABAAsAFQAa\
	]]>
	</style>
<script type="text/javascript" xlink:href="../../../../../system/js/ewd/fig/svgfig.js"/>
<defs>
<font horiz-adv-x="1229">
<font-face font-family="Svg Symbol" units-per-em="2048" panose-1="5 5 1 2 1 7 6 2 5 7" ascent="2059" descent="450" alphabetic="0"/>
<missing-glyph d="M 103,0 l 0,1280 1024,0 0,-1280 -1024,0 z m 32,32 l 960,0 0,1216 -960,0 0,-1216 z"/>
<glyph unicode="&#xF057;" horiz-adv-x="1573" d="M 1517,0 l -567,0 24,279 q 141,59 207.5,168 66.5,109 66.5,306    0,272 -132.5,417.5 -132.5,145.5 -333.5,145.5 -194,0 -328,-147.5 -134,-147.5 -134,-401.5 0,-200 68.5,-319 68.5,-119     206.5,-169 l 25,-279 -564,0 0,279 35,0 q 3,-61 32,-83 45,-35 137,-35 l 270,0 0,70 q -210,61 -324.5,209 -114.5,148     -114.5,349 0,252 186.5,425 186.5,173 504.5,173 195,0 358.5,-73.5 163.5,-73.5 252,-214.5 88.5,-141 88.5,-310 0,-207     -121.5,-360.5 -121.5,-153.5 -317.5,-197.5 l -8,-70 275,0 q 92,0 128,28 36,28 42,90 l 38,0 0,-279 z"/>
</font>
</defs>
<g id="ewd_top">
<a ewd:lineID="1" style="cursor:pointer;">
<path style="&st11;" d="M 40.16 , 124.54 L 40.16 , 133.03 L 31.67 , 141.53 L 14.67 , 141.53 L 14.67 , 22.55 L 252.63 , 22.55 L 252.63 , 157.4"/>
</a>
<a ewd:lineID="7" style="cursor:pointer;">
<path style="&st21;" d="M 99.65 , 124.54 L 99.65 , 133.03 L 108.15 , 141.53 L 286.62 , 141.53 L 286.62 , 157.4"/>
</a>
<a ewd:lineID="6" style="cursor:pointer;">
<path style="&st21;" d="M 99.65 , 124.54 L 99.65 , 201.02"/>
</a>
<a ewd:lineID="3" style="cursor:pointer;">
<path style="&st11;" d="M 40.16 , 124.54 L 40.16 , 201.02"/>
</a>
<a ewd:lineID="4" style="cursor:pointer;">
<path style="&st11;" d="M 40.16 , 252.01 L 40.16 , 311.5"/>
</a>
<a ewd:lineID="5" style="cursor:pointer;">
<path style="&st21;" d="M 99.65 , 252.01 L 99.65 , 311.5"/>
</a>
<a ewd:lineID="2" style="cursor:pointer;">
<path style="&st11;" d="M 40.16 , 362.5 L 40.16 , 413.49"/>
</a>
<a ewd:lineID="8" style="cursor:pointer;">
<path style="&st21;" d="M 99.65 , 362.5 L 99.65 , 413.49"/>
</a>
<a ewd:lineID="9" style="cursor:pointer;">
<path style="&st2;" d="M 133.65 , 311.5 L 133.65 , 294.51 L 210.14 , 294.51 L 210.14 , 432.75"/>
</a>
<a ewd:lineID="11" style="cursor:pointer;">
<path style="&st11;" d="M 252.63 , 210.65 L 252.63 , 252.01"/>
</a>
<a ewd:lineID="12" style="cursor:pointer;">
<path style="&st21;" d="M 286.62 , 210.65 L 286.62 , 252.01"/>
</a>
<a ewd:lineID="13" style="cursor:pointer;">
<path style="&st12;" d="M 286.62 , 277.51 L 286.62 , 310.37"/>
</a>
<a ewd:lineID="10" style="cursor:pointer;">
<path style="&st5;" d="M 252.63 , 277.51 L 252.63 , 310.37"/>
</a>
<a ewd:lineID="62" style="cursor:pointer;">
<path style="&st2;" d="M 99.65 , 472.98 L 99.65 , 532.47"/>
</a>
<a ewd:lineID="61" style="cursor:pointer;">
<path style="&st2;" d="M 99.65 , 583.46 L 99.65 , 642.95 L 133.65 , 642.95 L 133.65 , 387.99 L 193.14 , 387.99 L 193.14 , 413.49 L 210.14 , 430.48 L 210.14 , 432.75"/>
</a>
<a ewd:lineID="63" style="cursor:pointer;">
<path style="&st2;" d="M 210.14 , 432.75 L 210.14 , 430.48 L 227.13 , 413.49 L 227.13 , 396.49 L 286.62 , 396.49 L 286.62 , 380.63"/>
</a>
<a ewd:lineID="65" style="cursor:pointer;">
<path style="&st2;" d="M 210.14 , 447.48 L 210.14 , 455.98 L 218.63 , 464.48 L 278.12 , 464.48 L 278.12 , 489.97"/>
</a>
<a ewd:lineID="66" style="cursor:pointer;">
<path style="&st2;" d="M 210.14 , 447.48 L 210.14 , 489.97"/>
</a>
<a ewd:lineID="69" style="cursor:pointer;">
<path style="&st1;" d="M 278.12 , 523.97 L 278.12 , 549.46 L 235.63 , 549.46 L 227.13 , 557.96 L 227.13 , 565.89"/>
</a>
<a ewd:lineID="67" style="cursor:pointer;">
<path style="&st1;" d="M 227.13 , 523.97 L 227.13 , 565.89"/>
</a>
<a ewd:lineID="68" style="cursor:pointer;">
<path style="&st1;" d="M 227.13 , 609.52 L 227.13 , 625.95 L 363.11 , 625.95 L 363.11 , 566.46"/>
</a>
<a ewd:lineID="64" style="cursor:pointer;">
<path style="&st1;" d="M 363.11 , 462.21 L 363.11 , 464.48 L 371.61 , 472.98 L 380.11 , 472.98 L 380.11 , 642.95 L 210.14 , 642.95 L 210.14 , 634.45 L 227.13 , 617.45 L 227.13 , 609.52"/>
</a>
<a ewd:lineID="16" style="cursor:pointer;">
<path style="&st2;" d="M 363.11 , 305.27 L 363.11 , 150.03 L 414.1 , 150.03 L 414.1 , 175.53"/>
</a>
<a ewd:lineID="17" style="cursor:pointer;">
<path style="&st33;" d="M 414.1 , 243.52 L 414.1 , 305.27"/>
</a>
<a ewd:lineID="18" style="cursor:pointer;">
<path style="&st33;" d="M 414.1 , 362.5 L 414.1 , 320"/>
</a>
<a ewd:lineID="15" style="cursor:pointer;">
<path style="&st2;" d="M 363.11 , 362.5 L 363.11 , 320"/>
</a>
<a ewd:lineID="83" style="cursor:pointer;">
<path style="&st21;" d="M 490.59 , 404.99 L 490.59 , 447.48"/>
</a>
<a ewd:lineID="79" style="cursor:pointer;">
<path style="&st1;" d="M 448.1 , 404.99 L 448.1 , 447.48"/>
</a>
<a ewd:lineID="76" style="cursor:pointer;">
<path style="&st16;" d="M 405.6 , 404.99 L 405.6 , 447.48"/>
</a>
<a ewd:lineID="72" style="cursor:pointer;">
<path style="&st1;" d="M 363.11 , 404.99 L 363.11 , 447.48"/>
</a>
<a ewd:lineID="71" style="cursor:pointer;">
<path style="&st1;" d="M 363.11 , 462.21 L 363.11 , 515.47"/>
</a>
<a ewd:lineID="75" style="cursor:pointer;">
<path style="&st16;" d="M 405.6 , 462.21 L 405.6 , 498.47"/>
</a>
<a ewd:lineID="81" style="cursor:pointer;">
<path style="&st21;" d="M 490.59 , 462.21 L 490.59 , 498.47"/>
</a>
<a ewd:lineID="77" style="cursor:pointer;">
<path style="&st1;" d="M 448.1 , 462.21 L 448.1 , 498.47"/>
</a>
<a ewd:lineID="84" style="cursor:pointer;">
<path style="&st21;" d="M 490.59 , 560.23 L 490.59 , 521.7"/>
</a>
<a ewd:lineID="78" style="cursor:pointer;">
<path style="&st12;" d="M 448.1 , 560.23 L 448.1 , 521.7"/>
</a>
<a ewd:lineID="73" style="cursor:pointer;">
<path style="&st16;" d="M 405.6 , 560.23 L 405.6 , 521.7"/>
</a>
<a ewd:lineID="74" style="cursor:pointer;">
<path style="&st16;" d="M 405.6 , 625.95 L 405.6 , 574.96"/>
</a>
<a ewd:lineID="80" style="cursor:pointer;">
<path style="&st12;" d="M 448.1 , 625.95 L 448.1 , 574.96"/>
</a>
<a ewd:lineID="82" style="cursor:pointer;">
<path style="&st21;" d="M 490.59 , 625.95 L 490.59 , 574.96"/>
</a>
<a ewd:lineID="70" style="cursor:pointer;">
<path style="&st5;" d="M 329.12 , 566.46 L 329.12 , 659.95"/>
<path style="&st14;" d="M 329.12 , 566.46 L 329.12 , 659.95"/>
<path style="&st22;" d="M 329.12 , 566.46 L 329.12 , 659.95"/>
</a>
<a ewd:lineID="93" style="cursor:pointer;">
<path style="&st33;" d="M 796.54 , 625.95 L 796.54 , 566.46"/>
</a>
<a ewd:lineID="92" style="cursor:pointer;">
<path style="&st12;" d="M 771.04 , 625.95 L 771.04 , 566.46"/>
</a>
<a ewd:lineID="91" style="cursor:pointer;">
<path style="&st12;" d="M 745.55 , 625.95 L 745.55 , 566.46"/>
<path style="&st18;" d="M 745.55 , 625.95 L 745.55 , 566.46"/>
<path style="&st19;" d="M 745.55 , 625.95 L 745.55 , 566.46"/>
</a>
<a ewd:lineID="90" style="cursor:pointer;">
<path style="&st1;" d="M 711.55 , 625.95 L 711.55 , 566.46"/>
</a>
<a ewd:lineID="89" style="cursor:pointer;">
<path style="&st21;" d="M 686.06 , 625.95 L 686.06 , 566.46"/>
</a>
<a ewd:lineID="88" style="cursor:pointer;">
<path style="&st12;" d="M 660.56 , 625.95 L 660.56 , 566.46"/>
<path style="&st18;" d="M 660.56 , 625.95 L 660.56 , 566.46"/>
<path style="&st22;" d="M 660.56 , 625.95 L 660.56 , 566.46"/>
</a>
<a ewd:lineID="87" style="cursor:pointer;">
<path style="&st5;" d="M 626.57 , 625.95 L 626.57 , 566.46"/>
<path style="&st14;" d="M 626.57 , 625.95 L 626.57 , 566.46"/>
</a>
<a ewd:lineID="86" style="cursor:pointer;">
<path style="&st5;" d="M 601.07 , 625.95 L 601.07 , 566.46"/>
</a>
<a ewd:lineID="85" style="cursor:pointer;">
<path style="&st33;" d="M 575.57 , 625.95 L 575.57 , 566.46"/>
</a>
<a ewd:lineID="14" style="cursor:pointer;">
<path style="&st5;" d="M 898.52 , 141.53 L 898.52 , 65.05 L 329.12 , 65.05 L 329.12 , 515.47"/>
<path style="&st14;" d="M 898.52 , 141.53 L 898.52 , 65.05 L 329.12 , 65.05 L 329.12 , 515.47"/>
<path style="&st22;" d="M 898.52 , 141.53 L 898.52 , 65.05 L 329.12 , 65.05 L 329.12 , 515.47"/>
</a>
<a ewd:lineID="19" style="cursor:pointer;">
<path style="&st31;" d="M 652.06 , 115.47 L 652.06 , 82.04 L 864.53 , 82.04 L 864.53 , 141.53"/>
</a>
<a ewd:lineID="20" style="cursor:pointer;">
<path style="&st11;" d="M 728.55 , 115.47 L 728.55 , 99.04 L 830.53 , 99.04 L 830.53 , 141.53"/>
</a>
<a ewd:lineID="21" style="cursor:pointer;">
<path style="&st16;" d="M 830.53 , 218.02 L 830.53 , 175.53"/>
</a>
<a ewd:lineID="26" style="cursor:pointer;">
<path style="&st12;" d="M 898.52 , 175.53 L 898.52 , 218.02"/>
</a>
<a ewd:lineID="28" style="cursor:pointer;">
<path style="&st12;" d="M 975.01 , 107.54 L 975.01 , 218.02"/>
</a>
<a ewd:lineID="27" style="cursor:pointer;">
<path style="&st12;" d="M 932.52 , 269.01 L 932.52 , 286.01 L 975.01 , 286.01 L 975.01 , 269.01"/>
</a>
<a ewd:lineID="25" style="cursor:pointer;">
<path style="&st12;" d="M 898.52 , 269.01 L 898.52 , 305.27"/>
</a>
<a ewd:lineID="22" style="cursor:pointer;">
<path style="&st16;" d="M 830.53 , 269.01 L 830.53 , 305.27"/>
</a>
<a ewd:lineID="23" style="cursor:pointer;">
<path style="&st16;" d="M 830.53 , 362.5 L 830.53 , 320"/>
</a>
<a ewd:lineID="24" style="cursor:pointer;">
<path style="&st12;" d="M 898.52 , 320 L 898.52 , 362.5"/>
</a>
<a ewd:lineID="96" style="cursor:pointer;">
<path style="&st5;" d="M 932.52 , 576.09 L 932.52 , 591.96 L 992.01 , 591.96 L 992.01 , 479.21"/>
<path style="&st14;" d="M 932.52 , 576.09 L 932.52 , 591.96 L 992.01 , 591.96 L 992.01 , 479.21"/>
<path style="&st22;" d="M 932.52 , 576.09 L 932.52 , 591.96 L 992.01 , 591.96 L 992.01 , 479.21"/>
</a>
<a ewd:lineID="97" style="cursor:pointer;">
<path style="&st5;" d="M 992.01 , 404.99 L 992.01 , 464.48"/>
<path style="&st14;" d="M 992.01 , 404.99 L 992.01 , 464.48"/>
<path style="&st22;" d="M 992.01 , 404.99 L 992.01 , 464.48"/>
</a>
<a ewd:lineID="94" style="cursor:pointer;">
<path style="&st5;" d="M 847.53 , 659.95 L 847.53 , 489.97 L 881.52 , 489.97 L 881.52 , 505.84"/>
<path style="&st14;" d="M 847.53 , 659.95 L 847.53 , 489.97 L 881.52 , 489.97 L 881.52 , 505.84"/>
<path style="&st22;" d="M 847.53 , 659.95 L 847.53 , 489.97 L 881.52 , 489.97 L 881.52 , 505.84"/>
</a>
<a ewd:lineID="95" style="cursor:pointer;">
<path style="&st5;" d="M 881.52 , 576.09 L 881.52 , 591.96 L 907.02 , 591.96 L 907.02 , 576.09"/>
<path style="&st14;" d="M 881.52 , 576.09 L 881.52 , 591.96 L 907.02 , 591.96 L 907.02 , 576.09"/>
<path style="&st22;" d="M 881.52 , 576.09 L 881.52 , 591.96 L 907.02 , 591.96 L 907.02 , 576.09"/>
</a>
<a ewd:lineID="31" style="cursor:pointer;">
<path style="&st5;" d="M 1119.48 , 288.27 L 1119.48 , 116.04 L 1807.87 , 116.04 L 1807.87 , 243.52"/>
</a>
<a ewd:lineID="30" style="cursor:pointer;">
<path style="&st5;" d="M 1119.48 , 288.27 L 1119.48 , 286.01 L 1144.98 , 260.51 L 1187.47 , 260.51 L 1187.47 , 150.03 L 1731.38 , 150.03 L 1731.38 , 311.5"/>
</a>
<a ewd:lineID="34" style="cursor:pointer;">
<path style="&st5;" d="M 1153.48 , 287.99 L 1153.48 , 286.01 L 1161.98 , 277.51 L 1221.47 , 277.51 L 1221.47 , 167.03 L 1697.39 , 167.03 L 1697.39 , 311.5"/>
<path style="&st14;" d="M 1153.48 , 287.99 L 1153.48 , 286.01 L 1161.98 , 277.51 L 1221.47 , 277.51 L 1221.47 , 167.03 L 1697.39 , 167.03 L 1697.39 , 311.5"/>
</a>
<a ewd:lineID="29" style="cursor:pointer;">
<path style="&st5;" d="M 1119.48 , 362.5 L 1119.48 , 303.01"/>
</a>
<a ewd:lineID="33" style="cursor:pointer;">
<path style="&st5;" d="M 1153.48 , 362.5 L 1153.48 , 303.01"/>
<path style="&st14;" d="M 1153.48 , 362.5 L 1153.48 , 303.01"/>
</a>
<a ewd:lineID="35" style="cursor:pointer;">
<path style="&st1;" d="M 1195.97 , 421.99 L 1195.97 , 303.01 L 1535.91 , 303.01 L 1535.91 , 540.97 L 1518.92 , 540.97 L 1510.42 , 549.46 L 1510.42 , 557.96"/>
<path style="&st18;" d="M 1195.97 , 421.99 L 1195.97 , 303.01 L 1535.91 , 303.01 L 1535.91 , 540.97 L 1518.92 , 540.97 L 1510.42 , 549.46 L 1510.42 , 557.96"/>
<path style="&st6;" d="M 1195.97 , 421.99 L 1195.97 , 303.01 L 1535.91 , 303.01 L 1535.91 , 540.97 L 1518.92 , 540.97 L 1510.42 , 549.46 L 1510.42 , 557.96"/>
</a>
<a ewd:lineID="36" style="cursor:pointer;">
<path style="&st12;" d="M 1229.97 , 415.75 L 1229.97 , 320 L 1510.42 , 320 L 1510.42 , 415.75"/>
</a>
<a ewd:lineID="37" style="cursor:pointer;">
<path style="&st5;" d="M 1263.96 , 421.99 L 1263.96 , 337 L 1484.92 , 337 L 1484.92 , 540.97 L 1467.93 , 540.97 L 1459.43 , 549.46 L 1459.43 , 557.96"/>
</a>
<a ewd:lineID="38" style="cursor:pointer;">
<path style="&st5;" d="M 1297.95 , 415.75 L 1297.95 , 354 L 1459.43 , 354 L 1459.43 , 415.75"/>
</a>
<a ewd:lineID="122" style="cursor:pointer;">
<path style="&st5;" d="M 1331.95 , 415.47 L 1331.95 , 370.99 L 1425.43 , 370.99 L 1425.43 , 415.47"/>
<path style="&st14;" d="M 1331.95 , 415.47 L 1331.95 , 370.99 L 1425.43 , 370.99 L 1425.43 , 415.47"/>
</a>
<a ewd:lineID="123" style="cursor:pointer;">
<path style="&st0;" d="M 1365.94 , 421.99 L 1365.94 , 387.99 L 1399.94 , 387.99 L 1399.94 , 540.97 L 1416.93 , 540.97 L 1425.43 , 549.46 L 1425.43 , 557.96"/>
</a>
<a ewd:lineID="101" style="cursor:pointer;">
<path style="&st11;" d="M 1085.49 , 404.99 L 1085.49 , 447.48"/>
</a>
<a ewd:lineID="103" style="cursor:pointer;">
<path style="&st5;" d="M 1119.48 , 404.99 L 1119.48 , 447.48"/>
<path style="&st14;" d="M 1119.48 , 404.99 L 1119.48 , 447.48"/>
</a>
<a ewd:lineID="106" style="cursor:pointer;">
<path style="&st1;" d="M 1153.48 , 404.99 L 1153.48 , 447.48"/>
</a>
<a ewd:lineID="109" style="cursor:pointer;">
<path style="&st1;" d="M 1153.48 , 498.47 L 1153.48 , 462.21"/>
</a>
<a ewd:lineID="104" style="cursor:pointer;">
<path style="&st5;" d="M 1119.48 , 498.47 L 1119.48 , 462.5"/>
<path style="&st14;" d="M 1119.48 , 498.47 L 1119.48 , 462.5"/>
</a>
<a ewd:lineID="98" style="cursor:pointer;">
<path style="&st11;" d="M 1085.49 , 498.47 L 1085.49 , 462.21"/>
</a>
<a ewd:lineID="99" style="cursor:pointer;">
<path style="&st11;" d="M 1085.49 , 513.2 L 1085.49 , 566.46"/>
</a>
<a ewd:lineID="105" style="cursor:pointer;">
<path style="&st5;" d="M 1119.48 , 513.49 L 1119.48 , 566.46"/>
<path style="&st14;" d="M 1119.48 , 513.49 L 1119.48 , 566.46"/>
</a>
<a ewd:lineID="107" style="cursor:pointer;">
<path style="&st1;" d="M 1153.48 , 513.2 L 1153.48 , 566.46"/>
</a>
<a ewd:lineID="108" style="cursor:pointer;">
<path style="&st1;" d="M 1153.48 , 634.45 L 1153.48 , 581.19"/>
</a>
<a ewd:lineID="102" style="cursor:pointer;">
<path style="&st5;" d="M 1119.48 , 634.45 L 1119.48 , 581.48"/>
<path style="&st14;" d="M 1119.48 , 634.45 L 1119.48 , 581.48"/>
</a>
<a ewd:lineID="100" style="cursor:pointer;">
<path style="&st11;" d="M 1085.49 , 634.45 L 1085.49 , 581.19"/>
</a>
<a ewd:lineID="112" style="cursor:pointer;">
<path style="&st11;" d="M 1229.97 , 634.45 L 1229.97 , 583.46"/>
<path style="&st18;" d="M 1229.97 , 634.45 L 1229.97 , 583.46"/>
<path style="&st6;" d="M 1229.97 , 634.45 L 1229.97 , 583.46"/>
</a>
<a ewd:lineID="116" style="cursor:pointer;">
<path style="&st1;" d="M 1297.95 , 634.45 L 1297.95 , 583.46"/>
</a>
<a ewd:lineID="118" style="cursor:pointer;">
<path style="&st21;" d="M 1331.95 , 634.45 L 1331.95 , 583.46"/>
</a>
<a ewd:lineID="119" style="cursor:pointer;">
<path style="&st0;" d="M 1331.95 , 549.46 L 1331.95 , 513.2"/>
</a>
<a ewd:lineID="111" style="cursor:pointer;">
<path style="&st1;" d="M 1229.97 , 549.46 L 1229.97 , 513.49"/>
<path style="&st18;" d="M 1229.97 , 549.46 L 1229.97 , 513.49"/>
<path style="&st6;" d="M 1229.97 , 549.46 L 1229.97 , 513.49"/>
</a>
<a ewd:lineID="117" style="cursor:pointer;">
<path style="&st5;" d="M 1297.95 , 549.46 L 1297.95 , 513.2"/>
</a>
<a ewd:lineID="120" style="cursor:pointer;">
<path style="&st5;" d="M 1331.95 , 498.47 L 1331.95 , 489.97 L 1340.45 , 481.48 L 1365.94 , 481.48 L 1365.94 , 437"/>
<path style="&st14;" d="M 1331.95 , 498.47 L 1331.95 , 489.97 L 1340.45 , 481.48 L 1365.94 , 481.48 L 1365.94 , 437"/>
</a>
<a ewd:lineID="121" style="cursor:pointer;">
<path style="&st5;" d="M 1331.95 , 430.48 L 1331.95 , 498.47"/>
<path style="&st14;" d="M 1331.95 , 430.48 L 1331.95 , 498.47"/>
</a>
<a ewd:lineID="115" style="cursor:pointer;">
<path style="&st5;" d="M 1297.95 , 430.48 L 1297.95 , 498.47"/>
</a>
<a ewd:lineID="114" style="cursor:pointer;">
<path style="&st5;" d="M 1297.95 , 498.47 L 1297.95 , 489.97 L 1289.46 , 481.48 L 1263.96 , 481.48 L 1263.96 , 436.72"/>
</a>
<a ewd:lineID="113" style="cursor:pointer;">
<path style="&st12;" d="M 1229.97 , 430.48 L 1229.97 , 498.47"/>
</a>
<a ewd:lineID="110" style="cursor:pointer;">
<path style="&st12;" d="M 1229.97 , 498.47 L 1229.97 , 489.97 L 1221.47 , 481.48 L 1195.97 , 481.48 L 1195.97 , 436.72"/>
</a>
<a ewd:lineID="124" style="cursor:pointer;">
<path style="&st0;" d="M 1425.43 , 430.48 L 1425.43 , 557.96"/>
</a>
<a ewd:lineID="126" style="cursor:pointer;">
<path style="&st5;" d="M 1459.43 , 430.48 L 1459.43 , 557.96"/>
</a>
<a ewd:lineID="128" style="cursor:pointer;">
<path style="&st1;" d="M 1510.42 , 430.48 L 1510.42 , 557.96"/>
<path style="&st18;" d="M 1510.42 , 430.48 L 1510.42 , 557.96"/>
<path style="&st6;" d="M 1510.42 , 430.48 L 1510.42 , 557.96"/>
</a>
<a ewd:lineID="129" style="cursor:pointer;">
<path style="&st12;" d="M 1510.42 , 591.96 L 1510.42 , 634.45"/>
</a>
<a ewd:lineID="127" style="cursor:pointer;">
<path style="&st33;" d="M 1467.93 , 591.96 L 1467.93 , 634.45"/>
</a>
<a ewd:lineID="125" style="cursor:pointer;">
<path style="&st2;" d="M 1425.43 , 591.96 L 1425.43 , 634.45"/>
</a>
<a ewd:lineID="138" style="cursor:pointer;">
<path style="&st0;" d="M 1807.87 , 566.46 L 1807.87 , 625.38"/>
</a>
<a ewd:lineID="135" style="cursor:pointer;">
<path style="&st3;" d="M 1773.87 , 566.46 L 1773.87 , 625.38"/>
</a>
<a ewd:lineID="134" style="cursor:pointer;">
<path style="&st16;" d="M 1705.89 , 625.38 L 1705.89 , 600.46"/>
</a>
<a ewd:lineID="130" style="cursor:pointer;">
<path style="&st21;" d="M 1637.9 , 625.38 L 1637.9 , 525.1"/>
</a>
<a ewd:lineID="132" style="cursor:pointer;">
<path style="&st16;" d="M 1705.89 , 577.23 L 1705.89 , 532.47"/>
<path style="&st20;" d="M 1705.89 , 577.23 L 1705.89 , 532.47"/>
</a>
<a ewd:lineID="136" style="cursor:pointer;">
<path style="&st3;" d="M 1773.87 , 448.05 L 1773.87 , 549.46"/>
</a>
<a ewd:lineID="137" style="cursor:pointer;">
<path style="&st5;" d="M 1807.87 , 448.05 L 1807.87 , 549.46"/>
<path style="&st14;" d="M 1807.87 , 448.05 L 1807.87 , 549.46"/>
</a>
<a ewd:lineID="133" style="cursor:pointer;">
<path style="&st21;" d="M 1705.89 , 404.99 L 1705.89 , 489.97"/>
<path style="&st18;" d="M 1705.89 , 404.99 L 1705.89 , 489.97"/>
<path style="&st19;" d="M 1705.89 , 404.99 L 1705.89 , 489.97"/>
</a>
<a ewd:lineID="131" style="cursor:pointer;">
<path style="&st21;" d="M 1637.9 , 471.84 L 1637.9 , 413.49"/>
</a>
<a ewd:lineID="39" style="cursor:pointer;">
<path style="&st21;" d="M 1637.9 , 389.97 L 1637.9 , 362.5 L 1705.89 , 362.5 L 1705.89 , 387.99"/>
<path style="&st18;" d="M 1637.9 , 389.97 L 1637.9 , 362.5 L 1705.89 , 362.5 L 1705.89 , 387.99"/>
<path style="&st19;" d="M 1637.9 , 389.97 L 1637.9 , 362.5 L 1705.89 , 362.5 L 1705.89 , 387.99"/>
</a>
<a ewd:lineID="49" style="cursor:pointer;">
<path style="&st3;" d="M 1918.35 , 395.92 L 1918.35 , 346.63"/>
</a>
<a ewd:lineID="44" style="cursor:pointer;">
<path style="&st5;" d="M 1884.36 , 395.92 L 1884.36 , 346.63"/>
<path style="&st14;" d="M 1884.36 , 395.92 L 1884.36 , 346.63"/>
</a>
<a ewd:lineID="42" style="cursor:pointer;">
<path style="&st16;" d="M 1807.87 , 337 L 1807.87 , 395.92"/>
</a>
<a ewd:lineID="41" style="cursor:pointer;">
<path style="&st5;" d="M 1773.87 , 337 L 1773.87 , 395.92"/>
<path style="&st14;" d="M 1773.87 , 337 L 1773.87 , 395.92"/>
</a>
<a ewd:lineID="40" style="cursor:pointer;">
<path style="&st5;" d="M 1773.87 , 260.51 L 1773.87 , 311.5"/>
<path style="&st14;" d="M 1773.87 , 260.51 L 1773.87 , 311.5"/>
</a>
<a ewd:lineID="43" style="cursor:pointer;">
<path style="&st11;" d="M 1807.87 , 260.51 L 1807.87 , 311.5"/>
</a>
<a ewd:lineID="48" style="cursor:pointer;">
<path style="&st2;" d="M 2394.27 , 99.04 L 2394.27 , 82.04 L 1918.35 , 82.04 L 1918.35 , 284.87"/>
</a>
<a ewd:lineID="45" style="cursor:pointer;">
<path style="&st5;" d="M 2428.27 , 199.89 L 2428.27 , 192.52 L 2411.27 , 175.53 L 2411.27 , 158.53 L 2351.78 , 158.53 L 2351.78 , 99.04 L 1952.34 , 99.04 L 1952.34 , 252.01 L 1909.85 , 252.01 L 1884.36 , 277.51 L 1884.36 , 284.87"/>
<path style="&st14;" d="M 2428.27 , 199.89 L 2428.27 , 192.52 L 2411.27 , 175.53 L 2411.27 , 158.53 L 2351.78 , 158.53 L 2351.78 , 99.04 L 1952.34 , 99.04 L 1952.34 , 252.01 L 1909.85 , 252.01 L 1884.36 , 277.51 L 1884.36 , 284.87"/>
</a>
<a ewd:lineID="47" style="cursor:pointer;">
<path style="&st2;" d="M 2394.27 , 199.89 L 2394.27 , 192.52 L 2377.27 , 175.53 L 2326.28 , 175.53 L 2326.28 , 116.04 L 1986.34 , 116.04 L 1986.34 , 269.01 L 1926.85 , 269.01 L 1918.35 , 277.51 L 1918.35 , 284.87"/>
</a>
<a ewd:lineID="53" style="cursor:pointer;">
<path style="&st33;" d="M 2394.27 , 116.04 L 2394.27 , 199.89"/>
</a>
<a ewd:lineID="54" style="cursor:pointer;">
<path style="&st5;" d="M 2428.27 , 116.04 L 2428.27 , 199.89"/>
<path style="&st14;" d="M 2428.27 , 116.04 L 2428.27 , 199.89"/>
</a>
<a ewd:lineID="55" style="cursor:pointer;">
<path style="&st5;" d="M 2428.27 , 286.01 L 2428.27 , 261.65"/>
<path style="&st14;" d="M 2428.27 , 286.01 L 2428.27 , 261.65"/>
</a>
<a ewd:lineID="51" style="cursor:pointer;">
<path style="&st5;" d="M 2394.27 , 286.01 L 2394.27 , 261.65"/>
</a>
<a ewd:lineID="56" style="cursor:pointer;">
<path style="&st5;" d="M 2428.27 , 361.36 L 2428.27 , 309.52"/>
<path style="&st14;" d="M 2428.27 , 361.36 L 2428.27 , 309.52"/>
</a>
<a ewd:lineID="50" style="cursor:pointer;">
<path style="&st1;" d="M 2394.27 , 309.24 L 2394.27 , 311.5 L 2385.77 , 320 L 2368.78 , 320 L 2368.78 , 345.5 L 2385.77 , 345.5 L 2394.27 , 354 L 2394.27 , 361.36"/>
</a>
<a ewd:lineID="156" style="cursor:pointer;">
<path style="&st5;" d="M 2428.27 , 423.12 L 2428.27 , 457.96"/>
<path style="&st14;" d="M 2428.27 , 423.12 L 2428.27 , 457.96"/>
</a>
<a ewd:lineID="153" style="cursor:pointer;">
<path style="&st33;" d="M 2394.27 , 423.12 L 2394.27 , 458.25"/>
</a>
<a ewd:lineID="155" style="cursor:pointer;">
<path style="&st5;" d="M 2734.21 , 414.05 L 2734.21 , 566.46 L 2428.27 , 566.46 L 2428.27 , 481.48"/>
<path style="&st14;" d="M 2734.21 , 414.05 L 2734.21 , 566.46 L 2428.27 , 566.46 L 2428.27 , 481.48"/>
</a>
<a ewd:lineID="154" style="cursor:pointer;">
<path style="&st33;" d="M 2776.71 , 414.05 L 2776.71 , 583.46 L 2394.27 , 583.46 L 2394.27 , 481.48"/>
</a>
<a ewd:lineID="152" style="cursor:pointer;">
<path style="&st5;" d="M 2343.28 , 524.53 L 2343.28 , 591.96"/>
<path style="&st14;" d="M 2343.28 , 524.53 L 2343.28 , 591.96"/>
</a>
<a ewd:lineID="146" style="cursor:pointer;">
<path style="&st1;" d="M 2275.29 , 591.96 L 2275.29 , 583.46 L 2283.79 , 574.96 L 2300.79 , 574.96 L 2300.79 , 540.97 L 2283.79 , 540.97 L 2275.29 , 532.47 L 2275.29 , 524.53"/>
</a>
<a ewd:lineID="147" style="cursor:pointer;">
<path style="&st5;" d="M 2275.29 , 524.53 L 2275.29 , 591.96"/>
</a>
<a ewd:lineID="145" style="cursor:pointer;">
<path style="&st1;" d="M 2275.29 , 489.41 L 2275.29 , 481.48 L 2283.79 , 472.98 L 2300.79 , 472.98 L 2300.79 , 438.98 L 2283.79 , 438.98 L 2275.29 , 430.48 L 2275.29 , 423.12"/>
</a>
<a ewd:lineID="151" style="cursor:pointer;">
<path style="&st5;" d="M 2343.28 , 423.12 L 2343.28 , 489.41"/>
<path style="&st14;" d="M 2343.28 , 423.12 L 2343.28 , 489.41"/>
</a>
<a ewd:lineID="150" style="cursor:pointer;">
<path style="&st5;" d="M 2343.28 , 625.95 L 2343.28 , 668.44"/>
</a>
<a ewd:lineID="149" style="cursor:pointer;">
<path style="&st5;" d="M 2317.78 , 625.95 L 2317.78 , 668.44"/>
<path style="&st14;" d="M 2317.78 , 625.95 L 2317.78 , 668.44"/>
</a>
<a ewd:lineID="148" style="cursor:pointer;">
<path style="&st1;" d="M 2292.29 , 625.95 L 2292.29 , 668.44"/>
</a>
<a ewd:lineID="143" style="cursor:pointer;">
<path style="&st21;" d="M 2266.79 , 625.95 L 2266.79 , 668.44"/>
</a>
<a ewd:lineID="142" style="cursor:pointer;">
<path style="&st11;" d="M 2241.3 , 625.95 L 2241.3 , 668.44"/>
</a>
<a ewd:lineID="141" style="cursor:pointer;">
<path style="&st12;" d="M 2215.8 , 625.95 L 2215.8 , 668.44"/>
</a>
<a ewd:lineID="140" style="cursor:pointer;">
<path style="&st1;" d="M 2190.31 , 625.95 L 2190.31 , 668.44"/>
</a>
<a ewd:lineID="139" style="cursor:pointer;">
<path style="&st21;" d="M 2164.81 , 625.95 L 2164.81 , 668.44"/>
</a>
<a ewd:lineID="166" style="cursor:pointer;">
<path style="&st5;" d="M 3006.17 , 659.95 L 3006.17 , 610.09"/>
<path style="&st14;" d="M 3006.17 , 659.95 L 3006.17 , 610.09"/>
<path style="&st22;" d="M 3006.17 , 659.95 L 3006.17 , 610.09"/>
</a>
<a ewd:lineID="162" style="cursor:pointer;">
<path style="&st5;" d="M 2878.69 , 651.45 L 2878.69 , 685.44"/>
<path style="&st14;" d="M 2878.69 , 651.45 L 2878.69 , 685.44"/>
<path style="&st22;" d="M 2878.69 , 651.45 L 2878.69 , 685.44"/>
</a>
<a ewd:lineID="160" style="cursor:pointer;">
<path style="&st3;" d="M 2878.69 , 591.96 L 2878.69 , 634.45"/>
</a>
<a ewd:lineID="157" style="cursor:pointer;">
<path style="&st3;" d="M 2827.7 , 685.44 L 2827.7 , 608.95 L 2870.19 , 608.95 L 2878.69 , 600.46 L 2878.69 , 591.96"/>
</a>
<a ewd:lineID="158" style="cursor:pointer;">
<path style="&st3;" d="M 2878.69 , 549.46 L 2878.69 , 577.23"/>
</a>
<a ewd:lineID="165" style="cursor:pointer;">
<path style="&st5;" d="M 2980.67 , 539.83 L 2980.67 , 523.97 L 3006.17 , 523.97 L 3006.17 , 539.83"/>
<path style="&st14;" d="M 2980.67 , 539.83 L 2980.67 , 523.97 L 3006.17 , 523.97 L 3006.17 , 539.83"/>
<path style="&st22;" d="M 2980.67 , 539.83 L 2980.67 , 523.97 L 3006.17 , 523.97 L 3006.17 , 539.83"/>
</a>
<a ewd:lineID="163" style="cursor:pointer;">
<path style="&st5;" d="M 2955.18 , 491.11 L 2955.18 , 539.83"/>
<path style="&st14;" d="M 2955.18 , 491.11 L 2955.18 , 539.83"/>
<path style="&st22;" d="M 2955.18 , 491.11 L 2955.18 , 539.83"/>
</a>
<a ewd:lineID="161" style="cursor:pointer;">
<path style="&st3;" d="M 2878.69 , 489.97 L 2878.69 , 506.97"/>
</a>
<a ewd:lineID="159" style="cursor:pointer;">
<path style="&st3;" d="M 2878.69 , 414.05 L 2878.69 , 447.48"/>
</a>
<a ewd:lineID="164" style="cursor:pointer;">
<path style="&st5;" d="M 2955.18 , 414.05 L 2955.18 , 437.85"/>
<path style="&st14;" d="M 2955.18 , 414.05 L 2955.18 , 437.85"/>
<path style="&st22;" d="M 2955.18 , 414.05 L 2955.18 , 437.85"/>
</a>
<a ewd:lineID="60" style="cursor:pointer;">
<path style="&st1;" d="M 2819.2 , 285.44 L 2819.2 , 107.54"/>
</a>
<a ewd:lineID="58" style="cursor:pointer;">
<path style="&st12;" d="M 2759.71 , 107.54 L 2759.71 , 133.03"/>
</a>
<a ewd:lineID="59" style="cursor:pointer;">
<path style="&st12;" d="M 2759.71 , 184.03 L 2759.71 , 209.52"/>
</a>
<a ewd:lineID="57" style="cursor:pointer;">
<path style="&st12;" d="M 2759.71 , 285.44 L 2759.71 , 260.51"/>
</a>
<a ewd:lineID="32" style="cursor:pointer;">
<path style="&st5;" d="M 1153.48 , 287.99 L 1153.48 , 133.03 L 1773.87 , 133.03 L 1773.87 , 243.52"/>
<path style="&st14;" d="M 1153.48 , 287.99 L 1153.48 , 133.03 L 1773.87 , 133.03 L 1773.87 , 243.52"/>
</a>
<a ewd:lineID="46" style="cursor:pointer;">
<path style="&st5;" d="M 2428.27 , 99.04 L 2428.27 , 65.05 L 1884.36 , 65.05 L 1884.36 , 284.87"/>
<path style="&st14;" d="M 2428.27 , 99.04 L 2428.27 , 65.05 L 1884.36 , 65.05 L 1884.36 , 284.87"/>
</a>
<a ewd:lineID="52" style="cursor:pointer;">
<path style="&st5;" d="M 2394.27 , 361.36 L 2394.27 , 309.24"/>
</a>
<a ewd:lineID="144" style="cursor:pointer;">
<path style="&st5;" d="M 2275.29 , 423.12 L 2275.29 , 489.41"/>
</a>
<a ewd:code="CG2" ewd:figtype="w2w" style="cursor:pointer;" ewd:figID="655">
<path style="&st24;" d="M2887.19,583.46h-17v8.5h17V583.46"/>
<text transform="matrix(1 0 0 1 2872.5249 590.1958)" style="&st9;"><tspan x="0" y="0" style="&st28; &st17;">CG2</tspan></text>
</a>
<a ewd:code="GA6" ewd:figtype="w2w" style="cursor:pointer;" ewd:figID="654">
<path style="&st24;" d="M2436.76,472.98h-16.99v8.5h16.99V472.98"/>
<text transform="matrix(1 0 0 1 2422.2651 479.7173)" style="&st9;"><tspan x="0" y="0" style="&st28; &st17;">GA6</tspan></text>
</a>
<a ewd:code="GA2" ewd:figtype="w2w" style="cursor:pointer;" ewd:figID="653">
<path style="&st24;" d="M2436.76,464.48h-16.99v8.5h16.99V464.48"/>
<text transform="matrix(1 0 0 1 2422.2651 471.2173)" style="&st9;"><tspan x="0" y="0" style="&st28; &st17;">GA2</tspan></text>
</a>
<a ewd:code="GA6" ewd:figtype="w2w" style="cursor:pointer;" ewd:figID="651">
<path style="&st24;" d="M2402.77,472.98h-17v8.5h17V472.98"/>
<text transform="matrix(1 0 0 1 2388.27 479.7173)" style="&st9;"><tspan x="0" y="0" style="&st28; &st17;">GA6</tspan></text>
</a>
<a ewd:code="GA2" ewd:figtype="w2w" style="cursor:pointer;" ewd:figID="652">
<path style="&st24;" d="M2402.77,464.48h-17v8.5h17V464.48"/>
<text transform="matrix(1 0 0 1 2388.27 471.2173)" style="&st9;"><tspan x="0" y="0" style="&st28; &st17;">GA2</tspan></text>
</a>
<a ewd:code="GA6" ewd:figtype="w2w" style="cursor:pointer;" ewd:figID="608">
<path style="&st24;" d="M2402.77,294.51h-17v8.5h17V294.51"/>
<text transform="matrix(1 0 0 1 2388.27 301.2466)" style="&st9;"><tspan x="0" y="0" style="&st28; &st17;">GA6</tspan></text>
</a>
<a ewd:code="GA2" ewd:figtype="w2w" style="cursor:pointer;" ewd:figID="607">
<path style="&st24;" d="M2402.77,286.01h-17v8.5h17V286.01"/>
<text transform="matrix(1 0 0 1 2388.27 292.7466)" style="&st9;"><tspan x="0" y="0" style="&st28; &st17;">GA2</tspan></text>
</a>
<a ewd:code="GA6" ewd:figtype="w2w" style="cursor:pointer;" ewd:figID="610">
<path style="&st24;" d="M2436.76,294.51h-16.99v8.5h16.99V294.51"/>
<text transform="matrix(1 0 0 1 2422.2651 301.2466)" style="&st9;"><tspan x="0" y="0" style="&st28; &st17;">GA6</tspan></text>
</a>
<a ewd:code="GA2" ewd:figtype="w2w" style="cursor:pointer;" ewd:figID="609">
<path style="&st24;" d="M2436.76,286.01h-16.99v8.5h16.99V286.01"/>
<text transform="matrix(1 0 0 1 2422.2651 292.7466)" style="&st9;"><tspan x="0" y="0" style="&st28; &st17;">GA2</tspan></text>
</a>
<a ewd:code="GA1" ewd:figtype="w2w" style="cursor:pointer;" ewd:figID="650">
<path style="&st24;" d="M1714.38,591.96h-16.99v8.5h16.99V591.96"/>
<text transform="matrix(1 0 0 1 1699.8853 598.6958)" style="&st9;"><tspan x="0" y="0" style="&st28; &st17;">GA1</tspan></text>
</a>
<a ewd:code="GA1" ewd:figtype="w2w" style="cursor:pointer;" ewd:figID="649">
<path style="&st24;" d="M1714.38,583.46h-16.99v8.5h16.99V583.46"/>
<text transform="matrix(1 0 0 1 1699.8853 590.1958)" style="&st9;"><tspan x="0" y="0" style="&st28; &st17;">GA1</tspan></text>
</a>
<a ewd:code="GA1" ewd:figtype="w2w" style="cursor:pointer;" ewd:figID="648">
<path style="&st24;" d="M1646.4,404.99h-17v8.5h17V404.99"/>
<text transform="matrix(1 0 0 1 1631.9009 411.7271)" style="&st9;"><tspan x="0" y="0" style="&st28; &st17;">GA1</tspan></text>
</a>
<a ewd:code="GA1" ewd:figtype="w2w" style="cursor:pointer;" ewd:figID="647">
<path style="&st24;" d="M1646.4,396.49h-17v8.5h17V396.49"/>
<text transform="matrix(1 0 0 1 1631.9009 403.2271)" style="&st9;"><tspan x="0" y="0" style="&st28; &st17;">GA1</tspan></text>
</a>
<a ewd:code="UQ1" ewd:figtype="w2w" style="cursor:pointer;" ewd:figID="646">
<path style="&st24;" d="M1518.92,421.99h-17v8.49h17V421.99"/>
<text transform="matrix(1 0 0 1 1504.2549 428.7271)" style="&st9;"><tspan x="0" y="0" style="&st28; &st17;">UQ1</tspan></text>
</a>
<a ewd:code="UQ1" ewd:figtype="w2w" style="cursor:pointer;" ewd:figID="645">
<path style="&st24;" d="M1467.93,421.99h-17v8.49h17V421.99"/>
<text transform="matrix(1 0 0 1 1453.2646 428.7271)" style="&st9;"><tspan x="0" y="0" style="&st28; &st17;">UQ1</tspan></text>
</a>
<a ewd:code="UQ1" ewd:figtype="w2w" style="cursor:pointer;" ewd:figID="644">
<path style="&st24;" d="M1433.93,421.99h-17v8.49h17V421.99"/>
<text transform="matrix(1 0 0 1 1419.2646 428.7271)" style="&st9;"><tspan x="0" y="0" style="&st28; &st17;">UQ1</tspan></text>
</a>
<a ewd:code="RV2" ewd:figtype="w2w" style="cursor:pointer;" ewd:figID="634">
<path style="&st24;" d="M1161.98,566.46h-17v8.5h17V566.46"/>
<text transform="matrix(1 0 0 1 1147.7012 573.1958)" style="&st9;"><tspan x="0" y="0" style="&st28; &st17;">RV2</tspan></text>
</a>
<a ewd:code="RV2" ewd:figtype="w2w" style="cursor:pointer;" ewd:figID="631">
<path style="&st24;" d="M1127.98,566.46h-16.99v8.5h16.99V566.46"/>
<text transform="matrix(1 0 0 1 1113.7065 573.1958)" style="&st9;"><tspan x="0" y="0" style="&st28; &st17;">RV2</tspan></text>
</a>
<a ewd:code="RV2" ewd:figtype="w2w" style="cursor:pointer;" ewd:figID="628">
<path style="&st24;" d="M1093.99,566.46h-17v8.5h17V566.46"/>
<text transform="matrix(1 0 0 1 1079.7119 573.1958)" style="&st9;"><tspan x="0" y="0" style="&st28; &st17;">RV2</tspan></text>
</a>
<a ewd:code="IG1" ewd:figtype="w2w" style="cursor:pointer;" ewd:figID="625">
<path style="&st24;" d="M1000.5,464.48h-16.99v8.5h16.99V464.48"/>
<text transform="matrix(1 0 0 1 987.1729 471.2173)" style="&st9;"><tspan x="0" y="0" style="&st28; &st17;">IG1</tspan></text>
</a>
<a ewd:code="GR1" ewd:figtype="w2w" style="cursor:pointer;" ewd:figID="627">
<path style="&st24;" d="M1093.99,498.47h-17v8.5h17V498.47"/>
<text transform="matrix(1 0 0 1 1079.3252 505.2173)" style="&st9;"><tspan x="0" y="0" style="&st28; &st17;">GR1</tspan></text>
</a>
<a ewd:code="GR1" ewd:figtype="w2w" style="cursor:pointer;" ewd:figID="629">
<path style="&st24;" d="M1127.98,498.47h-16.99v8.5h16.99V498.47"/>
<text transform="matrix(1 0 0 1 1113.3198 505.2173)" style="&st9;"><tspan x="0" y="0" style="&st28; &st17;">GR1</tspan></text>
</a>
<a ewd:code="GR1" ewd:figtype="w2w" style="cursor:pointer;" ewd:figID="632">
<path style="&st24;" d="M1161.98,498.47h-17v8.5h17V498.47"/>
<text transform="matrix(1 0 0 1 1147.3145 505.2173)" style="&st9;"><tspan x="0" y="0" style="&st28; &st17;">GR1</tspan></text>
</a>
<a ewd:code="RV2" ewd:figtype="w2w" style="cursor:pointer;" ewd:figID="637">
<path style="&st24;" d="M1238.46,498.47h-16.99v8.5h16.99V498.47"/>
<text transform="matrix(1 0 0 1 1224.1865 505.2173)" style="&st9;"><tspan x="0" y="0" style="&st28; &st17;">RV2</tspan></text>
</a>
<a ewd:code="RV2" ewd:figtype="w2w" style="cursor:pointer;" ewd:figID="640">
<path style="&st24;" d="M1306.45,498.47h-16.99v8.5h16.99V498.47"/>
<text transform="matrix(1 0 0 1 1292.1768 505.2173)" style="&st9;"><tspan x="0" y="0" style="&st28; &st17;">RV2</tspan></text>
</a>
<a ewd:code="RV2" ewd:figtype="w2w" style="cursor:pointer;" ewd:figID="642">
<path style="&st24;" d="M1340.45,498.47h-17v8.5h17V498.47"/>
<text transform="matrix(1 0 0 1 1326.1719 505.2173)" style="&st9;"><tspan x="0" y="0" style="&st28; &st17;">RV2</tspan></text>
</a>
<a ewd:code="UR1" ewd:figtype="w2w" style="cursor:pointer;" ewd:figID="643">
<path style="&st24;" d="M1374.44,421.99h-17v8.49h17V421.99"/>
<text transform="matrix(1 0 0 1 1359.9414 428.7271)" style="&st9;"><tspan x="0" y="0" style="&st28; &st17;">UR1</tspan></text>
</a>
<a ewd:code="RQ1" ewd:figtype="w2w" style="cursor:pointer;" ewd:figID="641">
<path style="&st24;" d="M1340.45,421.99h-17v8.49h17V421.99"/>
<text transform="matrix(1 0 0 1 1325.7852 428.7271)" style="&st9;"><tspan x="0" y="0" style="&st28; &st17;">RQ1</tspan></text>
</a>
<a ewd:code="RQ1" ewd:figtype="w2w" style="cursor:pointer;" ewd:figID="639">
<path style="&st24;" d="M1306.45,421.99h-16.99v8.49h16.99V421.99"/>
<text transform="matrix(1 0 0 1 1291.79 428.7271)" style="&st9;"><tspan x="0" y="0" style="&st28; &st17;">RQ1</tspan></text>
</a>
<a ewd:code="UR1" ewd:figtype="w2w" style="cursor:pointer;" ewd:figID="638">
<path style="&st24;" d="M1272.46,421.99h-17v8.49h17V421.99"/>
<text transform="matrix(1 0 0 1 1257.9619 428.7271)" style="&st9;"><tspan x="0" y="0" style="&st28; &st17;">UR1</tspan></text>
</a>
<a ewd:code="RQ1" ewd:figtype="w2w" style="cursor:pointer;" ewd:figID="636">
<path style="&st24;" d="M1238.46,421.99h-16.99v8.49h16.99V421.99"/>
<text transform="matrix(1 0 0 1 1223.7998 428.7271)" style="&st9;"><tspan x="0" y="0" style="&st28; &st17;">RQ1</tspan></text>
</a>
<a ewd:code="UR1" ewd:figtype="w2w" style="cursor:pointer;" ewd:figID="635">
<path style="&st24;" d="M1204.47,421.99h-17v8.49h17V421.99"/>
<text transform="matrix(1 0 0 1 1189.9717 428.7271)" style="&st9;"><tspan x="0" y="0" style="&st28; &st17;">UR1</tspan></text>
</a>
<a ewd:code="IG1" ewd:figtype="w2w" style="cursor:pointer;" ewd:figID="633">
<path style="&st24;" d="M1161.98,447.48h-17v8.5h17V447.48"/>
<text transform="matrix(1 0 0 1 1148.6475 454.2173)" style="&st9;"><tspan x="0" y="0" style="&st28; &st17;">IG1</tspan></text>
</a>
<a ewd:code="IG1" ewd:figtype="w2w" style="cursor:pointer;" ewd:figID="630">
<path style="&st24;" d="M1127.98,447.48h-16.99v8.5h16.99V447.48"/>
<text transform="matrix(1 0 0 1 1114.6528 454.2173)" style="&st9;"><tspan x="0" y="0" style="&st28; &st17;">IG1</tspan></text>
</a>
<a ewd:code="IG1" ewd:figtype="w2w" style="cursor:pointer;" ewd:figID="626">
<path style="&st24;" d="M1093.99,447.48h-17v8.5h17V447.48"/>
<text transform="matrix(1 0 0 1 1080.6582 454.2173)" style="&st9;"><tspan x="0" y="0" style="&st28; &st17;">IG1</tspan></text>
</a>
<a ewd:code="IG1" ewd:figtype="w2w" style="cursor:pointer;" ewd:figID="606">
<path style="&st24;" d="M1161.98,294.51h-17v8.5h17V294.51"/>
<text transform="matrix(1 0 0 1 1148.6475 301.2466)" style="&st9;"><tspan x="0" y="0" style="&st28; &st17;">IG1</tspan></text>
</a>
<a ewd:code="IG1" ewd:figtype="w2w" style="cursor:pointer;" ewd:figID="605">
<path style="&st24;" d="M1127.98,294.51h-16.99v8.5h16.99V294.51"/>
<text transform="matrix(1 0 0 1 1114.6528 301.2466)" style="&st9;"><tspan x="0" y="0" style="&st28; &st17;">IG1</tspan></text>
</a>
<a ewd:code="IG1" ewd:figtype="w2w" style="cursor:pointer;" ewd:figID="604">
<path style="&st24;" d="M907.02,311.5h-17v8.5h17V311.5"/>
<text transform="matrix(1 0 0 1 893.6875 318.2466)" style="&st9;"><tspan x="0" y="0" style="&st28; &st17;">IG1</tspan></text>
</a>
<a ewd:code="IG1" ewd:figtype="w2w" style="cursor:pointer;" ewd:figID="603">
<path style="&st24;" d="M839.03,311.5h-17v8.5h17V311.5"/>
<text transform="matrix(1 0 0 1 825.6982 318.2466)" style="&st9;"><tspan x="0" y="0" style="&st28; &st17;">IG1</tspan></text>
</a>
<a ewd:code="BA1" ewd:figtype="w2w" style="cursor:pointer;" ewd:figID="622">
<path style="&st24;" d="M499.09,566.46h-17v8.5h17V566.46"/>
<text transform="matrix(1 0 0 1 484.9229 573.1958)" style="&st9;"><tspan x="0" y="0" style="&st28; &st17;">BA1</tspan></text>
</a>
<a ewd:code="BA1" ewd:figtype="w2w" style="cursor:pointer;" ewd:figID="620">
<path style="&st24;" d="M456.59,566.46H439.6v8.5h16.99V566.46"/>
<text transform="matrix(1 0 0 1 442.4277 573.1958)" style="&st9;"><tspan x="0" y="0" style="&st28; &st17;">BA1</tspan></text>
</a>
<a ewd:code="BA1" ewd:figtype="w2w" style="cursor:pointer;" ewd:figID="616">
<path style="&st24;" d="M414.1,566.46h-17v8.5h17V566.46"/>
<text transform="matrix(1 0 0 1 399.9326 573.1958)" style="&st9;"><tspan x="0" y="0" style="&st28; &st17;">BA1</tspan></text>
</a>
<a ewd:code="GA6" ewd:figtype="w2w" style="cursor:pointer;" ewd:figID="614">
<path style="&st24;" d="M414.1,506.97h-17v8.5h17V506.97"/>
<text transform="matrix(1 0 0 1 399.6001 513.7075)" style="&st9;"><tspan x="0" y="0" style="&st28; &st17;">GA6</tspan></text>
</a>
<a ewd:code="GA6" ewd:figtype="w2w" style="cursor:pointer;" ewd:figID="615">
<path style="&st24;" d="M414.1,498.47h-17v8.5h17V498.47"/>
<text transform="matrix(1 0 0 1 399.6001 505.2173)" style="&st9;"><tspan x="0" y="0" style="&st28; &st17;">GA6</tspan></text>
</a>
<a ewd:code="GA6" ewd:figtype="w2w" style="cursor:pointer;" ewd:figID="619">
<path style="&st24;" d="M456.59,498.47H439.6v8.5h16.99V498.47"/>
<text transform="matrix(1 0 0 1 442.0952 505.2173)" style="&st9;"><tspan x="0" y="0" style="&st28; &st17;">GA6</tspan></text>
</a>
<a ewd:code="GA6" ewd:figtype="w2w" style="cursor:pointer;" ewd:figID="617">
<path style="&st24;" d="M456.59,506.97H439.6v8.5h16.99V506.97"/>
<text transform="matrix(1 0 0 1 442.0952 513.7075)" style="&st9;"><tspan x="0" y="0" style="&st28; &st17;">GA6</tspan></text>
</a>
<a ewd:code="GA6" ewd:figtype="w2w" style="cursor:pointer;" ewd:figID="621">
<path style="&st24;" d="M499.09,506.97h-17v8.5h17V506.97"/>
<text transform="matrix(1 0 0 1 484.5903 513.7075)" style="&st9;"><tspan x="0" y="0" style="&st28; &st17;">GA6</tspan></text>
</a>
<a ewd:code="GA6" ewd:figtype="w2w" style="cursor:pointer;" ewd:figID="623">
<path style="&st24;" d="M499.09,498.47h-17v8.5h17V498.47"/>
<text transform="matrix(1 0 0 1 484.5903 505.2173)" style="&st9;"><tspan x="0" y="0" style="&st28; &st17;">GA6</tspan></text>
</a>
<a ewd:code="IG1" ewd:figtype="w2w" style="cursor:pointer;" ewd:figID="624">
<path style="&st24;" d="M499.09,447.48h-17v8.5h17V447.48"/>
<text transform="matrix(1 0 0 1 485.7578 454.2173)" style="&st9;"><tspan x="0" y="0" style="&st28; &st17;">IG1</tspan></text>
</a>
<a ewd:code="IG1" ewd:figtype="w2w" style="cursor:pointer;" ewd:figID="618">
<path style="&st24;" d="M456.59,447.48H439.6v8.5h16.99V447.48"/>
<text transform="matrix(1 0 0 1 443.2627 454.2173)" style="&st9;"><tspan x="0" y="0" style="&st28; &st17;">IG1</tspan></text>
</a>
<a ewd:code="IG1" ewd:figtype="w2w" style="cursor:pointer;" ewd:figID="613">
<path style="&st24;" d="M414.1,447.48h-17v8.5h17V447.48"/>
<text transform="matrix(1 0 0 1 400.7676 454.2173)" style="&st9;"><tspan x="0" y="0" style="&st28; &st17;">IG1</tspan></text>
</a>
<a ewd:code="IG1" ewd:figtype="w2w" style="cursor:pointer;" ewd:figID="612">
<path style="&st24;" d="M371.61,447.48h-17v8.5h17V447.48"/>
<text transform="matrix(1 0 0 1 358.2783 454.2173)" style="&st9;"><tspan x="0" y="0" style="&st28; &st17;">IG1</tspan></text>
</a>
<a ewd:code="IG1" ewd:figtype="w2w" style="cursor:pointer;" ewd:figID="602">
<path style="&st24;" d="M422.6,311.5h-17v8.5h17V311.5"/>
<text transform="matrix(1 0 0 1 409.2676 318.2466)" style="&st9;"><tspan x="0" y="0" style="&st28; &st17;">IG1</tspan></text>
</a>
<a ewd:code="IG1" ewd:figtype="w2w" style="cursor:pointer;" ewd:figID="601">
<path style="&st24;" d="M371.61,311.5h-17v8.5h17V311.5"/>
<text transform="matrix(1 0 0 1 358.2783 318.2466)" style="&st9;"><tspan x="0" y="0" style="&st28; &st17;">IG1</tspan></text>
</a>
<a ewd:code="CG2" ewd:figtype="w2w" style="cursor:pointer;" ewd:figID="611">
<path style="&st24;" d="M218.63,438.98h-16.99v8.5h16.99V438.98"/>
<text transform="matrix(1 0 0 1 203.9697 445.7271)" style="&st9;"><tspan x="0" y="0" style="&st28; &st17;">CG2</tspan></text>
</a>
<a ewd:code="176001" ewd:figtype="sp" style="cursor:pointer;" ewd:figID="501">
<path style="&st24;" d="M2874.44,634.45h8.5l4.25,4.25v8.5l-4.25,4.25h-8.5l-4.25-4.25v-8.5L2874.44,634.45"/>
</a>
<a ewd:code="FUSE10" ewd:figtype="rb" style="cursor:pointer;" ewd:figID="401">
<path style="&st30;" d="M2746.96,39.55v42.49h25.5V39.55H2746.96"/>
</a>
<a ewd:code="3JB" ewd:figtype="jb" style="cursor:pointer;" ewd:figID="306">
<path style="&st26;" d="M958.01,218.02v50.99h25.5v-50.99H958.01"/>
</a>
<a ewd:code="4JB" ewd:figtype="jb" style="cursor:pointer;" ewd:figID="304">
<path style="&st26;" d="M813.54,218.02v50.99h127.47v-50.99H813.54"/>
</a>
<a ewd:code="4JB" ewd:figtype="jb" style="cursor:pointer;" ewd:figID="311">
<path style="&st26;" d="M312.12,515.47v50.99h59.49v-50.99H312.12"/>
</a>
<a ewd:code="4JB" ewd:figtype="jb" style="cursor:pointer;" ewd:figID="310">
<path style="&st26;" d="M82.66,532.47v50.99h25.49v-50.99H82.66"/>
</a>
<a ewd:code="4JB" ewd:figtype="jb" style="cursor:pointer;" ewd:figID="303">
<path style="&st26;" d="M23.17,311.5v51h118.98v-51H23.17"/>
</a>
<a ewd:code="3JB" ewd:figtype="jb" style="cursor:pointer;" ewd:figID="301">
<path style="&st26;" d="M23.17,201.02v50.99h84.98v-50.99H23.17"/>
</a>
<a ewd:code="3JB" ewd:figtype="jb" style="cursor:pointer;" ewd:figID="308">
<path style="&st26;" d="M2742.71,209.52v50.99h25.5v-50.99H2742.71"/>
</a>
<a ewd:code="2" ewd:figtype="jb" style="cursor:pointer;" ewd:figID="307">
<path style="&st26;" d="M2742.71,133.03v51h25.5v-51H2742.71"/>
</a>
<a ewd:code="3JB" ewd:figtype="jb" style="cursor:pointer;" ewd:figID="312">
<path style="&st26;" d="M2861.69,447.48v42.49h25.5v-42.49H2861.69"/>
</a>
<a ewd:code="4JB" ewd:figtype="jb" style="cursor:pointer;" ewd:figID="313">
<path style="&st26;" d="M2861.69,506.97v42.49h25.5v-42.49H2861.69"/>
</a>
<a ewd:code="2" ewd:figtype="jb" style="cursor:pointer;" ewd:figID="302">
<path style="&st26;" d="M23.17,39.55v84.99h118.98V39.55H23.17"/>
</a>
<a ewd:code="2" ewd:figtype="jb" style="cursor:pointer;" ewd:figID="305">
<path style="&st26;" d="M958.01,39.55v67.99H1026V39.55H958.01"/>
</a>
<a ewd:code="2" ewd:figtype="jb" style="cursor:pointer;" ewd:figID="309">
<path style="&st26;" d="M2802.2,39.55v67.99h59.49V39.55H2802.2"/>
</a>
<a ewd:code="G5" ewd:figtype="gp" style="cursor:pointer;" ewd:figID="201">
<path style="&st24;" d="M318.49,685.44h21.25l-10.62,15.58L318.49,685.44"/>
<text transform="matrix(1 0 0 1 324.1333 693.5962)" style="&st9;"><tspan x="0" y="0" style="&st28; &st17;">G5</tspan></text>
</a>
<a ewd:code="G5" ewd:figtype="gp" style="cursor:pointer;" ewd:figID="202">
<path style="&st24;" d="M836.91,685.44h21.24l-10.62,15.58L836.91,685.44"/>
<text transform="matrix(1 0 0 1 842.5532 693.5962)" style="&st9;"><tspan x="0" y="0" style="&st28; &st17;">G5</tspan></text>
</a>
<a ewd:code="G5" ewd:figtype="gp" style="cursor:pointer;" ewd:figID="205">
<path style="&st24;" d="M2995.55,685.44h21.24l-10.62,15.58L2995.55,685.44"/>
<text transform="matrix(1 0 0 1 3001.1929 693.5962)" style="&st9;"><tspan x="0" y="0" style="&st28; &st17;">G5</tspan></text>
</a>
<a ewd:code="C4" ewd:figtype="gp" style="cursor:pointer;" ewd:figID="204">
<path style="&st24;" d="M2868.07,685.44h21.24l-10.62,15.58L2868.07,685.44"/>
<text transform="matrix(1 0 0 1 2874.0132 693.5962)" style="&st9;"><tspan x="0" y="0" style="&st28; &st17;">C4</tspan></text>
</a>
<a ewd:code="C1" ewd:figtype="gp" style="cursor:pointer;" ewd:figID="203">
<path style="&st24;" d="M2817.08,685.44h21.24l-10.62,15.58L2817.08,685.44"/>
<text transform="matrix(1 0 0 1 2823.4233 693.5962)" style="&st9;"><tspan x="0" y="0" style="&st28; &st17;">C1</tspan></text>
</a>
<a ewd:code="FUSE74" ewd:figtype="fuse" style="cursor:pointer;" ewd:figID="102">
<path style="&st10;" d="M86.91,39.55v42.49h25.49V39.55H86.91"/>
</a>
<a ewd:code="FUSE65" ewd:figtype="fuse" style="cursor:pointer;" ewd:figID="101">
<path style="&st10;" d="M27.42,39.55v42.49h25.49V39.55H27.42"/>
</a>
<a ewd:code="FUSE75" ewd:figtype="fuse" style="cursor:pointer;" ewd:figID="103">
<path style="&st10;" d="M962.26,39.55v42.49h25.5V39.55H962.26"/>
</a>
<a ewd:code="FUSE67" ewd:figtype="fuse" style="cursor:pointer;" ewd:figID="105">
<path style="&st10;" d="M2806.45,39.55v42.49h25.5V39.55H2806.45"/>
</a>
<a ewd:code="FUSE10" ewd:figtype="fuse" style="cursor:pointer;" ewd:figID="104">
<path style="&st10;" d="M2746.96,39.55v42.49h25.5V39.55H2746.96"/>
</a>
<a ewd:code="G68" ewd:figtype="conn" style="cursor:pointer;" ewd:figID="17">
<path style="&st30;" d="M23.17,413.49v59.49h93.48v-59.49H23.17"/>
<title ewd:textID="17">Diode (Shift Position)</title>
</a>
<a ewd:code="C40" ewd:figtype="conn" style="cursor:pointer;" ewd:figID="18">
<path style="&st30;" d="M184.64,489.97v34h50.99v-34H184.64"/>
<title ewd:textID="29">Park/Neutral Position Switch</title>
</a>
<a ewd:code="C49,G107" ewd:figtype="conn" style="cursor:pointer;" ewd:figID="19">
<path style="&st30;" d="M218.63,574.96h17v25.5h-17V574.96"/>
<title ewd:textID="24">Junction Connector</title>
</a>
<a ewd:code="C41" ewd:figtype="conn" style="cursor:pointer;" ewd:figID="20">
<path style="&st30;" d="M286.62,523.97v-34h-16.99v34H286.62"/>
<title ewd:textID="9">Back-Up Light Switch Assembly</title>
</a>
<a ewd:code="G106" ewd:figtype="conn" style="cursor:pointer;" ewd:figID="21">
<path style="&st30;" d="M320.62,659.95v16.99h16.99v-16.99H320.62"/>
<title ewd:textID="24">Junction Connector</title>
</a>
<a ewd:code="B1" ewd:figtype="conn" style="cursor:pointer;" ewd:figID="22">
<path style="&st30;" d="M397.1,625.95v34h237.96v-34H397.1"/>
<title ewd:textID="22">Front No. 1 Ultrasonic Sensor LH</title>
</a>
<a ewd:code="B2" ewd:figtype="conn" style="cursor:pointer;" ewd:figID="23">
<path style="&st30;" d="M567.08,532.47v33.99h152.97v-33.99H567.08"/>
<title ewd:textID="20">Front No. 1 Ultrasonic Sensor Center LH</title>
</a>
<a ewd:code="B4" ewd:figtype="conn" style="cursor:pointer;" ewd:figID="25">
<path style="&st30;" d="M737.05,532.47v33.99h67.99v-33.99H737.05"/>
<title ewd:textID="23">Front No. 1 Ultrasonic Sensor RH</title>
</a>
<a ewd:code="B3" ewd:figtype="conn" style="cursor:pointer;" ewd:figID="24">
<path style="&st30;" d="M652.06,625.95v34h152.98v-34H652.06"/>
<title ewd:textID="21">Front No. 1 Ultrasonic Sensor Center RH</title>
</a>
<a ewd:code="G106" ewd:figtype="conn" style="cursor:pointer;" ewd:figID="26">
<path style="&st30;" d="M839.03,659.95h17v16.99h-17V659.95"/>
<title ewd:textID="24">Junction Connector</title>
</a>
<a ewd:code="G81-A,G82-B,G128-C,G129-D" ewd:figtype="conn" style="cursor:pointer;" ewd:figID="2">
<path style="&st30;" d="M244.13,328.5v34h50.99v-34H244.13"/>
<title ewd:textID="24">Junction Connector</title>
</a>
<a ewd:code="G146" ewd:figtype="conn" style="cursor:pointer;" ewd:figID="3">
<path style="&st30;" d="M244.13,277.51h17v-25.5h-17V277.51"/>
<title ewd:textID="16">Diode (Shift Position No. 2)</title>
</a>
<a ewd:code="G145" ewd:figtype="conn" style="cursor:pointer;" ewd:figID="4">
<path style="&st30;" d="M278.12,277.51h17v-25.5h-17V277.51"/>
<title ewd:textID="15">Diode (Shift Position No. 1)</title>
</a>
<a ewd:code="G87,G130" ewd:figtype="conn" style="cursor:pointer;" ewd:figID="1">
<path style="&st30;" d="M244.13,175.53v16.99h50.99v-16.99H244.13"/>
<title ewd:textID="24">Junction Connector</title>
</a>
<a ewd:code="G34" ewd:figtype="conn" style="cursor:pointer;" ewd:figID="6">
<path style="&st30;" d="M388.61,243.52h42.49v-67.99h-42.49V243.52"/>
<title ewd:textID="28">No. 1 Clearance Warning Buzzer</title>
</a>
<a ewd:code="G40,z8" ewd:figtype="conn" style="cursor:pointer;" ewd:figID="7">
<path style="&st30;" d="M626.57,124.54v24.92h135.97v-24.92H626.57"/>
<title ewd:textID="38">Spiral Cable Sub-Assembly</title>
</a>
<a ewd:code="z8" ewd:figtype="conn" style="cursor:pointer;" ewd:figID="8">
<path style="&st30;" d="M626.57,345.5h135.97V158.53H626.57V345.5"/>
<title ewd:textID="39">Spiral Cable Sub-Assembly , Steering Pad Switch Assembly</title>
</a>
<a ewd:code="G81-A,G82-B,G128-C,G129-D" ewd:figtype="conn" style="cursor:pointer;" ewd:figID="27">
<path style="&st30;" d="M873.03,523.97v33.99h67.98v-33.99H873.03"/>
<title ewd:textID="24">Junction Connector</title>
</a>
<a ewd:code="V1" ewd:figtype="conn" style="cursor:pointer;" ewd:figID="29">
<path style="&st30;" d="M1212.97,549.46v34h135.98v-34H1212.97"/>
<title ewd:textID="32">Rear No. 1 Ultrasonic Sensor Center LH</title>
</a>
<a ewd:code="V2" ewd:figtype="conn" style="cursor:pointer;" ewd:figID="28">
<path style="&st30;" d="M1068.49,634.45v33.99h280.46v-33.99H1068.49"/>
<title ewd:textID="34">Rear No. 1 Ultrasonic Sensor LH</title>
</a>
<a ewd:code="U1" ewd:figtype="conn" style="cursor:pointer;" ewd:figID="31">
<path style="&st30;" d="M1408.44,557.96v34h118.98v-34H1408.44"/>
<title ewd:textID="33">Rear No. 1 Ultrasonic Sensor Center RH</title>
</a>
<a ewd:code="U2" ewd:figtype="conn" style="cursor:pointer;" ewd:figID="30">
<path style="&st30;" d="M1408.44,634.45v33.99h118.98v-33.99H1408.44"/>
<title ewd:textID="35">Rear No. 1 Ultrasonic Sensor RH</title>
</a>
<a ewd:code="G93,G144" ewd:figtype="conn" style="cursor:pointer;" ewd:figID="32">
<path style="&st30;" d="M1629.4,489.97h17v17h-17V489.97"/>
<title ewd:textID="24">Junction Connector</title>
</a>
<a ewd:code="A1" ewd:figtype="conn" style="cursor:pointer;" ewd:figID="34">
<path style="&st30;" d="M1693.14,532.47v-42.5h25.49v42.5H1693.14"/>
<title ewd:textID="8">Ambient Temperature Sensor</title>
</a>
<a ewd:code="G98" ewd:figtype="conn" style="cursor:pointer;" ewd:figID="37">
<path style="&st30;" d="M1765.38,549.46v17h50.99v-17H1765.38"/>
<title ewd:textID="24">Junction Connector</title>
</a>
<a ewd:code="A64" ewd:figtype="conn" style="cursor:pointer;" ewd:figID="35">
<path style="&st30;" d="M1697.39,387.99h16.99v17h-16.99V387.99"/>
<title ewd:textID="24">Junction Connector</title>
</a>
<a ewd:code="G51-B" ewd:figtype="conn" style="cursor:pointer;" ewd:figID="36">
<path style="&st30;" d="M1756.88,404.99v33.99h178.47v-33.99H1756.88"/>
<title ewd:textID="30">Power Management Control ECU</title>
</a>
<a ewd:code="G25-B" ewd:figtype="conn" style="cursor:pointer;" ewd:figID="33">
<path style="&st30;" d="M1620.9,668.44v-33.99h203.97v33.99H1620.9"/>
<title ewd:textID="7">A/C Amplifier Assembly</title>
</a>
<a ewd:code="G95" ewd:figtype="conn" style="cursor:pointer;" ewd:figID="11">
<path style="&st30;" d="M1765.38,243.52v16.99h50.99v-16.99H1765.38"/>
<title ewd:textID="24">Junction Connector</title>
</a>
<a ewd:code="G98" ewd:figtype="conn" style="cursor:pointer;" ewd:figID="10">
<path style="&st30;" d="M1688.89,311.5V337h127.48v-25.5H1688.89"/>
<title ewd:textID="24">Junction Connector</title>
</a>
<a ewd:code="G97,G134" ewd:figtype="conn" style="cursor:pointer;" ewd:figID="12">
<path style="&st30;" d="M1875.86,303.01v25.49h50.99v-25.49H1875.86"/>
<title ewd:textID="24">Junction Connector</title>
</a>
<a ewd:code="G100" ewd:figtype="conn" style="cursor:pointer;" ewd:figID="15">
<path style="&st30;" d="M2385.77,99.04v17h50.99v-17H2385.77"/>
<title ewd:textID="24">Junction Connector</title>
</a>
<a ewd:code="G94,G132" ewd:figtype="conn" style="cursor:pointer;" ewd:figID="14">
<path style="&st30;" d="M2385.77,218.02v25.5h50.99v-25.5H2385.77"/>
<title ewd:textID="24">Junction Connector</title>
</a>
<a ewd:code="A72,A73" ewd:figtype="conn" style="cursor:pointer;" ewd:figID="13">
<path style="&st30;" d="M2266.79,379.49v25.5h169.97v-25.5H2266.79"/>
<title ewd:textID="24">Junction Connector</title>
</a>
<a ewd:code="A47,A48" ewd:figtype="conn" style="cursor:pointer;" ewd:figID="39">
<path style="&st30;" d="M2266.79,498.47h84.99v17h-84.99V498.47"/>
<title ewd:textID="36">Short Connector</title>
</a>
<a ewd:code="A7" ewd:figtype="conn" style="cursor:pointer;" ewd:figID="38">
<path style="&st30;" d="M2147.81,625.95v-33.99h212.47v33.99H2147.81"/>
<title ewd:textID="10">Brake Actuator Assembly</title>
</a>
<a ewd:code="G81-A,G82-B,G128-C,G129-D" ewd:figtype="conn" style="cursor:pointer;" ewd:figID="40">
<path style="&st30;" d="M2946.68,557.96v34h67.99v-34H2946.68"/>
<title ewd:textID="24">Junction Connector</title>
</a>
<a ewd:code="G92,G143" ewd:figtype="conn" style="cursor:pointer;" ewd:figID="41">
<path style="&st30;" d="M2946.68,455.98h17v17h-17V455.98"/>
<title ewd:textID="24">Junction Connector</title>
</a>
<a ewd:code="G106" ewd:figtype="conn" style="cursor:pointer;" ewd:figID="42">
<path style="&st30;" d="M2997.67,659.95h17v16.99h-17V659.95"/>
<title ewd:textID="24">Junction Connector</title>
</a>
<a ewd:code="G6-A" ewd:figtype="conn" style="cursor:pointer;" ewd:figID="16">
<path style="&st30;" d="M2708.72,294.51v110.48h322.94V294.51H2708.72"/>
<title ewd:textID="14">Combination Meter Assembly</title>
</a>
<a ewd:code="I1" ewd:figtype="conn" style="cursor:pointer;" ewd:figID="5">
<path style="&st30;" d="M346.11,362.5v42.49h824.37V362.5H346.11"/>
<title ewd:textID="13">Clearance Warning ECU Assembly</title>
</a>
<a ewd:code="G76" ewd:figtype="conn" style="cursor:pointer;" ewd:figID="9">
<path style="&st30;" d="M813.54,141.53v34h101.98v-34H813.54"/>
<title ewd:textID="19">Driving Support Switch Control ECU</title>
</a>
</g>
</svg>
