﻿<?xml version="1.0" encoding="UTF-8"?>
<!DOCTYPE svg PUBLIC "-//W3C//DTD SVG 1.0//EN" "http://www.w3.org/TR/2001/REC-SVG-20010904/DTD/svg10.dtd"[
<!ENTITY ns_flows "http://ns.adobe.com/Flows/1.0/">
<!ENTITY ns_svg "http://www.w3.org/2000/svg">
<!ENTITY ns_xlink "http://www.w3.org/1999/xlink">
	<!ENTITY st0 "fill:none;stroke:#F8E616;stroke-width:5.1;stroke-linejoin:round;">
	<!ENTITY st1 "fill:none;stroke:#FB0F0C;stroke-width:5.1;stroke-linejoin:round;">
	<!ENTITY st2 "fill:none;stroke:#9A9999;stroke-width:5.1;stroke-linejoin:round;">
	<!ENTITY st3 "fill:none;stroke:#99280B;stroke-width:5.1;stroke-linejoin:round;">
		<!ENTITY st4 "fill:none;stroke:#000000;stroke-width:0.85;stroke-linecap:round;stroke-linejoin:round;stroke-dasharray:3 1.5;enable-background:new    ;">
	<!ENTITY st5 "fill:none;stroke:#000000;stroke-width:5.1;stroke-linejoin:round;">
	<!ENTITY st6 "fill:none;stroke:#199DBF;stroke-width:1.13;stroke-linejoin:round;">
	<!ENTITY st7 "fill:none;stroke:#000000;stroke-linecap:round;stroke-linejoin:round;">
	<!ENTITY st8 "stroke:#000000;stroke-width:0.28;stroke-linecap:round;stroke-linejoin:round;enable-background:new    ;">
	<!ENTITY st9 "enable-background:new    ;">
		<!ENTITY st10 "fill:none;stroke:#000000;stroke-width:1.42;stroke-linecap:round;stroke-linejoin:round;enable-background:new    ;">
	<!ENTITY st11 "fill:none;stroke:#EE67AA;stroke-width:5.1;stroke-linejoin:round;">
	<!ENTITY st12 "fill:none;stroke:#199DBF;stroke-width:5.1;stroke-linejoin:round;">
	<!ENTITY st13 "opacity:0.5;fill:none;stroke:#34ACCE;stroke-linejoin:round;stroke-dasharray:6;">
	<!ENTITY st14 "fill:none;stroke:#FFFFFF;stroke-width:4.53;stroke-linejoin:round;">
		<!ENTITY st15 "fill:none;stroke:#000000;stroke-width:0.85;stroke-linecap:round;stroke-linejoin:round;enable-background:new    ;">
	<!ENTITY st16 "fill:none;stroke:#56107C;stroke-width:5.1;stroke-linejoin:round;">
	<!ENTITY st17 "font-size:6px;">
	<!ENTITY st18 "fill:none;stroke:#FFFFFF;stroke-width:2.27;stroke-linejoin:round;">
	<!ENTITY st19 "fill:none;stroke:#FB0F0C;stroke-width:1.13;stroke-linejoin:round;">
	<!ENTITY st20 "fill:none;stroke:#FFFFFF;stroke-width:1.13;stroke-linejoin:round;">
	<!ENTITY st21 "fill:none;stroke:#168638;stroke-width:5.1;stroke-linejoin:round;">
	<!ENTITY st22 "fill:none;stroke:#000000;stroke-width:1.13;stroke-linejoin:round;">
		<!ENTITY st23 "fill:none;stroke:#000000;stroke-width:1.13;stroke-linecap:round;stroke-linejoin:round;stroke-dasharray:3 1.5;enable-background:new    ;">
	<!ENTITY st24 "fill:#FFFFFF;stroke:#000000;stroke-width:1.41;stroke-linecap:round;stroke-linejoin:round;">
	<!ENTITY st25 "fill:none;stroke:#3E65AC;stroke-width:3;">
	<!ENTITY st26 "fill:#CCCCCC;stroke:#CCCCCC;stroke-width:0.1;stroke-linecap:round;stroke-linejoin:round;">
	<!ENTITY st27 "fill:none;stroke:#000000;stroke-width:5.1;stroke-linejoin:round;enable-background:new    ;">
	<!ENTITY st28 "font-family:'ArialMT';">
	<!ENTITY st29 "opacity:0.5;fill:none;stroke:#34ACCE;stroke-linejoin:round;">
	<!ENTITY st30 "fill:#CFE6E7;stroke:#000000;stroke-width:1.133;stroke-linecap:round;stroke-linejoin:round;">
	<!ENTITY st31 "fill:none;stroke:#99D5E0;stroke-width:5.1;stroke-linejoin:round;">
	<!ENTITY st32 "fill:none;stroke:#FFFFFF;stroke-width:1.13;stroke-linejoin:round;enable-background:new    ;">
	<!ENTITY st33 "fill:none;stroke:#7EC57E;stroke-width:5.1;stroke-linejoin:round;">
<!ATTLIST svg
xmlns:ewd CDATA #FIXED "http://shcl.co.jp/ewd"
xmlns:a CDATA #FIXED "http://ns.adobe.com/AdobeSVGViewerExtensions/3.0/"
ewd:ver CDATA #IMPLIED
>
<!ATTLIST a
ewd:lineID CDATA #IMPLIED
ewd:groupID CDATA #IMPLIED
ewd:figtype CDATA #IMPLIED
ewd:code CDATA #IMPLIED
ewd:figID CDATA #IMPLIED
ewd:pinNo CDATA #IMPLIED
ewd:comment CDATA #IMPLIED >
<!ATTLIST g
ewd:lineID CDATA #IMPLIED
ewd:groupID CDATA #IMPLIED
ewd:figtype CDATA #IMPLIED
ewd:code CDATA #IMPLIED
ewd:figID CDATA #IMPLIED
ewd:pinNo CDATA #IMPLIED
ewd:comment CDATA #IMPLIED >
<!ATTLIST text
ewd:textID CDATA #IMPLIED >
<!ATTLIST title
ewd:textID CDATA #IMPLIED >
]>
<svg 
viewBox='0 0 3113.46 729.44'
height='729.44'
width='3113.46'
xml:space="preserve"
xmlns="&ns_svg;"
xmlns:ewd="http://shcl.co.jp/ewd"
xmlns:xlink="&ns_xlink;" ewd:ver="L2.1">
<g ewd:code="UQ1" ewd:figID="646" ewd:figtype="w2w" ewd:pinNo="1">
<path style="&st10;" d="M1501.92,421.99h8.5"/>
<path style="&st10;" d="M1514.67,416.32l-4.25,4.25l-4.25-4.25"/>
<path style="&st10;" d="M1506.17,412.92l4.25,4.25l4.25-4.25"/>
<text transform="matrix(1 0 0 1 1495.5864 428.1958)" style="&st9;"><tspan x="0" y="0" style="&st28; &st17;">1</tspan></text>
</g>
<g ewd:code="UQ1" ewd:figID="645" ewd:figtype="w2w" ewd:pinNo="3">
<path style="&st10;" d="M1450.93,421.99h8.5"/>
<path style="&st10;" d="M1463.68,416.32l-4.25,4.25l-4.25-4.25"/>
<path style="&st10;" d="M1455.18,412.92l4.25,4.25l4.25-4.25"/>
<text transform="matrix(1 0 0 1 1444.5962 428.1958)" style="&st9;"><tspan x="0" y="0" style="&st28; &st17;">3</tspan></text>
</g>
<g ewd:code="UQ1" ewd:figID="644" ewd:figtype="w2w" ewd:pinNo="2">
<path style="&st10;" d="M1416.93,421.99h8.5"/>
<path style="&st10;" d="M1429.68,416.32l-4.25,4.25l-4.25-4.25"/>
<path style="&st10;" d="M1421.18,412.92l4.25,4.25l4.25-4.25"/>
<text transform="matrix(1 0 0 1 1410.5962 428.1958)" style="&st9;"><tspan x="0" y="0" style="&st28; &st17;">2</tspan></text>
</g>
<g ewd:code="RV2" ewd:figID="634" ewd:figtype="w2w" ewd:pinNo="2">
<path style="&st10;" d="M1161.98,574.96h-8.5"/>
<path style="&st10;" d="M1157.73,580.63l-4.25-4.25l-4.25,4.25"/>
<path style="&st10;" d="M1157.73,584.03l-4.25-4.25l-4.25,4.25"/>
<text transform="matrix(1 0 0 1 1138.646 572.6763)" style="&st9;"><tspan x="0" y="0" style="&st28; &st17;">2</tspan></text>
</g>
<g ewd:code="RV2" ewd:figID="631" ewd:figtype="w2w" ewd:pinNo="1">
<path style="&st10;" d="M1127.98,574.96h-8.5"/>
<path style="&st10;" d="M1123.73,584.03l-4.25-4.25l-4.25,4.25"/>
<path style="&st10;" d="M1123.73,580.63l-4.25-4.25l-4.25,4.25"/>
<text transform="matrix(1 0 0 1 1104.6567 572.6763)" style="&st9;"><tspan x="0" y="0" style="&st28; &st17;">1</tspan></text>
</g>
<g ewd:code="RV2" ewd:figID="628" ewd:figtype="w2w" ewd:pinNo="3">
<path style="&st10;" d="M1093.99,574.96h-8.5"/>
<path style="&st10;" d="M1089.74,584.03l-4.25-4.25l-4.25,4.25"/>
<path style="&st10;" d="M1089.74,580.63l-4.25-4.25l-4.25,4.25"/>
<text transform="matrix(1 0 0 1 1070.6567 572.6763)" style="&st9;"><tspan x="0" y="0" style="&st28; &st17;">3</tspan></text>
</g>
<g ewd:code="GR1" ewd:figID="627" ewd:figtype="w2w" ewd:pinNo="41">
<path style="&st10;" d="M1093.99,506.97h-8.5"/>
<path style="&st10;" d="M1089.74,512.64l-4.25-4.25l-4.25,4.25"/>
<path style="&st10;" d="M1089.74,516.04l-4.25-4.25l-4.25,4.25"/>
<text transform="matrix(1 0 0 1 1067.3198 504.686)" style="&st9;"><tspan x="0" y="0" style="&st28; &st17;">41</tspan></text>
</g>
<g ewd:code="GR1" ewd:figID="629" ewd:figtype="w2w" ewd:pinNo="43">
<path style="&st10;" d="M1127.98,506.97h-8.5"/>
<path style="&st10;" d="M1123.73,512.64l-4.25-4.25l-4.25,4.25"/>
<path style="&st10;" d="M1123.73,516.04l-4.25-4.25l-4.25,4.25"/>
<text transform="matrix(1 0 0 1 1101.3198 504.686)" style="&st9;"><tspan x="0" y="0" style="&st28; &st17;">43</tspan></text>
</g>
<g ewd:code="GR1" ewd:figID="632" ewd:figtype="w2w" ewd:pinNo="42">
<path style="&st10;" d="M1161.98,506.97h-8.5"/>
<path style="&st10;" d="M1157.73,512.64l-4.25-4.25l-4.25,4.25"/>
<path style="&st10;" d="M1157.73,516.04l-4.25-4.25l-4.25,4.25"/>
<text transform="matrix(1 0 0 1 1135.3091 504.686)" style="&st9;"><tspan x="0" y="0" style="&st28; &st17;">42</tspan></text>
</g>
<g ewd:code="RV2" ewd:figID="637" ewd:figtype="w2w" ewd:pinNo="4">
<path style="&st10;" d="M1238.46,506.97h-8.49"/>
<path style="&st10;" d="M1234.21,516.04l-4.24-4.25l-4.25,4.25"/>
<path style="&st10;" d="M1234.21,512.64l-4.24-4.25l-4.25,4.25"/>
<text transform="matrix(1 0 0 1 1215.1362 504.686)" style="&st9;"><tspan x="0" y="0" style="&st28; &st17;">4</tspan></text>
</g>
<g ewd:code="RV2" ewd:figID="640" ewd:figtype="w2w" ewd:pinNo="6">
<path style="&st10;" d="M1306.45,506.97h-8.5"/>
<path style="&st10;" d="M1302.2,516.04l-4.25-4.25l-4.25,4.25"/>
<path style="&st10;" d="M1302.2,512.64l-4.25-4.25l-4.25,4.25"/>
<text transform="matrix(1 0 0 1 1283.1265 504.686)" style="&st9;"><tspan x="0" y="0" style="&st28; &st17;">6</tspan></text>
</g>
<g ewd:code="RV2" ewd:figID="642" ewd:figtype="w2w" ewd:pinNo="5">
<path style="&st10;" d="M1340.45,506.97h-8.5"/>
<path style="&st10;" d="M1336.2,516.04l-4.25-4.25l-4.25,4.25"/>
<path style="&st10;" d="M1336.2,512.64l-4.25-4.25l-4.25,4.25"/>
<text transform="matrix(1 0 0 1 1317.1167 504.686)" style="&st9;"><tspan x="0" y="0" style="&st28; &st17;">5</tspan></text>
</g>
<g ewd:code="UR1" ewd:figID="643" ewd:figtype="w2w" ewd:pinNo="2">
<path style="&st10;" d="M1374.44,430.48h-8.5"/>
<path style="&st10;" d="M1370.19,436.15l-4.25-4.25l-4.25,4.25"/>
<path style="&st10;" d="M1370.19,439.55l-4.25-4.25l-4.25,4.25"/>
<text transform="matrix(1 0 0 1 1351.106 428.1958)" style="&st9;"><tspan x="0" y="0" style="&st28; &st17;">2</tspan></text>
</g>
<g ewd:code="RQ1" ewd:figID="641" ewd:figtype="w2w" ewd:pinNo="15">
<path style="&st10;" d="M1323.45,421.99h8.5"/>
<path style="&st10;" d="M1336.2,416.32l-4.25,4.25l-4.25-4.25"/>
<path style="&st10;" d="M1327.7,412.92l4.25,4.25l4.25-4.25"/>
<text transform="matrix(1 0 0 1 1313.7798 428.1958)" style="&st9;"><tspan x="0" y="0" style="&st28; &st17;">15</tspan></text>
</g>
<g ewd:code="RQ1" ewd:figID="639" ewd:figtype="w2w" ewd:pinNo="14">
<path style="&st10;" d="M1289.46,421.99h8.49"/>
<path style="&st10;" d="M1302.2,416.32l-4.25,4.25l-4.25-4.25"/>
<path style="&st10;" d="M1293.7,412.92l4.25,4.25l4.25-4.25"/>
<text transform="matrix(1 0 0 1 1279.7896 428.1958)" style="&st9;"><tspan x="0" y="0" style="&st28; &st17;">14</tspan></text>
</g>
<g ewd:code="UR1" ewd:figID="638" ewd:figtype="w2w" ewd:pinNo="3">
<path style="&st10;" d="M1272.46,430.48h-8.5"/>
<path style="&st10;" d="M1268.21,439.55l-4.25-4.25l-4.25,4.25"/>
<path style="&st10;" d="M1268.21,436.15l-4.25-4.25l-4.25,4.25"/>
<text transform="matrix(1 0 0 1 1249.1265 428.1958)" style="&st9;"><tspan x="0" y="0" style="&st28; &st17;">3</tspan></text>
</g>
<g ewd:code="RQ1" ewd:figID="636" ewd:figtype="w2w" ewd:pinNo="13">
<path style="&st10;" d="M1221.47,421.99h8.5"/>
<path style="&st10;" d="M1225.72,412.92l4.25,4.25l4.24-4.25"/>
<path style="&st10;" d="M1234.21,416.32l-4.24,4.25l-4.25-4.25"/>
<text transform="matrix(1 0 0 1 1211.7993 428.1958)" style="&st9;"><tspan x="0" y="0" style="&st28; &st17;">13</tspan></text>
</g>
<g ewd:code="UR1" ewd:figID="635" ewd:figtype="w2w" ewd:pinNo="1">
<path style="&st10;" d="M1204.47,430.48h-8.5"/>
<path style="&st10;" d="M1200.22,439.55l-4.25-4.25l-4.25,4.25"/>
<path style="&st10;" d="M1200.22,436.15l-4.25-4.25l-4.25,4.25"/>
<text transform="matrix(1 0 0 1 1181.1362 428.1958)" style="&st9;"><tspan x="0" y="0" style="&st28; &st17;">1</tspan></text>
</g>
<g ewd:code="IG1" ewd:figID="633" ewd:figtype="w2w" ewd:pinNo="28">
<path style="&st10;" d="M1161.98,455.98h-8.5"/>
<path style="&st10;" d="M1157.73,461.65l-4.25-4.25l-4.25,4.25"/>
<path style="&st10;" d="M1157.73,465.04l-4.25-4.24l-4.25,4.24"/>
<text transform="matrix(1 0 0 1 1135.3091 453.6958)" style="&st9;"><tspan x="0" y="0" style="&st28; &st17;">28</tspan></text>
</g>
<g ewd:code="IG1" ewd:figID="630" ewd:figtype="w2w" ewd:pinNo="27">
<path style="&st10;" d="M1127.98,455.98h-8.5"/>
<path style="&st10;" d="M1123.73,465.04l-4.25-4.24l-4.25,4.24"/>
<path style="&st10;" d="M1123.73,461.65l-4.25-4.25l-4.25,4.25"/>
<text transform="matrix(1 0 0 1 1101.3198 453.6958)" style="&st9;"><tspan x="0" y="0" style="&st28; &st17;">27</tspan></text>
</g>
<g ewd:code="IG1" ewd:figID="626" ewd:figtype="w2w" ewd:pinNo="26">
<path style="&st10;" d="M1093.99,455.98h-8.5"/>
<path style="&st10;" d="M1089.74,465.04l-4.25-4.24l-4.25,4.24"/>
<path style="&st10;" d="M1089.74,461.65l-4.25-4.25l-4.25,4.25"/>
<text transform="matrix(1 0 0 1 1067.3198 453.6958)" style="&st9;"><tspan x="0" y="0" style="&st28; &st17;">26</tspan></text>
</g>
<g ewd:code="IG1" ewd:figID="606" ewd:figtype="w2w" ewd:pinNo="29">
<path style="&st10;" d="M1144.98,294.51h8.5"/>
<path style="&st10;" d="M1149.23,285.44l4.25,4.25l4.25-4.25"/>
<path style="&st10;" d="M1157.73,288.84l-4.25,4.25l-4.25-4.25"/>
<text transform="matrix(1 0 0 1 1135.3091 300.7266)" style="&st9;"><tspan x="0" y="0" style="&st28; &st17;">29</tspan></text>
</g>
<g ewd:code="IG1" ewd:figID="605" ewd:figtype="w2w" ewd:pinNo="30">
<path style="&st10;" d="M1110.99,294.51h8.49"/>
<path style="&st10;" d="M1115.23,285.44l4.25,4.25l4.25-4.25"/>
<path style="&st10;" d="M1123.73,288.84l-4.25,4.25l-4.25-4.25"/>
<text transform="matrix(1 0 0 1 1101.3198 300.7266)" style="&st9;"><tspan x="0" y="0" style="&st28; &st17;">30</tspan></text>
</g>
<g ewd:code="V1" ewd:figID="29" ewd:figtype="conn">
<path style="&st10;" d="M1212.97,549.46v34h135.98v-34H1212.97"/>
<text transform="matrix(0 -1 1 0 1356.563 585.9771)" style="&st9;"><tspan x="0" y="0" style="&st28; &st17;">V1</tspan></text>
<text ewd:textID="32" transform="matrix(0 -1 1 0 1363.6636 585.9771)" style="&st9; &st28; &st17;">Rear No. 1 Ultrasonic <tspan x="0" y="7">Sensor Center LH</tspan></text>
<text transform="matrix(1 0 0 1 1223.1831 545.7661)" style="&st9;"><tspan x="0" y="0" style="&st28; &st17;">2</tspan></text>
<text transform="matrix(1 0 0 1 1325.1636 545.7661)" style="&st9;"><tspan x="0" y="0" style="&st28; &st17;">6</tspan></text>
<text transform="matrix(1 0 0 1 1224.8833 557.0962)" style="&st9;"><tspan x="0" y="0" style="&st28; &st17;">BO</tspan></text>
<text transform="matrix(1 0 0 1 1326.8628 557.0962)" style="&st9;"><tspan x="0" y="0" style="&st28; &st17;">EO</tspan></text>
<text transform="matrix(1 0 0 1 1291.1733 545.7661)" style="&st9;"><tspan x="0" y="0" style="&st28; &st17;">4</tspan></text>
<text transform="matrix(1 0 0 1 1292.8735 557.0962)" style="&st9;"><tspan x="0" y="0" style="&st28; &st17;">SO</tspan></text>
<text transform="matrix(1 0 0 1 1223.9536 591.647)" style="&st9;"><tspan x="0" y="0" style="&st28; &st17;">1</tspan></text>
<text transform="matrix(1 0 0 1 1291.1733 591.647)" style="&st9;"><tspan x="0" y="0" style="&st28; &st17;">3</tspan></text>
<text transform="matrix(1 0 0 1 1325.1636 591.647)" style="&st9;"><tspan x="0" y="0" style="&st28; &st17;">5</tspan></text>
<text transform="matrix(1 0 0 1 1226.6538 579.7563)" style="&st9;"><tspan x="0" y="0" style="&st28; &st17;">BI</tspan></text>
<text transform="matrix(1 0 0 1 1294.6333 579.7563)" style="&st9;"><tspan x="0" y="0" style="&st28; &st17;">SI</tspan></text>
<text transform="matrix(1 0 0 1 1328.6333 579.7563)" style="&st9;"><tspan x="0" y="0" style="&st28; &st17;">EI</tspan></text>
</g>
<g ewd:code="V2" ewd:figID="28" ewd:figtype="conn">
<path style="&st10;" d="M1068.49,634.45v33.99h280.46v-33.99H1068.49"/>
<text transform="matrix(1 0 0 1 1079.4839 630.7563)" style="&st9;"><tspan x="0" y="0" style="&st28; &st17;">1</tspan></text>
<text transform="matrix(1 0 0 1 1112.7036 630.7563)" style="&st9;"><tspan x="0" y="0" style="&st28; &st17;">3</tspan></text>
<text transform="matrix(1 0 0 1 1146.6929 630.7563)" style="&st9;"><tspan x="0" y="0" style="&st28; &st17;">5</tspan></text>
<text transform="matrix(1 0 0 1 1223.1831 630.7563)" style="&st9;"><tspan x="0" y="0" style="&st28; &st17;">2</tspan></text>
<text transform="matrix(1 0 0 1 1325.1636 630.7563)" style="&st9;"><tspan x="0" y="0" style="&st28; &st17;">6</tspan></text>
<text transform="matrix(1 0 0 1 1082.1733 642.0767)" style="&st9;"><tspan x="0" y="0" style="&st28; &st17;">BI</tspan></text>
<text transform="matrix(1 0 0 1 1116.1636 642.0767)" style="&st9;"><tspan x="0" y="0" style="&st28; &st17;">SI</tspan></text>
<text transform="matrix(1 0 0 1 1150.1636 642.0767)" style="&st9;"><tspan x="0" y="0" style="&st28; &st17;">EI</tspan></text>
<text transform="matrix(1 0 0 1 1224.8833 642.0767)" style="&st9;"><tspan x="0" y="0" style="&st28; &st17;">BO</tspan></text>
<text transform="matrix(1 0 0 1 1291.1733 630.7563)" style="&st9;"><tspan x="0" y="0" style="&st28; &st17;">4</tspan></text>
<text transform="matrix(1 0 0 1 1326.8628 642.0767)" style="&st9;"><tspan x="0" y="0" style="&st28; &st17;">EO</tspan></text>
<text transform="matrix(1 0 0 1 1292.8735 642.0767)" style="&st9;"><tspan x="0" y="0" style="&st28; &st17;">SO</tspan></text>
<text ewd:textID="34" transform="matrix(1 0 0 1 1091.4634 683.1567)" style="&st9; &st28; &st17;">Rear No. 1 Ultrasonic Sensor LH</text>
<text transform="matrix(1 0 0 1 1091.4634 676.0474)" style="&st9;"><tspan x="0" y="0" style="&st28; &st17;">V2</tspan></text>
</g>
<g ewd:code="U1" ewd:figID="31" ewd:figtype="conn">
<path style="&st10;" d="M1408.44,557.96v34h118.98v-34H1408.44"/>
<text transform="matrix(1 0 0 1 1418.6431 554.2661)" style="&st9;"><tspan x="0" y="0" style="&st28; &st17;">5</tspan></text>
<text transform="matrix(1 0 0 1 1504.4136 554.2661)" style="&st9;"><tspan x="0" y="0" style="&st28; &st17;">1</tspan></text>
<text transform="matrix(1 0 0 1 1422.1128 565.5962)" style="&st9;"><tspan x="0" y="0" style="&st28; &st17;">EI</tspan></text>
<text transform="matrix(1 0 0 1 1507.103 565.5962)" style="&st9;"><tspan x="0" y="0" style="&st28; &st17;">BI</tspan></text>
<text transform="matrix(1 0 0 1 1452.6431 554.2661)" style="&st9;"><tspan x="0" y="0" style="&st28; &st17;">3</tspan></text>
<text transform="matrix(1 0 0 1 1456.1128 565.5962)" style="&st9;"><tspan x="0" y="0" style="&st28; &st17;">SI</tspan></text>
<text transform="matrix(0 -1 1 0 1535.0337 594.4771)" style="&st9;"><tspan x="0" y="0" style="&st28; &st17;">U1</tspan></text>
<text ewd:textID="33" transform="matrix(0 -1 1 0 1542.1333 594.4771)" style="&st9; &st28; &st17;">Rear No. 1 <tspan x="0" y="7">Ultrasonic </tspan><tspan x="0" y="14">Sensor Center RH</tspan></text>
<text transform="matrix(1 0 0 1 1418.6431 600.147)" style="&st9;"><tspan x="0" y="0" style="&st28; &st17;">2</tspan></text>
<text transform="matrix(1 0 0 1 1461.1431 600.147)" style="&st9;"><tspan x="0" y="0" style="&st28; &st17;">4</tspan></text>
<text transform="matrix(1 0 0 1 1503.6333 600.147)" style="&st9;"><tspan x="0" y="0" style="&st28; &st17;">6</tspan></text>
<text transform="matrix(1 0 0 1 1420.353 588.2563)" style="&st9;"><tspan x="0" y="0" style="&st28; &st17;">BO</tspan></text>
<text transform="matrix(1 0 0 1 1505.3335 588.2563)" style="&st9;"><tspan x="0" y="0" style="&st28; &st17;">EO</tspan></text>
<text transform="matrix(1 0 0 1 1462.8433 588.2563)" style="&st9;"><tspan x="0" y="0" style="&st28; &st17;">SO</tspan></text>
</g>
<g ewd:code="U2" ewd:figID="30" ewd:figtype="conn">
<path style="&st10;" d="M1408.44,634.45v33.99h118.98v-33.99H1408.44"/>
<text transform="matrix(1 0 0 1 1405.9136 676.0474)" style="&st9;"><tspan x="0" y="0" style="&st28; &st17;">U2</tspan></text>
<text ewd:textID="35" transform="matrix(1 0 0 1 1405.9136 683.1567)" style="&st9; &st28; &st17;">Rear No. 1 Ultrasonic Sensor RH</text>
<text transform="matrix(1 0 0 1 1464.6128 642.0767)" style="&st9;"><tspan x="0" y="0" style="&st28; &st17;">SI</tspan></text>
<text transform="matrix(1 0 0 1 1507.103 642.0767)" style="&st9;"><tspan x="0" y="0" style="&st28; &st17;">EI</tspan></text>
<text transform="matrix(1 0 0 1 1461.1431 630.7563)" style="&st9;"><tspan x="0" y="0" style="&st28; &st17;">3</tspan></text>
<text transform="matrix(1 0 0 1 1422.1128 642.0767)" style="&st9;"><tspan x="0" y="0" style="&st28; &st17;">BI</tspan></text>
<text transform="matrix(1 0 0 1 1503.6333 630.7563)" style="&st9;"><tspan x="0" y="0" style="&st28; &st17;">5</tspan></text>
<text transform="matrix(1 0 0 1 1419.4233 630.7563)" style="&st9;"><tspan x="0" y="0" style="&st28; &st17;">1</tspan></text>
</g>
<text ewd:textID="2" transform="matrix(1 0 0 1 1431.4136 211.4863)" style="&st9; &st28; &st17;">* 2 :3-Door</text>
<text ewd:textID="1" transform="matrix(1 0 0 1 1431.4136 202.9863)" style="&st9; &st28; &st17;">* 1 :5-Door</text>
<text transform="matrix(0 -1 1 0 1455.7339 458.3071)" style="&st9;"><tspan x="0" y="0" style="&st28; &st17;">B</tspan></text>
<text transform="matrix(0 -1 1 0 1421.7437 458.3071)" style="&st9;"><tspan x="0" y="0" style="&st28; &st17;">Y</tspan></text>
<text transform="matrix(0 -1 1 0 1421.7437 404.0864)" style="&st9;"><tspan x="0" y="0" style="&st28; &st17;">W</tspan></text>
<text transform="matrix(0 -1 1 0 1455.7339 403.0669)" style="&st9;"><tspan x="0" y="0" style="&st28; &st17;">B</tspan></text>
<text transform="matrix(0 -1 1 0 1294.2632 530.5474)" style="&st9;"><tspan x="0" y="0" style="&st28; &st17;">B</tspan></text>
<text transform="matrix(0 -1 1 0 1328.2534 530.5474)" style="&st9;"><tspan x="0" y="0" style="&st28; &st17;">Y</tspan></text>
<text transform="matrix(0 -1 1 0 1226.2729 534.6763)" style="&st9;"><tspan x="0" y="0" style="&st28; &st17;">R-L</tspan></text>
<text transform="matrix(0 -1 1 0 1081.7935 441.3071)" style="&st9;"><tspan x="0" y="0" style="&st28; &st17;">P</tspan></text>
<text transform="matrix(0 -1 1 0 1115.7935 442.3364)" style="&st9;"><tspan x="0" y="0" style="&st28; &st17;">W</tspan></text>
<text transform="matrix(0 -1 1 0 1149.7837 441.4458)" style="&st9;"><tspan x="0" y="0" style="&st28; &st17;">R</tspan></text>
<text transform="matrix(0 -1 1 0 1081.7935 483.8071)" style="&st9;"><tspan x="0" y="0" style="&st28; &st17;">P</tspan></text>
<text transform="matrix(0 -1 1 0 1115.7935 484.8267)" style="&st9;"><tspan x="0" y="0" style="&st28; &st17;">W</tspan></text>
<text transform="matrix(0 -1 1 0 1149.7837 483.9458)" style="&st9;"><tspan x="0" y="0" style="&st28; &st17;">R</tspan></text>
<text transform="matrix(0 -1 1 0 1081.7935 551.7856)" style="&st9;"><tspan x="0" y="0" style="&st28; &st17;">P</tspan></text>
<text transform="matrix(0 -1 1 0 1115.7935 552.8169)" style="&st9;"><tspan x="0" y="0" style="&st28; &st17;">W</tspan></text>
<text transform="matrix(0 -1 1 0 1149.7837 551.936)" style="&st9;"><tspan x="0" y="0" style="&st28; &st17;">R</tspan></text>
<text transform="matrix(0 -1 1 0 1081.7935 611.2856)" style="&st9;"><tspan x="0" y="0" style="&st28; &st17;">P</tspan></text>
<text transform="matrix(0 -1 1 0 1115.7935 612.3071)" style="&st9;"><tspan x="0" y="0" style="&st28; &st17;">W</tspan></text>
<text transform="matrix(0 -1 1 0 1149.7837 611.4263)" style="&st9;"><tspan x="0" y="0" style="&st28; &st17;">R</tspan></text>
<text transform="matrix(0 -1 1 0 1226.2729 615.2759)" style="&st9;"><tspan x="0" y="0" style="&st28; &st17;">P-L</tspan></text>
<text transform="matrix(0 -1 1 0 1294.2632 611.4263)" style="&st9;"><tspan x="0" y="0" style="&st28; &st17;">R</tspan></text>
<text transform="matrix(0 -1 1 0 1328.2534 611.7075)" style="&st9;"><tspan x="0" y="0" style="&st28; &st17;">G</tspan></text>
<text transform="matrix(0 -1 1 0 1226.2729 457.9575)" style="&st9;"><tspan x="0" y="0" style="&st28; &st17;">L</tspan></text>
<text transform="matrix(0 -1 1 0 1421.7437 618.4263)" style="&st9;"><tspan x="0" y="0" style="&st28; &st17;">GR</tspan></text>
<text transform="matrix(0 -1 1 0 1464.2339 617.936)" style="&st9;"><tspan x="0" y="0" style="&st28; &st17;">LG</tspan></text>
<text transform="matrix(0 -1 1 0 1328.2534 459.3267)" style="&st9;"><tspan x="0" y="0" style="&st28; &st17;">W</tspan></text>
<text transform="matrix(0 -1 1 0 1294.2632 458.3071)" style="&st9;"><tspan x="0" y="0" style="&st28; &st17;">B</tspan></text>
<text transform="matrix(0 -1 1 0 1433.0737 461.7661)" style="&st9;"><tspan x="0" y="0" style="&st28; &st17;">(*1)</tspan></text>
<text transform="matrix(0 -1 1 0 1467.063 461.7661)" style="&st9;"><tspan x="0" y="0" style="&st28; &st17;">(*1)</tspan></text>
<text transform="matrix(0 -1 1 0 1203.6128 462.1567)" style="&st9;"><tspan x="0" y="0" style="&st28; &st17;">(*2)</tspan></text>
<text transform="matrix(0 -1 1 0 1260.2632 458.3071)" style="&st9;"><tspan x="0" y="0" style="&st28; &st17;">B</tspan></text>
<text transform="matrix(0 -1 1 0 1305.5933 461.7661)" style="&st9;"><tspan x="0" y="0" style="&st28; &st17;">(*1)</tspan></text>
<text transform="matrix(0 -1 1 0 1237.603 461.7661)" style="&st9;"><tspan x="0" y="0" style="&st28; &st17;">(*1)</tspan></text>
<text transform="matrix(0 -1 1 0 1481.2339 458.3071)" style="&st9;"><tspan x="0" y="0" style="&st28; &st17;">B</tspan></text>
<text transform="matrix(0 -1 1 0 1492.563 462.1567)" style="&st9;"><tspan x="0" y="0" style="&st28; &st17;">(*2)</tspan></text>
<text transform="matrix(0 -1 1 0 1192.2837 457.9575)" style="&st9;"><tspan x="0" y="0" style="&st28; &st17;">L</tspan></text>
<text transform="matrix(0 -1 1 0 1362.2534 459.3267)" style="&st9;"><tspan x="0" y="0" style="&st28; &st17;">W</tspan></text>
<text transform="matrix(0 -1 1 0 1373.5835 462.1567)" style="&st9;"><tspan x="0" y="0" style="&st28; &st17;">(*2)</tspan></text>
<text transform="matrix(0 -1 1 0 1396.2437 458.3071)" style="&st9;"><tspan x="0" y="0" style="&st28; &st17;">Y</tspan></text>
<text transform="matrix(0 -1 1 0 1407.5737 462.1567)" style="&st9;"><tspan x="0" y="0" style="&st28; &st17;">(*2)</tspan></text>
<text transform="matrix(0 -1 1 0 1271.603 462.1567)" style="&st9;"><tspan x="0" y="0" style="&st28; &st17;">(*2)</tspan></text>
<text transform="matrix(0 -1 1 0 1339.5835 461.7661)" style="&st9;"><tspan x="0" y="0" style="&st28; &st17;">(*1)</tspan></text>
<text transform="matrix(0 -1 1 0 1433.0737 406.5259)" style="&st9;"><tspan x="0" y="0" style="&st28; &st17;">(*1)</tspan></text>
<text transform="matrix(0 -1 1 0 1467.063 406.5259)" style="&st9;"><tspan x="0" y="0" style="&st28; &st17;">(*1)</tspan></text>
<text transform="matrix(0 -1 1 0 1115.7935 245.8467)" style="&st9;"><tspan x="0" y="0" style="&st28; &st17;">B</tspan></text>
<text transform="matrix(0 -1 1 0 1127.1235 253.2568)" style="&st9;"><tspan x="0" y="0" style="&st28; &st17;">(RHD)</tspan></text>
<text transform="matrix(0 -1 1 0 1149.7837 246.8667)" style="&st9;"><tspan x="0" y="0" style="&st28; &st17;">W</tspan></text>
<text transform="matrix(0 -1 1 0 1161.1235 253.2568)" style="&st9;"><tspan x="0" y="0" style="&st28; &st17;">(RHD)</tspan></text>
<text transform="matrix(0 -1 1 0 1183.7837 245.8467)" style="&st9;"><tspan x="0" y="0" style="&st28; &st17;">B</tspan></text>
<text transform="matrix(0 -1 1 0 1195.1128 252.7666)" style="&st9;"><tspan x="0" y="0" style="&st28; &st17;">(LHD)</tspan></text>
<text transform="matrix(0 -1 1 0 1217.7729 246.8667)" style="&st9;"><tspan x="0" y="0" style="&st28; &st17;">W</tspan></text>
<text transform="matrix(0 -1 1 0 1229.103 252.7666)" style="&st9;"><tspan x="0" y="0" style="&st28; &st17;">(LHD)</tspan></text>
<text transform="matrix(0 -1 1 0 1115.7935 330.8267)" style="&st9;"><tspan x="0" y="0" style="&st28; &st17;">B</tspan></text>
<text transform="matrix(0 -1 1 0 1149.7837 331.8564)" style="&st9;"><tspan x="0" y="0" style="&st28; &st17;">W</tspan></text>
<text ewd:textID="4" transform="matrix(1 0 0 1 1431.4136 228.4863)" style="&st9; &st28; &st17;">* 6 :From Oct. 2010 Production</text>
<text ewd:textID="3" transform="matrix(1 0 0 1 1431.4136 219.9863)" style="&st9; &st28; &st17;">* 5 :Before Oct. 2010 Production</text>
</svg>
