﻿<?xml version="1.0" encoding="UTF-8"?>
<!DOCTYPE svg PUBLIC "-//W3C//DTD SVG 1.0//EN" "http://www.w3.org/TR/2001/REC-SVG-20010904/DTD/svg10.dtd"[
<!ENTITY ns_flows "http://ns.adobe.com/Flows/1.0/">
<!ENTITY ns_svg "http://www.w3.org/2000/svg">
<!ENTITY ns_xlink "http://www.w3.org/1999/xlink">
	<!ENTITY st0 "fill:none;stroke:#FB0F0C;stroke-width:5.1;stroke-linejoin:round;">
	<!ENTITY st1 "fill:none;stroke:#9A9999;stroke-width:5.1;stroke-linejoin:round;">
	<!ENTITY st2 "fill:none;stroke:#000000;stroke-width:5.1;stroke-linejoin:round;">
	<!ENTITY st3 "fill:none;stroke:#199DBF;stroke-width:1.13;stroke-linejoin:round;">
	<!ENTITY st4 "fill:none;stroke:#000000;stroke-linecap:round;stroke-linejoin:round;">
	<!ENTITY st5 "fill:none;stroke:#F8E616;stroke-width:1.13;stroke-linejoin:round;">
	<!ENTITY st6 "stroke:#000000;stroke-width:0.28;stroke-linecap:round;stroke-linejoin:round;enable-background:new    ;">
	<!ENTITY st7 "enable-background:new    ;">
		<!ENTITY st8 "fill:none;stroke:#000000;stroke-width:1.42;stroke-linecap:round;stroke-linejoin:round;enable-background:new    ;">
	<!ENTITY st9 "fill:none;stroke:#199DBF;stroke-width:5.1;stroke-linejoin:round;">
	<!ENTITY st10 "opacity:0.5;fill:none;stroke:#34ACCE;stroke-linejoin:round;stroke-dasharray:6;">
	<!ENTITY st11 "fill:none;stroke:#FFFFFF;stroke-width:4.53;stroke-linejoin:round;">
		<!ENTITY st12 "fill:none;stroke:#000000;stroke-width:0.85;stroke-linecap:round;stroke-linejoin:round;enable-background:new    ;">
	<!ENTITY st13 "font-size:6px;">
	<!ENTITY st14 "fill:none;stroke:#FFFFFF;stroke-width:2.27;stroke-linejoin:round;">
	<!ENTITY st15 "fill:none;stroke:#FB0F0C;stroke-width:1.13;stroke-linejoin:round;">
	<!ENTITY st16 "fill:none;stroke:#FFFFFF;stroke-width:1.13;stroke-linejoin:round;">
	<!ENTITY st17 "fill:none;stroke:#168638;stroke-width:5.1;stroke-linejoin:round;">
	<!ENTITY st18 "fill:none;stroke:#000000;stroke-width:1.13;stroke-linejoin:round;">
	<!ENTITY st19 "fill:#FFFFFF;stroke:#000000;stroke-width:1.41;stroke-linecap:round;stroke-linejoin:round;">
	<!ENTITY st20 "fill:none;stroke:#3E65AC;stroke-width:3;">
	<!ENTITY st21 "font-family:'ArialMT';">
	<!ENTITY st22 "opacity:0.5;fill:none;stroke:#34ACCE;stroke-linejoin:round;">
	<!ENTITY st23 "fill:#CFE6E7;stroke:#000000;stroke-width:1.133;stroke-linecap:round;stroke-linejoin:round;">
<!ATTLIST svg
xmlns:ewd CDATA #FIXED "http://shcl.co.jp/ewd"
xmlns:a CDATA #FIXED "http://ns.adobe.com/AdobeSVGViewerExtensions/3.0/"
ewd:ver CDATA #IMPLIED
>
<!ATTLIST a
ewd:lineID CDATA #IMPLIED
ewd:groupID CDATA #IMPLIED
ewd:figtype CDATA #IMPLIED
ewd:code CDATA #IMPLIED
ewd:figID CDATA #IMPLIED
ewd:pinNo CDATA #IMPLIED
ewd:comment CDATA #IMPLIED >
<!ATTLIST g
ewd:lineID CDATA #IMPLIED
ewd:groupID CDATA #IMPLIED
ewd:figtype CDATA #IMPLIED
ewd:code CDATA #IMPLIED
ewd:figID CDATA #IMPLIED
ewd:pinNo CDATA #IMPLIED
ewd:comment CDATA #IMPLIED >
<!ATTLIST text
ewd:textID CDATA #IMPLIED >
<!ATTLIST title
ewd:textID CDATA #IMPLIED >
]>
<svg onload="call_execInitLoadProc_svg('system')"
style='overflow:visible;enable-background:new 0 0 1039.82 729.44'
viewBox='0 0 1039.82 729.44'
height='729.44'
width='1039.82'
xml:space="preserve"
xmlns="&ns_svg;"
xmlns:ewd="http://shcl.co.jp/ewd"
xmlns:a="http://ns.adobe.com/AdobeSVGViewerExtensions/3.0/"
xmlns:xlink="&ns_xlink;" ewd:ver="L2.1">
<style type="text/css">
	<![CDATA[
@font-face{font-family:'ArialMT';src:url("data:;base64,\
T1RUTwADACAAAQAQQ0ZGIEYNrxcAAAA8AAATNEdQT1Ofs8BZAAAUJAAAAWRjbWFwBTQDfgAAE3AA\
AAC0AQAEAgABAQEIQXJpYWxNVAABAQE3+BsB+BgEHPqv/S0cEAAcCAwFHqAASIKBJf+Lix6gAEiC\
gSX/i4sMB/dKD/eBEPeDEZMcEywSAAEBAWVBcmlhbChSKSBUcmFkZW1hcmsgb2YgVGhlIE1vbm90\
eXBlIENvcnBvcmF0aW9uIHBsYyByZWdpc3RlcmVkIGluIHRoZSBVUyBQYXQgJiBUTSBPZmYuIGFu\
ZCBlbHNld2hlcmUuAAABAAEAAAkBAAwDABEJACIGACoBAC0CADMAADUAADgAADoAAEMBAEYAAEgA\
AEoAAE0DAFMDAFoAAAAAMAIAAQAbAB4AcQDHAOYBDwEdASoBwAHqAnQDMwNdA+IEqgTwBdAGogbg\
B5cIPgjACN0I9wmzCcIKGAopCmkKjwsbCzMLmAvJDEYMyQ1XDhQOMQ5ADs0PJA+lD+UQuBESEW8R\
2cr3lBYcBQD6lBz7AAf+dKsV+lQcBMD+VAYO/hwO/av4c/xDFSj3ETf3J0b3PAhG9zxp90L3SBr3\
M6X3LL73JR7H9z3o9zz3Efc7CPcVBjr7H1YocVBiL2srdCcIbvsRffsR+xIa+9Xv+9T3W/vUHg79\
q/eR/EMV+xUG91v31O/31PfVGvcRffcRbvcPHnTvbOti53HHVe869yAI9xUG9xH7O+j7PMf7PQi+\
+yWl+yz7Mxr7SGn7Qkb7PB5G+zw3+yco+xEIDvup+JX3gRX4Jvwj9zz4I/gj9z78I/gj+zz8I/wm\
Bw7+HPdKFvdh92H7YQdAfk5wXR5wXGFnUXJZ2BixnKejnaydq5W5jcgIDv2rzPhMFfdJ+L37SQcO\
/hz3Thb3Yfdh+2EHDuD5ZxX3QZ33IK/1Hq70wN3SxAjE0eOo9hva0Htsxh/Ga7xdslCyT6lCoTYI\
oTWW+wj7JRr7QHn7H2giHmghVjlFUghRRDJuIBv7IfsDvvA6Hyr3Dlv3W/enGvdNFvuFp/s0xDwe\
O8PQY94b3tCz28Qfw9un9zT3hBr3hW/3NVPaHtpSRbM3GzhJaEVaH00ybPs5+4UaDvmPFvtIHAR7\
BmBiUmFFYkRiTGxTdgj3QgfwuuPF1s7WzsHNqsoI9wgGDvqb90EV+0H+XQeKtpK1mrOkzbLMwsvB\
y9nV8t/3M/cX9wDyw9gIw9en088a0nLIWLwevFhIozkbNEZxV1cfV1dxQ4ov+02eGJj3Hrr03tQI\
0973A6/3Hxv3IfcDZD3dH909tCr7BxpQf1JzUh5zUmNQVExTTC41+xX7AfsAMEZObGtsanJrd2oI\
DuH4FxX3SKOgJa5CvV4ZXrzIdNIb4NKoxsYfxcao0+Ia3nDPVcEewFVGpjgbaWGEflgfn/cyBYqX\
lYqSG9jQn7PIH8izqsneGs11wl62HrZeUqFEG0VRdV9cH1xfbUl+M/tIqxih9w296NnOCM3Z7Kz3\
CBvb1Xppzh/OaL9cr1AIrlCdTEgaTHpRaVceaVdZYkhs4nfOYrtMCLtMozwsGvsUXPsALjIeMi77\
Cl77Ixv7FSGx2DYfNtha7n/3DggO+SoW9/P9EPc5B/kx+koF9yf+Svda+zn7WvvzBvtI+JgV+SkH\
/F/9KQUO4PgUFfdRm5kvrEa+XRlcvsh00xvi1KzMxx/HzKni9wAa8m7cUsYexlE/qS4bUVd+cVwf\
XHBnaXBh+z2hGPci+YUF+W37QPzdBjz8HgXI4+eq7Bv3FPcAXzLjH+Myt/sG+x8a+xlk+wY+Kh77\
Cy37FFD7Nxv7GfsBsNY3HzbWW+5/9w8IDvqP+ucV+0d9e9J0vm6rGb5aT6VEG1JYe2tgH1JiX05q\
PGo8evsFivsnts3AvMqrCKvKzJvQG/cM8V8z4B/fMrX7BvsgGi93NmQ8HmM8VE5GYQhhRjx2Mxv7\
KvsOwvcDLB8s9wJc90r3kRr3r7/3YvT3FR73BOb3D8P3Lxv3B+prStUf1Eq3Mpr7Bgj9c/0MFU2Y\
UKZSHqVSsGC6bghtur18vxvXzKrIwh/CyKbf9BrwcNtVxh7FVUeoORs6Rm5RUh9SUG8/LBoO7BwE\
+hX3QfpJ+yAHLigu+xgw+zkv+zlE+z1Z+0Jn+w90+xqB+yYI+00GjfcHovcgtvc3tvc3yvcy3Pcs\
3Pcr4fcU5vMIDvf++a8VQKZUsme+CGe+ecfSGvax5NjUHtTY8a/3Exv3FPJmQdkf2UCyMSAaR3lQ\
aFkeZ1hVZEJw5W7QW7pKCLpKoj0wGvsRXyEyNh42MvsIYPslG/sl+wi24TIfMuBf9vcUGuqj27zM\
HrvL0Lfkoghn98UVRqFSuF8eX7jFddIb0MSht7gft7ahwcoazXTDXrgeuF1SoUcbRlJ1X14fXl90\
Vk4aUf05FViXWaRbHqNbr2a7cQhwu79+whvh0qfCwx/DwqfS4BribtJSxB7EUUOnNBs2RW9TVB9T\
U29FNxoO9wT35xX3QZuaOqdQtGYZZrTAecwbwryYpLUftKStraa2prWhxJ3TCJ3TlNTWGpOLl4qb\
HmdSWlxNaAhnTEh5Qhv7DSS34zcfN+Nh9wj3JBr3Kbf3C+PmHubi9wK49xgb6uNxWNof2ljHQrQs\
CLQsn/se+0ga+093+yli+wMeYvsDTzY7UQhROi1u+wAb+wcuq8tCH0LKYOV89wcI+XX5GxXycN1U\
yB7IVEipPhs7RWpKUB9QSm02Ixoupz/EUR5Qw9Bu3hve0KjGwR/Axabc8hoOIIgW+MccBboF92UG\
+Owc+kYF+3EG+z/4UAX8+Qb7NfxQBfdt+O4V+IUG+y34Klz3D2nxdNoZeC1xLmkuCA4g9yoWHAW6\
+LoH9wTlfG7PH85twF2yTgixTZ5KSBpMelBpVB5pVFheRmnkcc9fu0wIukyjQTYaRn1MblAeblBn\
XWBrYGtWc0t7CHpKPIMuG/wB+eYV99EG4cmRlrAfvJqxo6StCKStl7a+Grx/tnSwHnSwaaRgmQiY\
YECSIhv7uQb+9AT4AQbKt42QpB+4k7CYqZ6pnqSmnq8Inq6VtLoawn26b7Qeb7Nkp1qcCJtZQ5Mu\
G/vnBg6RHAS0+JYV91ZaYvszQvsOIjgZNyH7FWH7LRv7MvsUq8woHyjLP+hY9w4IV/cOcfcX9yAa\
9y2o9xnG9wYexfcF3uL3AMYIxvb3C6j3FRv3J/cPZkDvH+9A0SKy+xv7U14YafZa2Eq8CLxKOqMp\
G/sFLXBVQB8/VVZDbDAIbDB8LSoa+xGd+wCwLh6vLsNF2F0IXdjedOQb9wHnqsrWH9bKvuim9w8I\
DpH3MhYcBbr4jQf3BuKEfccf33jTaMZY2ErFN7ImCLElnvsI+xca+wN+KHE1HnE1akRiU2JSX19b\
a1pqUXNHegh6Rj2DMhv74/dBFffNBuzXlJ3CH8KdtqSsrLm5r8ml2Qik2Jjp9wMa9y1y9wpZ3h5Y\
3U7CQ6cIn1c3lfsHG/vIBg4g9zYWHAW6+rj7Qf32/FX5v/tA/b/8h/oY+0EHDvty9zwWHAW6+nH7\
Qf2v/Fr5RPtB/UT9LgcO9wz54PjTFfdAB/kBjAX8tAcsPyhSJmUIZCYjeCAb+yT7F6rJ+wkf+wrI\
MuRP9wkIT/cJbfcW9yQa9yOp9xnH9xAexvcP4ef3BMcIx/cE9xWp9yYb9et6aeEf4GjOW7xOvE6w\
O6Qo+0NbGHXWcMVqtmq2Xa1OpQikTkiYQRsyP35wSh9KcFdnZF9jX2xbdVYIZjB4KSEa+xei+wG4\
Mx64M8xK4WAIYOHmduwb392brNsf26vIrbSwCPelBw7+HPdTFhwFuvdWHPpGBw78Vcb4NBX3Q6OQ\
+wSgPrBiGWKwv3bNG7y1lqKuH66hpKmYsgiYsZLI3xr6hvdW/nsH+w98LG5IHm1IXFdLaAhoSkB5\
NBv7FSmw1UcfRtVq9wKO9yYIDvcqFhwFuvdWHPrz+Wb7QQcO9333LBYcBbr3uAf37/6iqyqiQ5pb\
GZzApdqu8vfz+pAY95kc+kb7TxwEywb8Phz7NQX7Qwb8PBwE4AUc+yAHDpH3MBYcBbr3Wwf5lhz7\
gQUcBH/3Thz6RvtbB/2WHASABRz7gAcOkfc1FhwFuvkeB/cX7n5xzx/PcMFdtEgItEifQjoaI2kz\
SEQeSEQjXfsheL5ysnOmc8RXwEq+PfeT/CMY+4gG+1b3xVLjXc5muhlmumurbp5unm2YbZIIkHVn\
jVkb+3X9Hwb5xwT4NQbk0JSevR+9nbGopbQIpbOYt7oa0HLEWbgeuFg8ofsBG/xkBg77cvinFhwF\
Dfx390EcBIr7Qfx5HPrzBw74YPgyFvwZHAW6BfdbBvdz/lWjJqAnnCgZsPcxoeWSo/er+nIY934G\
92b9esD7TLH7QaL7Nhme6KP1qfcM93r6Qhj3Vwb8Jhz6RgX7Twb7yfrxceh8xYagGXxIfFF+XPvL\
/vEYDiD4zxb5AQf8yfnhBfeABve1/E7AOL05uTgZt9jA4crr97D4Qxj3dgb83f3hBf0BBw73wRb7\
OxwFuvdI/J8G6tfsu/cKG8zJfnHGH8Vwu2axXLBbqVGgSAigSJZDPhr7Sl77ITEoHigx+wBZ+xIb\
+xEov/REH4n4KhX7E5wvrlIeLsTXXewb2s+t0MQfxM+o8fcbGvcfcPFUzR7NVEisPRs8R2lHUh9S\
Rm4o+xUaDvxV+dD4GRX3RXR4+w5ZLDxGGUY7KWj7CBv7JfsJu+ozHzLqX/cc90Ua9wee77HhHrHh\
xczZtgi22OCg5hv3B+puUdQf1FC6OKAg+0NwGHrSbsFhrwivYFidTxswQmtKUh9SSm8k+yEa+yOm\
JMJKHkrC0mvjG9LGoba6H7q2qc6Y5QgO+fL36hX3TnRu+wFUNzxPGU88JW37Dxv7L/sPu+swHzDq\
Xfca90Ea90e59x7n7h7u5/cLvPcnG/ci9whbKuUf5Sq4+xz7QxqAi3uKdh79rAaS+wmsMsZNCE3G\
1WzkG83DnK66H7qusMKm1wj84/e3FfjlBoPkdM5muAjQUkCuMBs4Rm9UUx9SVGxBhS4IDvEzFfdD\
cZJVoGSschlquMh62BvezJysuB+4rKq6m8eUsJDYivcJCC48KV37CRv7JvsFwPQ7Hzv0Y/cT9yca\
8J3psOEesODAzdG6CLrQ3aLpG/cR81gm3B/3FPc6/ioH+zl6+wpqRx5pRlZUQmMIY0IxdyAb+xMl\
p8U9Hz3EZeCO9wcI9yn5EhX7H6clwkseS8LRa94b3tCry8Mfw8qn7/ccGvcWbu1SzR7NUUWsOhs7\
R2tKUx9TSm8q+xQaDv6O9xwcBOsV92P3SPtjB/tIHPsVFfq690j+ugcO/o73FxYcBbr3SBz6RgcO\
9333Gxb6uvc1+ykHrL+4tcKrCKrCypvSG9rLe2q+H71qrl6gUAj3EN/3Acn3Gxv03G5RxB/EUKcx\
+w0a/W37R/kxB9OFv4CrHn+qdqVsngiebGeVYhtATXJaWh9aWXI7+wEa/P37SPlGB9t8x26zHrNu\
W59IG1hdfnBgH2Bwa2R4WAh4WIFBKhr8uwcO9xsW+rr3NvsrB/cJ2fcFxfcnG8vGgHTBH8B0s2ym\
ZqZmnV6WWAiSao5QOBr9IftI+RoH1ITCfbAefa9yqGihCKBnYZZbGz5Jc1pUH1Naby/7HBr82AcO\
z/inFfdZwvcl9wHqHtrm9wSy9xcb9yb3C1ss6B/oK7n7GPs9GvsddyBiPR5iPE9OPWAIYDw2dS4b\
+yn7DLvqMB8v6l33HvdHGvdNFvscqSXGSB5HxtZp5Rvk1q3Pxh/Gz6nz9x8a9xdt71DPHs5PQa0y\
GzFAaUhQH1BIbSX7HBoO/av3GRb6uvc2+zUHtNayva6jCKOusZe1G8jIeGTKH037OwWlX1+YXxtk\
Z390bB9sc3RqfmEId0uBRT8a/MAHDvxVyvfRFfdGp5VEp1S5ZRlluMt43RveyJytsx+zrJ+zuBq0\
eatooh5ym06fKaT7GKwwqFikWKNkrXG2CHC2frq/GrqWt6G0HqCzqaywpqegsZy8mgiZu7+Swhve\
1X9zyh/Kc7lrqWKpYqBUlkb7RHMYg8J0tWWqCKpkVZpFGzhQfXBoH2hweWtmGnSSdpp4Hpp4onuq\
fp2EwHzjc/cTaeRvvna9dbJrqGIIqGKZV04aT3pTaFYeaFZYYkluCG5JQHw4G/seIqjEQx9CxF3g\
d/cFCA7+HPik9zUVpfszBYBYXoZjG0pYlaBnH2egcqZ8rQh8rITS9wAa+Pf7GPcg9xj3mwf3R/cA\
BfwH90n7IPtJ/QEHWI5qknwekXyVgJqCCIKZn4emG5+ljZCsHw750xb3MAf7DDj7BE/7IhtMUZej\
VR9Uo2OpcbBwr3m3gMAIhK6Hw9ga+Sb3SPzhBy2PTJJqHpZco2awcAhwsLh9wRvBvpmnuh+6pq2x\
n7sInrqV0OYa+M33SP66Bw78VfcT/C0Vd/c9BYCyroaoG7OrkpijH6OYn56ao5adnrik0o6VkZqS\
nvwn+rwY91YG93H8+6g9pDmiNRmg3qPbqNr3d/j/GPdIBvwo/sxg+wlpO3NfGWtQZl9icAhvYll9\
UhtoZZKaYB8OHARzFBwFwRUAAAABAAAAAwAAAAwABACoAAAAJgAgAAQABgAgACkALgA5AEcASgBO\
AFIAVABXAFkAYwBlAGcAaQBvAHUAef//AAAAIAAoACsAMABBAEkATABSAFQAVwBZAGIAZQBnAGkA\
bAByAHn////h/9r/2f/Y/9H/0P/P/8z/y//J/8j/wP+//77/vf+7/7n/tgABAAAAAAAAAAAAAAAA\
AAAAAAAAAAAAAAAAAAAAAAAAAAAAAAAAAAAAAQAAAAoAHgAsAAFERkxUAAgABAAAAAD//wABAAAA\
AWtlcm4ACAAAAAEAAAABAAQAAgAAAAEACAABARIABAAAAAsAIAAuADQASgBYAG4AfACyANgA/gEI\
AAMAEv+PAB//2wAh/9sAAQAJ/2gABQAB/48AH/9oACD/tAAh/2gAL//bAAMABf8dAAf/HQAS/48A\
BQAB/7QAH/9oACD/aAAh/2gAL/+0AAMAH//bACD/2wAh/9sADQAB/9sABf8dAAb/jwAH/x0AEv9o\
ACP/HQAk/x0AJv+0ACr/HQAr/7QALP8dAC7/tAAv/48ACQAF/48ABv/bAAf/jwAS/7QAJP/bACr/\
2wAr/9sALv/bAC//7gAJAAH/2wAF/vgABv9EAAf++AAS/2gAJP9EACb/tAAq/0QALv+PAAIABf+P\
	]]>
	</style>
<script type="text/javascript" xlink:href="../../../../../system/js/ewd/fig/svgfig.js"/>
<defs>
<font horiz-adv-x="1229">
<font-face font-family="Svg Symbol" units-per-em="2048" panose-1="5 5 1 2 1 7 6 2 5 7" ascent="2059" descent="450" alphabetic="0"/>
<missing-glyph d="M 103,0 l 0,1280 1024,0 0,-1280 -1024,0 z m 32,32 l 960,0 0,1216 -960,0 0,-1216 z"/>
<glyph unicode="&#xF057;" horiz-adv-x="1573" d="M 1517,0 l -567,0 24,279 q 141,59 207.5,168 66.5,109 66.5,306    0,272 -132.5,417.5 -132.5,145.5 -333.5,145.5 -194,0 -328,-147.5 -134,-147.5 -134,-401.5 0,-200 68.5,-319 68.5,-119     206.5,-169 l 25,-279 -564,0 0,279 35,0 q 3,-61 32,-83 45,-35 137,-35 l 270,0 0,70 q -210,61 -324.5,209 -114.5,148     -114.5,349 0,252 186.5,425 186.5,173 504.5,173 195,0 358.5,-73.5 163.5,-73.5 252,-214.5 88.5,-141 88.5,-310 0,-207     -121.5,-360.5 -121.5,-153.5 -317.5,-197.5 l -8,-70 275,0 q 92,0 128,28 36,28 42,90 l 38,0 0,-279 z"/>
</font>
</defs>
<g id="ewd_top">
<a ewd:lineID="8" style="cursor:pointer;">
    <path style="&st2;" d="M 239.26 , 107.54 L 239.26 , 141.53"/><path style="&st14;" d="M 239.26 , 107.54 L 239.26 , 141.53"/><path style="&st15;" d="M 239.26 , 107.54 L 239.26 , 141.53"/>
</a>
<a ewd:lineID="6" style="cursor:pointer;">
    <path style="&st2;" d="M 239.26 , 156.55 L 239.26 , 201.02"/><path style="&st14;" d="M 239.26 , 156.55 L 239.26 , 201.02"/><path style="&st15;" d="M 239.26 , 156.55 L 239.26 , 201.02"/>
</a>
<a ewd:lineID="10" style="cursor:pointer;">
    <path style="&st2;" d="M 392.23 , 303.01 L 392.23 , 158.53 L 290.25 , 158.53 L 290.25 , 201.02"/><path style="&st14;" d="M 392.23 , 303.01 L 392.23 , 158.53 L 290.25 , 158.53 L 290.25 , 201.02"/><path style="&st15;" d="M 392.23 , 303.01 L 392.23 , 158.53 L 290.25 , 158.53 L 290.25 , 201.02"/>
</a>
<a ewd:lineID="7" style="cursor:pointer;">
    <path style="&st2;" d="M 239.26 , 277.51 L 239.26 , 218.02"/><path style="&st14;" d="M 239.26 , 277.51 L 239.26 , 218.02"/><path style="&st15;" d="M 239.26 , 277.51 L 239.26 , 218.02"/>
</a>
<a ewd:lineID="2" style="cursor:pointer;">
    <path style="&st2;" d="M 86.29 , 438.98 L 86.29 , 311.5 L 383.74 , 311.5"/><path style="&st14;" d="M 86.29 , 438.98 L 86.29 , 311.5 L 383.74 , 311.5"/><path style="&st15;" d="M 86.29 , 438.98 L 86.29 , 311.5 L 383.74 , 311.5"/>
</a>
<a ewd:lineID="1" style="cursor:pointer;">
    <path style="&st2;" d="M 35.29 , 685.44 L 35.29 , 337 L 145.78 , 337"/><path style="&st11;" d="M 35.29 , 685.44 L 35.29 , 337 L 145.78 , 337"/><path style="&st18;" d="M 35.29 , 685.44 L 35.29 , 337 L 145.78 , 337"/>
</a>
<a ewd:lineID="3" style="cursor:pointer;">
    <path style="&st2;" d="M 154.27 , 345.5 L 154.27 , 438.98"/><path style="&st11;" d="M 154.27 , 345.5 L 154.27 , 438.98"/><path style="&st18;" d="M 154.27 , 345.5 L 154.27 , 438.98"/>
</a>
<a ewd:lineID="4" style="cursor:pointer;">
    <path style="&st2;" d="M 162.77 , 337 L 298.75 , 337"/><path style="&st11;" d="M 162.77 , 337 L 298.75 , 337"/><path style="&st18;" d="M 162.77 , 337 L 298.75 , 337"/>
</a>
<a ewd:lineID="9" style="cursor:pointer;">
    <path style="&st2;" d="M 247.76 , 286.01 L 579.2 , 286.01"/><path style="&st14;" d="M 247.76 , 286.01 L 579.2 , 286.01"/><path style="&st15;" d="M 247.76 , 286.01 L 579.2 , 286.01"/>
</a>
<a ewd:lineID="5" style="cursor:pointer;">
    <path style="&st2;" d="M 239.26 , 438.98 L 239.26 , 294.51"/><path style="&st14;" d="M 239.26 , 438.98 L 239.26 , 294.51"/><path style="&st15;" d="M 239.26 , 438.98 L 239.26 , 294.51"/>
</a>
<a ewd:lineID="24" style="cursor:pointer;">
    <path style="&st17;" d="M 154.27 , 481.48 L 154.27 , 566.46 L 451.72 , 566.46"/><path style="&st14;" d="M 154.27 , 481.48 L 154.27 , 566.46 L 451.72 , 566.46"/><path style="&st15;" d="M 154.27 , 481.48 L 154.27 , 566.46 L 451.72 , 566.46"/>
</a>
<a ewd:lineID="23" style="cursor:pointer;">
    <path style="&st0;" d="M 86.29 , 481.48 L 86.29 , 608.39"/><path style="&st14;" d="M 86.29 , 481.48 L 86.29 , 608.39"/><path style="&st5;" d="M 86.29 , 481.48 L 86.29 , 608.39"/>
</a>
<a ewd:lineID="25" style="cursor:pointer;">
    <path style="&st0;" d="M 239.26 , 481.48 L 239.26 , 608.39"/><path style="&st14;" d="M 239.26 , 481.48 L 239.26 , 608.39"/><path style="&st3;" d="M 239.26 , 481.48 L 239.26 , 608.39"/>
</a>
<a ewd:lineID="26" style="cursor:pointer;">
    <path style="&st17;" d="M 307.25 , 481.48 L 307.25 , 540.97 L 434.73 , 540.97 L 454.21 , 560.45"/><path style="&st14;" d="M 307.25 , 481.48 L 307.25 , 540.97 L 434.73 , 540.97 L 454.21 , 560.45"/><path style="&st15;" d="M 307.25 , 481.48 L 307.25 , 540.97 L 434.73 , 540.97 L 454.21 , 560.45"/>
</a>
<a ewd:lineID="11" style="cursor:pointer;">
    <path style="&st2;" d="M 307.25 , 345.5 L 307.25 , 438.98"/><path style="&st11;" d="M 307.25 , 345.5 L 307.25 , 438.98"/><path style="&st18;" d="M 307.25 , 345.5 L 307.25 , 438.98"/>
</a>
<a ewd:lineID="12" style="cursor:pointer;">
    <path style="&st2;" d="M 315.75 , 337 L 451.72 , 337"/><path style="&st11;" d="M 315.75 , 337 L 451.72 , 337"/><path style="&st18;" d="M 315.75 , 337 L 451.72 , 337"/>
</a>
<a ewd:lineID="14" style="cursor:pointer;">
    <path style="&st2;" d="M 400.73 , 311.5 L 740.68 , 311.5 L 740.68 , 438.98"/><path style="&st14;" d="M 400.73 , 311.5 L 740.68 , 311.5 L 740.68 , 438.98"/><path style="&st15;" d="M 400.73 , 311.5 L 740.68 , 311.5 L 740.68 , 438.98"/>
</a>
<a ewd:lineID="13" style="cursor:pointer;">
    <path style="&st2;" d="M 392.23 , 438.98 L 392.23 , 320"/><path style="&st14;" d="M 392.23 , 438.98 L 392.23 , 320"/><path style="&st15;" d="M 392.23 , 438.98 L 392.23 , 320"/>
</a>
<a ewd:lineID="27" style="cursor:pointer;">
    <path style="&st17;" d="M 392.23 , 481.48 L 392.23 , 608.39"/><path style="&st14;" d="M 392.23 , 481.48 L 392.23 , 608.39"/><path style="&st18;" d="M 392.23 , 481.48 L 392.23 , 608.39"/>
</a>
<a ewd:lineID="28" style="cursor:pointer;">
    <path style="&st17;" d="M 460.22 , 481.48 L 460.22 , 557.96"/><path style="&st14;" d="M 460.22 , 481.48 L 460.22 , 557.96"/><path style="&st15;" d="M 460.22 , 481.48 L 460.22 , 557.96"/>
</a>
<a ewd:lineID="15" style="cursor:pointer;">
    <path style="&st2;" d="M 460.22 , 345.5 L 460.22 , 438.98"/><path style="&st11;" d="M 460.22 , 345.5 L 460.22 , 438.98"/><path style="&st18;" d="M 460.22 , 345.5 L 460.22 , 438.98"/>
</a>
<a ewd:lineID="30" style="cursor:pointer;">
    <path style="&st17;" d="M 468.72 , 566.46 L 647.19 , 566.46"/><path style="&st14;" d="M 468.72 , 566.46 L 647.19 , 566.46"/><path style="&st15;" d="M 468.72 , 566.46 L 647.19 , 566.46"/>
</a>
<a ewd:lineID="29" style="cursor:pointer;">
    <path style="&st17;" d="M 460.22 , 574.96 L 460.22 , 608.39"/><path style="&st14;" d="M 460.22 , 574.96 L 460.22 , 608.39"/><path style="&st15;" d="M 460.22 , 574.96 L 460.22 , 608.39"/>
</a>
<a ewd:lineID="16" style="cursor:pointer;">
    <path style="&st2;" d="M 468.72 , 337 L 647.19 , 337"/><path style="&st11;" d="M 468.72 , 337 L 647.19 , 337"/><path style="&st18;" d="M 468.72 , 337 L 647.19 , 337"/>
</a>
<a ewd:lineID="31" style="cursor:pointer;">
    <path style="&st17;" d="M 587.7 , 481.48 L 587.7 , 608.39"/><path style="&st16;" d="M 587.7 , 481.48 L 587.7 , 608.39"/>
</a>
<a ewd:lineID="17" style="cursor:pointer;">
    <path style="&st2;" d="M 587.7 , 294.51 L 587.7 , 438.98"/><path style="&st14;" d="M 587.7 , 294.51 L 587.7 , 438.98"/><path style="&st15;" d="M 587.7 , 294.51 L 587.7 , 438.98"/>
</a>
<a ewd:lineID="18" style="cursor:pointer;">
    <path style="&st2;" d="M 596.2 , 286.01 L 885.15 , 286.01 L 885.15 , 438.98"/><path style="&st14;" d="M 596.2 , 286.01 L 885.15 , 286.01 L 885.15 , 438.98"/><path style="&st15;" d="M 596.2 , 286.01 L 885.15 , 286.01 L 885.15 , 438.98"/>
</a>
<a ewd:lineID="20" style="cursor:pointer;">
    <path style="&st2;" d="M 664.19 , 337 L 800.17 , 337"/><path style="&st11;" d="M 664.19 , 337 L 800.17 , 337"/><path style="&st18;" d="M 664.19 , 337 L 800.17 , 337"/>
</a>
<a ewd:lineID="19" style="cursor:pointer;">
    <path style="&st2;" d="M 655.69 , 345.5 L 655.69 , 438.98"/><path style="&st11;" d="M 655.69 , 345.5 L 655.69 , 438.98"/><path style="&st18;" d="M 655.69 , 345.5 L 655.69 , 438.98"/>
</a>
<a ewd:lineID="32" style="cursor:pointer;">
    <path style="&st17;" d="M 655.69 , 481.48 L 655.69 , 557.96"/><path style="&st14;" d="M 655.69 , 481.48 L 655.69 , 557.96"/><path style="&st15;" d="M 655.69 , 481.48 L 655.69 , 557.96"/>
</a>
<a ewd:lineID="33" style="cursor:pointer;">
    <path style="&st17;" d="M 664.19 , 566.46 L 800.17 , 566.46"/><path style="&st14;" d="M 664.19 , 566.46 L 800.17 , 566.46"/><path style="&st15;" d="M 664.19 , 566.46 L 800.17 , 566.46"/>
</a>
<a ewd:lineID="34" style="cursor:pointer;">
    <path style="&st1;" d="M 740.68 , 481.48 L 740.68 , 608.39"/>
</a>
<a ewd:lineID="35" style="cursor:pointer;">
    <path style="&st17;" d="M 808.67 , 481.48 L 808.67 , 557.96"/><path style="&st14;" d="M 808.67 , 481.48 L 808.67 , 557.96"/><path style="&st15;" d="M 808.67 , 481.48 L 808.67 , 557.96"/>
</a>
<a ewd:lineID="21" style="cursor:pointer;">
    <path style="&st2;" d="M 808.67 , 345.5 L 808.67 , 438.98"/><path style="&st11;" d="M 808.67 , 345.5 L 808.67 , 438.98"/><path style="&st18;" d="M 808.67 , 345.5 L 808.67 , 438.98"/>
</a>
<a ewd:lineID="22" style="cursor:pointer;">
    <path style="&st2;" d="M 817.16 , 337 L 953.14 , 337 L 953.14 , 438.98"/><path style="&st11;" d="M 817.16 , 337 L 953.14 , 337 L 953.14 , 438.98"/><path style="&st18;" d="M 817.16 , 337 L 953.14 , 337 L 953.14 , 438.98"/>
</a>
<a ewd:lineID="36" style="cursor:pointer;">
    <path style="&st17;" d="M 817.16 , 566.46 L 953.14 , 566.46 L 953.14 , 481.48"/><path style="&st14;" d="M 817.16 , 566.46 L 953.14 , 566.46 L 953.14 , 481.48"/><path style="&st15;" d="M 817.16 , 566.46 L 953.14 , 566.46 L 953.14 , 481.48"/>
</a>
<a ewd:lineID="37" style="cursor:pointer;">
    <path style="&st9;" d="M 885.15 , 481.48 L 885.15 , 608.39"/>
</a>
<a ewd:code="AC1" ewd:figtype="w2w" style="cursor:pointer;" ewd:figID="601">
    <path style="&st19;" d="M247.76,141.53h-17v8.5h17V141.53"/>
<text transform="matrix(1 0 0 1 233.4272 148.2754)" style="&st7;"><tspan x="0" y="0" style="&st21; &st13;">AC1</tspan></text>
</a>
<a ewd:code="212002" ewd:figtype="sp" style="cursor:pointer;" ewd:figID="502">
    <path style="&st19;" d="M235.01,277.51h8.5l4.25,4.25v8.5l-4.25,4.25h-8.5l-4.25-4.25v-8.5L235.01,277.51"/>
</a>
<a ewd:code="212004" ewd:figtype="sp" style="cursor:pointer;" ewd:figID="504">
    <path style="&st19;" d="M387.99,303.01h8.49l4.25,4.24v8.5l-4.25,4.25h-8.49l-4.25-4.25v-8.5L387.99,303.01"/>
</a>
<a ewd:code="212005" ewd:figtype="sp" style="cursor:pointer;" ewd:figID="505">
    <path style="&st19;" d="M455.97,328.5h8.5l4.25,4.25v8.5l-4.25,4.25h-8.5l-4.25-4.25v-8.5L455.97,328.5"/>
</a>
<a ewd:code="212003" ewd:figtype="sp" style="cursor:pointer;" ewd:figID="503">
    <path style="&st19;" d="M303,328.5h8.5l4.25,4.25v8.5l-4.25,4.25H303l-4.25-4.25v-8.5L303,328.5"/>
</a>
<a ewd:code="212001" ewd:figtype="sp" style="cursor:pointer;" ewd:figID="501">
    <path style="&st19;" d="M150.03,328.5h8.49l4.25,4.25v8.5l-4.25,4.25h-8.49l-4.25-4.25v-8.5L150.03,328.5"/>
</a>
<a ewd:code="212009" ewd:figtype="sp" style="cursor:pointer;" ewd:figID="509">
    <path style="&st19;" d="M455.97,557.96h8.5l4.25,4.25v8.5l-4.25,4.25h-8.5l-4.25-4.25v-8.5L455.97,557.96"/>
</a>
<a ewd:code="212010" ewd:figtype="sp" style="cursor:pointer;" ewd:figID="510">
    <path style="&st19;" d="M651.44,557.96h8.5l4.25,4.25v8.5l-4.25,4.25h-8.5l-4.25-4.25v-8.5L651.44,557.96"/>
</a>
<a ewd:code="212007" ewd:figtype="sp" style="cursor:pointer;" ewd:figID="507">
    <path style="&st19;" d="M651.44,328.5h8.5l4.25,4.25v8.5l-4.25,4.25h-8.5l-4.25-4.25v-8.5L651.44,328.5"/>
</a>
<a ewd:code="212006" ewd:figtype="sp" style="cursor:pointer;" ewd:figID="506">
    <path style="&st19;" d="M583.45,277.51h8.5l4.25,4.25v8.5l-4.25,4.25h-8.5l-4.25-4.25v-8.5L583.45,277.51"/>
</a>
<a ewd:code="212011" ewd:figtype="sp" style="cursor:pointer;" ewd:figID="511">
    <path style="&st19;" d="M804.42,557.96h8.49l4.25,4.25v8.5l-4.25,4.25h-8.49l-4.25-4.25v-8.5L804.42,557.96"/>
</a>
<a ewd:code="212008" ewd:figtype="sp" style="cursor:pointer;" ewd:figID="508">
    <path style="&st19;" d="M804.42,328.5h8.49l4.25,4.25v8.5l-4.25,4.25h-8.49l-4.25-4.25v-8.5L804.42,328.5"/>
</a>
<a ewd:code="FUSE14" ewd:figtype="rb" style="cursor:pointer;" ewd:figID="401">
    <path style="&st23;" d="M226.51,39.55v42.49h25.5V39.55H226.51"/>
</a>
<a ewd:code="C1" ewd:figtype="gp" style="cursor:pointer;" ewd:figID="201">
    <path style="&st19;" d="M24.67,685.44h21.25l-10.63,15.58L24.67,685.44"/>
<text transform="matrix(1 0 0 1 31.0234 693.5962)" style="&st7;"><tspan x="0" y="0" style="&st21; &st13;">C1</tspan></text>
</a>
<a ewd:code="FUSE14" ewd:figtype="fuse" style="cursor:pointer;" ewd:figID="101">
    <path style="&st8;" d="M226.51,39.55v42.49h25.5V39.55H226.51"/>
</a>
<a ewd:code="C47" ewd:figtype="conn" style="cursor:pointer;" ewd:figID="1">
    <path style="&st23;" d="M230.76,201.02h67.99v17h-67.99V201.02"/>
<title ewd:textID="7">Junction Connector</title>
</a>
<a ewd:code="C7" ewd:figtype="conn" style="cursor:pointer;" ewd:figID="2">
    <path style="&st23;" d="M69.29,438.98v42.5h101.98v-42.5H69.29"/>
<title ewd:textID="1">Ignition Coil Assembly No. 1</title>
</a>
<a ewd:code="C8" ewd:figtype="conn" style="cursor:pointer;" ewd:figID="4">
    <path style="&st23;" d="M222.26,438.98v42.5h101.99v-42.5H222.26"/>
<title ewd:textID="2">Ignition Coil Assembly No. 2</title>
</a>
<a ewd:code="C9" ewd:figtype="conn" style="cursor:pointer;" ewd:figID="5">
    <path style="&st23;" d="M375.24,438.98v42.5h101.98v-42.5H375.24"/>
<title ewd:textID="3">Ignition Coil Assembly No. 3</title>
</a>
<a ewd:code="C10" ewd:figtype="conn" style="cursor:pointer;" ewd:figID="6">
    <path style="&st23;" d="M570.7,438.98v42.5h101.99v-42.5H570.7"/>
<title ewd:textID="4">Ignition Coil Assembly No. 4</title>
</a>
<a ewd:code="C11" ewd:figtype="conn" style="cursor:pointer;" ewd:figID="7">
    <path style="&st23;" d="M723.68,438.98v42.5h101.98v-42.5H723.68"/>
<title ewd:textID="5">Ignition Coil Assembly No. 5</title>
</a>
<a ewd:code="C12" ewd:figtype="conn" style="cursor:pointer;" ewd:figID="8">
    <path style="&st23;" d="M868.16,438.98v42.5h101.98v-42.5H868.16"/>
<title ewd:textID="6">Ignition Coil Assembly No. 6</title>
</a>
<a ewd:code="C35-B,C36-C" ewd:figtype="conn" style="cursor:pointer;" ewd:figID="3">
    <path style="&st23;" d="M69.29,617.45v42.5h832.86v-42.5H69.29"/>
<title>ECM</title>
</a>
<g ewd:code="AC1" ewd:figID="601" ewd:figtype="w2w" ewd:pinNo="8">
    <path style="&st8;" d="M247.76,150.03h-8.5"/><path style="&st8;" d="M243.51,159.1l-4.25-4.25l-4.25,4.25"/><path style="&st8;" d="M243.51,155.7l-4.25-4.25l-4.25,4.25"/>
    <text transform="matrix(1 0 0 1 224.4263 147.7456)" style="&st7;"><tspan x="0" y="0" style="&st21; &st13;">8</tspan></text>
</g>
<g ewd:code="212002" ewd:figID="502" ewd:figtype="sp">
    <path style="&st8;" d="M247.76,282.48l-4.97-4.97"/><path style="&st8;" d="M230.76,289.54l4.97,4.97"/><path style="&st8;" d="M242.79,294.51l4.97-4.97"/><path style="&st8;" d="M235.73,277.51l-4.97,4.97"/>
</g>
<g ewd:code="212004" ewd:figID="504" ewd:figtype="sp">
    <path style="&st8;" d="M400.73,307.98l-4.97-4.97"/><path style="&st8;" d="M383.74,315.03l4.96,4.97"/><path style="&st8;" d="M395.76,320l4.97-4.97"/><path style="&st8;" d="M388.7,303.01l-4.96,4.97"/>
</g>
<g ewd:code="212005" ewd:figID="505" ewd:figtype="sp">
    <path style="&st8;" d="M468.72,333.47l-4.97-4.97"/><path style="&st8;" d="M451.72,340.53l4.97,4.97"/><path style="&st8;" d="M463.75,345.5l4.97-4.97"/><path style="&st8;" d="M456.69,328.5l-4.97,4.97"/>
</g>
<g ewd:code="212003" ewd:figID="503" ewd:figtype="sp">
    <path style="&st8;" d="M315.75,333.47l-4.97-4.97"/><path style="&st8;" d="M298.75,340.53l4.97,4.97"/><path style="&st8;" d="M310.78,345.5l4.97-4.97"/><path style="&st8;" d="M303.72,328.5l-4.97,4.97"/>
</g>
<g ewd:code="212001" ewd:figID="501" ewd:figtype="sp">
    <path style="&st8;" d="M162.77,333.47l-4.97-4.97"/><path style="&st8;" d="M145.78,340.53l4.96,4.97"/><path style="&st8;" d="M157.8,345.5l4.97-4.97"/><path style="&st8;" d="M150.74,328.5l-4.96,4.97"/>
</g>
<g ewd:code="212009" ewd:figID="509" ewd:figtype="sp">
    <path style="&st8;" d="M468.72,562.93l-4.97-4.97"/><path style="&st8;" d="M451.72,569.98l4.97,4.97"/><path style="&st8;" d="M463.75,574.96l4.97-4.97"/><path style="&st8;" d="M456.69,557.96l-4.97,4.97"/>
</g>
<g ewd:code="212010" ewd:figID="510" ewd:figtype="sp">
    <path style="&st8;" d="M664.19,562.93l-4.97-4.97"/><path style="&st8;" d="M647.19,569.98l4.97,4.97"/><path style="&st8;" d="M659.22,574.96l4.97-4.97"/><path style="&st8;" d="M652.16,557.96l-4.97,4.97"/>
</g>
<g ewd:code="212007" ewd:figID="507" ewd:figtype="sp">
    <path style="&st8;" d="M664.19,333.47l-4.97-4.97"/><path style="&st8;" d="M647.19,340.53l4.97,4.97"/><path style="&st8;" d="M659.22,345.5l4.97-4.97"/><path style="&st8;" d="M652.16,328.5l-4.97,4.97"/>
</g>
<g ewd:code="212006" ewd:figID="506" ewd:figtype="sp">
    <path style="&st8;" d="M596.2,282.48l-4.97-4.97"/><path style="&st8;" d="M579.2,289.54l4.97,4.97"/><path style="&st8;" d="M591.23,294.51l4.97-4.97"/><path style="&st8;" d="M584.17,277.51l-4.97,4.97"/>
</g>
<g ewd:code="212011" ewd:figID="511" ewd:figtype="sp">
    <path style="&st8;" d="M817.16,562.93l-4.97-4.97"/><path style="&st8;" d="M800.17,569.98l4.97,4.97"/><path style="&st8;" d="M812.19,574.96l4.97-4.97"/><path style="&st8;" d="M805.14,557.96l-4.97,4.97"/>
</g>
<g ewd:code="212008" ewd:figID="508" ewd:figtype="sp">
    <path style="&st8;" d="M817.16,333.47l-4.97-4.97"/><path style="&st8;" d="M800.17,340.53l4.97,4.97"/><path style="&st8;" d="M812.19,345.5l4.97-4.97"/><path style="&st8;" d="M805.14,328.5l-4.97,4.97"/>
</g>
<g ewd:code="FUSE14" ewd:figID="401" ewd:figtype="rb">
    <path style="&st4;" d="M226.51,39.55v42.49h25.5V39.55H226.51"/><path style="&st8;" d="M241.38,107.54h-4.24"/><path style="&st8;" d="M241.38,99.04h-4.24"/><path style="&st12;" d="M239.26,73.54v25.5"/><path style="&st6;" d="M239.26,94.14l-2.83-2.83v4.25l2.83,2.83l2.83-2.83v-4.25L239.26,94.14"/><path style="&st8;" d="M226.51,39.55v42.49h25.5V39.55H226.51"/><path style="&st8;" d="M245.63,103.29c0-2.35-1.9-4.25-4.25-4.25"/><path style="&st8;" d="M241.38,107.54c2.35,0,4.25-1.9,4.25-4.25"/><path style="&st8;" d="M232.89,103.29c0,2.35,1.9,4.25,4.25,4.25"/><path style="&st8;" d="M237.14,99.04c-2.35,0-4.25,1.9-4.25,4.25"/><path style="&st12;" d="M240.68,72.13c0-0.79-0.64-1.42-1.42-1.42"/><path style="&st12;" d="M239.26,70.71c-0.78,0-1.42,0.63-1.42,1.42"/><path style="&st12;" d="M237.84,72.13c0,0.78,0.64,1.41,1.42,1.41"/><path style="&st12;" d="M239.26,73.54c0.78,0,1.42-0.63,1.42-1.41"/><path style="&st12;" d="M240.68,49.46c0-0.78-0.64-1.41-1.42-1.41"/><path style="&st12;" d="M239.26,48.05c-0.78,0-1.42,0.63-1.42,1.41"/><path style="&st12;" d="M237.84,49.46c0,0.79,0.64,1.42,1.42,1.42"/><path style="&st12;" d="M239.26,50.88c0.78,0,1.42-0.63,1.42-1.42"/><path style="&st8;" d="M239.26,70.71c2.74-1.61,3.65-5.14,2.04-7.88"/><path style="&st8;" d="M241.3,62.83c-0.52-0.88-1.16-1.51-2.04-2.03"/><path style="&st8;" d="M239.26,50.88c-2.74,1.61-3.65,5.14-2.04,7.88"/><path style="&st8;" d="M237.22,58.76c0.52,0.88,1.16,1.52,2.04,2.04"/>
    <text transform="matrix(1 0 0 1 233.1831 35.8457)" style="&st7;"><tspan x="0" y="0" style="&st21; &st13;">(IG)</tspan></text>
    <text transform="matrix(1 0 0 1 232.4731 90.2354)" style="&st7;"><tspan x="0" y="0" style="&st21; &st13;">2</tspan></text>
    <text transform="matrix(1 0 0 1 237.6733 105.2559)" style="&st7;"><tspan x="0" y="0" style="&st21; &st13;">1</tspan></text>
    <text transform="matrix(1 0 0 1 256.5732 59.9355)" style="&st7;"><tspan x="0" y="0" style="&st21; &st13;">10A</tspan></text>
    <text transform="matrix(1 0 0 1 256.5732 65.9355)" style="&st7;"><tspan x="0" y="0" style="&st21; &st13;">INJ</tspan></text>
</g>
<g ewd:code="C1" ewd:figID="201" ewd:figtype="gp">
    <path style="&st12;" d="M26.8,705.27h16.99"/><path style="&st12;" d="M35.29,701.02v4.25"/><path style="&st12;" d="M33.88,713.77h2.83"/><path style="&st12;" d="M32.46,710.94h5.67"/><path style="&st12;" d="M31.05,708.1h8.49"/>
</g>
<g ewd:code="C47" ewd:figID="1" ewd:figtype="conn">
    <path style="&st8;" d="M230.76,201.02h67.99v17h-67.99V201.02"/><path style="&st12;" d="M239.26,201.02v17"/><path style="&st12;" d="M238.07,208.52l-0.27,0.47l-0.1,0.53l0.1,0.53l0.27,0.47l0.41,0.35l0.51,0.19h0.54l0.51-0.19l0.41-0.35l0.27-0.47l0.1-0.53l-0.1-0.53l-0.27-0.47l-0.41-0.35l-0.51-0.18h-0.54l-0.51,0.18L238.07,208.52l0.39,0.71v0.58l0.38,0.45l0.57,0.1l0.5-0.29l0.2-0.55l-0.2-0.55l-0.5-0.28l-0.57,0.09l0.42,0.74"/><path style="&st12;" d="M290.25,201.02v8.5h-50.99"/>
    <text transform="matrix(1 0 0 1 280.2832 197.3257)" style="&st7;"><tspan x="0" y="0" style="&st21; &st13;">12</tspan></text>
    <text ewd:textID="7" transform="matrix(1 0 0 1 253.7334 232.7354)" style="&st7; &st21; &st13;">Junction Connector</text>
    <text transform="matrix(1 0 0 1 253.7334 225.6255)" style="&st7;"><tspan x="0" y="0" style="&st21; &st13;">C47</tspan></text>
    <text transform="matrix(1 0 0 1 232.4731 197.3257)" style="&st7;"><tspan x="0" y="0" style="&st21; &st13;">4</tspan></text>
    <text transform="matrix(1 0 0 1 232.4731 226.2056)" style="&st7;"><tspan x="0" y="0" style="&st21; &st13;">5</tspan></text>
</g>
<g ewd:code="C7" ewd:figID="2" ewd:figtype="conn">
    <path style="&st8;" d="M69.29,438.98v42.5h101.98v-42.5H69.29"/>
    <text transform="matrix(0 -1 1 0 178.8833 483.9966)" style="&st7;"><tspan x="0" y="0" style="&st21; &st13;">C7</tspan></text>
    <text ewd:textID="1" transform="matrix(0 -1 1 0 185.9932 483.9966)" style="&st7; &st21; &st13;">Ignition Coil Assembly No. 1</text>
    <text transform="matrix(1 0 0 1 147.4932 435.2856)" style="&st7;"><tspan x="0" y="0" style="&st21; &st13;">4</tspan></text>
    <text transform="matrix(1 0 0 1 80.2734 435.2856)" style="&st7;"><tspan x="0" y="0" style="&st21; &st13;">1</tspan></text>
    <text transform="matrix(1 0 0 1 148.4131 477.7759)" style="&st7;"><tspan x="0" y="0" style="&st21; &st13;">IGF</tspan></text>
    <text transform="matrix(1 0 0 1 147.4932 489.6665)" style="&st7;"><tspan x="0" y="0" style="&st21; &st13;">2</tspan></text>
    <text transform="matrix(1 0 0 1 79.5034 489.6665)" style="&st7;"><tspan x="0" y="0" style="&st21; &st13;">3</tspan></text>
    <text transform="matrix(1 0 0 1 78.833 477.7759)" style="&st7;"><tspan x="0" y="0" style="&st21; &st13;">IGT1</tspan></text>
    <text transform="matrix(1 0 0 1 146.5732 446.6157)" style="&st7;"><tspan x="0" y="0" style="&st21; &st13;">GND</tspan></text>
    <text transform="matrix(1 0 0 1 81.9434 446.6157)" style="&st7;"><tspan x="0" y="0" style="&st21; &st13;">+B</tspan></text>
</g>
<g ewd:code="C8" ewd:figID="4" ewd:figtype="conn">
    <path style="&st8;" d="M222.26,438.98v42.5h101.99v-42.5H222.26"/>
    <text transform="matrix(0 -1 1 0 331.8628 483.9966)" style="&st7;"><tspan x="0" y="0" style="&st21; &st13;">C8</tspan></text>
    <text ewd:textID="2" transform="matrix(0 -1 1 0 338.9634 483.9966)" style="&st7; &st21; &st13;">Ignition Coil Assembly No. 2</text>
    <text transform="matrix(1 0 0 1 300.4634 435.2856)" style="&st7;"><tspan x="0" y="0" style="&st21; &st13;">4</tspan></text>
    <text transform="matrix(1 0 0 1 233.2534 435.2856)" style="&st7;"><tspan x="0" y="0" style="&st21; &st13;">1</tspan></text>
    <text transform="matrix(1 0 0 1 301.3931 477.7759)" style="&st7;"><tspan x="0" y="0" style="&st21; &st13;">IGF</tspan></text>
    <text transform="matrix(1 0 0 1 300.4634 489.6665)" style="&st7;"><tspan x="0" y="0" style="&st21; &st13;">2</tspan></text>
    <text transform="matrix(1 0 0 1 232.4731 489.6665)" style="&st7;"><tspan x="0" y="0" style="&st21; &st13;">3</tspan></text>
    <text transform="matrix(1 0 0 1 231.4233 477.7759)" style="&st7;"><tspan x="0" y="0" style="&st21; &st13;">IGT2</tspan></text>
    <text transform="matrix(1 0 0 1 299.5532 446.6157)" style="&st7;"><tspan x="0" y="0" style="&st21; &st13;">GND</tspan></text>
    <text transform="matrix(1 0 0 1 234.9233 446.6157)" style="&st7;"><tspan x="0" y="0" style="&st21; &st13;">+B</tspan></text>
</g>
<g ewd:code="C9" ewd:figID="5" ewd:figtype="conn">
    <path style="&st8;" d="M375.24,438.98v42.5h101.98v-42.5H375.24"/>
    <text transform="matrix(0 -1 1 0 484.8335 483.9966)" style="&st7;"><tspan x="0" y="0" style="&st21; &st13;">C9</tspan></text>
    <text ewd:textID="3" transform="matrix(0 -1 1 0 491.9429 483.9966)" style="&st7; &st21; &st13;">Ignition Coil Assembly No. 3</text>
    <text transform="matrix(1 0 0 1 453.4331 435.2856)" style="&st7;"><tspan x="0" y="0" style="&st21; &st13;">4</tspan></text>
    <text transform="matrix(1 0 0 1 386.2231 435.2856)" style="&st7;"><tspan x="0" y="0" style="&st21; &st13;">1</tspan></text>
    <text transform="matrix(1 0 0 1 454.3628 477.7759)" style="&st7;"><tspan x="0" y="0" style="&st21; &st13;">IGF</tspan></text>
    <text transform="matrix(1 0 0 1 453.4331 489.6665)" style="&st7;"><tspan x="0" y="0" style="&st21; &st13;">2</tspan></text>
    <text transform="matrix(1 0 0 1 385.4536 489.6665)" style="&st7;"><tspan x="0" y="0" style="&st21; &st13;">3</tspan></text>
    <text transform="matrix(1 0 0 1 384.3931 477.7759)" style="&st7;"><tspan x="0" y="0" style="&st21; &st13;">IGT3</tspan></text>
    <text transform="matrix(1 0 0 1 452.5229 446.6157)" style="&st7;"><tspan x="0" y="0" style="&st21; &st13;">GND</tspan></text>
    <text transform="matrix(1 0 0 1 387.8931 446.6157)" style="&st7;"><tspan x="0" y="0" style="&st21; &st13;">+B</tspan></text>
</g>
<g ewd:code="C10" ewd:figID="6" ewd:figtype="conn">
    <path style="&st8;" d="M570.7,438.98v42.5h101.99v-42.5H570.7"/>
    <text transform="matrix(0 -1 1 0 680.3032 483.9966)" style="&st7;"><tspan x="0" y="0" style="&st21; &st13;">C10</tspan></text>
    <text ewd:textID="4" transform="matrix(0 -1 1 0 687.4136 483.9966)" style="&st7; &st21; &st13;">Ignition Coil Assembly No. 4</text>
    <text transform="matrix(1 0 0 1 648.9028 435.2856)" style="&st7;"><tspan x="0" y="0" style="&st21; &st13;">4</tspan></text>
    <text transform="matrix(1 0 0 1 581.6929 435.2856)" style="&st7;"><tspan x="0" y="0" style="&st21; &st13;">1</tspan></text>
    <text transform="matrix(1 0 0 1 649.8335 477.7759)" style="&st7;"><tspan x="0" y="0" style="&st21; &st13;">IGF</tspan></text>
    <text transform="matrix(1 0 0 1 648.9028 489.6665)" style="&st7;"><tspan x="0" y="0" style="&st21; &st13;">2</tspan></text>
    <text transform="matrix(1 0 0 1 580.9136 489.6665)" style="&st7;"><tspan x="0" y="0" style="&st21; &st13;">3</tspan></text>
    <text transform="matrix(1 0 0 1 579.8628 477.7759)" style="&st7;"><tspan x="0" y="0" style="&st21; &st13;">IGT4</tspan></text>
    <text transform="matrix(1 0 0 1 647.9937 446.6157)" style="&st7;"><tspan x="0" y="0" style="&st21; &st13;">GND</tspan></text>
    <text transform="matrix(1 0 0 1 583.3628 446.6157)" style="&st7;"><tspan x="0" y="0" style="&st21; &st13;">+B</tspan></text>
</g>
<g ewd:code="C11" ewd:figID="7" ewd:figtype="conn">
    <path style="&st8;" d="M723.68,438.98v42.5h101.98v-42.5H723.68"/>
    <text transform="matrix(0 -1 1 0 833.2729 483.9966)" style="&st7;"><tspan x="0" y="0" style="&st21; &st13;">C11</tspan></text>
    <text ewd:textID="5" transform="matrix(0 -1 1 0 840.3833 483.9966)" style="&st7; &st21; &st13;">Ignition Coil Assembly No. 5</text>
    <text transform="matrix(1 0 0 1 801.8833 435.2856)" style="&st7;"><tspan x="0" y="0" style="&st21; &st13;">4</tspan></text>
    <text transform="matrix(1 0 0 1 734.6636 435.2856)" style="&st7;"><tspan x="0" y="0" style="&st21; &st13;">1</tspan></text>
    <text transform="matrix(1 0 0 1 802.8032 477.7759)" style="&st7;"><tspan x="0" y="0" style="&st21; &st13;">IGF</tspan></text>
    <text transform="matrix(1 0 0 1 801.8833 489.6665)" style="&st7;"><tspan x="0" y="0" style="&st21; &st13;">2</tspan></text>
    <text transform="matrix(1 0 0 1 733.8931 489.6665)" style="&st7;"><tspan x="0" y="0" style="&st21; &st13;">3</tspan></text>
    <text transform="matrix(1 0 0 1 732.8335 477.7759)" style="&st7;"><tspan x="0" y="0" style="&st21; &st13;">IGT5</tspan></text>
    <text transform="matrix(1 0 0 1 800.9634 446.6157)" style="&st7;"><tspan x="0" y="0" style="&st21; &st13;">GND</tspan></text>
    <text transform="matrix(1 0 0 1 736.3335 446.6157)" style="&st7;"><tspan x="0" y="0" style="&st21; &st13;">+B</tspan></text>
</g>
<g ewd:code="C12" ewd:figID="8" ewd:figtype="conn">
    <path style="&st8;" d="M868.15,438.98v42.5h101.99v-42.5H868.15"/>
    <text transform="matrix(0 -1 1 0 977.7534 483.9966)" style="&st7;"><tspan x="0" y="0" style="&st21; &st13;">C12</tspan></text>
    <text ewd:textID="6" transform="matrix(0 -1 1 0 984.8628 483.9966)" style="&st7; &st21; &st13;">Ignition Coil Assembly No. 6</text>
    <text transform="matrix(1 0 0 1 946.353 435.2856)" style="&st7;"><tspan x="0" y="0" style="&st21; &st13;">4</tspan></text>
    <text transform="matrix(1 0 0 1 879.1431 435.2856)" style="&st7;"><tspan x="0" y="0" style="&st21; &st13;">1</tspan></text>
    <text transform="matrix(1 0 0 1 947.2837 477.7759)" style="&st7;"><tspan x="0" y="0" style="&st21; &st13;">IGF</tspan></text>
    <text transform="matrix(1 0 0 1 946.353 489.6665)" style="&st7;"><tspan x="0" y="0" style="&st21; &st13;">2</tspan></text>
    <text transform="matrix(1 0 0 1 878.3628 489.6665)" style="&st7;"><tspan x="0" y="0" style="&st21; &st13;">3</tspan></text>
    <text transform="matrix(1 0 0 1 877.313 477.7759)" style="&st7;"><tspan x="0" y="0" style="&st21; &st13;">IGT6</tspan></text>
    <text transform="matrix(1 0 0 1 945.4429 446.6157)" style="&st7;"><tspan x="0" y="0" style="&st21; &st13;">GND</tspan></text>
    <text transform="matrix(1 0 0 1 880.813 446.6157)" style="&st7;"><tspan x="0" y="0" style="&st21; &st13;">+B</tspan></text>
</g>
<g ewd:code="C35-B,C36-C" ewd:figID="3" ewd:figtype="conn">
    <path style="&st8;" d="M69.29,617.45v42.5h832.86v-42.5H69.29"/><path style="&st8;" d="M90.82,612.92c0-2.5-2.03-4.53-4.53-4.53"/><path style="&st8;" d="M86.29,608.39c-2.51,0-4.54,2.03-4.54,4.53"/><path style="&st8;" d="M81.75,612.92c0,2.5,2.03,4.53,4.54,4.53"/><path style="&st8;" d="M86.29,617.45c2.5,0,4.53-2.03,4.53-4.53"/><path style="&st8;" d="M243.79,612.92c0-2.5-2.03-4.53-4.53-4.53"/><path style="&st8;" d="M239.26,608.39c-2.5,0-4.53,2.03-4.53,4.53"/><path style="&st8;" d="M234.73,612.92c0,2.5,2.03,4.53,4.53,4.53"/><path style="&st8;" d="M239.26,617.45c2.5,0,4.53-2.03,4.53-4.53"/><path style="&st8;" d="M396.77,612.92c0-2.5-2.03-4.53-4.54-4.53"/><path style="&st8;" d="M392.23,608.39c-2.5,0-4.53,2.03-4.53,4.53"/><path style="&st8;" d="M387.7,612.92c0,2.5,2.03,4.53,4.53,4.53"/><path style="&st8;" d="M392.23,617.45c2.51,0,4.54-2.03,4.54-4.53"/><path style="&st8;" d="M464.76,612.92c0-2.5-2.03-4.53-4.54-4.53"/><path style="&st8;" d="M460.22,608.39c-2.5,0-4.53,2.03-4.53,4.53"/><path style="&st8;" d="M455.69,612.92c0,2.5,2.03,4.53,4.53,4.53"/><path style="&st8;" d="M460.22,617.45c2.51,0,4.54-2.03,4.54-4.53"/><path style="&st8;" d="M592.23,612.92c0-2.5-2.02-4.53-4.53-4.53"/><path style="&st8;" d="M587.7,608.39c-2.5,0-4.53,2.03-4.53,4.53"/><path style="&st8;" d="M583.17,612.92c0,2.5,2.03,4.53,4.53,4.53"/><path style="&st8;" d="M587.7,617.45c2.51,0,4.53-2.03,4.53-4.53"/><path style="&st8;" d="M745.21,612.92c0-2.5-2.03-4.53-4.53-4.53"/><path style="&st8;" d="M740.68,608.39c-2.51,0-4.54,2.03-4.54,4.53"/><path style="&st8;" d="M736.14,612.92c0,2.5,2.03,4.53,4.54,4.53"/><path style="&st8;" d="M740.68,617.45c2.5,0,4.53-2.03,4.53-4.53"/><path style="&st8;" d="M889.68,612.92c0-2.5-2.02-4.53-4.53-4.53"/><path style="&st8;" d="M885.15,608.39c-2.5,0-4.53,2.03-4.53,4.53"/><path style="&st8;" d="M880.62,612.92c0,2.5,2.03,4.53,4.53,4.53"/><path style="&st8;" d="M885.15,617.45c2.51,0,4.53-2.03,4.53-4.53"/>
    <text transform="matrix(1 0 0 1 78.833 625.0864)" style="&st7;"><tspan x="0" y="0" style="&st21; &st13;">IGT1</tspan></text>
    <text transform="matrix(1 0 0 1 231.4233 625.0864)" style="&st7;"><tspan x="0" y="0" style="&st21; &st13;">IGT2</tspan></text>
    <text transform="matrix(1 0 0 1 384.3931 625.0864)" style="&st7;"><tspan x="0" y="0" style="&st21; &st13;">IGT3</tspan></text>
    <text transform="matrix(1 0 0 1 452.7729 625.0864)" style="&st7;"><tspan x="0" y="0" style="&st21; &st13;">IGF1</tspan></text>
    <text transform="matrix(1 0 0 1 579.8628 625.0864)" style="&st7;"><tspan x="0" y="0" style="&st21; &st13;">IGT4</tspan></text>
    <text transform="matrix(1 0 0 1 732.8335 625.0864)" style="&st7;"><tspan x="0" y="0" style="&st21; &st13;">IGT5</tspan></text>
    <text transform="matrix(1 0 0 1 877.313 625.0864)" style="&st7;"><tspan x="0" y="0" style="&st21; &st13;">IGT6</tspan></text>
    <text transform="matrix(1 0 0 1 126.2534 674.6548)" style="&st7;"><tspan x="0" y="0" style="&st21; &st13;">ECM</tspan></text>
    <text transform="matrix(1 0 0 1 126.2534 667.5552)" style="&st7;"><tspan x="0" y="0" style="&st21; &st13;">C35(B),C36(C)</tspan></text>
    <text transform="matrix(1 0 0 1 619.1733 674.6548)" style="&st7;"><tspan x="0" y="0" style="&st21; &st13;">ECM</tspan></text>
    <text transform="matrix(1 0 0 1 619.1733 667.5552)" style="&st7;"><tspan x="0" y="0" style="&st21; &st13;">C35(B),C36(C)</tspan></text>
    <text transform="matrix(1 0 0 1 71.4531 614.8853)" style="&st7;"><tspan x="0" y="0" style="&st21; &st13;">24</tspan></text>
    <text transform="matrix(1 0 0 1 83.813 614.8853)" style="&st7;"><tspan x="0" y="0" style="&st21; &st13;">C</tspan></text>
    <text transform="matrix(1 0 0 1 224.4331 614.8853)" style="&st7;"><tspan x="0" y="0" style="&st21; &st13;">25</tspan></text>
    <text transform="matrix(1 0 0 1 236.7935 614.8853)" style="&st7;"><tspan x="0" y="0" style="&st21; &st13;">C</tspan></text>
    <text transform="matrix(1 0 0 1 377.4028 614.8853)" style="&st7;"><tspan x="0" y="0" style="&st21; &st13;">26</tspan></text>
    <text transform="matrix(1 0 0 1 389.7632 614.8853)" style="&st7;"><tspan x="0" y="0" style="&st21; &st13;">C</tspan></text>
    <text transform="matrix(1 0 0 1 449.353 614.8853)" style="&st7;"><tspan x="0" y="0" style="&st21; &st13;">6</tspan></text>
    <text transform="matrix(1 0 0 1 457.7534 614.8853)" style="&st7;"><tspan x="0" y="0" style="&st21; &st13;">C</tspan></text>
    <text transform="matrix(1 0 0 1 572.8735 614.8853)" style="&st7;"><tspan x="0" y="0" style="&st21; &st13;">27</tspan></text>
    <text transform="matrix(1 0 0 1 585.2329 614.8853)" style="&st7;"><tspan x="0" y="0" style="&st21; &st13;">C</tspan></text>
    <text transform="matrix(1 0 0 1 725.8433 614.8853)" style="&st7;"><tspan x="0" y="0" style="&st21; &st13;">28</tspan></text>
    <text transform="matrix(1 0 0 1 738.2036 614.8853)" style="&st7;"><tspan x="0" y="0" style="&st21; &st13;">C</tspan></text>
    <text transform="matrix(1 0 0 1 870.3228 614.8853)" style="&st7;"><tspan x="0" y="0" style="&st21; &st13;">25</tspan></text>
    <text transform="matrix(1 0 0 1 882.8228 614.8853)" style="&st7;"><tspan x="0" y="0" style="&st21; &st13;">B</tspan></text>
</g>
<text transform="matrix(0 -1 1 0 456.5337 594.9458)" style="&st7;"><tspan x="0" y="0" style="&st21; &st13;">G-R</tspan></text>
<text transform="matrix(0 -1 1 0 235.5732 182.3354)" style="&st7;"><tspan x="0" y="0" style="&st21; &st13;">B-R</tspan></text>
<text transform="matrix(0 -1 1 0 949.4536 522.7056)" style="&st7;"><tspan x="0" y="0" style="&st21; &st13;">G-R</tspan></text>
<text transform="matrix(0 -1 1 0 881.4634 517.4458)" style="&st7;"><tspan x="0" y="0" style="&st21; &st13;">L</tspan></text>
<text transform="matrix(0 -1 1 0 949.4536 378.686)" style="&st7;"><tspan x="0" y="0" style="&st21; &st13;">W-B</tspan></text>
<text transform="matrix(0 -1 1 0 881.4634 377.8052)" style="&st7;"><tspan x="0" y="0" style="&st21; &st13;">B-R</tspan></text>
<text transform="matrix(1 0 0 1 248.563 333.2959)" style="&st7;"><tspan x="0" y="0" style="&st21; &st13;">W-B</tspan></text>
<text transform="matrix(1 0 0 1 487.4028 307.8057)" style="&st7;"><tspan x="0" y="0" style="&st21; &st13;">B-R</tspan></text>
<text transform="matrix(1 0 0 1 418.5337 333.2959)" style="&st7;"><tspan x="0" y="0" style="&st21; &st13;">W-B</tspan></text>
<text transform="matrix(1 0 0 1 605.5034 333.2959)" style="&st7;"><tspan x="0" y="0" style="&st21; &st13;">W-B</tspan></text>
<text transform="matrix(1 0 0 1 758.4731 333.2959)" style="&st7;"><tspan x="0" y="0" style="&st21; &st13;">W-B</tspan></text>
<text transform="matrix(1 0 0 1 486.9829 562.7563)" style="&st7;"><tspan x="0" y="0" style="&st21; &st13;">G-R</tspan></text>
<text transform="matrix(1 0 0 1 690.9429 562.7563)" style="&st7;"><tspan x="0" y="0" style="&st21; &st13;">G-R</tspan></text>
<text transform="matrix(0 -1 1 0 31.603 489.1763)" style="&st7;"><tspan x="0" y="0" style="&st21; &st13;">W-B</tspan></text>
<text transform="matrix(0 -1 1 0 286.563 182.3354)" style="&st7;"><tspan x="0" y="0" style="&st21; &st13;">B-R</tspan></text>
<text transform="matrix(0 -1 1 0 388.5435 258.8257)" style="&st7;"><tspan x="0" y="0" style="&st21; &st13;">B-R</tspan></text>
<text transform="matrix(1 0 0 1 691.3735 282.3057)" style="&st7;"><tspan x="0" y="0" style="&st21; &st13;">B-R</tspan></text>
<text transform="matrix(1 0 0 1 308.9331 307.8057)" style="&st7;"><tspan x="0" y="0" style="&st21; &st13;">B-R</tspan></text>
<text transform="matrix(1 0 0 1 308.9331 282.3057)" style="&st7;"><tspan x="0" y="0" style="&st21; &st13;">B-R</tspan></text>
<text transform="matrix(0 -1 1 0 804.9731 522.7056)" style="&st7;"><tspan x="0" y="0" style="&st21; &st13;">G-R</tspan></text>
<text transform="matrix(0 -1 1 0 736.9829 520.6958)" style="&st7;"><tspan x="0" y="0" style="&st21; &st13;">GR</tspan></text>
<text transform="matrix(0 -1 1 0 804.9731 378.686)" style="&st7;"><tspan x="0" y="0" style="&st21; &st13;">W-B</tspan></text>
<text transform="matrix(0 -1 1 0 736.9829 377.8052)" style="&st7;"><tspan x="0" y="0" style="&st21; &st13;">B-R</tspan></text>
<text transform="matrix(0 -1 1 0 652.0034 522.7056)" style="&st7;"><tspan x="0" y="0" style="&st21; &st13;">G-R</tspan></text>
<text transform="matrix(0 -1 1 0 584.0132 523.5864)" style="&st7;"><tspan x="0" y="0" style="&st21; &st13;">G-W</tspan></text>
<text transform="matrix(0 -1 1 0 652.0034 378.686)" style="&st7;"><tspan x="0" y="0" style="&st21; &st13;">W-B</tspan></text>
<text transform="matrix(0 -1 1 0 584.0132 377.8052)" style="&st7;"><tspan x="0" y="0" style="&st21; &st13;">B-R</tspan></text>
<text transform="matrix(0 -1 1 0 456.5337 522.7056)" style="&st7;"><tspan x="0" y="0" style="&st21; &st13;">G-R</tspan></text>
<text transform="matrix(0 -1 1 0 388.5435 522.5649)" style="&st7;"><tspan x="0" y="0" style="&st21; &st13;">G-B</tspan></text>
<text transform="matrix(0 -1 1 0 456.5337 378.686)" style="&st7;"><tspan x="0" y="0" style="&st21; &st13;">W-B</tspan></text>
<text transform="matrix(0 -1 1 0 388.5435 377.8052)" style="&st7;"><tspan x="0" y="0" style="&st21; &st13;">B-R</tspan></text>
<text transform="matrix(0 -1 1 0 303.5532 522.7056)" style="&st7;"><tspan x="0" y="0" style="&st21; &st13;">G-R</tspan></text>
<text transform="matrix(0 -1 1 0 235.5732 521.9263)" style="&st7;"><tspan x="0" y="0" style="&st21; &st13;">R-L</tspan></text>
<text transform="matrix(0 -1 1 0 303.5532 378.686)" style="&st7;"><tspan x="0" y="0" style="&st21; &st13;">W-B</tspan></text>
<text transform="matrix(0 -1 1 0 235.5732 377.8052)" style="&st7;"><tspan x="0" y="0" style="&st21; &st13;">B-R</tspan></text>
<text transform="matrix(0 -1 1 0 150.583 522.7056)" style="&st7;"><tspan x="0" y="0" style="&st21; &st13;">G-R</tspan></text>
<text transform="matrix(0 -1 1 0 82.5933 522.2856)" style="&st7;"><tspan x="0" y="0" style="&st21; &st13;">R-Y</tspan></text>
<text transform="matrix(0 -1 1 0 235.5732 258.8257)" style="&st7;"><tspan x="0" y="0" style="&st21; &st13;">B-R</tspan></text>
<text transform="matrix(0 -1 1 0 150.583 378.686)" style="&st7;"><tspan x="0" y="0" style="&st21; &st13;">W-B</tspan></text>
<text transform="matrix(0 -1 1 0 82.5933 377.8052)" style="&st7;"><tspan x="0" y="0" style="&st21; &st13;">B-R</tspan></text>
<text transform="matrix(0 -1 1 0 235.5732 131.3457)" style="&st7;"><tspan x="0" y="0" style="&st21; &st13;">B-R</tspan></text>
<text transform="matrix(1 0 0 1 486.5229 333.2959)" style="&st7;"><tspan x="0" y="0" style="&st21; &st13;">W-B</tspan></text>
<text transform="matrix(1 0 0 1 487.4028 282.3057)" style="&st7;"><tspan x="0" y="0" style="&st21; &st13;">B-R</tspan></text>
<text transform="matrix(1 0 0 1 537.9731 562.7563)" style="&st7;"><tspan x="0" y="0" style="&st21; &st13;">G-R</tspan></text>
<text transform="matrix(1 0 0 1 537.5132 333.2959)" style="&st7;"><tspan x="0" y="0" style="&st21; &st13;">W-B</tspan></text>
<text transform="matrix(1 0 0 1 538.3931 307.8057)" style="&st7;"><tspan x="0" y="0" style="&st21; &st13;">B-R</tspan></text>
<text transform="matrix(1 0 0 1 538.3931 282.3057)" style="&st7;"><tspan x="0" y="0" style="&st21; &st13;">B-R</tspan></text>
</g>
</svg>
