﻿<?xml version="1.0" encoding="UTF-8"?>
<!DOCTYPE svg PUBLIC "-//W3C//DTD SVG 1.0//EN" "http://www.w3.org/TR/2001/REC-SVG-20010904/DTD/svg10.dtd"[
<!ENTITY ns_flows "http://ns.adobe.com/Flows/1.0/">
<!ENTITY ns_svg "http://www.w3.org/2000/svg">
<!ENTITY ns_xlink "http://www.w3.org/1999/xlink">
	<!ENTITY st0 "fill:none;stroke:#F8E616;stroke-width:5.1;stroke-linejoin:round;">
	<!ENTITY st1 "fill:none;stroke:#FB0F0C;stroke-width:5.1;stroke-linejoin:round;">
	<!ENTITY st2 "fill:none;stroke:#9A9999;stroke-width:5.1;stroke-linejoin:round;">
	<!ENTITY st3 "fill:none;stroke:#99280B;stroke-width:5.1;stroke-linejoin:round;">
	<!ENTITY st4 "fill:none;stroke:#000000;stroke-width:1.3;stroke-linejoin:round;">
		<!ENTITY st5 "fill:none;stroke:#000000;stroke-width:0.85;stroke-linecap:round;stroke-linejoin:round;stroke-dasharray:3 1.5;enable-background:new    ;">
	<!ENTITY st6 "fill:none;stroke:#000000;stroke-width:5.1;stroke-linejoin:round;">
	<!ENTITY st7 "fill:none;stroke:#199DBF;stroke-width:1.13;stroke-linejoin:round;">
	<!ENTITY st8 "fill:none;stroke:#000000;stroke-linecap:round;stroke-linejoin:round;">
	<!ENTITY st9 "fill:none;stroke:#F8E616;stroke-width:1.13;stroke-linejoin:round;">
	<!ENTITY st10 "stroke:#000000;stroke-width:0.28;stroke-linecap:round;stroke-linejoin:round;enable-background:new    ;">
	<!ENTITY st11 "enable-background:new    ;">
		<!ENTITY st12 "fill:none;stroke:#000000;stroke-width:1.42;stroke-linecap:round;stroke-linejoin:round;enable-background:new    ;">
	<!ENTITY st13 "fill:none;stroke:#EE67AA;stroke-width:5.1;stroke-linejoin:round;">
	<!ENTITY st14 "fill:none;stroke:#199DBF;stroke-width:5.1;stroke-linejoin:round;">
	<!ENTITY st15 "opacity:0.5;fill:none;stroke:#34ACCE;stroke-linejoin:round;stroke-dasharray:6;">
	<!ENTITY st16 "fill:none;stroke:#FFFFFF;stroke-width:4.53;stroke-linejoin:round;">
		<!ENTITY st17 "fill:none;stroke:#000000;stroke-width:0.85;stroke-linecap:round;stroke-linejoin:round;enable-background:new    ;">
	<!ENTITY st18 "fill:none;stroke:#56107C;stroke-width:5.1;stroke-linejoin:round;">
	<!ENTITY st19 "font-size:6px;">
	<!ENTITY st20 "fill:none;stroke:#FFFFFF;stroke-width:2.27;stroke-linejoin:round;">
	<!ENTITY st21 "fill:none;stroke:#FB0F0C;stroke-width:1.13;stroke-linejoin:round;">
	<!ENTITY st22 "fill:none;stroke:#FFFFFF;stroke-width:1.13;stroke-linejoin:round;">
	<!ENTITY st23 "fill:none;stroke:#168638;stroke-width:5.1;stroke-linejoin:round;">
	<!ENTITY st24 "fill:none;stroke:#000000;stroke-width:1.13;stroke-linejoin:round;">
		<!ENTITY st25 "fill:none;stroke:#000000;stroke-width:1.13;stroke-linecap:round;stroke-linejoin:round;stroke-dasharray:3 1.5;enable-background:new    ;">
	<!ENTITY st26 "fill:#FFFFFF;stroke:#000000;stroke-width:1.41;stroke-linecap:round;stroke-linejoin:round;">
	<!ENTITY st27 "fill:none;stroke:#3E65AC;stroke-width:3;">
	<!ENTITY st28 "fill:#CCCCCC;stroke:#CCCCCC;stroke-width:0.1;stroke-linecap:round;stroke-linejoin:round;">
	<!ENTITY st29 "font-family:'ArialMT';">
	<!ENTITY st30 "opacity:0.5;fill:none;stroke:#34ACCE;stroke-linejoin:round;">
	<!ENTITY st31 "fill:#CFE6E7;stroke:#000000;stroke-width:1.133;stroke-linecap:round;stroke-linejoin:round;">
	<!ENTITY st32 "fill:none;stroke:#99D5E0;stroke-width:5.1;stroke-linejoin:round;">
	<!ENTITY st33 "fill:none;stroke:#7EC57E;stroke-width:5.1;stroke-linejoin:round;">
<!ATTLIST svg
xmlns:ewd CDATA #FIXED "http://shcl.co.jp/ewd"
xmlns:a CDATA #FIXED "http://ns.adobe.com/AdobeSVGViewerExtensions/3.0/"
ewd:ver CDATA #IMPLIED
>
<!ATTLIST a
ewd:lineID CDATA #IMPLIED
ewd:groupID CDATA #IMPLIED
ewd:figtype CDATA #IMPLIED
ewd:code CDATA #IMPLIED
ewd:figID CDATA #IMPLIED
ewd:pinNo CDATA #IMPLIED
ewd:comment CDATA #IMPLIED >
<!ATTLIST g
ewd:lineID CDATA #IMPLIED
ewd:groupID CDATA #IMPLIED
ewd:figtype CDATA #IMPLIED
ewd:code CDATA #IMPLIED
ewd:figID CDATA #IMPLIED
ewd:pinNo CDATA #IMPLIED
ewd:comment CDATA #IMPLIED >
<!ATTLIST text
ewd:textID CDATA #IMPLIED >
<!ATTLIST title
ewd:textID CDATA #IMPLIED >
]>
<svg 
viewBox='0 0 4668.69 729.44'
height='729.44'
width='4668.69'
xml:space="preserve"
xmlns="&ns_svg;"
xmlns:ewd="http://shcl.co.jp/ewd"
xmlns:xlink="&ns_xlink;" ewd:ver="L2.1">
<g ewd:code="GA2" ewd:figID="612" ewd:figtype="w2w" ewd:pinNo="33">
<path style="&st12;" d="M2240.57,260.51h-8.5"/>
<path style="&st12;" d="M2236.32,266.18l-4.25-4.25l-4.25,4.25"/>
<path style="&st12;" d="M2236.32,269.58l-4.25-4.25l-4.25,4.25"/>
<text transform="matrix(1 0 0 1 2213.8945 258.2256)" style="&st11;"><tspan x="0" y="0" style="&st29; &st19;">33</tspan></text>
</g>
<g ewd:code="GA2" ewd:figID="611" ewd:figtype="w2w" ewd:pinNo="34">
<text transform="matrix(1 0 0 1 2213.8945 249.7256)" style="&st11;"><tspan x="0" y="0" style="&st29; &st19;">34</tspan></text>
</g>
<g ewd:code="GA2" ewd:figID="614" ewd:figtype="w2w" ewd:pinNo="48">
<path style="&st12;" d="M2478.53,362.5h-8.5"/>
<path style="&st12;" d="M2474.28,368.16l-4.25-4.25l-4.25,4.25"/>
<path style="&st12;" d="M2474.28,371.56l-4.25-4.25l-4.25,4.25"/>
<text transform="matrix(1 0 0 1 2451.8545 360.2158)" style="&st11;"><tspan x="0" y="0" style="&st29; &st19;">48</tspan></text>
</g>
<g ewd:code="GA6" ewd:figID="613" ewd:figtype="w2w" ewd:pinNo="52">
<text transform="matrix(1 0 0 1 2451.8545 351.7158)" style="&st11;"><tspan x="0" y="0" style="&st29; &st19;">52</tspan></text>
</g>
<g ewd:code="GA6" ewd:figID="639" ewd:figtype="w2w" ewd:pinNo="34">
<text transform="matrix(1 0 0 1 2213.8945 241.2354)" style="&st11;"><tspan x="0" y="0" style="&st29; &st19;">34</tspan></text>
</g>
<g ewd:code="1" ewd:figID="405" ewd:figtype="rb">
<path style="&st12;" d="M2157.71,489.97h-4.25"/>
<path style="&st12;" d="M2157.71,481.48h-4.25"/>
<path style="&st12;" d="M2157.71,379.49h-4.25"/>
<path style="&st12;" d="M2157.71,370.99h-4.25"/>
<path style="&st17;" d="M2155.58,438.98v8.5"/>
<path style="&st17;" d="M2155.58,413.49v8.5"/>
<path style="&st17;" d="M2130.09,417.74v-4.25"/>
<path style="&st17;" d="M2130.09,447.48v-4.25"/>
<path style="&st12;" d="M2130.09,440.4l-5.67-22.66"/>
<path style="&st12;" d="M2164.08,413.49h-42.49v33.99h42.49V413.49"/>
<path style="&st10;" d="M2155.58,384.39l2.83,2.83v-4.25l-2.83-2.83l-2.83,2.83v4.25L2155.58,384.39"/>
<path style="&st10;" d="M2155.58,476.57l-2.83-2.83V478l2.83,2.83l2.83-2.83v-4.25L2155.58,476.57"/>
<path style="&st17;" d="M2130.08,387.99v25.5"/>
<path style="&st17;" d="M2155.58,379.49v34"/>
<path style="&st17;" d="M2130.08,447.48v25.5"/>
<path style="&st17;" d="M2155.58,447.48v34"/>
<path style="&st12;" d="M2153.46,481.48c-2.35,0-4.25,1.9-4.25,4.24"/>
<path style="&st12;" d="M2161.95,375.24c0-2.34-1.9-4.25-4.24-4.25"/>
<path style="&st12;" d="M2157.71,379.49c2.34,0,4.24-1.9,4.24-4.25"/>
<path style="&st12;" d="M2149.21,375.24c0,2.35,1.9,4.25,4.25,4.25"/>
<path style="&st12;" d="M2153.46,370.99c-2.35,0-4.25,1.91-4.25,4.25"/>
<path style="&st17;" d="M2155.58,438.98c1.96,0,3.54-1.58,3.54-3.54"/>
<path style="&st17;" d="M2159.12,435.44c0-1.95-1.58-3.54-3.54-3.54"/>
<path style="&st17;" d="M2155.58,431.9c-0.99,0-1.84,0.36-2.53,1.06"/>
<path style="&st17;" d="M2153.05,432.96c1.37,1.4,3.61,1.42,5.01,0.05"/>
<path style="&st17;" d="M2158.06,433.01c1.4-1.37,1.42-3.61,0.05-5"/>
<path style="&st17;" d="M2158.11,428.01c-1.37-1.4-3.61-1.42-5.01-0.06"/>
<path style="&st17;" d="M2153.1,427.95c-0.02,0.02-0.03,0.04-0.05,0.06"/>
<path style="&st17;" d="M2153.05,428.01c1.37,1.39,3.61,1.42,5.01,0.05"/>
<path style="&st17;" d="M2158.06,428.06c1.4-1.37,1.42-3.62,0.05-5.01"/>
<path style="&st17;" d="M2158.11,423.05c-0.69-0.71-1.54-1.07-2.53-1.07"/>
<path style="&st17;" d="M2131.5,419.15c0-0.78-0.63-1.41-1.41-1.41"/>
<path style="&st17;" d="M2130.09,417.74c-0.79,0-1.42,0.63-1.42,1.41"/>
<path style="&st17;" d="M2128.67,419.15c0,0.78,0.63,1.42,1.42,1.42"/>
<path style="&st17;" d="M2130.09,420.56c0.78,0,1.41-0.64,1.41-1.42"/>
<path style="&st17;" d="M2131.5,441.81c0-0.79-0.63-1.42-1.41-1.42"/>
<path style="&st17;" d="M2130.09,440.4c-0.79,0-1.42,0.63-1.42,1.42"/>
<path style="&st17;" d="M2128.67,441.81c0,0.78,0.63,1.41,1.42,1.41"/>
<path style="&st17;" d="M2130.09,443.23c0.78,0,1.41-0.63,1.41-1.41"/>
<path style="&st12;" d="M2130.09,387.99c-2.22-1.82-5.35-1.76-7.49,0.14"/>
<path style="&st12;" d="M2130.09,387.99c2.21,1.82,5.34,1.76,7.48-0.14"/>
<path style="&st12;" d="M2130.09,472.98c2.21,1.82,5.34,1.76,7.48-0.14"/>
<path style="&st12;" d="M2130.09,472.98c-2.22-1.83-5.35-1.77-7.49,0.14"/>
<path style="&st12;" d="M2161.95,485.72c0-2.34-1.9-4.24-4.24-4.24"/>
<path style="&st12;" d="M2157.71,489.97c2.34,0,4.24-1.9,4.24-4.25"/>
<path style="&st12;" d="M2149.21,485.72c0,2.35,1.9,4.25,4.25,4.25"/>
<text transform="matrix(1 0 0 1 2153.9883 487.686)" style="&st11;"><tspan x="0" y="0" style="&st29; &st19;">1</tspan></text>
<text transform="matrix(1 0 0 1 2153.9883 377.2056)" style="&st11;"><tspan x="0" y="0" style="&st29; &st19;">1</tspan></text>
<text transform="matrix(1 0 0 1 2149.5586 402.4243)" style="&st11;"><tspan x="0" y="0" style="&st29; &st19;">2</tspan></text>
<text transform="matrix(1 0 0 1 2149.5586 409.7954)" style="&st11;"><tspan x="0" y="0" style="&st29; &st19;">1</tspan></text>
<text transform="matrix(1 0 0 1 2123.2881 409.7954)" style="&st11;"><tspan x="0" y="0" style="&st29; &st19;">5</tspan></text>
<text transform="matrix(1 0 0 1 2148.7881 463.8413)" style="&st11;"><tspan x="0" y="0" style="&st29; &st19;">1</tspan></text>
<text transform="matrix(1 0 0 1 2148.7881 455.6665)" style="&st11;"><tspan x="0" y="0" style="&st29; &st19;">2</tspan></text>
<text transform="matrix(1 0 0 1 2123.2988 455.6665)" style="&st11;"><tspan x="0" y="0" style="&st29; &st19;">3</tspan></text>
<text ewd:textID="32" transform="matrix(1 0 0 1 2167.2188 429.6255)" style="&st11; &st29; &st19;">ST <tspan x="0" y="7">Relay</tspan></text>
<text transform="matrix(1 0 0 1 2157.5586 463.4038)" style="&st11;"><tspan x="0" y="0" style="&st29; &st19;">(*6)</tspan></text>
<text transform="matrix(1 0 0 1 2157.5586 454.9038)" style="&st11;"><tspan x="0" y="0" style="&st29; &st19;">(*5)</tspan></text>
<text transform="matrix(1 0 0 1 2157.5586 409.7954)" style="&st11;"><tspan x="0" y="0" style="&st29; &st19;">(*5)</tspan></text>
<text transform="matrix(1 0 0 1 2157.5586 401.2954)" style="&st11;"><tspan x="0" y="0" style="&st29; &st19;">(*6)</tspan></text>
</g>
<g ewd:code="3JB" ewd:figID="308" ewd:figtype="jb">
<path style="&st12;" d="M2472.15,294.51h-4.25"/>
<path style="&st12;" d="M2472.15,286.01h-4.25"/>
<path style="&st12;" d="M2472.15,252.01h-4.25"/>
<path style="&st12;" d="M2472.15,243.52h-4.25"/>
<path style="&st10;" d="M2470.03,256.91l2.83,2.83v-4.25l-2.83-2.83l-2.84,2.83v4.25L2470.03,256.91"/>
<path style="&st17;" d="M2470.03,286.01v-34"/>
<path style="&st10;" d="M2470.03,281.11l-2.84-2.83v4.25l2.84,2.83l2.83-2.83v-4.25L2470.03,281.11"/>
<path style="&st12;" d="M2476.4,290.26c0-2.35-1.9-4.25-4.25-4.25"/>
<path style="&st12;" d="M2472.15,294.51c2.35,0,4.25-1.91,4.25-4.25"/>
<path style="&st12;" d="M2463.65,290.26c0,2.34,1.91,4.25,4.25,4.25"/>
<path style="&st12;" d="M2467.9,286.01c-2.34,0-4.25,1.9-4.25,4.25"/>
<path style="&st12;" d="M2476.4,247.76c0-2.34-1.9-4.24-4.25-4.24"/>
<path style="&st12;" d="M2472.15,252.01c2.35,0,4.25-1.9,4.25-4.25"/>
<path style="&st12;" d="M2463.65,247.76c0,2.35,1.91,4.25,4.25,4.25"/>
<path style="&st12;" d="M2467.9,243.52c-2.34,0-4.25,1.9-4.25,4.24"/>
<text transform="matrix(1 0 0 1 2453.3779 292.2256)" style="&st11;"><tspan x="0" y="0" style="&st29; &st19;">63</tspan></text>
<text transform="matrix(1 0 0 1 2465.7188 292.2256)" style="&st11;"><tspan x="0" y="0" style="&st29; &st19;">3A</tspan></text>
<text transform="matrix(1 0 0 1 2454.1582 249.7256)" style="&st11;"><tspan x="0" y="0" style="&st29; &st19;">13</tspan></text>
<text transform="matrix(1 0 0 1 2465.5781 249.7256)" style="&st11;"><tspan x="0" y="0" style="&st29; &st19;">3C</tspan></text>
</g>
<g ewd:code="2" ewd:figID="307" ewd:figtype="jb">
<path style="&st8;" d="M2304.31,107.54v42.49h25.49v-42.49H2304.31"/>
<path style="&st12;" d="M2319.18,175.53h-4.25"/>
<path style="&st12;" d="M2319.18,167.03h-4.25"/>
<path style="&st17;" d="M2317.05,141.53v25.5"/>
<path style="&st10;" d="M2317.05,162.13l-2.83-2.83v4.25l2.83,2.83l2.84-2.83v-4.25L2317.05,162.13"/>
<path style="&st12;" d="M2304.3,107.54v42.49h25.5v-42.49H2304.3"/>
<path style="&st12;" d="M2323.43,171.28c0-2.35-1.9-4.25-4.25-4.25"/>
<path style="&st12;" d="M2319.18,175.53c2.35,0,4.25-1.91,4.25-4.25"/>
<path style="&st12;" d="M2310.68,171.28c0,2.34,1.9,4.25,4.25,4.25"/>
<path style="&st12;" d="M2314.93,167.03c-2.35,0-4.25,1.9-4.25,4.25"/>
<path style="&st17;" d="M2318.47,140.12c0-0.79-0.63-1.42-1.42-1.42"/>
<path style="&st17;" d="M2317.05,138.7c-0.78,0-1.41,0.63-1.41,1.42"/>
<path style="&st17;" d="M2315.64,140.12c0,0.78,0.63,1.41,1.41,1.41"/>
<path style="&st17;" d="M2317.05,141.53c0.79,0,1.42-0.63,1.42-1.41"/>
<path style="&st17;" d="M2318.47,117.45c0-0.78-0.63-1.41-1.42-1.41"/>
<path style="&st17;" d="M2317.05,116.04c-0.78,0-1.41,0.63-1.41,1.41"/>
<path style="&st17;" d="M2315.64,117.45c0,0.79,0.63,1.42,1.41,1.42"/>
<path style="&st17;" d="M2317.05,118.87c0.79,0,1.42-0.63,1.42-1.42"/>
<path style="&st12;" d="M2317.05,138.7c2.74-1.61,3.65-5.14,2.04-7.88"/>
<path style="&st12;" d="M2319.09,130.82c-0.52-0.88-1.15-1.52-2.04-2.04"/>
<path style="&st12;" d="M2317.05,118.87c-2.73,1.61-3.65,5.14-2.03,7.88"/>
<path style="&st12;" d="M2315.02,126.75c0.52,0.88,1.15,1.51,2.03,2.03"/>
<text transform="matrix(1 0 0 1 2307.9385 103.8354)" style="&st11;"><tspan x="0" y="0" style="&st29; &st19;">(BAT)</tspan></text>
<text transform="matrix(1 0 0 1 2300.4082 173.2456)" style="&st11;"><tspan x="0" y="0" style="&st29; &st19;">35</tspan></text>
<text transform="matrix(1 0 0 1 2312.7383 173.2456)" style="&st11;"><tspan x="0" y="0" style="&st29; &st19;">2A</tspan></text>
<text transform="matrix(1 0 0 1 2334.3584 127.9258)" style="&st11;"><tspan x="0" y="0" style="&st29; &st19;">7.5A</tspan></text>
<text transform="matrix(1 0 0 1 2334.3584 133.9258)" style="&st11;"><tspan x="0" y="0" style="&st29; &st19;">AM1</tspan></text>
</g>
<g ewd:code="A1" ewd:figID="205" ewd:figtype="gp">
<path style="&st17;" d="M2155.58,701.02v4.25"/>
<path style="&st17;" d="M2147.08,705.27h17"/>
<path style="&st17;" d="M2151.33,708.1h8.5"/>
<path style="&st17;" d="M2152.75,710.94h5.66"/>
<path style="&st17;" d="M2154.16,713.77h2.84"/>
</g>
<g ewd:code="A70" ewd:figID="32" ewd:figtype="conn">
<path style="&st12;" d="M2147.08,574.96h17v17h-17V574.96"/>
<path style="&st17;" d="M2155.58,574.96v17"/>
<text transform="matrix(1 0 0 1 2148.7881 571.2661)" style="&st11;"><tspan x="0" y="0" style="&st29; &st19;">7</tspan></text>
<text transform="matrix(1 0 0 1 2148.7881 600.145)" style="&st11;"><tspan x="0" y="0" style="&st29; &st19;">6</tspan></text>
<text ewd:textID="27" transform="matrix(0 -1 1 0 2178.7988 594.4751)" style="&st11; &st29; &st19;">Junction Connector</text>
<text transform="matrix(0 -1 1 0 2171.6885 594.4751)" style="&st11;"><tspan x="0" y="0" style="&st29; &st19;">A70</tspan></text>
</g>
<g ewd:code="A65" ewd:figID="13" ewd:figtype="conn">
<path style="&st12;" d="M2223.57,311.5v17h17v-17H2223.57"/>
<path style="&st17;" d="M2230.87,319l-0.27,0.47l-0.09,0.53l0.09,0.54l0.27,0.47l0.42,0.34l0.51,0.19h0.54l0.51-0.19l0.41-0.34l0.27-0.47l0.1-0.54l-0.1-0.53l-0.27-0.47l-0.41-0.35l-0.51-0.18h-0.54l-0.51,0.18L2230.87,319l0.4,0.71v0.58l0.37,0.45l0.57,0.1l0.51-0.29l0.2-0.55l-0.2-0.54l-0.51-0.29l-0.57,0.1l0.43,0.73"/>
<path style="&st17;" d="M2223.57,320h8.5"/>
<path style="&st17;" d="M2232.07,311.5v17"/>
<text transform="matrix(1 0 0 1 2226.0586 307.8057)" style="&st11;"><tspan x="0" y="0" style="&st29; &st19;">1</tspan></text>
<text ewd:textID="27" transform="matrix(0 -1 1 0 2255.2783 331.0254)" style="&st11; &st29; &st19;">Junction <tspan x="0" y="7">Connector</tspan></text>
<text transform="matrix(0 -1 1 0 2248.1787 331.0254)" style="&st11;"><tspan x="0" y="0" style="&st29; &st19;">A65</tspan></text>
<text transform="matrix(1 0 0 1 2225.2783 336.6855)" style="&st11;"><tspan x="0" y="0" style="&st29; &st19;">2</tspan></text>
<text transform="matrix(1 0 0 1 2216.7783 316.3057)" style="&st11;"><tspan x="0" y="0" style="&st29; &st19;">3</tspan></text>
</g>
<g ewd:code="G107" ewd:figID="14" ewd:figtype="conn">
<path style="&st17;" d="M2232.07,167.03v17"/>
<path style="&st12;" d="M2223.57,167.03h17v17h-17V167.03"/>
<path style="&st12;" d="M2236.6,162.5c0-2.51-2.03-4.54-4.53-4.54"/>
<path style="&st12;" d="M2232.07,157.96c-2.51,0-4.53,2.03-4.53,4.54"/>
<path style="&st12;" d="M2227.54,162.5c0,2.5,2.02,4.53,4.53,4.53"/>
<path style="&st12;" d="M2232.07,167.03c2.5,0,4.53-2.03,4.53-4.53"/>
<path style="&st12;" d="M2236.6,188.56c0-2.51-2.03-4.53-4.53-4.53"/>
<path style="&st12;" d="M2232.07,184.03c-2.51,0-4.53,2.02-4.53,4.53"/>
<path style="&st12;" d="M2227.54,188.56c0,2.5,2.02,4.53,4.53,4.53"/>
<path style="&st12;" d="M2232.07,193.09c2.5,0,4.53-2.03,4.53-4.53"/>
<text transform="matrix(1 0 0 1 2217.2383 164.4556)" style="&st11;"><tspan x="0" y="0" style="&st29; &st19;">22</tspan></text>
<text transform="matrix(1 0 0 1 2229.7383 164.4556)" style="&st11;"><tspan x="0" y="0" style="&st29; &st19;">B</tspan></text>
<text transform="matrix(1 0 0 1 2218.0088 190.5254)" style="&st11;"><tspan x="0" y="0" style="&st29; &st19;">21</tspan></text>
<text transform="matrix(1 0 0 1 2229.7383 190.5254)" style="&st11;"><tspan x="0" y="0" style="&st29; &st19;">B</tspan></text>
<text ewd:textID="27" transform="matrix(0 -1 1 0 2255.2783 186.5459)" style="&st11; &st29; &st19;">Junction Connector</text>
<text transform="matrix(0 -1 1 0 2248.1787 186.5459)" style="&st11;"><tspan x="0" y="0" style="&st29; &st19;">G107(B)</tspan></text>
</g>
<g ewd:code="G2" ewd:figID="15" ewd:figtype="conn">
<path style="&st17;" d="M2427.54,209.52h-12.75"/>
<path style="&st17;" d="M2368.05,209.52h15.58"/>
<path style="&st17;" d="M2427.53,192.52h-16.99v7.09"/>
<path style="&st17;" d="M2410.54,219.44v7.08h16.99"/>
<path style="&st12;" d="M2368.04,235.02h59.49v-59.49h-59.49V235.02"/>
<path style="&st12;" d="M2396.1,187l-9.83,21.81l16.7-17.13"/>
<path style="&st12;" d="M2402.97,191.68c-0.98-2.99-3.73-4.86-6.87-4.68"/>
<path style="&st17;" d="M2414.79,209.52c0-0.78-0.64-1.42-1.42-1.42"/>
<path style="&st17;" d="M2413.37,208.1c-0.78,0-1.42,0.64-1.42,1.42"/>
<path style="&st17;" d="M2411.95,209.52c0,0.78,0.64,1.42,1.42,1.42"/>
<path style="&st17;" d="M2413.37,210.94c0.78,0,1.42-0.64,1.42-1.42"/>
<path style="&st17;" d="M2411.95,218.02c0-0.78-0.63-1.42-1.41-1.42"/>
<path style="&st17;" d="M2410.54,216.6c-0.78,0-1.42,0.64-1.42,1.42"/>
<path style="&st17;" d="M2409.12,218.02c0,0.78,0.64,1.42,1.42,1.42"/>
<path style="&st17;" d="M2410.54,219.44c0.78,0,1.41-0.64,1.41-1.42"/>
<path style="&st17;" d="M2411.95,201.02c0-0.78-0.63-1.41-1.41-1.41"/>
<path style="&st17;" d="M2410.54,199.61c-0.78,0-1.42,0.63-1.42,1.41"/>
<path style="&st17;" d="M2409.12,201.02c0,0.78,0.64,1.42,1.42,1.42"/>
<path style="&st17;" d="M2410.54,202.44c0.78,0,1.41-0.64,1.41-1.42"/>
<path style="&st17;" d="M2386.46,209.52c0-0.78-0.64-1.42-1.42-1.42"/>
<path style="&st17;" d="M2385.04,208.1c-0.78,0-1.41,0.64-1.41,1.42"/>
<path style="&st17;" d="M2383.63,209.52c0,0.78,0.63,1.42,1.41,1.42"/>
<path style="&st17;" d="M2385.04,210.94c0.78,0,1.42-0.64,1.42-1.42"/>
<text transform="matrix(1 0 0 1 2365.5186 242.6255)" style="&st11;"><tspan x="0" y="0" style="&st29; &st19;">G2</tspan></text>
<text ewd:textID="24" transform="matrix(1 0 0 1 2365.5186 249.7256)" style="&st11; &st29; &st19;">Ignition or Starter <tspan x="0" y="7">Switch Assembly</tspan></text>
<text transform="matrix(1 0 0 1 2414.0381 222.8257)" style="&st11;"><tspan x="0" y="0" style="&st29; &st19;">ST1</tspan></text>
<text transform="matrix(1 0 0 1 2415.4482 205.8257)" style="&st11;"><tspan x="0" y="0" style="&st29; &st19;">IG1</tspan></text>
<text transform="matrix(1 0 0 1 2411.5684 188.8257)" style="&st11;"><tspan x="0" y="0" style="&st29; &st19;">ACC</tspan></text>
<text transform="matrix(1 0 0 1 2370.1689 205.8257)" style="&st11;"><tspan x="0" y="0" style="&st29; &st19;">AM1</tspan></text>
<text transform="matrix(1 0 0 1 2430.3682 222.8257)" style="&st11;"><tspan x="0" y="0" style="&st29; &st19;">1</tspan></text>
<text transform="matrix(1 0 0 1 2361.2588 205.8257)" style="&st11;"><tspan x="0" y="0" style="&st29; &st19;">2</tspan></text>
</g>
<g ewd:code="A41" ewd:figID="33" ewd:figtype="conn">
<path style="&st17;" d="M2470.03,468.73v-4.25"/>
<path style="&st17;" d="M2470.03,498.47v-4.25"/>
<path style="&st12;" d="M2470.03,491.39l5.66-22.66"/>
<path style="&st12;" d="M2478.53,498.47v-33.99h-17v33.99H2478.53"/>
<path style="&st17;" d="M2471.44,470.14c0-0.78-0.63-1.41-1.41-1.41"/>
<path style="&st17;" d="M2470.03,468.73c-0.78,0-1.42,0.63-1.42,1.41"/>
<path style="&st17;" d="M2468.61,470.14c0,0.79,0.64,1.42,1.42,1.42"/>
<path style="&st17;" d="M2470.03,471.56c0.78,0,1.41-0.63,1.41-1.42"/>
<path style="&st17;" d="M2471.44,492.81c0-0.79-0.63-1.42-1.41-1.42"/>
<path style="&st17;" d="M2470.03,491.39c-0.78,0-1.42,0.63-1.42,1.42"/>
<path style="&st17;" d="M2468.61,492.81c0,0.78,0.64,1.41,1.42,1.41"/>
<path style="&st17;" d="M2470.03,494.22c0.78,0,1.41-0.63,1.41-1.41"/>
<text ewd:textID="14" transform="matrix(0 -1 1 0 2493.2383 500.9966)" style="&st11; &st29; &st19;">Clutch Start <tspan x="0" y="7">Switch Assembly</tspan></text>
<text transform="matrix(0 -1 1 0 2486.1387 500.9966)" style="&st11;"><tspan x="0" y="0" style="&st29; &st19;">A41</tspan></text>
<text transform="matrix(1 0 0 1 2461.5264 506.6665)" style="&st11;"><tspan x="0" y="0" style="&st29; &st19;">1</tspan></text>
<text transform="matrix(1 0 0 1 2460.7461 460.7856)" style="&st11;"><tspan x="0" y="0" style="&st29; &st19;">2</tspan></text>
</g>
<text transform="matrix(0 -1 1 0 2466.3281 527.3149)" style="&st11;"><tspan x="0" y="0" style="&st29; &st19;">W</tspan></text>
<text transform="matrix(0 -1 1 0 2477.6689 533.2153)" style="&st11;"><tspan x="0" y="0" style="&st29; &st19;">(LHD)</tspan></text>
<text transform="matrix(0 -1 1 0 2466.3281 441.3052)" style="&st11;"><tspan x="0" y="0" style="&st29; &st19;">B</tspan></text>
<text transform="matrix(0 -1 1 0 2477.6689 448.2349)" style="&st11;"><tspan x="0" y="0" style="&st29; &st19;">(LHD)</tspan></text>
<text transform="matrix(1 0 0 1 2494.2686 387.1255)" style="&st11;"><tspan x="0" y="0" style="&st29; &st19;">(RHD)</tspan></text>
<text transform="matrix(0 -1 1 0 2466.3281 313.8257)" style="&st11;"><tspan x="0" y="0" style="&st29; &st19;">B</tspan></text>
<text transform="matrix(0 -1 1 0 2228.3682 221.3657)" style="&st11;"><tspan x="0" y="0" style="&st29; &st19;">W</tspan></text>
<text transform="matrix(1 0 0 1 2241.9785 258.2256)" style="&st11;"><tspan x="0" y="0" style="&st29; &st19;">(RHD)</tspan></text>
<text transform="matrix(1 0 0 1 2241.9785 240.7256)" style="&st11;"><tspan x="0" y="0" style="&st29; &st19;">(LHD *6)</tspan></text>
<text transform="matrix(1 0 0 1 2241.9785 249.7256)" style="&st11;"><tspan x="0" y="0" style="&st29; &st19;">(LHD *5)</tspan></text>
<text transform="matrix(0 -1 1 0 2228.3682 289.3555)" style="&st11;"><tspan x="0" y="0" style="&st29; &st19;">W</tspan></text>
<text transform="matrix(1 0 0 1 2012.5186 343.2158)" style="&st11;"><tspan x="0" y="0" style="&st29; &st19;">(RHD)</tspan></text>
<text transform="matrix(1 0 0 1 2012.5186 334.7158)" style="&st11;"><tspan x="0" y="0" style="&st29; &st19;">(LHD)</tspan></text>
<text transform="matrix(0 -1 1 0 2228.3682 119.3857)" style="&st11;"><tspan x="0" y="0" style="&st29; &st19;">W</tspan></text>
<text transform="matrix(0 -1 1 0 2151.8887 642.145)" style="&st11;"><tspan x="0" y="0" style="&st29; &st19;">W-B</tspan></text>
<text transform="matrix(0 -1 1 0 2151.8887 548.6665)" style="&st11;"><tspan x="0" y="0" style="&st29; &st19;">W-B</tspan></text>
<text transform="matrix(1 0 0 1 2186.2188 316.3057)" style="&st11;"><tspan x="0" y="0" style="&st29; &st19;">W</tspan></text>
<text transform="matrix(1 0 0 1 2448.3682 222.8154)" style="&st11;"><tspan x="0" y="0" style="&st29; &st19;">SB</tspan></text>
<text transform="matrix(1 0 0 1 2339.7881 205.8154)" style="&st11;"><tspan x="0" y="0" style="&st29; &st19;">G</tspan></text>
<text transform="matrix(0 -1 1 0 2211.3779 418.0854)" style="&st11;"><tspan x="0" y="0" style="&st29; &st19;">W(RHD)</tspan></text>
<text transform="matrix(0 -1 1 0 2228.3682 417.5962)" style="&st11;"><tspan x="0" y="0" style="&st29; &st19;">W(LHD)</tspan></text>
<text ewd:textID="5" transform="matrix(1 0 0 1 2433.5088 118.0059)" style="&st11; &st29; &st19;">* 4 :From Oct. 2011 Production</text>
<text ewd:textID="4" transform="matrix(1 0 0 1 2433.5088 109.5059)" style="&st11; &st29; &st19;">* 3 :Before Oct. 2011 Production</text>
<text transform="matrix(1 0 0 1 2479.9385 360.2158)" style="&st11;"><tspan x="0" y="0" style="&st29; &st19;">(*3,*4 LHD)</tspan></text>
<text transform="matrix(1 0 0 1 2479.9385 351.7158)" style="&st11;"><tspan x="0" y="0" style="&st29; &st19;">(*4 RHD)</tspan></text>
<text ewd:textID="6" transform="matrix(1 0 0 1 2433.5088 126.5059)" style="&st11; &st29; &st19;">* 5 :Before Aug. 2013 Production</text>
<text ewd:textID="7" transform="matrix(1 0 0 1 2433.5088 135.0059)" style="&st11; &st29; &st19;">* 6 :From Aug. 2013 Production</text>
</svg>
