﻿<?xml version="1.0" encoding="UTF-8"?>
<!DOCTYPE svg PUBLIC "-//W3C//DTD SVG 1.0//EN" "http://www.w3.org/TR/2001/REC-SVG-20010904/DTD/svg10.dtd"[
<!ENTITY ns_flows "http://ns.adobe.com/Flows/1.0/">
<!ENTITY ns_svg "http://www.w3.org/2000/svg">
<!ENTITY ns_xlink "http://www.w3.org/1999/xlink">
		<!ENTITY st0 "fill:none;stroke:#000000;stroke-width:0.85;stroke-linecap:round;stroke-linejoin:round;stroke-dasharray:3 1.5;enable-background:new    ;">
	<!ENTITY st1 "fill:none;stroke:#000000;stroke-width:5.1;stroke-linejoin:round;">
	<!ENTITY st2 "fill:none;stroke:#199DBF;stroke-width:1.13;stroke-linejoin:round;">
	<!ENTITY st3 "fill:none;stroke:#000000;stroke-linecap:round;stroke-linejoin:round;">
	<!ENTITY st4 "stroke:#000000;stroke-width:0.28;stroke-linecap:round;stroke-linejoin:round;enable-background:new    ;">
	<!ENTITY st5 "enable-background:new    ;">
		<!ENTITY st6 "fill:none;stroke:#000000;stroke-width:1.42;stroke-linecap:round;stroke-linejoin:round;enable-background:new    ;">
	<!ENTITY st7 "fill:none;stroke:#199DBF;stroke-width:5.1;stroke-linejoin:round;">
	<!ENTITY st8 "opacity:0.5;fill:none;stroke:#34ACCE;stroke-linejoin:round;stroke-dasharray:6;">
	<!ENTITY st9 "fill:none;stroke:#FFFFFF;stroke-width:4.53;stroke-linejoin:round;">
		<!ENTITY st10 "fill:#CFE6E7;stroke:#000000;stroke-width:1.133;stroke-linecap:round;stroke-linejoin:round;enable-background:new    ;">
		<!ENTITY st11 "fill:none;stroke:#000000;stroke-width:0.85;stroke-linecap:round;stroke-linejoin:round;enable-background:new    ;">
	<!ENTITY st12 "font-size:6px;">
	<!ENTITY st13 "fill:none;stroke:#FFFFFF;stroke-width:2.27;stroke-linejoin:round;">
	<!ENTITY st14 "fill:none;stroke:#FB0F0C;stroke-width:1.13;stroke-linejoin:round;">
	<!ENTITY st15 "fill:none;stroke:#168638;stroke-width:5.1;stroke-linejoin:round;">
	<!ENTITY st16 "fill:none;stroke:#000000;stroke-width:1.13;stroke-linejoin:round;">
		<!ENTITY st17 "fill:none;stroke:#000000;stroke-width:1.13;stroke-linecap:round;stroke-linejoin:round;stroke-dasharray:3 1.5;enable-background:new    ;">
	<!ENTITY st18 "fill:#FFFFFF;stroke:#000000;stroke-width:1.41;stroke-linecap:round;stroke-linejoin:round;">
	<!ENTITY st19 "fill:none;stroke:#3E65AC;stroke-width:3;">
	<!ENTITY st20 "fill:#CCCCCC;stroke:#CCCCCC;stroke-width:0.1;stroke-linecap:round;stroke-linejoin:round;">
	<!ENTITY st21 "font-family:'ArialMT';">
	<!ENTITY st22 "opacity:0.5;fill:none;stroke:#34ACCE;stroke-linejoin:round;">
	<!ENTITY st23 "fill:#CFE6E7;stroke:#000000;stroke-width:1.133;stroke-linecap:round;stroke-linejoin:round;">
	<!ENTITY st24 "fill:none;stroke:#99D5E0;stroke-width:5.1;stroke-linejoin:round;">
<!ATTLIST svg
xmlns:ewd CDATA #FIXED "http://shcl.co.jp/ewd"
xmlns:a CDATA #FIXED "http://ns.adobe.com/AdobeSVGViewerExtensions/3.0/"
ewd:ver CDATA #IMPLIED
>
<!ATTLIST a
ewd:lineID CDATA #IMPLIED
ewd:groupID CDATA #IMPLIED
ewd:figtype CDATA #IMPLIED
ewd:code CDATA #IMPLIED
ewd:figID CDATA #IMPLIED
ewd:pinNo CDATA #IMPLIED
ewd:comment CDATA #IMPLIED >
<!ATTLIST g
ewd:lineID CDATA #IMPLIED
ewd:groupID CDATA #IMPLIED
ewd:figtype CDATA #IMPLIED
ewd:code CDATA #IMPLIED
ewd:figID CDATA #IMPLIED
ewd:pinNo CDATA #IMPLIED
ewd:comment CDATA #IMPLIED >
<!ATTLIST text
ewd:textID CDATA #IMPLIED >
<!ATTLIST title
ewd:textID CDATA #IMPLIED >
]>
<svg 
viewBox='0 0 1039.82 729.44'
height='729.44'
width='1039.82'
xml:space="preserve"
xmlns="&ns_svg;"
xmlns:ewd="http://shcl.co.jp/ewd"
xmlns:xlink="&ns_xlink;" ewd:ver="L2.1">
<g ewd:code="Ar3" ewd:figID="6014" ewd:figtype="w2w" ewd:pinNo="2">
<text transform="matrix(1 0 0 1 880.5122 547.1772)" style="&st5;"><tspan x="0" y="0" style="&st21; &st12;">2</tspan></text>
</g>
<g ewd:code="Ar1" ewd:figID="6013" ewd:figtype="w2w" ewd:pinNo="2">
<path style="&st6;" d="M886.85,532.47h8.5"/>
<path style="&st6;" d="M899.6,526.8l-4.25,4.25l-4.25-4.25"/>
<path style="&st6;" d="M891.1,523.4l4.25,4.25l4.25-4.25"/>
<text transform="matrix(1 0 0 1 880.5122 538.687)" style="&st5;"><tspan x="0" y="0" style="&st21; &st12;">2</tspan></text>
</g>
<g ewd:code="Ar1" ewd:figID="6008" ewd:figtype="w2w" ewd:pinNo="3">
<path style="&st6;" d="M903.85,328.5h-8.5"/>
<path style="&st6;" d="M899.6,334.17l-4.25-4.25l-4.25,4.25"/>
<path style="&st6;" d="M899.6,337.57l-4.25-4.25l-4.25,4.25"/>
<text transform="matrix(1 0 0 1 880.5122 326.2168)" style="&st5;"><tspan x="0" y="0" style="&st21; &st12;">3</tspan></text>
</g>
<g ewd:code="Ar3" ewd:figID="6007" ewd:figtype="w2w" ewd:pinNo="3">
<text transform="matrix(1 0 0 1 880.5122 317.7168)" style="&st5;"><tspan x="0" y="0" style="&st21; &st12;">3</tspan></text>
</g>
<g ewd:code="GA2" ewd:figID="6004" ewd:figtype="w2w" ewd:pinNo="33">
<text transform="matrix(1 0 0 1 605.2163 300.7266)" style="&st5;"><tspan x="0" y="0" style="&st21; &st12;">33</tspan></text>
</g>
<g ewd:code="GA6" ewd:figID="6003" ewd:figtype="w2w" ewd:pinNo="34">
<path style="&st6;" d="M614.89,286.01h8.5"/>
<path style="&st6;" d="M627.64,280.34l-4.25,4.25l-4.25-4.25"/>
<path style="&st6;" d="M619.14,276.94l4.25,4.25l4.25-4.25"/>
<text transform="matrix(1 0 0 1 605.2163 292.2266)" style="&st5;"><tspan x="0" y="0" style="&st21; &st12;">34</tspan></text>
</g>
<g ewd:code="GA6" ewd:figID="6005" ewd:figtype="w2w" ewd:pinNo="52">
<text transform="matrix(1 0 0 1 766.6968 266.7266)" style="&st5;"><tspan x="0" y="0" style="&st21; &st12;">52</tspan></text>
</g>
<g ewd:code="GA2" ewd:figID="6006" ewd:figtype="w2w" ewd:pinNo="48">
<path style="&st6;" d="M793.37,277.51h-8.5"/>
<path style="&st6;" d="M789.12,283.18l-4.25-4.25l-4.25,4.25"/>
<path style="&st6;" d="M789.12,286.57l-4.25-4.24l-4.25,4.24"/>
<text transform="matrix(1 0 0 1 766.6968 275.2266)" style="&st5;"><tspan x="0" y="0" style="&st21; &st12;">48</tspan></text>
</g>
<g ewd:code="3JB" ewd:figID="3002" ewd:figtype="jb">
<path style="&st6;" d="M702.01,175.53h-4.25"/>
<path style="&st6;" d="M702.01,184.03h-4.25"/>
<path style="&st6;" d="M702.01,218.02h-4.25"/>
<path style="&st6;" d="M702.01,226.52h-4.25"/>
<path style="&st6;" d="M786.99,218.02h-4.25"/>
<path style="&st6;" d="M786.99,226.52h-4.25"/>
<path style="&st4;" d="M699.88,188.92l2.83,2.83v-4.25l-2.83-2.83l-2.83,2.83v4.25L699.88,188.92"/>
<path style="&st4;" d="M699.88,213.12l-2.83-2.83v4.25l2.83,2.83l2.83-2.83v-4.25L699.88,213.12"/>
<path style="&st11;" d="M699.88,218.02v-33.99"/>
<path style="&st11;" d="M698.69,200.02l-0.27,0.47l-0.1,0.53l0.1,0.54l0.27,0.47l0.41,0.34l0.51,0.19h0.54l0.51-0.19l0.41-0.34l0.28-0.47l0.09-0.54l-0.09-0.53l-0.28-0.47l-0.41-0.35l-0.51-0.18h-0.54l-0.51,0.18L698.69,200.02l0.39,0.71v0.58l0.38,0.45l0.57,0.1l0.5-0.29l0.2-0.55l-0.2-0.54l-0.5-0.29l-0.57,0.1l0.42,0.73"/>
<path style="&st11;" d="M699.88,201.02h84.99v17"/>
<path style="&st4;" d="M784.87,213.12l-2.84-2.83v4.25l2.84,2.83l2.83-2.83v-4.25L784.87,213.12"/>
<path style="&st6;" d="M697.76,175.53c-2.35,0-4.25,1.9-4.25,4.25"/>
<path style="&st6;" d="M693.51,179.78c0,2.34,1.9,4.25,4.25,4.25"/>
<path style="&st6;" d="M702.01,184.03c2.34,0,4.24-1.91,4.24-4.25"/>
<path style="&st6;" d="M706.25,179.78c0-2.35-1.9-4.25-4.24-4.25"/>
<path style="&st6;" d="M697.76,218.02c-2.35,0-4.25,1.9-4.25,4.25"/>
<path style="&st6;" d="M693.51,222.27c0,2.35,1.9,4.25,4.25,4.25"/>
<path style="&st6;" d="M702.01,226.52c2.34,0,4.24-1.9,4.24-4.25"/>
<path style="&st6;" d="M706.25,222.27c0-2.35-1.9-4.25-4.24-4.25"/>
<path style="&st6;" d="M782.74,218.02c-2.34,0-4.25,1.9-4.25,4.25"/>
<path style="&st6;" d="M778.49,222.27c0,2.35,1.91,4.25,4.25,4.25"/>
<path style="&st6;" d="M786.99,226.52c2.35,0,4.25-1.9,4.25-4.25"/>
<path style="&st6;" d="M791.24,222.27c0-2.35-1.9-4.25-4.25-4.25"/>
<text transform="matrix(1 0 0 1 695.4292 181.7466)" style="&st5;"><tspan x="0" y="0" style="&st21; &st12;">3C</tspan></text>
<text transform="matrix(1 0 0 1 684.0093 181.7466)" style="&st5;"><tspan x="0" y="0" style="&st21; &st12;">13</tspan></text>
<text transform="matrix(1 0 0 1 695.5698 224.2363)" style="&st5;"><tspan x="0" y="0" style="&st21; &st12;">3A</tspan></text>
<text transform="matrix(1 0 0 1 684.0093 224.2363)" style="&st5;"><tspan x="0" y="0" style="&st21; &st12;">51</tspan></text>
<text transform="matrix(1 0 0 1 780.5601 224.2363)" style="&st5;"><tspan x="0" y="0" style="&st21; &st12;">3A</tspan></text>
<text transform="matrix(1 0 0 1 768.2202 224.2363)" style="&st5;"><tspan x="0" y="0" style="&st21; &st12;">63</tspan></text>
</g>
<g ewd:code="4JB" ewd:figID="3003" ewd:figtype="jb">
<path style="&st6;" d="M702.01,260.51h-4.25"/>
<path style="&st6;" d="M702.01,269.01h-4.25"/>
<path style="&st6;" d="M702.01,303.01h-4.25"/>
<path style="&st6;" d="M702.01,311.5h-4.25"/>
<path style="&st4;" d="M699.88,273.91l2.83,2.83v-4.25l-2.83-2.83l-2.83,2.83v4.25L699.88,273.91"/>
<path style="&st4;" d="M699.88,298.11l-2.83-2.83v4.25l2.83,2.83l2.83-2.83v-4.25L699.88,298.11"/>
<path style="&st11;" d="M699.88,303.01v-34"/>
<path style="&st6;" d="M697.76,260.51c-2.35,0-4.25,1.9-4.25,4.25"/>
<path style="&st6;" d="M693.51,264.76c0,2.35,1.9,4.25,4.25,4.25"/>
<path style="&st6;" d="M702.01,269.01c2.34,0,4.24-1.9,4.24-4.25"/>
<path style="&st6;" d="M706.25,264.76c0-2.35-1.9-4.25-4.24-4.25"/>
<path style="&st6;" d="M697.76,303.01c-2.35,0-4.25,1.9-4.25,4.24"/>
<path style="&st6;" d="M693.51,307.25c0,2.35,1.9,4.25,4.25,4.25"/>
<path style="&st6;" d="M702.01,311.5c2.34,0,4.24-1.9,4.24-4.25"/>
<path style="&st6;" d="M706.25,307.25c0-2.34-1.9-4.24-4.24-4.24"/>
<text transform="matrix(1 0 0 1 695.5698 266.7266)" style="&st5;"><tspan x="0" y="0" style="&st21; &st12;">4A</tspan></text>
<text transform="matrix(1 0 0 1 683.23 266.7266)" style="&st5;"><tspan x="0" y="0" style="&st21; &st12;">37</tspan></text>
<text transform="matrix(1 0 0 1 695.5698 309.2168)" style="&st5;"><tspan x="0" y="0" style="&st21; &st12;">4A</tspan></text>
<text transform="matrix(1 0 0 1 683.23 309.2168)" style="&st5;"><tspan x="0" y="0" style="&st21; &st12;">87</tspan></text>
</g>
<g ewd:code="C49,G107" ewd:figID="3" ewd:figtype="conn">
<path style="&st6;" d="M614.89,354v33.99h93.49V354H614.89"/>
<path style="&st17;" d="M614.89,362.5h93.49"/>
<path style="&st17;" d="M614.89,379.49h93.49"/>
<path style="&st11;" d="M699.88,354v33.99"/>
<path style="&st11;" d="M623.39,354v33.99"/>
<path style="&st6;" d="M627.93,392.52c0-2.5-2.03-4.53-4.54-4.53"/>
<path style="&st6;" d="M623.39,387.99c-2.5,0-4.53,2.03-4.53,4.53"/>
<path style="&st6;" d="M618.86,392.52c0,2.51,2.03,4.54,4.53,4.54"/>
<path style="&st6;" d="M623.39,397.06c2.51,0,4.54-2.03,4.54-4.54"/>
<path style="&st6;" d="M627.93,349.46c0-2.5-2.03-4.53-4.54-4.53"/>
<path style="&st6;" d="M623.39,344.93c-2.5,0-4.53,2.03-4.53,4.53"/>
<path style="&st6;" d="M618.86,349.46c0,2.51,2.03,4.54,4.53,4.54"/>
<path style="&st6;" d="M623.39,354c2.51,0,4.54-2.03,4.54-4.54"/>
<path style="&st6;" d="M704.41,349.46c0-2.5-2.03-4.53-4.53-4.53"/>
<path style="&st6;" d="M699.88,344.93c-2.5,0-4.53,2.03-4.53,4.53"/>
<path style="&st6;" d="M695.35,349.46c0,2.51,2.03,4.54,4.53,4.54"/>
<path style="&st6;" d="M699.88,354c2.5,0,4.53-2.03,4.53-4.54"/>
<path style="&st6;" d="M704.41,392.52c0-2.5-2.03-4.53-4.53-4.53"/>
<path style="&st6;" d="M699.88,387.99c-2.5,0-4.53,2.03-4.53,4.53"/>
<path style="&st6;" d="M695.35,392.52c0,2.51,2.03,4.54,4.53,4.54"/>
<path style="&st6;" d="M699.88,397.06c2.5,0,4.53-2.03,4.53-4.54"/>
<text transform="matrix(1 0 0 1 621.0601 394.4868)" style="&st5;"><tspan x="0" y="0" style="&st21; &st12;">A</tspan></text>
<text transform="matrix(1 0 0 1 609.3394 394.4868)" style="&st5;"><tspan x="0" y="0" style="&st21; &st12;">12</tspan></text>
<text transform="matrix(1 0 0 1 621.0601 351.4268)" style="&st5;"><tspan x="0" y="0" style="&st21; &st12;">B</tspan></text>
<text transform="matrix(1 0 0 1 609.3394 351.4268)" style="&st5;"><tspan x="0" y="0" style="&st21; &st12;">21</tspan></text>
<text transform="matrix(0 -1 1 0 715.9897 390.5171)" style="&st5;"><tspan x="0" y="0" style="&st21; &st12;">C49(A),G107(B)</tspan></text>
<text ewd:textID="8" transform="matrix(0 -1 1 0 723.0991 390.5171)" style="&st5; &st21; &st12;">Junction Connector</text>
<text transform="matrix(1 0 0 1 685.8296 351.4268)" style="&st5;"><tspan x="0" y="0" style="&st21; &st12;">17</tspan></text>
<text transform="matrix(1 0 0 1 697.5503 351.4268)" style="&st5;"><tspan x="0" y="0" style="&st21; &st12;">B</tspan></text>
<text transform="matrix(1 0 0 1 685.8296 394.4868)" style="&st5;"><tspan x="0" y="0" style="&st21; &st12;">17</tspan></text>
<text transform="matrix(1 0 0 1 697.5503 394.4868)" style="&st5;"><tspan x="0" y="0" style="&st21; &st12;">A</tspan></text>
</g>
<g ewd:code="C40" ewd:figID="6" ewd:figtype="conn">
<path style="&st6;" d="M657.39,455.98h50.99v50.99h-50.99V455.98"/>
<path style="&st11;" d="M657.39,489.97h50.99"/>
<path style="&st11;" d="M674.38,455.98v50.99"/>
<path style="&st11;" d="M691.38,455.98v50.99"/>
<path style="&st11;" d="M698.46,481.48H684.3"/>
<path style="&st11;" d="M684.3,498.47h14.16"/>
<path style="&st11;" d="M657.39,472.98h50.99"/>
<path style="&st11;" d="M701.3,481.48c0-0.79-0.64-1.42-1.42-1.42"/>
<path style="&st11;" d="M699.88,480.06c-0.78,0-1.42,0.63-1.42,1.42"/>
<path style="&st11;" d="M698.46,481.48c0,0.78,0.64,1.41,1.42,1.41"/>
<path style="&st11;" d="M699.88,482.89c0.78,0,1.42-0.63,1.42-1.41"/>
<path style="&st11;" d="M701.3,498.47c0-0.78-0.64-1.41-1.42-1.41"/>
<path style="&st11;" d="M699.88,497.06c-0.78,0-1.42,0.63-1.42,1.41"/>
<path style="&st11;" d="M698.46,498.47c0,0.78,0.64,1.42,1.42,1.42"/>
<path style="&st11;" d="M699.88,499.89c0.78,0,1.42-0.64,1.42-1.42"/>
<path style="&st11;" d="M684.3,498.47c0-0.78-0.63-1.41-1.42-1.41"/>
<path style="&st11;" d="M682.88,497.06c-0.78,0-1.41,0.63-1.41,1.41"/>
<path style="&st11;" d="M681.47,498.47c0,0.78,0.63,1.42,1.41,1.42"/>
<path style="&st11;" d="M682.88,499.89c0.79,0,1.42-0.64,1.42-1.42"/>
<path style="&st11;" d="M684.3,481.48c0-0.79-0.63-1.42-1.42-1.42"/>
<path style="&st11;" d="M682.88,480.06c-0.78,0-1.41,0.63-1.41,1.42"/>
<path style="&st11;" d="M681.47,481.48c0,0.78,0.63,1.41,1.41,1.41"/>
<path style="&st11;" d="M682.88,482.89c0.79,0,1.42-0.63,1.42-1.41"/>
<text transform="matrix(1 0 0 1 663.5601 483.437)" style="&st5;"><tspan x="0" y="0" style="&st21; &st12;">P</tspan></text>
<text transform="matrix(1 0 0 1 663.4097 500.437)" style="&st5;"><tspan x="0" y="0" style="&st21; &st12;">N</tspan></text>
<text transform="matrix(1 0 0 1 693.0894 452.2866)" style="&st5;"><tspan x="0" y="0" style="&st21; &st12;">4</tspan></text>
<text transform="matrix(1 0 0 1 676.0894 515.1558)" style="&st5;"><tspan x="0" y="0" style="&st21; &st12;">5</tspan></text>
<text transform="matrix(1 0 0 1 680.9097 466.4468)" style="&st5;"><tspan x="0" y="0" style="&st21; &st12;">L</tspan></text>
<text transform="matrix(1 0 0 1 697.5503 466.4468)" style="&st5;"><tspan x="0" y="0" style="&st21; &st12;">B</tspan></text>
<text transform="matrix(0 -1 1 0 715.9897 509.4976)" style="&st5;"><tspan x="0" y="0" style="&st21; &st12;">C40</tspan></text>
<text ewd:textID="9" transform="matrix(0 -1 1 0 723.0991 509.4976)" style="&st5; &st21; &st12;">Park/Neutral <tspan x="0" y="7">Position Switch</tspan></text>
</g>
<g ewd:code="A40,A41" ewd:figID="7" ewd:figtype="conn">
<path style="&st6;" d="M784.87,440.4l5.66-22.66"/>
<path style="&st11;" d="M784.87,447.48v-4.25"/>
<path style="&st11;" d="M784.87,417.74v-4.25"/>
<path style="&st6;" d="M793.36,447.48v-33.99h-16.99v33.99H793.36"/>
<path style="&st11;" d="M786.28,441.82c0-0.79-0.63-1.42-1.41-1.42"/>
<path style="&st11;" d="M784.87,440.4c-0.79,0-1.42,0.63-1.42,1.42"/>
<path style="&st11;" d="M783.45,441.82c0,0.78,0.63,1.41,1.42,1.41"/>
<path style="&st11;" d="M784.87,443.23c0.78,0,1.41-0.63,1.41-1.41"/>
<path style="&st11;" d="M786.28,419.15c0-0.78-0.63-1.41-1.41-1.41"/>
<path style="&st11;" d="M784.87,417.74c-0.79,0-1.42,0.63-1.42,1.41"/>
<path style="&st11;" d="M783.45,419.15c0,0.78,0.63,1.42,1.42,1.42"/>
<path style="&st11;" d="M784.87,420.57c0.78,0,1.41-0.64,1.41-1.42"/>
<path style="&st6;" d="M789.4,408.95c0-2.5-2.03-4.53-4.53-4.53"/>
<path style="&st6;" d="M784.87,404.42c-2.51,0-4.54,2.03-4.54,4.53"/>
<path style="&st6;" d="M780.33,408.95c0,2.51,2.03,4.54,4.54,4.54"/>
<path style="&st6;" d="M784.87,413.49c2.5,0,4.53-2.03,4.53-4.54"/>
<path style="&st6;" d="M789.4,399.89c0-2.5-2.03-4.53-4.53-4.53"/>
<path style="&st6;" d="M784.87,395.36c-2.51,0-4.54,2.03-4.54,4.53"/>
<path style="&st6;" d="M780.33,399.89c0,2.5,2.03,4.53,4.54,4.53"/>
<path style="&st6;" d="M784.87,404.42c2.5,0,4.53-2.03,4.53-4.53"/>
<path style="&st6;" d="M789.4,461.08c0-2.5-2.03-4.53-4.53-4.53"/>
<path style="&st6;" d="M784.87,456.55c-2.51,0-4.54,2.03-4.54,4.53"/>
<path style="&st6;" d="M780.33,461.08c0,2.5,2.03,4.53,4.54,4.53"/>
<path style="&st6;" d="M784.87,465.61c2.5,0,4.53-2.03,4.53-4.53"/>
<path style="&st6;" d="M789.4,452.01c0-2.5-2.03-4.53-4.53-4.53"/>
<path style="&st6;" d="M784.87,447.48c-2.51,0-4.54,2.03-4.54,4.53"/>
<path style="&st6;" d="M780.33,452.01c0,2.51,2.03,4.54,4.54,4.54"/>
<path style="&st6;" d="M784.87,456.55c2.5,0,4.53-2.03,4.53-4.54"/>
<text transform="matrix(1 0 0 1 782.5405 410.9165)" style="&st5;"><tspan x="0" y="0" style="&st21; &st12;">A</tspan></text>
<text transform="matrix(1 0 0 1 773.9897 410.9165)" style="&st5;"><tspan x="0" y="0" style="&st21; &st12;">2</tspan></text>
<text transform="matrix(1 0 0 1 782.5405 401.8569)" style="&st5;"><tspan x="0" y="0" style="&st21; &st12;">B</tspan></text>
<text transform="matrix(1 0 0 1 782.5405 463.0464)" style="&st5;"><tspan x="0" y="0" style="&st21; &st12;">B</tspan></text>
<text transform="matrix(1 0 0 1 774.769 463.0464)" style="&st5;"><tspan x="0" y="0" style="&st21; &st12;">1</tspan></text>
<text transform="matrix(1 0 0 1 782.5405 453.9761)" style="&st5;"><tspan x="0" y="0" style="&st21; &st12;">A</tspan></text>
<text transform="matrix(1 0 0 1 774.769 453.9761)" style="&st5;"><tspan x="0" y="0" style="&st21; &st12;">1</tspan></text>
<text ewd:textID="6" transform="matrix(0 -1 1 0 766.7202 450.0073)" style="&st5; &st21; &st12;">Clutch Start <tspan x="0" y="7">Switch Assembly</tspan></text>
<text transform="matrix(0 -1 1 0 759.6206 450.0073)" style="&st5;"><tspan x="0" y="0" style="&st21; &st12;">A40(A),A41(B)</tspan></text>
<text transform="matrix(1 0 0 1 773.9897 401.8569)" style="&st5;"><tspan x="0" y="0" style="&st21; &st12;">2</tspan></text>
</g>
<g ewd:code="r1" ewd:figID="8" ewd:figtype="conn">
<path style="&st6;" d="M895.35,440.4l5.66-22.66"/>
<path style="&st11;" d="M895.35,447.48v-4.25"/>
<path style="&st11;" d="M895.35,417.74v-4.25"/>
<path style="&st6;" d="M903.85,447.48v-33.99h-17v33.99H903.85"/>
<path style="&st11;" d="M896.76,441.82c0-0.79-0.63-1.42-1.41-1.42"/>
<path style="&st11;" d="M895.35,440.4c-0.78,0-1.42,0.63-1.42,1.42"/>
<path style="&st11;" d="M893.93,441.82c0,0.78,0.64,1.41,1.42,1.41"/>
<path style="&st11;" d="M895.35,443.23c0.78,0,1.41-0.63,1.41-1.41"/>
<path style="&st11;" d="M896.76,419.15c0-0.78-0.63-1.41-1.41-1.41"/>
<path style="&st11;" d="M895.35,417.74c-0.78,0-1.42,0.63-1.42,1.41"/>
<path style="&st11;" d="M893.93,419.15c0,0.78,0.64,1.42,1.42,1.42"/>
<path style="&st11;" d="M895.35,420.57c0.78,0,1.41-0.64,1.41-1.42"/>
<text ewd:textID="6" transform="matrix(0 -1 1 0 876.2007 450.0073)" style="&st5; &st21; &st12;">Clutch Start <tspan x="0" y="7">Switch Assembly</tspan></text>
<text transform="matrix(1 0 0 1 888.5581 409.7974)" style="&st5;"><tspan x="0" y="0" style="&st21; &st12;">2</tspan></text>
<text transform="matrix(1 0 0 1 888.5581 455.6655)" style="&st5;"><tspan x="0" y="0" style="&st21; &st12;">1 </tspan></text>
<text transform="matrix(0 -1 1 0 869.0991 450.0073)" style="&st5;"><tspan x="0" y="0" style="&st21; &st12;">r1</tspan></text>
</g>
<path style="&st10;" d="M11.5,549.46h33.99v59.49H11.5V549.46"/>
<path style="&st11;" d="M28.49,583.46v2.83"/>
<path style="&st11;" d="M28.49,577.79v2.84"/>
<path style="&st11;" d="M28.49,572.13v2.83"/>
<path style="&st11;" d="M28.49,591.96v25.49"/>
<path style="&st11;" d="M28.49,566.46v-17"/>
<path style="&st11;" d="M19.99,586.29h17"/>
<path style="&st11;" d="M19.99,566.46h17"/>
<path style="&st0;" d="M147.47,578.93h63.74"/>
<path style="&st6;" d="M11.5,549.46h33.99v59.49H11.5V549.46"/>
<path style="&st6;" d="M32.74,591.96v-1.42h-8.5v1.42H32.74"/>
<path style="&st6;" d="M32.74,572.13h-8.5v-1.42h8.5V572.13"/>
<path style="&st11;" d="M27.08,625.95h2.83"/>
<path style="&st11;" d="M25.66,623.12h5.67"/>
<path style="&st11;" d="M24.24,620.29h8.5"/>
<path style="&st11;" d="M19.99,617.45h17"/>
<path style="&st0;" d="M147.47,560.8h63.74"/>
<text transform="matrix(1 0 0 1 905.2593 538.687)" style="&st5;"><tspan x="0" y="0" style="&st21; &st12;">(*1)</tspan></text>
<text transform="matrix(1 0 0 1 561.3804 50.0166)" style="&st5;"><tspan x="0" y="0" style="&st21; &st12;">* 2 :2TR-FE</tspan></text>
<text transform="matrix(1 0 0 1 561.3804 41.5166)" style="&st5;"><tspan x="0" y="0" style="&st21; &st12;">* 1 :5L-E</tspan></text>
<text transform="matrix(0 -1 1 0 619.7007 331.8564)" style="&st5;"><tspan x="0" y="0" style="&st21; &st12;">W</tspan></text>
<text transform="matrix(0 -1 1 0 792.4995 251.8867)" style="&st5;"><tspan x="0" y="0" style="&st21; &st12;">(M/T)</tspan></text>
<text transform="matrix(0 -1 1 0 781.1694 245.8467)" style="&st5;"><tspan x="0" y="0" style="&st21; &st12;">B</tspan></text>
<text transform="matrix(0 -1 1 0 707.519 251.3164)" style="&st5;"><tspan x="0" y="0" style="&st21; &st12;">(A/T)</tspan></text>
<text transform="matrix(0 -1 1 0 696.1792 245.8467)" style="&st5;"><tspan x="0" y="0" style="&st21; &st12;">B</tspan></text>
<text transform="matrix(0 -1 1 0 707.519 336.3066)" style="&st5;"><tspan x="0" y="0" style="&st21; &st12;">(A/T)</tspan></text>
<text transform="matrix(0 -1 1 0 696.1792 330.8267)" style="&st5;"><tspan x="0" y="0" style="&st21; &st12;">B</tspan></text>
<text transform="matrix(0 -1 1 0 631.0308 429.7866)" style="&st5;"><tspan x="0" y="0" style="&st21; &st12;">(A/T)</tspan></text>
<text transform="matrix(0 -1 1 0 619.7007 425.3364)" style="&st5;"><tspan x="0" y="0" style="&st21; &st12;">W</tspan></text>
<text transform="matrix(0 -1 1 0 707.519 429.7866)" style="&st5;"><tspan x="0" y="0" style="&st21; &st12;">(A/T)</tspan></text>
<text transform="matrix(0 -1 1 0 696.1792 424.3159)" style="&st5;"><tspan x="0" y="0" style="&st21; &st12;">B</tspan></text>
<text transform="matrix(1 0 0 1 818.8999 302.1367)" style="&st5;"><tspan x="0" y="0" style="&st21; &st12;">(RHD M/T)</tspan></text>
<text transform="matrix(1 0 0 1 833.5308 290.8066)" style="&st5;"><tspan x="0" y="0" style="&st21; &st12;">B</tspan></text>
<text transform="matrix(0 -1 1 0 792.4995 378.9565)" style="&st5;"><tspan x="0" y="0" style="&st21; &st12;">(LHD M/T)</tspan></text>
<text transform="matrix(0 -1 1 0 781.1694 364.8267)" style="&st5;"><tspan x="0" y="0" style="&st21; &st12;">B</tspan></text>
<text transform="matrix(0 -1 1 0 902.9897 379.4468)" style="&st5;"><tspan x="0" y="0" style="&st21; &st12;">(RHD M/T)</tspan></text>
<text transform="matrix(0 -1 1 0 891.6499 364.8267)" style="&st5;"><tspan x="0" y="0" style="&st21; &st12;">B</tspan></text>
<text transform="matrix(0 -1 1 0 902.9897 600.4058)" style="&st5;"><tspan x="0" y="0" style="&st21; &st12;">(RHD M/T)</tspan></text>
<text transform="matrix(0 -1 1 0 891.6499 586.8062)" style="&st5;"><tspan x="0" y="0" style="&st21; &st12;">W</tspan></text>
<text transform="matrix(0 -1 1 0 792.4995 514.9272)" style="&st5;"><tspan x="0" y="0" style="&st21; &st12;">(LHD M/T)</tspan></text>
<text transform="matrix(0 -1 1 0 781.1694 501.8257)" style="&st5;"><tspan x="0" y="0" style="&st21; &st12;">W</tspan></text>
<text transform="matrix(0 -1 1 0 902.9897 515.4272)" style="&st5;"><tspan x="0" y="0" style="&st21; &st12;">(RHD M/T)</tspan></text>
<text transform="matrix(0 -1 1 0 891.6499 501.8257)" style="&st5;"><tspan x="0" y="0" style="&st21; &st12;">W</tspan></text>
<text transform="matrix(1 0 0 1 633.3003 300.7266)" style="&st5;"><tspan x="0" y="0" style="&st21; &st12;">(RHD)</tspan></text>
<text transform="matrix(1 0 0 1 633.3003 292.2266)" style="&st5;"><tspan x="0" y="0" style="&st21; &st12;">(LHD)</tspan></text>
<text transform="matrix(1 0 0 1 794.7808 275.2266)" style="&st5;"><tspan x="0" y="0" style="&st21; &st12;">(LHD)</tspan></text>
<text transform="matrix(1 0 0 1 794.7808 266.7266)" style="&st5;"><tspan x="0" y="0" style="&st21; &st12;">(RHD *1,RHD *6)</tspan></text>
<text transform="matrix(1 0 0 1 536.5503 248.3164)" style="&st5;"><tspan x="0" y="0" style="&st21; &st12;">W</tspan></text>
<text transform="matrix(1 0 0 1 535.2495 154.8267)" style="&st5;"><tspan x="0" y="0" style="&st21; &st12;">SB</tspan></text>
<text transform="matrix(1 0 0 1 535.0894 596.7573)" style="&st5;"><tspan x="0" y="0" style="&st21; &st12;">W(LHD M/T)</tspan></text>
<text transform="matrix(1 0 0 1 535.5991 613.7573)" style="&st5;"><tspan x="0" y="0" style="&st21; &st12;">W(RHD M/T)</tspan></text>
<text transform="matrix(1 0 0 1 532.0991 259.6465)" style="&st5;"><tspan x="0" y="0" style="&st21; &st12;">(A/T)</tspan></text>
<text transform="matrix(0 -1 1 0 631.0308 336.3066)" style="&st5;"><tspan x="0" y="0" style="&st21; &st12;">(A/T)</tspan></text>
<text ewd:textID="1" transform="matrix(1 0 0 1 561.3804 58.5166)" style="&st5; &st21; &st12;">* 3 :Cold Area Spec.</text>
<text ewd:textID="2" transform="matrix(1 0 0 1 561.3804 67.0068)" style="&st5; &st21; &st12;">* 4 :Except *3</text>
<text transform="matrix(1 0 0 1 561.3804 84.0068)" style="&st5;"><tspan x="0" y="0" style="&st21; &st12;">* 6 :1KD-FTV</tspan></text>
<text transform="matrix(1 0 0 1 561.3804 75.5068)" style="&st5;"><tspan x="0" y="0" style="&st21; &st12;">* 5 :1GR-FE</tspan></text>
<text ewd:textID="3" transform="matrix(1 0 0 1 561.3804 92.5068)" style="&st5; &st21; &st12;">* 7 :w/ DPF</text>
<text ewd:textID="4" transform="matrix(1 0 0 1 561.3804 101.0068)" style="&st5; &st21; &st12;">* 8 :w/o DPF</text>
<text transform="matrix(1 0 0 1 905.2593 326.2168)" style="&st5;"><tspan x="0" y="0" style="&st21; &st12;">(*1)</tspan></text>
<text transform="matrix(1 0 0 1 905.2593 317.7168)" style="&st5;"><tspan x="0" y="0" style="&st21; &st12;">(*6)</tspan></text>
<text transform="matrix(1 0 0 1 790.8394 410.9165)" style="&st5;"><tspan x="0" y="0" style="&st21; &st12;">(*1,*5)</tspan></text>
<text transform="matrix(1 0 0 1 790.8394 401.8569)" style="&st5;"><tspan x="0" y="0" style="&st21; &st12;">(*2,*6)</tspan></text>
<text transform="matrix(1 0 0 1 790.8394 463.0464)" style="&st5;"><tspan x="0" y="0" style="&st21; &st12;">(*2,*6)</tspan></text>
<text transform="matrix(1 0 0 1 790.8394 453.9761)" style="&st5;"><tspan x="0" y="0" style="&st21; &st12;">(*1,*5)</tspan></text>
<text transform="matrix(1 0 0 1 905.2593 547.1772)" style="&st5;"><tspan x="0" y="0" style="&st21; &st12;">(*6)</tspan></text>
</svg>
