﻿<?xml version="1.0" encoding="UTF-8"?>
<!DOCTYPE svg PUBLIC "-//W3C//DTD SVG 1.0//EN" "http://www.w3.org/TR/2001/REC-SVG-20010904/DTD/svg10.dtd"[
<!ENTITY ns_flows "http://ns.adobe.com/Flows/1.0/">
<!ENTITY ns_svg "http://www.w3.org/2000/svg">
<!ENTITY ns_xlink "http://www.w3.org/1999/xlink">
		<!ENTITY st0 "fill:none;stroke:#000000;stroke-width:0.85;stroke-linecap:round;stroke-linejoin:round;stroke-dasharray:3 1.5;enable-background:new    ;">
	<!ENTITY st1 "fill:none;stroke:#000000;stroke-width:5.1;stroke-linejoin:round;">
	<!ENTITY st2 "fill:none;stroke:#199DBF;stroke-width:1.13;stroke-linejoin:round;">
	<!ENTITY st3 "fill:none;stroke:#000000;stroke-linecap:round;stroke-linejoin:round;">
	<!ENTITY st4 "stroke:#000000;stroke-width:0.28;stroke-linecap:round;stroke-linejoin:round;enable-background:new    ;">
	<!ENTITY st5 "enable-background:new    ;">
		<!ENTITY st6 "fill:none;stroke:#000000;stroke-width:1.42;stroke-linecap:round;stroke-linejoin:round;enable-background:new    ;">
	<!ENTITY st7 "fill:none;stroke:#199DBF;stroke-width:5.1;stroke-linejoin:round;">
	<!ENTITY st8 "opacity:0.5;fill:none;stroke:#34ACCE;stroke-linejoin:round;stroke-dasharray:6;">
	<!ENTITY st9 "fill:none;stroke:#FFFFFF;stroke-width:4.53;stroke-linejoin:round;">
		<!ENTITY st10 "fill:#CFE6E7;stroke:#000000;stroke-width:1.133;stroke-linecap:round;stroke-linejoin:round;enable-background:new    ;">
		<!ENTITY st11 "fill:none;stroke:#000000;stroke-width:0.85;stroke-linecap:round;stroke-linejoin:round;enable-background:new    ;">
	<!ENTITY st12 "font-size:6px;">
	<!ENTITY st13 "fill:none;stroke:#FFFFFF;stroke-width:2.27;stroke-linejoin:round;">
	<!ENTITY st14 "fill:none;stroke:#FB0F0C;stroke-width:1.13;stroke-linejoin:round;">
	<!ENTITY st15 "fill:none;stroke:#168638;stroke-width:5.1;stroke-linejoin:round;">
	<!ENTITY st16 "fill:none;stroke:#000000;stroke-width:1.13;stroke-linejoin:round;">
		<!ENTITY st17 "fill:none;stroke:#000000;stroke-width:1.13;stroke-linecap:round;stroke-linejoin:round;stroke-dasharray:3 1.5;enable-background:new    ;">
	<!ENTITY st18 "fill:#FFFFFF;stroke:#000000;stroke-width:1.41;stroke-linecap:round;stroke-linejoin:round;">
	<!ENTITY st19 "fill:none;stroke:#3E65AC;stroke-width:3;">
	<!ENTITY st20 "fill:#CCCCCC;stroke:#CCCCCC;stroke-width:0.1;stroke-linecap:round;stroke-linejoin:round;">
	<!ENTITY st21 "font-family:'ArialMT';">
	<!ENTITY st22 "opacity:0.5;fill:none;stroke:#34ACCE;stroke-linejoin:round;">
	<!ENTITY st23 "fill:#CFE6E7;stroke:#000000;stroke-width:1.133;stroke-linecap:round;stroke-linejoin:round;">
	<!ENTITY st24 "fill:none;stroke:#99D5E0;stroke-width:5.1;stroke-linejoin:round;">
<!ATTLIST svg
xmlns:ewd CDATA #FIXED "http://shcl.co.jp/ewd"
xmlns:a CDATA #FIXED "http://ns.adobe.com/AdobeSVGViewerExtensions/3.0/"
ewd:ver CDATA #IMPLIED
>
<!ATTLIST a
ewd:lineID CDATA #IMPLIED
ewd:groupID CDATA #IMPLIED
ewd:figtype CDATA #IMPLIED
ewd:code CDATA #IMPLIED
ewd:figID CDATA #IMPLIED
ewd:pinNo CDATA #IMPLIED
ewd:comment CDATA #IMPLIED >
<!ATTLIST g
ewd:lineID CDATA #IMPLIED
ewd:groupID CDATA #IMPLIED
ewd:figtype CDATA #IMPLIED
ewd:code CDATA #IMPLIED
ewd:figID CDATA #IMPLIED
ewd:pinNo CDATA #IMPLIED
ewd:comment CDATA #IMPLIED >
<!ATTLIST text
ewd:textID CDATA #IMPLIED >
<!ATTLIST title
ewd:textID CDATA #IMPLIED >
]>
<svg onload="call_execInitLoadProc_svg('system')"
style='overflow:visible;enable-background:new 0 0 1039.82 729.44'
viewBox='0 0 1039.82 729.44'
height='729.44'
width='1039.82'
xml:space="preserve"
xmlns="&ns_svg;"
xmlns:ewd="http://shcl.co.jp/ewd"
xmlns:a="http://ns.adobe.com/AdobeSVGViewerExtensions/3.0/"
xmlns:xlink="&ns_xlink;" ewd:ver="L2.1">
<style type="text/css">
	<![CDATA[
@font-face{font-family:'ArialMT';src:url("data:;base64,\
T1RUTwADACAAAQAQQ0ZGIAnw574AAAA8AAAYL0dQT1OmwrbkAAAY8AAAAahjbWFwA0cDGgAAGGwA\
AACEAQAEAgABAQEIQXJpYWxNVAABAQE3+BsB+BgEHPqv/S0cEAAcCAwFHqAASIKBJf+Lix6gAEiC\
gSX/i4sMB/dKD/dvEPdxEZMcGCcSAAEBAWVBcmlhbChSKSBUcmFkZW1hcmsgb2YgVGhlIE1vbm90\
eXBlIENvcnBvcmF0aW9uIHBsYyByZWdpc3RlcmVkIGluIHRoZSBVUyBQYXQgJiBUTSBPZmYuIGFu\
ZCBlbHNld2hlcmUuAAABAAEAAAkCAA0OACINADEAADMCADcBAEIEAEgCAEwFAFMDAFgCAAAAPQIA\
AQAbAB4AcQDHASEBSgFYAWUBeQIPAjkCwwOCA6wEMQT5BT8GHwbxBwwHSggBCKgJKglHCWEKHQo7\
CkoKoArNCt4LHgtEC6UMMQ0XDS8NXA3BDqcPJA+nECoQuBF1EcQR4RIPEh4SqxMCE4MUDRRNFSAV\
ehXXFiEWYhbMyveUFhwFAPqUHPsAB/50qxX6VBwEwP5UBg7+HA79q/hz/EMVKPcRN/cnRvc8CEb3\
PGn3QvdIGvczpfcsvvclHsf3Pej3PPcR9zsI9xUGOvsfVihxUGIvayt0Jwhu+xF9+xH7Ehr71e/7\
1Pdb+9QeDv2r95H8QxX7FQb3W/fU7/fU99Ua9xF99xFu9w8edO9s62LnccdV7zr3IAj3FQb3Efs7\
6Ps8x/s9CL77JaX7LPszGvtIaftCRvs8Hkb7PDf7Jyj7EQgO/TjLHAStFbn3IvVm2Gq7cBl+9w2F\
3oq4CPclBolJgzh+KNCu2avkqLn7Ihg2bzh4OoK0aMRM1TD7DDYYZMBe0lbmWi1fQ2Za+wrgGNjq\
w8qsqjWcOZ0+oAgO/hz3Shb3Yfdh+2EHQH5OcF0ecFxhZ1FyWdgYsZyno52snauVuY3ICA79q8z4\
TBX3Sfi9+0kHDv4c904W92H3YfthBw7+HHIE+D0cBewF9yQG/Dwc+hQFDuD5ZxX3QZ33IK/1Hq70\
wN3SxAjE0eOo9hva0Htsxh/Ga7xdslCyT6lCoTYIoTWW+wj7JRr7QHn7H2giHmghVjlFUghRRDJu\
IBv7IfsDvvA6Hyr3Dlv3W/enGvdNFvuFp/s0xDweO8PQY94b3tCz28Qfw9un9zT3hBr3hW/3NVPa\
HtpSRbM3GzhJaEVaH00ybPs5+4UaDvmPFvtIHAR7BmBiUmFFYkRiTGxTdgj3QgfwuuPF1s7WzsHN\
qsoI9wgGDvqb90EV+0H+XQeKtpK1mrOkzbLMwsvBy9nV8t/3M/cX9wDyw9gIw9en088a0nLIWLwe\
vFhIozkbNEZxV1cfV1dxQ4ov+02eGJj3Hrr03tQI0973A6/3Hxv3IfcDZD3dH909tCr7BxpQf1Jz\
Uh5zUmNQVExTTC41+xX7AfsAMEZObGtsanJrd2oIDuH4FxX3SKOgJa5CvV4ZXrzIdNIb4NKoxsYf\
xcao0+Ia3nDPVcEewFVGpjgbaWGEflgfn/cyBYqXlYqSG9jQn7PIH8izqsneGs11wl62HrZeUqFE\
G0VRdV9cH1xfbUl+M/tIqxih9w296NnOCM3Z7Kz3CBvb1Xppzh/OaL9cr1AIrlCdTEgaTHpRaVce\
aVdZYkhs4nfOYrtMCLtMozwsGvsUXPsALjIeMi77Cl77Ixv7FSGx2DYfNtha7n/3DggO+SoW9/P9\
EPc5B/kx+koF9yf+Svda+zn7WvvzBvtI+JgV+SkH/F/9KQUO4PgUFfdRm5kvrEa+XRlcvsh00xvi\
1KzMxx/HzKni9wAa8m7cUsYexlE/qS4bUVd+cVwfXHBnaXBh+z2hGPci+YUF+W37QPzdBjz8HgXI\
4+eq7Bv3FPcAXzLjH+Myt/sG+x8a+xlk+wY+Kh77Cy37FFD7Nxv7GfsBsNY3HzbWW+5/9w8IDvqP\
+ucV+0d9e9J0vm6rGb5aT6VEG1JYe2tgH1JiX05qPGo8evsFivsnts3AvMqrCKvKzJvQG/cM8V8z\
4B/fMrX7BvsgGi93NmQ8HmM8VE5GYQhhRjx2Mxv7KvsOwvcDLB8s9wJc90r3kRr3r7/3YvT3FR73\
BOb3D8P3Lxv3B+prStUf1Eq3Mpr7Bgj9c/0MFU2YUKZSHqVSsGC6bghtur18vxvXzKrIwh/CyKbf\
9BrwcNtVxh7FVUeoORs6Rm5RUh9SUG8/LBoO7BwE+hX3QfpJ+yAHLigu+xgw+zkv+zlE+z1Z+0Jn\
+w90+xqB+yYI+00GjfcHovcgtvc3tvc3yvcy3Pcs3Pcr4fcU5vMIDvf++a8VQKZUsme+CGe+ecfS\
Gvax5NjUHtTY8a/3Exv3FPJmQdkf2UCyMSAaR3lQaFkeZ1hVZEJw5W7QW7pKCLpKoj0wGvsRXyEy\
Nh42MvsIYPslG/sl+wi24TIfMuBf9vcUGuqj27zMHrvL0Lfkoghn98UVRqFSuF8eX7jFddIb0MSh\
t7gft7ahwcoazXTDXrgeuF1SoUcbRlJ1X14fXl90Vk4aUf05FViXWaRbHqNbr2a7cQhwu79+whvh\
0qfCwx/DwqfS4BribtJSxB7EUUOnNBs2RW9TVB9TU29FNxoO9wT35xX3QZuaOqdQtGYZZrTAecwb\
wryYpLUftKStraa2prWhxJ3TCJ3TlNTWGpOLl4qbHmdSWlxNaAhnTEh5Qhv7DSS34zcfN+Nh9wj3\
JBr3Kbf3C+PmHubi9wK49xgb6uNxWNof2ljHQrQsCLQsn/se+0ga+093+yli+wMeYvsDTzY7UQhR\
Oi1u+wAb+wcuq8tCH0LKYOV89wcI+XX5GxXycN1UyB7IVEipPhs7RWpKUB9QSm02Ixoupz/EUR5Q\
w9Bu3hve0KjGwR/Axabc8hoO/hz3TfntFfdh92H7YQf7Yf3tFfdh92H7YQcOIIgW+MccBboF92UG\
+Owc+kYF+3EG+z/4UAX8+Qb7NfxQBfdt+O4V+IUG+y34Klz3D2nxdNoZeC1xLmkuCA4g9yoWHAW6\
+LoH9wTlfG7PH85twF2yTgixTZ5KSBpMelBpVB5pVFheRmnkcc9fu0wIukyjQTYaRn1MblAeblBn\
XWBrYGtWc0t7CHpKPIMuG/wB+eYV99EG4cmRlrAfvJqxo6StCKStl7a+Grx/tnSwHnSwaaRgmQiY\
YECSIhv7uQb+9AT4AQbKt42QpB+4k7CYqZ6pnqSmnq8Inq6VtLoawn26b7Qeb7Nkp1qcCJtZQ5Mu\
G/vnBg6RHAS0+JYV91ZaYvszQvsOIjgZNyH7FWH7LRv7MvsUq8woHyjLP+hY9w4IV/cOcfcX9yAa\
9y2o9xnG9wYexfcF3uL3AMYIxvb3C6j3FRv3J/cPZkDvH+9A0SKy+xv7U14YafZa2Eq8CLxKOqMp\
G/sFLXBVQB8/VVZDbDAIbDB8LSoa+xGd+wCwLh6vLsNF2F0IXdjedOQb9wHnqsrWH9bKvuim9w8I\
DpH3MhYcBbr4jQf3BuKEfccf33jTaMZY2ErFN7ImCLElnvsI+xca+wN+KHE1HnE1akRiU2JSX19b\
a1pqUXNHegh6Rj2DMhv74/dBFffNBuzXlJ3CH8KdtqSsrLm5r8ml2Qik2Jjp9wMa9y1y9wpZ3h5Y\
3U7CQ6cIn1c3lfsHG/vIBg4g9zYWHAW6+rj7Qf32/FX5v/tA/b/8h/oY+0EHDvty9zwWHAW6+nH7\
Qf2v/Fr5RPtB/UT9LgcO9wz54PjTFfdAB/kBjAX8tAcsPyhSJmUIZCYjeCAb+yT7F6rJ+wkf+wrI\
MuRP9wkIT/cJbfcW9yQa9yOp9xnH9xAexvcP4ef3BMcIx/cE9xWp9yYb9et6aeEf4GjOW7xOvE6w\
O6Qo+0NbGHXWcMVqtmq2Xa1OpQikTkiYQRsyP35wSh9KcFdnZF9jX2xbdVYIZjB4KSEa+xei+wG4\
Mx64M8xK4WAIYOHmduwb392brNsf26vIrbSwCPelBw6R9zgWHAW691b87vmO+O73Vhz6RvtW+Uf9\
jv1HBw7+HPdTFhwFuvdWHPpGBw78Vcb4NBX3Q6OQ+wSgPrBiGWKwv3bNG7y1lqKuH66hpKmYsgiY\
sZLI3xr6hvdW/nsH+w98LG5IHm1IXFdLaAhoSkB5NBv7FSmw1UcfRtVq9wKO9yYIDiD3KhYcBbr3\
Vv1rB/ls+WsF95sG/Pv85vkW/fwF+5QG/J75evuE+34F/JAHDvcqFhwFuvdWHPrz+Wb7QQcO9333\
LBYcBbr3uAf37/6iqyqiQ5pbGZzApdqu8vfz+pAY95kc+kb7TxwEywb8Phz7NQX7Qwb8PBwE4AUc\
+yAHDpH3MBYcBbr3Wwf5lhz7gQUcBH/3Thz6RvtbB/2WHASABRz7gAcOIPcyFhwFuvi9B+zWhoK+\
H9N/x3S8arxpslypTgioTppJQhr7EWMiPDUeNDz7JGD7Yxv8DPzoBvmVBPgPBvcR5KK6wB/AuqXM\
4BrIfMBstx5stmKoWJkIlGpPjzMb/AsGDpH3NRYcBbr5Hgf3F+5+cc8fz3DBXbRICLRIn0I6GiNp\
M0hEHkhEI137IXi+crJzpnPEV8BKvj33k/wjGPuIBvtW98VS413OZroZZrprq26ebp5tmG2SCJB1\
Z41ZG/t1/R8G+ccE+DUG5NCUnr0fvZ2xqKW0CKWzmLe6GtByxFm4HrhYPKH7ARv8ZAYOIOf4axX3\
S5uUQp9Pq1wZqly8Zc5uCG7O1nzeG9XMlqHEH8ShtamnsgimsZm1uBq5frNwrh5wrV+oTqJkmjSj\
+xus+xurLalVqEWwV7hpwghowXrIzhrVoNC1zB61y8i83KwIrNzknO4b9wHremjeH95oyle4R7hH\
oz6ONftOfRiB6GnRUroIulE2o/sFG/sJNXZgVh9VYHBXThpWnmCxaR6wae1o9zJo9zFn9wBsxnDg\
ZMpZtE8ItE6fRjwaPXVCXkYeXkZLVThlCGQ3LXgiG/sZ+wOesjIfMbJFxVjZWNhw44jtCA77cvin\
FhwFDfx390EcBIr7Qfx5HPrzBw4g+NUW/MwcBboF92YG+BH+vao2pDugQBmi26Xbqdv4IPq9GPda\
BvzSHPpGBQ74YPgyFvwZHAW6BfdbBvdz/lWjJqAnnCgZsPcxoeWSo/er+nIY934G92b9esD7TLH7\
QaL7Nhme6KP1qfcM93r6Qhj3Vwb8Jhz6RgX7Twb7yfrxceh8xYagGXxIfFF+XPvL/vEYDvnQ9xcV\
SFJLY050CHRNSX9EG/sJMqjETB9MxGzT5Bq/l7ujth6itqqtsqWxpbafu5iulMGU0pT3JZz2oNCj\
CIyki5qSGtR6v2mpHrRdR58wGzZNfG5jH2JtbVZ4QPtEoxib1qXIsLqwucCv0KQIpNDcl+Yb5tSA\
dsQfxHa0cKZrpmqdYpZaCJFsjlQ7GvuEB/s7jyGTXx6SXpphomII+1AGeLB/t4a9CHz4JhVKcCl1\
+xd4QYBXf2x+bH50d3pyCHpxg25sGludY7BrHmuvwHvRG9DJmqrBH8Gps7SkwAietJXH2hoO98EW\
+zscBbr3SPyfBurX7Lv3ChvMyX5xxh/FcLtmsVywW6lRoEgIoEiWQz4a+0pe+yExKB4oMfsAWfsS\
G/sRKL/0RB+J+CoV+xOcL65SHi7E113sG9rPrdDEH8TPqPH3Gxr3H3DxVM0ezVRIrD0bPEdpR1If\
UkZuKPsVGg78VfnQ+BkV90V0ePsOWSw8RhlGOylo+wgb+yX7CbvqMx8y6l/3HPdFGvcHnu+x4R6x\
4cXM2bYIttjgoOYb9wfqblHUH9RQujigIPtDcBh60m7BYa8Ir2BYnU8bMEJrSlIfUkpvJPshGvsj\
piTCSh5KwtJr4xvSxqG2uh+6tqnOmOUIDvnMFvcaByJIKFb7Fxs2PqK6RB9EulTMZN8IZN536/cB\
GvWd667iHq7hwM3SuQi50tqi4hvLxH5wvR+9cLRnqmAI+KL3Rxz6Rgf9dPimFfscqCXESB5IxM9p\
2RvazqvMwh/Cy6bt9xga9yVv9lPPHs9TRq05GztIakpWH1VKcCT7IRoO+fL36hX3TnRu+wFUNzxP\
GU88JW37Dxv7L/sPu+swHzDqXfca90Ea90e59x7n7h7u5/cLvPcnG/ci9whbKuUf5Sq4+xz7QxqA\
i3uKdh79rAaS+wmsMsZNCE3G1WzkG83DnK66H7qusMKm1wj84/e3FfjlBoPkdM5muAjQUkCuMBs4\
Rm9UUx9SVGxBhS4IDvEzFfdDcZJVoGSschlquMh62BvezJysuB+4rKq6m8eUsJDYivcJCC48KV37\
CRv7JvsFwPQ7Hzv0Y/cT9yca8J3psOEesODAzdG6CLrQ3aLpG/cR81gm3B/3FPc6/ioH+zl6+wpq\
Rx5pRlZUQmMIY0IxdyAb+xMlp8U9Hz3EZeCO9wcI9yn5EhX7H6clwkseS8LRa94b3tCry8Mfw8qn\
7/ccGvcWbu1SzR7NUUWsOhs7R2tKUx9TSm8q+xQaDvcbFhwFuvdI/KIH7N/1vPcUG9rPfGzFH8Vs\
tWCkVAikVJc8Ixr9NftI+TUH5XjNZLQetGRTn0QbVll9cFwfXG9pZXdcCHdcgUk4GvzZBw7+jvcc\
HATrFfdj90j7Ywf7SBz7FRX6uvdI/roHDvxV9xwWHAW690j92Af4PvhEBfd9Bvwq/B74U/0wBfty\
Bvvz+LP7E/sOBfw5Bw7+jvcXFhwFuvdIHPpGBw73ffcbFvq69zX7KQesv7i1wqsIqsLKm9Ib2st7\
ar4fvWquXqBQCPcQ3/cByfcbG/TcblHEH8RQpzH7DRr9bftH+TEH04W/gKsef6p2pWyeCJ5sZ5Vi\
G0BNclpaH1pZcjv7ARr8/ftI+UYH23zHbrMes25bn0gbWF1+cGAfYHBrZHhYCHhYgUEqGvy7Bw73\
Gxb6uvc2+ysH9wnZ9wXF9ycby8aAdMEfwHSzbKZmpmadXpZYCJJqjlA4Gv0h+0j5GgfUhMJ9sB59\
r3KoaKEIoGdhllsbPklzWlQfU1pvL/scGvzYBw7P+KcV91nC9yX3Aeoe2ub3BLL3Fxv3JvcLWyzo\
H+grufsY+z0a+x13IGI9HmI8T049YAhgPDZ1Lhv7KfsMu+owHy/qXfce90ca900W+xypJcZIHkfG\
1mnlG+TWrc/GH8bPqfP3Hxr3F23vUM8ezk9BrTIbMUBpSFAfUEhtJfscGg73G/wrFRwFvfc4+x4H\
ssG2tLymCKa8xpjQG+bbdFzQH9BcwEquNgiuNp0tJhr7AXgqZDQeZDRSSEFdCFxAPXQ5G09VmKRc\
H1ukZKtssgj8mQd6+jgV+x2nJsJKHkrCzmraG9vQrc/EH8TOp/T3Ihr3G2/xVM4ezlNIrT4bPkhn\
RFAfUENtI/sdGg79q/cZFvq69zb7NQe01rK9rqMIo66xl7UbyMh4ZMofTfs7BaVfX5hfG2Rnf3Rs\
H2xzdGp+YQh3S4FFPxr8wAcO/FXK99EV90anlUSnVLllGWW4y3jdG97InK2zH7Osn7O4GrR5q2ii\
HnKbTp8ppPsYrDCoWKRYo2StcbYIcLZ+ur8aupa3obQeoLOprLCmp6CxnLyaCJm7v5LCG97Vf3PK\
H8pzuWupYqlioFSWRvtEcxiDwnS1ZaoIqmRVmkUbOFB9cGgfaHB5a2YadJJ2mngemniie6p+nYTA\
fONz9xNp5G++dr11smuoYgioYplXThpPelNoVh5oVlhiSW4IbklAfDgb+x4iqMRDH0LEXeB39wUI\
Dv4c+KT3NRWl+zMFgFhehmMbSliVoGcfZ6BypnytCHyshNL3ABr49/sY9yD3GPebB/dH9wAF/Af3\
Sfsg+0n9AQdYjmqSfB6RfJWAmoIIgpmfh6Ybn6WNkKwfDvnTFvcwB/sMOPsET/siG0xRl6NVH1Sj\
Y6lxsHCvebeAwAiErofD2Br5JvdI/OEHLY9MkmoellyjZrBwCHCwuH3BG8G+mae6H7qmrbGfuwie\
upXQ5hr4zfdI/roHDpH33xb72fq6BfdOBvc9/PnK+3iOlp3UrfcbGfc9+QIF900G9zP8/MD7X8j3\
YfdK+PoF90MG++D+ugX7Twb7PfkQYvdJ+2v9xQUO/FWaFvgY+Lz7+/iSBfd1Bvc3+42qXKNjnmsZ\
qLemsqSt90f3jxj3awb8A/yI+B/8xgX7cQb7bvfeUeT7q/w3BQ78VfcT/C0Vd/c9BYCyroaoG7Or\
kpijH6OYn56ao5adnrik0o6VkZqSnvwn+rwY91YG93H8+6g9pDmiNRmg3qPbqNr3d/j/GPdIBvwo\
/sxg+wlpO3NfGWtQZl9icAhvYll9UhtoZZKaYB8OHARzFBwFwRUAAAAAAQAAAAMAAAAMAAQAeAAA\
ABoAEAADAAoAIAAqADoATgBQAFQAVwBlAGkAcAB1AHn//wAAACAAKAAsAEEAUABSAFYAYQBnAGsA\
cgB3////4f/a/9n/0//S/9H/0P/H/8b/xf/E/8MAAQAAAAAAAAAAAAAAAAAAAAAAAAAAAAAAAAAA\
AAEAAAAKAB4ALAABREZMVAAIAAQAAAAA//8AAQAAAAFrZXJuAAgAAAABAAAAAQAEAAIAAAABAAgA\
AQFSAAQAAAANACQALgA0AE4AXAByAIQAkgDUAQYBNAE+AUgAAgAU/48AJf/bAAEACv9oAAYAAf+P\
ACX/aAAm/2gAJ/+0ADr/2wA8/9sAAwAF/x0AB/8dABT/jwAFAAH/tAAl/2gAJv9oACf/aAA8/7QA\
BAAB/9sABf74AAf++AAU/2gAAwAl/9sAJv/bACf/2wAQAAH/2wAF/x0ABv+PAAf/HQAT/x0AFP9o\
ACj/HQAq/x0ALP8dAC//tAA0/x0ANv+0ADf/HQA5/7QAOv+PADz/jwAMAAX/RAAG/48AB/9EABP/\
tAAU/2gAKP9oACz/jwAv/9sANP+PADb/tAA5/7QAPP+0AAsABf+PAAb/2wAH/48AE//bABT/tAAo\
/7QALP/bADT/2wA2/9sAOf/bADz/7gACAAX/jwAH/48AAgAF/48AB/+PAAIABf9oAAf/aAABAA0A\
	]]>
	</style>
<script type="text/javascript" xlink:href="../../../../../system/js/ewd/fig/svgfig.js"/>
<defs>
<font horiz-adv-x="1229">
<font-face font-family="Svg Symbol" units-per-em="2048" panose-1="5 5 1 2 1 7 6 2 5 7" ascent="2059" descent="450" alphabetic="0"/>
<missing-glyph d="M 103,0 l 0,1280 1024,0 0,-1280 -1024,0 z m 32,32 l 960,0 0,1216 -960,0 0,-1216 z"/>
<glyph unicode="&#xF057;" horiz-adv-x="1573" d="M 1517,0 l -567,0 24,279 q 141,59 207.5,168 66.5,109 66.5,306    0,272 -132.5,417.5 -132.5,145.5 -333.5,145.5 -194,0 -328,-147.5 -134,-147.5 -134,-401.5 0,-200 68.5,-319 68.5,-119     206.5,-169 l 25,-279 -564,0 0,279 35,0 q 3,-61 32,-83 45,-35 137,-35 l 270,0 0,70 q -210,61 -324.5,209 -114.5,148     -114.5,349 0,252 186.5,425 186.5,173 504.5,173 195,0 358.5,-73.5 163.5,-73.5 252,-214.5 88.5,-141 88.5,-310 0,-207     -121.5,-360.5 -121.5,-153.5 -317.5,-197.5 l -8,-70 275,0 q 92,0 128,28 36,28 42,90 l 38,0 0,-279 z"/>
</font>
</defs>
<g id="ewd_top">
<a ewd:lineID="2" style="cursor:pointer;">
    <path style="&st7;" d="M 36.99 , 107.54 L 36.99 , 152.05"/>
</a>
<a ewd:lineID="1" style="cursor:pointer;">
    <path style="&st7;" d="M 36.99 , 167.03 L 36.99 , 192.52 L 189.97 , 192.52"/>
</a>
<a ewd:lineID="3" style="cursor:pointer;">
    <path style="&st15;" d="M 138.97 , 107.54 L 138.97 , 141.53 L 189.97 , 141.53"/>
</a>
<a ewd:lineID="5" style="cursor:pointer;">
    <path style="&st24;" d="M 249.46 , 158.53 L 699.88 , 158.53 L 699.88 , 175.53"/>
</a>
<a ewd:lineID="4" style="cursor:pointer;">
    <path style="&st7;" d="M 249.46 , 209.52 L 317.44 , 209.52 L 317.44 , 252.01"/>
</a>
<a ewd:lineID="6" style="cursor:pointer;">
    <path style="&st7;" d="M 317.44 , 266.74 L 317.44 , 303.01"/>
</a>
<a ewd:lineID="18" style="cursor:pointer;">
    <path style="&st1;" d="M 28.49 , 549.46 L 28.49 , 540.97 L 11.5 , 523.97 L 11.5 , 421.99 L 155.97 , 421.99 L 155.97 , 523.97 L 138.97 , 540.97 L 138.97 , 547.2"/><path style="&st13;" d="M 28.49 , 549.46 L 28.49 , 540.97 L 11.5 , 523.97 L 11.5 , 421.99 L 155.97 , 421.99 L 155.97 , 523.97 L 138.97 , 540.97 L 138.97 , 547.2"/><path style="&st2;" d="M 28.49 , 549.46 L 28.49 , 540.97 L 11.5 , 523.97 L 11.5 , 421.99 L 155.97 , 421.99 L 155.97 , 523.97 L 138.97 , 540.97 L 138.97 , 547.2"/>
</a>
<a ewd:lineID="19" style="cursor:pointer;">
    <path style="&st1;" d="M 28.49 , 549.46 L 28.49 , 540.97 L 45.49 , 523.97 L 45.49 , 455.98 L 121.98 , 455.98 L 121.98 , 523.97 L 138.97 , 540.97 L 138.97 , 547.2"/>
</a>
<a ewd:lineID="22" style="cursor:pointer;">
    <path style="&st1;" d="M 266.45 , 421.99 L 266.45 , 430.48 L 240.96 , 438.98 L 181.47 , 438.98 L 181.47 , 481.48"/>
</a>
<a ewd:lineID="25" style="cursor:pointer;">
    <path style="&st1;" d="M 266.45 , 421.99 L 266.45 , 430.48 L 249.46 , 447.48 L 223.96 , 447.48 L 223.96 , 481.48"/>
</a>
<a ewd:lineID="28" style="cursor:pointer;">
    <path style="&st1;" d="M 266.45 , 421.99 L 266.45 , 483.74"/>
</a>
<a ewd:lineID="27" style="cursor:pointer;">
    <path style="&st1;" d="M 266.45 , 421.99 L 266.45 , 430.48 L 274.95 , 438.98 L 308.95 , 438.98 L 308.95 , 483.74"/>
</a>
<a ewd:lineID="21" style="cursor:pointer;">
    <path style="&st1;" d="M 181.47 , 496.21 L 181.47 , 540.97 L 215.46 , 540.97 L 223.96 , 549.46 L 223.96 , 556.26"/>
</a>
<a ewd:lineID="26" style="cursor:pointer;">
    <path style="&st1;" d="M 223.96 , 496.21 L 223.96 , 556.26"/>
</a>
<a ewd:lineID="24" style="cursor:pointer;">
    <path style="&st1;" d="M 266.45 , 498.47 L 266.45 , 532.47 L 240.96 , 532.47 L 223.96 , 549.46 L 223.96 , 556.26"/>
</a>
<a ewd:lineID="23" style="cursor:pointer;">
    <path style="&st1;" d="M 308.95 , 498.47 L 308.95 , 540.97 L 240.96 , 540.97 L 223.96 , 549.46 L 223.96 , 556.26"/>
</a>
<a ewd:lineID="29" style="cursor:pointer;">
    <path style="&st1;" d="M 342.94 , 421.99 L 342.94 , 532.47"/><path style="&st9;" d="M 342.94 , 421.99 L 342.94 , 532.47"/><path style="&st16;" d="M 342.94 , 421.99 L 342.94 , 532.47"/>
</a>
<a ewd:lineID="30" style="cursor:pointer;">
    <path style="&st1;" d="M 342.94 , 549.46 L 342.94 , 685.44"/><path style="&st9;" d="M 342.94 , 549.46 L 342.94 , 685.44"/><path style="&st16;" d="M 342.94 , 549.46 L 342.94 , 685.44"/>
</a>
<a ewd:lineID="7" style="cursor:pointer;">
    <path style="&st1;" d="M 342.94 , 303.01 L 342.94 , 252.01 L 402.43 , 252.01"/><path style="&st9;" d="M 342.94 , 303.01 L 342.94 , 252.01 L 402.43 , 252.01"/>
</a>
<a ewd:lineID="8" style="cursor:pointer;">
    <path style="&st1;" d="M 895.35 , 549.46 L 895.35 , 617.45 L 393.93 , 617.45 L 393.93 , 286.01 L 410.93 , 269.01 L 410.93 , 260.51"/><path style="&st9;" d="M 895.35 , 549.46 L 895.35 , 617.45 L 393.93 , 617.45 L 393.93 , 286.01 L 410.93 , 269.01 L 410.93 , 260.51"/>
</a>
<a ewd:lineID="9" style="cursor:pointer;">
    <path style="&st1;" d="M 784.87 , 465.61 L 784.87 , 600.46 L 410.93 , 600.46 L 410.93 , 260.51"/><path style="&st9;" d="M 784.87 , 465.61 L 784.87 , 600.46 L 410.93 , 600.46 L 410.93 , 260.51"/>
</a>
<a ewd:lineID="10" style="cursor:pointer;">
    <path style="&st1;" d="M 419.43 , 252.01 L 623.39 , 252.01 L 623.39 , 279.49"/><path style="&st9;" d="M 419.43 , 252.01 L 623.39 , 252.01 L 623.39 , 279.49"/>
</a>
<a ewd:lineID="11" style="cursor:pointer;">
    <path style="&st1;" d="M 623.39 , 303.01 L 623.39 , 344.93"/><path style="&st9;" d="M 623.39 , 303.01 L 623.39 , 344.93"/>
</a>
<a ewd:lineID="31" style="cursor:pointer;">
    <path style="&st1;" d="M 623.39 , 397.06 L 623.39 , 532.47 L 682.88 , 532.47 L 682.88 , 506.97"/><path style="&st9;" d="M 623.39 , 397.06 L 623.39 , 532.47 L 682.88 , 532.47 L 682.88 , 506.97"/>
</a>
<a ewd:lineID="32" style="cursor:pointer;">
    <path style="&st1;" d="M 699.88 , 397.06 L 699.88 , 455.98"/>
</a>
<a ewd:lineID="13" style="cursor:pointer;">
    <path style="&st1;" d="M 699.88 , 311.5 L 699.88 , 344.93"/>
</a>
<a ewd:lineID="12" style="cursor:pointer;">
    <path style="&st1;" d="M 699.88 , 226.52 L 699.88 , 260.51"/>
</a>
<a ewd:lineID="15" style="cursor:pointer;">
    <path style="&st1;" d="M 784.87 , 226.52 L 784.87 , 260.51"/>
</a>
<a ewd:lineID="16" style="cursor:pointer;">
    <path style="&st1;" d="M 784.87 , 283.74 L 784.87 , 286.01 L 793.37 , 294.51 L 895.35 , 294.51 L 895.35 , 311.5"/>
</a>
<a ewd:lineID="14" style="cursor:pointer;">
    <path style="&st1;" d="M 784.87 , 283.74 L 784.87 , 395.36"/>
</a>
<a ewd:lineID="17" style="cursor:pointer;">
    <path style="&st1;" d="M 895.35 , 334.73 L 895.35 , 413.49"/>
</a>
<a ewd:lineID="33" style="cursor:pointer;">
    <path style="&st1;" d="M 895.35 , 447.48 L 895.35 , 525.95"/><path style="&st9;" d="M 895.35 , 447.48 L 895.35 , 525.95"/>
</a>
<a ewd:lineID="20" style="cursor:pointer;">
    <path style="&st1;" d="M 28.49 , 549.46 L 28.49 , 438.98 L 138.97 , 438.98 L 138.97 , 547.2"/><path style="&st13;" d="M 28.49 , 549.46 L 28.49 , 438.98 L 138.97 , 438.98 L 138.97 , 547.2"/><path style="&st14;" d="M 28.49 , 549.46 L 28.49 , 438.98 L 138.97 , 438.98 L 138.97 , 547.2"/>
</a>
<a ewd:code="AC3" ewd:figtype="w2w" style="cursor:pointer;" ewd:figID="6009">
    <path style="&st18;" d="M189.97,481.48h-17v8.49h17V481.48"/>
<text transform="matrix(1 0 0 1 175.6343 488.2163)" style="&st5;"><tspan x="0" y="0" style="&st21; &st12;">AC3</tspan></text>
</a>
<a ewd:code="AC2" ewd:figtype="w2w" style="cursor:pointer;" ewd:figID="6010">
    <path style="&st18;" d="M232.46,481.48h-17v8.49h17V481.48"/>
<text transform="matrix(1 0 0 1 218.124 488.2163)" style="&st5;"><tspan x="0" y="0" style="&st21; &st12;">AC2</tspan></text>
</a>
<a ewd:code="CA1" ewd:figtype="w2w" style="cursor:pointer;" ewd:figID="6011">
    <path style="&st18;" d="M274.95,489.97h-17v8.5h17V489.97"/>
<text transform="matrix(1 0 0 1 260.6143 496.7163)" style="&st5;"><tspan x="0" y="0" style="&st21; &st12;">CA1</tspan></text>
</a>
<a ewd:code="DA1" ewd:figtype="w2w" style="cursor:pointer;" ewd:figID="6012">
    <path style="&st18;" d="M317.44,489.97h-16.99v8.5h16.99V489.97"/>
<text transform="matrix(1 0 0 1 303.1094 496.7163)" style="&st5;"><tspan x="0" y="0" style="&st21; &st12;">DA1</tspan></text>
</a>
<a ewd:code="GA4" ewd:figtype="w2w" style="cursor:pointer;" ewd:figID="6002">
    <path style="&st18;" d="M325.94,252.01h-16.99v8.5h16.99V252.01"/>
<text transform="matrix(1 0 0 1 311.4424 258.7568)" style="&st5;"><tspan x="0" y="0" style="&st21; &st12;">GA4</tspan></text>
</a>
<a ewd:code="Ar3" ewd:figtype="w2w" style="cursor:pointer;" ewd:figID="6014">
    <path style="&st18;" d="M903.85,540.97h-17v8.49h17V540.97"/>
<text transform="matrix(1 0 0 1 890.6812 547.7065)" style="&st5;"><tspan x="0" y="0" style="&st21; &st12;">Ar3</tspan></text>
</a>
<a ewd:code="Ar1" ewd:figtype="w2w" style="cursor:pointer;" ewd:figID="6013">
    <path style="&st18;" d="M903.85,532.47h-17v8.5h17V532.47"/>
<text transform="matrix(1 0 0 1 890.6812 539.2065)" style="&st5;"><tspan x="0" y="0" style="&st21; &st12;">Ar1</tspan></text>
</a>
<a ewd:code="Ar1" ewd:figtype="w2w" style="cursor:pointer;" ewd:figID="6008">
    <path style="&st18;" d="M903.85,320h-17v8.5h17V320"/>
<text transform="matrix(1 0 0 1 890.6812 326.7466)" style="&st5;"><tspan x="0" y="0" style="&st21; &st12;">Ar1</tspan></text>
</a>
<a ewd:code="Ar3" ewd:figtype="w2w" style="cursor:pointer;" ewd:figID="6007">
    <path style="&st18;" d="M903.85,311.5h-17v8.5h17V311.5"/>
<text transform="matrix(1 0 0 1 890.6812 318.2466)" style="&st5;"><tspan x="0" y="0" style="&st21; &st12;">Ar3</tspan></text>
</a>
<a ewd:code="GA4" ewd:figtype="w2w" style="cursor:pointer;" ewd:figID="6001">
    <path style="&st18;" d="M45.49,158.53h-17v8.5h17V158.53"/>
<text transform="matrix(1 0 0 1 30.9873 165.2666)" style="&st5;"><tspan x="0" y="0" style="&st21; &st12;">GA4</tspan></text>
</a>
<a ewd:code="GA2" ewd:figtype="w2w" style="cursor:pointer;" ewd:figID="6004">
    <path style="&st18;" d="M631.89,294.51h-17v8.5h17V294.51"/>
<text transform="matrix(1 0 0 1 617.3872 301.2466)" style="&st5;"><tspan x="0" y="0" style="&st21; &st12;">GA2</tspan></text>
</a>
<a ewd:code="GA6" ewd:figtype="w2w" style="cursor:pointer;" ewd:figID="6003">
    <path style="&st18;" d="M631.89,286.01h-17v8.5h17V286.01"/>
<text transform="matrix(1 0 0 1 617.3872 292.7466)" style="&st5;"><tspan x="0" y="0" style="&st21; &st12;">GA6</tspan></text>
</a>
<a ewd:code="GA6" ewd:figtype="w2w" style="cursor:pointer;" ewd:figID="6005">
    <path style="&st18;" d="M793.37,260.51h-17v8.5h17V260.51"/>
<text transform="matrix(1 0 0 1 778.8677 267.2568)" style="&st5;"><tspan x="0" y="0" style="&st21; &st12;">GA6</tspan></text>
</a>
<a ewd:code="GA2" ewd:figtype="w2w" style="cursor:pointer;" ewd:figID="6006">
    <path style="&st18;" d="M793.37,269.01h-17v8.5h17V269.01"/>
<text transform="matrix(1 0 0 1 778.8677 275.7466)" style="&st5;"><tspan x="0" y="0" style="&st21; &st12;">GA2</tspan></text>
</a>
<a ewd:code="1" ewd:figtype="rb" style="cursor:pointer;" ewd:figID="4002">
    <path style="&st23;" d="M351.44,345.5h-42.49v33.99h42.49V345.5"/>
</a>
<a ewd:code="FUSE55,FUSE50" ewd:figtype="rb" style="cursor:pointer;" ewd:figID="4001">
    <path style="&st23;" d="M24.24,39.55v42.49h25.5V39.55H24.24"/>
</a>
<a ewd:code="3JB" ewd:figtype="jb" style="cursor:pointer;" ewd:figID="3002">
    <path style="&st20;" d="M682.88,175.53v50.99h110.49v-50.99H682.88"/>
</a>
<a ewd:code="4JB" ewd:figtype="jb" style="cursor:pointer;" ewd:figID="3003">
    <path style="&st20;" d="M682.88,260.51v50.99h25.5v-50.99H682.88"/>
</a>
<a ewd:code="2" ewd:figtype="jb" style="cursor:pointer;" ewd:figID="3001">
    <path style="&st20;" d="M121.98,39.55v67.99h50.99V39.55H121.98"/>
</a>
<a ewd:code="A1" ewd:figtype="gp" style="cursor:pointer;" ewd:figID="2001">
    <path style="&st18;" d="M332.32,685.44h21.24l-10.62,15.58L332.32,685.44"/>
<text transform="matrix(1 0 0 1 338.8096 693.5972)" style="&st5;"><tspan x="0" y="0" style="&st21; &st12;">A1</tspan></text>
</a>
<a ewd:code="FUSE55,FUSE50" ewd:figtype="fuse" style="cursor:pointer;" ewd:figID="1001">
    <path style="&st6;" d="M24.24,39.55v42.49h25.5V39.55H24.24"/>
</a>
<a ewd:code="FUSE66" ewd:figtype="fuse" style="cursor:pointer;" ewd:figID="1002">
    <path style="&st6;" d="M126.23,39.55v42.49h25.49V39.55H126.23"/>
</a>
<a ewd:code="G2" ewd:figtype="conn" style="cursor:pointer;" ewd:figID="1">
    <path style="&st23;" d="M189.97,226.52h59.49V107.54h-59.49V226.52"/>
<title ewd:textID="7">Ignition or Starter Switch Assembly</title>
</a>
<a ewd:code="A65" ewd:figtype="conn" style="cursor:pointer;" ewd:figID="2">
    <path style="&st23;" d="M402.43,243.52v16.99h17v-16.99H402.43"/>
<title ewd:textID="8">Junction Connector</title>
</a>
<a ewd:code="C66,C95,D1,D2,D4,D5,D6" ewd:figtype="conn" style="cursor:pointer;" ewd:figID="4">
    <path style="&st23;" d="M257.95,642.95H121.98v-59.49h135.97V642.95"/>
<title ewd:textID="11">Starter Assembly</title>
</a>
<a ewd:code="A70" ewd:figtype="conn" style="cursor:pointer;" ewd:figID="5">
    <path style="&st23;" d="M334.44,532.47h17v16.99h-17V532.47"/>
<title ewd:textID="8">Junction Connector</title>
</a>
<a ewd:code="C49,G107" ewd:figtype="conn" style="cursor:pointer;" ewd:figID="3">
    <path style="&st23;" d="M614.89,354v33.99h93.49V354H614.89"/>
<title ewd:textID="8">Junction Connector</title>
</a>
<a ewd:code="C40" ewd:figtype="conn" style="cursor:pointer;" ewd:figID="6">
    <path style="&st23;" d="M657.39,455.98h50.99v50.99h-50.99V455.98"/>
<title ewd:textID="9">Park/Neutral Position Switch</title>
</a>
<a ewd:code="A40,A41" ewd:figtype="conn" style="cursor:pointer;" ewd:figID="7">
    <path style="&st23;" d="M793.37,447.48v-33.99h-17v33.99H793.37"/>
<title ewd:textID="6">Clutch Start Switch Assembly</title>
</a>
<a ewd:code="r1" ewd:figtype="conn" style="cursor:pointer;" ewd:figID="8">
    <path style="&st23;" d="M903.85,447.48v-33.99h-17v33.99H903.85"/>
<title ewd:textID="6">Clutch Start Switch Assembly</title>
</a>
<g ewd:code="AC3" ewd:figID="6009" ewd:figtype="w2w" ewd:pinNo="10">
    <path style="&st6;" d="M189.97,489.97h-8.5"/><path style="&st6;" d="M185.72,499.04l-4.25-4.25l-4.25,4.25"/><path style="&st6;" d="M185.72,495.64l-4.25-4.25l-4.25,4.25"/>
    <text transform="matrix(1 0 0 1 163.2964 487.687)" style="&st5;"><tspan x="0" y="0" style="&st21; &st12;">10</tspan></text>
</g>
<g ewd:code="AC2" ewd:figID="6010" ewd:figtype="w2w" ewd:pinNo="6">
    <path style="&st6;" d="M232.46,489.97h-8.5"/><path style="&st6;" d="M228.21,499.04l-4.25-4.25l-4.25,4.25"/><path style="&st6;" d="M228.21,495.64l-4.25-4.25l-4.25,4.25"/>
    <text transform="matrix(1 0 0 1 209.123 487.687)" style="&st5;"><tspan x="0" y="0" style="&st21; &st12;">6</tspan></text>
</g>
<g ewd:code="CA1" ewd:figID="6011" ewd:figtype="w2w" ewd:pinNo="6">
    <path style="&st6;" d="M257.95,489.97h8.5"/><path style="&st6;" d="M262.2,480.91l4.25,4.25l4.25-4.25"/><path style="&st6;" d="M270.7,484.31l-4.25,4.25l-4.25-4.25"/>
    <text transform="matrix(1 0 0 1 251.6133 496.187)" style="&st5;"><tspan x="0" y="0" style="&st21; &st12;">6</tspan></text>
</g>
<g ewd:code="DA1" ewd:figID="6012" ewd:figtype="w2w" ewd:pinNo="3">
    <path style="&st6;" d="M300.45,489.97h8.5"/><path style="&st6;" d="M304.7,480.91l4.25,4.25l4.25-4.25"/><path style="&st6;" d="M313.2,484.31l-4.25,4.25l-4.25-4.25"/>
    <text transform="matrix(1 0 0 1 294.1133 496.187)" style="&st5;"><tspan x="0" y="0" style="&st21; &st12;">3</tspan></text>
</g>
<g ewd:code="GA4" ewd:figID="6002" ewd:figtype="w2w" ewd:pinNo="1">
    <path style="&st6;" d="M325.94,260.51h-8.5"/><path style="&st6;" d="M321.69,266.18l-4.25-4.25l-4.24,4.25"/><path style="&st6;" d="M321.69,269.36l-4.25-4.25l-4.24,4.25"/><path style="&st6;" d="M321.69,269.58l-4.25-4.25l-4.24,4.25"/>
    <text transform="matrix(1 0 0 1 302.6133 258.2266)" style="&st5;"><tspan x="0" y="0" style="&st21; &st12;">1</tspan></text>
</g>
<g ewd:code="Ar3" ewd:figID="6014" ewd:figtype="w2w" ewd:pinNo="2">
    <text transform="matrix(1 0 0 1 880.5122 547.1772)" style="&st5;"><tspan x="0" y="0" style="&st21; &st12;">2</tspan></text>
</g>
<g ewd:code="Ar1" ewd:figID="6013" ewd:figtype="w2w" ewd:pinNo="2">
    <path style="&st6;" d="M886.85,532.47h8.5"/><path style="&st6;" d="M899.6,526.8l-4.25,4.25l-4.25-4.25"/><path style="&st6;" d="M891.1,523.4l4.25,4.25l4.25-4.25"/>
    <text transform="matrix(1 0 0 1 880.5122 538.687)" style="&st5;"><tspan x="0" y="0" style="&st21; &st12;">2</tspan></text>
</g>
<g ewd:code="Ar1" ewd:figID="6008" ewd:figtype="w2w" ewd:pinNo="3">
    <path style="&st6;" d="M903.85,328.5h-8.5"/><path style="&st6;" d="M899.6,334.17l-4.25-4.25l-4.25,4.25"/><path style="&st6;" d="M899.6,337.57l-4.25-4.25l-4.25,4.25"/>
    <text transform="matrix(1 0 0 1 880.5122 326.2168)" style="&st5;"><tspan x="0" y="0" style="&st21; &st12;">3</tspan></text>
</g>
<g ewd:code="Ar3" ewd:figID="6007" ewd:figtype="w2w" ewd:pinNo="3">
    <text transform="matrix(1 0 0 1 880.5122 317.7168)" style="&st5;"><tspan x="0" y="0" style="&st21; &st12;">3</tspan></text>
</g>
<g ewd:code="GA4" ewd:figID="6001" ewd:figtype="w2w" ewd:pinNo="2">
    <path style="&st6;" d="M36.99,157.11l-4.25-4.24"/><path style="&st6;" d="M41.24,152.87l-4.25,4.24"/><path style="&st6;" d="M32.74,149.47l4.25,4.25l4.25-4.25"/>
    <text transform="matrix(1 0 0 1 22.1533 164.7466)" style="&st5;"><tspan x="0" y="0" style="&st21; &st12;">2</tspan></text>
</g>
<g ewd:code="GA2" ewd:figID="6004" ewd:figtype="w2w" ewd:pinNo="33">
    <text transform="matrix(1 0 0 1 605.2163 300.7266)" style="&st5;"><tspan x="0" y="0" style="&st21; &st12;">33</tspan></text>
</g>
<g ewd:code="GA6" ewd:figID="6003" ewd:figtype="w2w" ewd:pinNo="34">
    <path style="&st6;" d="M614.89,286.01h8.5"/><path style="&st6;" d="M627.64,280.34l-4.25,4.25l-4.25-4.25"/><path style="&st6;" d="M619.14,276.94l4.25,4.25l4.25-4.25"/>
    <text transform="matrix(1 0 0 1 605.2163 292.2266)" style="&st5;"><tspan x="0" y="0" style="&st21; &st12;">34</tspan></text>
</g>
<g ewd:code="GA6" ewd:figID="6005" ewd:figtype="w2w" ewd:pinNo="52">
    <text transform="matrix(1 0 0 1 766.6968 266.7266)" style="&st5;"><tspan x="0" y="0" style="&st21; &st12;">52</tspan></text>
</g>
<g ewd:code="GA2" ewd:figID="6006" ewd:figtype="w2w" ewd:pinNo="48">
    <path style="&st6;" d="M793.37,277.51h-8.5"/><path style="&st6;" d="M789.12,283.18l-4.25-4.25l-4.25,4.25"/><path style="&st6;" d="M789.12,286.57l-4.25-4.24l-4.25,4.24"/>
    <text transform="matrix(1 0 0 1 766.6968 275.2266)" style="&st5;"><tspan x="0" y="0" style="&st21; &st12;">48</tspan></text>
</g>
<g ewd:code="1" ewd:figID="4002" ewd:figtype="rb">
    <path style="&st6;" d="M317.44,372.41l-5.66-22.66"/><path style="&st11;" d="M317.44,379.49v-4.25"/><path style="&st11;" d="M317.44,349.75v-4.25"/><path style="&st11;" d="M342.94,345.5v8.5"/><path style="&st11;" d="M342.94,370.99v8.5"/><path style="&st6;" d="M319.57,303.01h-4.25"/><path style="&st6;" d="M319.57,311.5h-4.25"/><path style="&st6;" d="M345.07,303.01h-4.25"/><path style="&st6;" d="M345.07,311.5h-4.25"/><path style="&st6;" d="M268.58,413.49h-4.25"/><path style="&st6;" d="M268.58,421.99h-4.25"/><path style="&st6;" d="M345.07,413.49h-4.25"/><path style="&st6;" d="M345.07,421.99h-4.25"/><path style="&st6;" d="M351.44,345.5h-42.49v33.99h42.49V345.5"/><path style="&st4;" d="M317.44,316.4l2.84,2.83v-4.25l-2.84-2.83l-2.83,2.83v4.25L317.44,316.4"/><path style="&st4;" d="M342.94,316.4l2.83,2.83v-4.25l-2.83-2.83l-2.83,2.83v4.25L342.94,316.4"/><path style="&st4;" d="M266.45,408.59l-2.83-2.83v4.25l2.83,2.83l2.84-2.83v-4.25L266.45,408.59"/><path style="&st4;" d="M342.94,408.59l-2.83-2.83v4.25l2.83,2.83l2.83-2.83v-4.25L342.94,408.59"/><path style="&st11;" d="M317.44,311.5v34"/><path style="&st11;" d="M342.94,311.5v34"/><path style="&st11;" d="M317.44,379.49v17h-50.99v17"/><path style="&st11;" d="M342.94,379.49v34"/><path style="&st11;" d="M318.86,373.83c0-0.79-0.63-1.42-1.42-1.42"/><path style="&st11;" d="M317.44,372.41c-0.78,0-1.41,0.63-1.41,1.42"/><path style="&st11;" d="M316.03,373.83c0,0.78,0.63,1.41,1.41,1.41"/><path style="&st11;" d="M317.44,375.24c0.79,0,1.42-0.63,1.42-1.41"/><path style="&st11;" d="M318.86,351.16c0-0.78-0.63-1.41-1.42-1.41"/><path style="&st11;" d="M317.44,349.75c-0.78,0-1.41,0.63-1.41,1.41"/><path style="&st11;" d="M316.03,351.16c0,0.79,0.63,1.42,1.41,1.42"/><path style="&st11;" d="M317.44,352.58c0.79,0,1.42-0.63,1.42-1.42"/><path style="&st11;" d="M340.41,360.02c1.37,1.39,3.61,1.42,5.01,0.05"/><path style="&st11;" d="M345.42,360.07c1.4-1.37,1.42-3.61,0.05-5.01"/><path style="&st11;" d="M345.47,355.06c-0.69-0.71-1.54-1.06-2.53-1.06"/><path style="&st11;" d="M340.41,364.97c1.37,1.4,3.61,1.42,5.01,0.06"/><path style="&st11;" d="M345.42,365.03c1.4-1.37,1.42-3.62,0.05-5.01"/><path style="&st11;" d="M345.47,360.02c-1.37-1.4-3.61-1.42-5.01-0.05"/><path style="&st11;" d="M340.46,359.97c-0.02,0.01-0.03,0.03-0.05,0.05"/><path style="&st11;" d="M342.94,370.99c1.96,0,3.54-1.58,3.54-3.54"/><path style="&st11;" d="M346.48,367.45c0-1.95-1.58-3.54-3.54-3.54"/><path style="&st11;" d="M342.94,363.91c-0.99,0-1.84,0.36-2.53,1.06"/><path style="&st6;" d="M315.32,303.01c-2.35,0-4.25,1.9-4.25,4.24"/><path style="&st6;" d="M311.07,307.25c0,2.35,1.9,4.25,4.25,4.25"/><path style="&st6;" d="M319.57,311.5c2.35,0,4.25-1.9,4.25-4.25"/><path style="&st6;" d="M323.82,307.25c0-2.34-1.9-4.24-4.25-4.24"/><path style="&st6;" d="M340.82,303.01c-2.35,0-4.25,1.9-4.25,4.24"/><path style="&st6;" d="M336.57,307.25c0,2.35,1.9,4.25,4.25,4.25"/><path style="&st6;" d="M345.07,311.5c2.34,0,4.24-1.9,4.24-4.25"/><path style="&st6;" d="M349.31,307.25c0-2.34-1.9-4.24-4.24-4.24"/><path style="&st6;" d="M264.33,413.49c-2.35,0-4.25,1.9-4.25,4.25"/><path style="&st6;" d="M260.08,417.74c0,2.34,1.9,4.25,4.25,4.25"/><path style="&st6;" d="M268.58,421.99c2.34,0,4.25-1.91,4.25-4.25"/><path style="&st6;" d="M272.83,417.74c0-2.35-1.91-4.25-4.25-4.25"/><path style="&st6;" d="M340.82,413.49c-2.35,0-4.25,1.9-4.25,4.25"/><path style="&st6;" d="M336.57,417.74c0,2.34,1.9,4.25,4.25,4.25"/><path style="&st6;" d="M345.07,421.99c2.34,0,4.24-1.91,4.24-4.25"/><path style="&st6;" d="M349.31,417.74c0-2.35-1.9-4.25-4.24-4.25"/>
    <text ewd:textID="10" transform="matrix(1 0 0 1 354.5801 361.6367)" style="&st5; &st21; &st12;">ST <tspan x="0" y="7">Relay</tspan></text>
    <text transform="matrix(1 0 0 1 310.6602 387.687)" style="&st5;"><tspan x="0" y="0" style="&st21; &st12;">3</tspan></text>
    <text transform="matrix(1 0 0 1 336.1504 387.687)" style="&st5;"><tspan x="0" y="0" style="&st21; &st12;">2</tspan></text>
    <text transform="matrix(1 0 0 1 310.6504 341.8066)" style="&st5;"><tspan x="0" y="0" style="&st21; &st12;">5</tspan></text>
    <text transform="matrix(1 0 0 1 336.9199 341.8066)" style="&st5;"><tspan x="0" y="0" style="&st21; &st12;">1</tspan></text>
    <text transform="matrix(1 0 0 1 315.8604 309.2168)" style="&st5;"><tspan x="0" y="0" style="&st21; &st12;">1</tspan></text>
    <text transform="matrix(1 0 0 1 341.3496 309.2168)" style="&st5;"><tspan x="0" y="0" style="&st21; &st12;">1</tspan></text>
    <text transform="matrix(1 0 0 1 264.8599 419.7065)" style="&st5;"><tspan x="0" y="0" style="&st21; &st12;">1</tspan></text>
    <text transform="matrix(1 0 0 1 341.3496 419.7065)" style="&st5;"><tspan x="0" y="0" style="&st21; &st12;">1</tspan></text>
    <text transform="matrix(1 0 0 1 336.9199 335.8066)" style="&st5;"><tspan x="0" y="0" style="&st21; &st12;">2</tspan></text>
    <text transform="matrix(1 0 0 1 336.1504 393.687)" style="&st5;"><tspan x="0" y="0" style="&st21; &st12;">1</tspan></text>
    <text transform="matrix(1 0 0 1 346.1504 387.687)" style="&st5;"><tspan x="0" y="0" style="&st21; &st12;">(*2,*5)</tspan></text>
    <text transform="matrix(1 0 0 1 346.9199 341.8066)" style="&st5;"><tspan x="0" y="0" style="&st21; &st12;">(*2,*5)</tspan></text>
    <text transform="matrix(1 0 0 1 346.9199 335.8066)" style="&st5;"><tspan x="0" y="0" style="&st21; &st12;">(*1,*6)</tspan></text>
    <text transform="matrix(1 0 0 1 346.1504 393.687)" style="&st5;"><tspan x="0" y="0" style="&st21; &st12;">(*1,*6)</tspan></text>
</g>
<g ewd:code="FUSE55,FUSE50" ewd:figID="4001" ewd:figtype="rb">
    <path style="&st3;" d="M24.24,39.55v42.49h25.5V39.55H24.24"/><path style="&st6;" d="M39.12,99.04h-4.25"/><path style="&st6;" d="M39.12,107.54h-4.25"/><path style="&st11;" d="M36.99,73.54v25.5"/><path style="&st4;" d="M36.99,94.14l-2.83-2.83v4.25l2.83,2.83l2.83-2.83v-4.25L36.99,94.14"/><path style="&st6;" d="M24.24,39.55v42.49h25.5V39.55H24.24"/><path style="&st6;" d="M34.87,99.04c-2.35,0-4.25,1.9-4.25,4.25"/><path style="&st6;" d="M30.62,103.29c0,2.35,1.9,4.25,4.25,4.25"/><path style="&st6;" d="M39.12,107.54c2.34,0,4.25-1.9,4.25-4.25"/><path style="&st6;" d="M43.37,103.29c0-2.35-1.91-4.25-4.25-4.25"/><path style="&st11;" d="M38.41,72.13c0-0.79-0.64-1.42-1.42-1.42"/><path style="&st11;" d="M36.99,70.71c-0.78,0-1.41,0.63-1.41,1.42"/><path style="&st11;" d="M35.58,72.13c0,0.78,0.63,1.41,1.41,1.41"/><path style="&st11;" d="M36.99,73.54c0.78,0,1.42-0.63,1.42-1.41"/><path style="&st6;" d="M36.99,50.88c-0.85,2.92-0.19,5.81,1.84,8.07"/><path style="&st6;" d="M36.99,50.88c-2.17,3.02-2.17,6.89,0,9.92"/><path style="&st6;" d="M36.99,50.88c-3.72,2.77-4.53,7.99-1.84,11.76"/><path style="&st6;" d="M36.99,70.71c3.72-2.77,4.54-7.98,1.84-11.75"/><path style="&st6;" d="M36.99,70.71c2.17-3.02,2.17-6.89,0-9.91"/><path style="&st6;" d="M36.99,70.71c0.86-2.92,0.19-5.81-1.84-8.07"/><path style="&st11;" d="M38.41,49.46c0-0.78-0.64-1.41-1.42-1.41"/><path style="&st11;" d="M36.99,48.05c-0.78,0-1.41,0.63-1.41,1.41"/><path style="&st11;" d="M35.58,49.46c0,0.79,0.63,1.42,1.41,1.42"/><path style="&st11;" d="M36.99,50.88c0.78,0,1.42-0.63,1.42-1.42"/>
    <text transform="matrix(1 0 0 1 54.2998 54.2866)" style="&st5;"><tspan x="0" y="0" style="&st21; &st12;">40A</tspan></text>
    <text transform="matrix(1 0 0 1 54.2998 60.2866)" style="&st5;"><tspan x="0" y="0" style="&st21; &st12;">ST (*1,*6)</tspan></text>
    <text transform="matrix(1 0 0 1 54.2998 66.2866)" style="&st5;"><tspan x="0" y="0" style="&st21; &st12;">30A</tspan></text>
    <text transform="matrix(1 0 0 1 54.2998 72.2866)" style="&st5;"><tspan x="0" y="0" style="&st21; &st12;">ST (*2,*5)</tspan></text>
    <text transform="matrix(1 0 0 1 35.3999 105.2568)" style="&st5;"><tspan x="0" y="0" style="&st21; &st12;">1</tspan></text>
    <text transform="matrix(1 0 0 1 30.2002 90.2363)" style="&st5;"><tspan x="0" y="0" style="&st21; &st12;">2</tspan></text>
    <text transform="matrix(1 0 0 1 27.8799 35.8467)" style="&st5;"><tspan x="0" y="0" style="&st21; &st12;">(BAT)</tspan></text>
</g>
<g ewd:code="3JB" ewd:figID="3002" ewd:figtype="jb">
    <path style="&st6;" d="M702.01,175.53h-4.25"/><path style="&st6;" d="M702.01,184.03h-4.25"/><path style="&st6;" d="M702.01,218.02h-4.25"/><path style="&st6;" d="M702.01,226.52h-4.25"/><path style="&st6;" d="M786.99,218.02h-4.25"/><path style="&st6;" d="M786.99,226.52h-4.25"/><path style="&st4;" d="M699.88,188.92l2.83,2.83v-4.25l-2.83-2.83l-2.83,2.83v4.25L699.88,188.92"/><path style="&st4;" d="M699.88,213.12l-2.83-2.83v4.25l2.83,2.83l2.83-2.83v-4.25L699.88,213.12"/><path style="&st11;" d="M699.88,218.02v-33.99"/><path style="&st11;" d="M698.69,200.02l-0.27,0.47l-0.1,0.53l0.1,0.54l0.27,0.47l0.41,0.34l0.51,0.19h0.54l0.51-0.19l0.41-0.34l0.28-0.47l0.09-0.54l-0.09-0.53l-0.28-0.47l-0.41-0.35l-0.51-0.18h-0.54l-0.51,0.18L698.69,200.02l0.39,0.71v0.58l0.38,0.45l0.57,0.1l0.5-0.29l0.2-0.55l-0.2-0.54l-0.5-0.29l-0.57,0.1l0.42,0.73"/><path style="&st11;" d="M699.88,201.02h84.99v17"/><path style="&st4;" d="M784.87,213.12l-2.84-2.83v4.25l2.84,2.83l2.83-2.83v-4.25L784.87,213.12"/><path style="&st6;" d="M697.76,175.53c-2.35,0-4.25,1.9-4.25,4.25"/><path style="&st6;" d="M693.51,179.78c0,2.34,1.9,4.25,4.25,4.25"/><path style="&st6;" d="M702.01,184.03c2.34,0,4.24-1.91,4.24-4.25"/><path style="&st6;" d="M706.25,179.78c0-2.35-1.9-4.25-4.24-4.25"/><path style="&st6;" d="M697.76,218.02c-2.35,0-4.25,1.9-4.25,4.25"/><path style="&st6;" d="M693.51,222.27c0,2.35,1.9,4.25,4.25,4.25"/><path style="&st6;" d="M702.01,226.52c2.34,0,4.24-1.9,4.24-4.25"/><path style="&st6;" d="M706.25,222.27c0-2.35-1.9-4.25-4.24-4.25"/><path style="&st6;" d="M782.74,218.02c-2.34,0-4.25,1.9-4.25,4.25"/><path style="&st6;" d="M778.49,222.27c0,2.35,1.91,4.25,4.25,4.25"/><path style="&st6;" d="M786.99,226.52c2.35,0,4.25-1.9,4.25-4.25"/><path style="&st6;" d="M791.24,222.27c0-2.35-1.9-4.25-4.25-4.25"/>
    <text transform="matrix(1 0 0 1 695.4292 181.7466)" style="&st5;"><tspan x="0" y="0" style="&st21; &st12;">3C</tspan></text>
    <text transform="matrix(1 0 0 1 684.0093 181.7466)" style="&st5;"><tspan x="0" y="0" style="&st21; &st12;">13</tspan></text>
    <text transform="matrix(1 0 0 1 695.5698 224.2363)" style="&st5;"><tspan x="0" y="0" style="&st21; &st12;">3A</tspan></text>
    <text transform="matrix(1 0 0 1 684.0093 224.2363)" style="&st5;"><tspan x="0" y="0" style="&st21; &st12;">51</tspan></text>
    <text transform="matrix(1 0 0 1 780.5601 224.2363)" style="&st5;"><tspan x="0" y="0" style="&st21; &st12;">3A</tspan></text>
    <text transform="matrix(1 0 0 1 768.2202 224.2363)" style="&st5;"><tspan x="0" y="0" style="&st21; &st12;">63</tspan></text>
</g>
<g ewd:code="4JB" ewd:figID="3003" ewd:figtype="jb">
    <path style="&st6;" d="M702.01,260.51h-4.25"/><path style="&st6;" d="M702.01,269.01h-4.25"/><path style="&st6;" d="M702.01,303.01h-4.25"/><path style="&st6;" d="M702.01,311.5h-4.25"/><path style="&st4;" d="M699.88,273.91l2.83,2.83v-4.25l-2.83-2.83l-2.83,2.83v4.25L699.88,273.91"/><path style="&st4;" d="M699.88,298.11l-2.83-2.83v4.25l2.83,2.83l2.83-2.83v-4.25L699.88,298.11"/><path style="&st11;" d="M699.88,303.01v-34"/><path style="&st6;" d="M697.76,260.51c-2.35,0-4.25,1.9-4.25,4.25"/><path style="&st6;" d="M693.51,264.76c0,2.35,1.9,4.25,4.25,4.25"/><path style="&st6;" d="M702.01,269.01c2.34,0,4.24-1.9,4.24-4.25"/><path style="&st6;" d="M706.25,264.76c0-2.35-1.9-4.25-4.24-4.25"/><path style="&st6;" d="M697.76,303.01c-2.35,0-4.25,1.9-4.25,4.24"/><path style="&st6;" d="M693.51,307.25c0,2.35,1.9,4.25,4.25,4.25"/><path style="&st6;" d="M702.01,311.5c2.34,0,4.24-1.9,4.24-4.25"/><path style="&st6;" d="M706.25,307.25c0-2.34-1.9-4.24-4.24-4.24"/>
    <text transform="matrix(1 0 0 1 695.5698 266.7266)" style="&st5;"><tspan x="0" y="0" style="&st21; &st12;">4A</tspan></text>
    <text transform="matrix(1 0 0 1 683.23 266.7266)" style="&st5;"><tspan x="0" y="0" style="&st21; &st12;">37</tspan></text>
    <text transform="matrix(1 0 0 1 695.5698 309.2168)" style="&st5;"><tspan x="0" y="0" style="&st21; &st12;">4A</tspan></text>
    <text transform="matrix(1 0 0 1 683.23 309.2168)" style="&st5;"><tspan x="0" y="0" style="&st21; &st12;">87</tspan></text>
</g>
<g ewd:code="2" ewd:figID="3001" ewd:figtype="jb">
    <path style="&st3;" d="M126.23,39.55v42.49h25.49V39.55H126.23"/><path style="&st11;" d="M138.97,73.54v25.5"/><path style="&st6;" d="M141.1,99.04h-4.25"/><path style="&st6;" d="M141.1,107.54h-4.25"/><path style="&st4;" d="M138.97,94.14l-2.83-2.83v4.25l2.83,2.83l2.84-2.83v-4.25L138.97,94.14"/><path style="&st6;" d="M126.23,39.55v42.49h25.49V39.55H126.23"/><path style="&st6;" d="M138.97,50.88c-2.73,1.61-3.65,5.14-2.03,7.88"/><path style="&st6;" d="M136.94,58.76c0.52,0.88,1.15,1.52,2.03,2.04"/><path style="&st6;" d="M138.97,70.71c2.74-1.61,3.65-5.14,2.04-7.88"/><path style="&st6;" d="M141.01,62.83c-0.52-0.88-1.15-1.51-2.04-2.03"/><path style="&st11;" d="M140.39,49.46c0-0.78-0.63-1.41-1.42-1.41"/><path style="&st11;" d="M138.97,48.05c-0.78,0-1.41,0.63-1.41,1.41"/><path style="&st11;" d="M137.56,49.46c0,0.79,0.63,1.42,1.41,1.42"/><path style="&st11;" d="M138.97,50.88c0.79,0,1.42-0.63,1.42-1.42"/><path style="&st11;" d="M140.39,72.13c0-0.79-0.63-1.42-1.42-1.42"/><path style="&st11;" d="M138.97,70.71c-0.78,0-1.41,0.63-1.41,1.42"/><path style="&st11;" d="M137.56,72.13c0,0.78,0.63,1.41,1.41,1.41"/><path style="&st11;" d="M138.97,73.54c0.79,0,1.42-0.63,1.42-1.41"/><path style="&st6;" d="M136.85,99.04c-2.35,0-4.25,1.9-4.25,4.25"/><path style="&st6;" d="M132.6,103.29c0,2.35,1.9,4.25,4.25,4.25"/><path style="&st6;" d="M141.1,107.54c2.35,0,4.25-1.9,4.25-4.25"/><path style="&st6;" d="M145.35,103.29c0-2.35-1.9-4.25-4.25-4.25"/>
    <text transform="matrix(1 0 0 1 156.2798 59.9365)" style="&st5;"><tspan x="0" y="0" style="&st21; &st12;">7.5A</tspan></text>
    <text transform="matrix(1 0 0 1 156.2798 65.9365)" style="&st5;"><tspan x="0" y="0" style="&st21; &st12;">AM1</tspan></text>
    <text transform="matrix(1 0 0 1 134.6699 105.2568)" style="&st5;"><tspan x="0" y="0" style="&st21; &st12;">2A</tspan></text>
    <text transform="matrix(1 0 0 1 122.3301 105.2568)" style="&st5;"><tspan x="0" y="0" style="&st21; &st12;">35</tspan></text>
    <text transform="matrix(1 0 0 1 129.8599 35.8467)" style="&st5;"><tspan x="0" y="0" style="&st21; &st12;">(BAT)</tspan></text>
</g>
<g ewd:code="A1" ewd:figID="2001" ewd:figtype="gp">
    <path style="&st11;" d="M342.94,701.02v4.25"/><path style="&st11;" d="M334.44,705.27h17"/><path style="&st11;" d="M338.69,708.1h8.5"/><path style="&st11;" d="M340.11,710.94h5.66"/><path style="&st11;" d="M341.52,713.77h2.84"/>
</g>
<g ewd:code="G2" ewd:figID="1" ewd:figtype="conn">
    <path style="&st11;" d="M205.55,192.52h-15.58"/><path style="&st11;" d="M189.97,141.53h15.58"/><path style="&st11;" d="M249.46,141.53h-12.75"/><path style="&st11;" d="M249.46,192.52h-12.75"/><path style="&st11;" d="M216.54,136.51v5.66"/><path style="&st11;" d="M216.54,145.01v5.66"/><path style="&st11;" d="M216.54,153.5v5.67"/><path style="&st11;" d="M216.54,162v5.67"/><path style="&st11;" d="M249.46,124.54h-17v7.08"/><path style="&st11;" d="M232.46,151.45v7.08h17"/><path style="&st11;" d="M232.46,202.44v7.08h17"/><path style="&st6;" d="M189.97,226.52h59.49V107.54h-59.49V226.52"/><path style="&st6;" d="M218.03,119.01l-9.84,21.81l16.7-17.13"/><path style="&st6;" d="M218.03,170l-9.84,21.82l16.7-17.14"/><path style="&st11;" d="M208.38,192.52c0-0.78-0.63-1.41-1.42-1.41"/><path style="&st11;" d="M206.96,191.11c-0.78,0-1.41,0.63-1.41,1.41"/><path style="&st11;" d="M205.55,192.52c0,0.79,0.63,1.42,1.41,1.42"/><path style="&st11;" d="M206.96,193.94c0.79,0,1.42-0.63,1.42-1.42"/><path style="&st11;" d="M208.38,141.53c0-0.78-0.63-1.41-1.42-1.41"/><path style="&st11;" d="M206.96,140.12c-0.78,0-1.41,0.63-1.41,1.41"/><path style="&st11;" d="M205.55,141.53c0,0.78,0.63,1.42,1.41,1.42"/><path style="&st11;" d="M206.96,142.95c0.79,0,1.42-0.64,1.42-1.42"/><path style="&st11;" d="M233.88,133.03c0-0.78-0.64-1.41-1.42-1.41"/><path style="&st11;" d="M232.46,131.62c-0.78,0-1.42,0.63-1.42,1.41"/><path style="&st11;" d="M231.04,133.03c0,0.79,0.64,1.42,1.42,1.42"/><path style="&st11;" d="M232.46,134.45c0.78,0,1.42-0.63,1.42-1.42"/><path style="&st11;" d="M236.71,192.52c0-0.78-0.64-1.41-1.42-1.41"/><path style="&st11;" d="M235.29,191.11c-0.78,0-1.41,0.63-1.41,1.41"/><path style="&st11;" d="M233.88,192.52c0,0.79,0.63,1.42,1.41,1.42"/><path style="&st11;" d="M235.29,193.94c0.78,0,1.42-0.63,1.42-1.42"/><path style="&st11;" d="M233.88,201.02c0-0.78-0.64-1.41-1.42-1.41"/><path style="&st11;" d="M232.46,199.61c-0.78,0-1.42,0.63-1.42,1.41"/><path style="&st11;" d="M231.04,201.02c0,0.78,0.64,1.42,1.42,1.42"/><path style="&st11;" d="M232.46,202.44c0.78,0,1.42-0.64,1.42-1.42"/><path style="&st11;" d="M233.88,150.03c0-0.78-0.64-1.42-1.42-1.42"/><path style="&st11;" d="M232.46,148.61c-0.78,0-1.42,0.64-1.42,1.42"/><path style="&st11;" d="M231.04,150.03c0,0.78,0.64,1.42,1.42,1.42"/><path style="&st11;" d="M232.46,151.45c0.78,0,1.42-0.64,1.42-1.42"/><path style="&st11;" d="M236.71,141.53c0-0.78-0.64-1.41-1.42-1.41"/><path style="&st11;" d="M235.29,140.12c-0.78,0-1.41,0.63-1.41,1.41"/><path style="&st11;" d="M233.88,141.53c0,0.78,0.63,1.42,1.41,1.42"/><path style="&st11;" d="M235.29,142.95c0.78,0,1.42-0.64,1.42-1.42"/><path style="&st6;" d="M224.9,174.68c-0.99-2.98-3.74-4.86-6.87-4.68"/><path style="&st6;" d="M224.9,123.69c-0.99-2.98-3.74-4.86-6.87-4.68"/>
    <text transform="matrix(1 0 0 1 183.1802 137.8364)" style="&st5;"><tspan x="0" y="0" style="&st21; &st12;">2</tspan></text>
    <text transform="matrix(1 0 0 1 183.1802 188.8267)" style="&st5;"><tspan x="0" y="0" style="&st21; &st12;">7</tspan></text>
    <text transform="matrix(1 0 0 1 252.29 154.8364)" style="&st5;"><tspan x="0" y="0" style="&st21; &st12;">1</tspan></text>
    <text transform="matrix(1 0 0 1 252.29 205.8267)" style="&st5;"><tspan x="0" y="0" style="&st21; &st12;">8</tspan></text>
    <text transform="matrix(1 0 0 1 192.0898 188.8267)" style="&st5;"><tspan x="0" y="0" style="&st21; &st12;">AM2</tspan></text>
    <text transform="matrix(1 0 0 1 192.0898 137.8364)" style="&st5;"><tspan x="0" y="0" style="&st21; &st12;">AM1</tspan></text>
    <text transform="matrix(1 0 0 1 233.4902 120.8467)" style="&st5;"><tspan x="0" y="0" style="&st21; &st12;">ACC</tspan></text>
    <text transform="matrix(1 0 0 1 237.3701 137.8364)" style="&st5;"><tspan x="0" y="0" style="&st21; &st12;">IG1</tspan></text>
    <text transform="matrix(1 0 0 1 235.96 154.8364)" style="&st5;"><tspan x="0" y="0" style="&st21; &st12;">ST1</tspan></text>
    <text transform="matrix(1 0 0 1 236.6001 188.8267)" style="&st5;"><tspan x="0" y="0" style="&st21; &st12;">IG2</tspan></text>
    <text transform="matrix(1 0 0 1 235.1802 205.8267)" style="&st5;"><tspan x="0" y="0" style="&st21; &st12;">ST2</tspan></text>
    <text ewd:textID="7" transform="matrix(1 0 0 1 195.9399 241.2363)" style="&st5; &st21; &st12;">Ignition or <tspan x="0" y="7">Starter Switch </tspan><tspan x="0" y="14">Assembly</tspan></text>
    <text transform="matrix(1 0 0 1 195.9399 234.1265)" style="&st5;"><tspan x="0" y="0" style="&st21; &st12;">G2</tspan></text>
</g>
<g ewd:code="A65" ewd:figID="2" ewd:figtype="conn">
    <path style="&st6;" d="M402.43,243.52v16.99h17v-16.99H402.43"/><path style="&st11;" d="M409.74,251.01l-0.28,0.47l-0.09,0.53l0.09,0.54l0.28,0.47l0.41,0.34l0.51,0.19h0.54l0.51-0.19l0.41-0.34l0.27-0.47l0.1-0.54l-0.1-0.53l-0.27-0.47l-0.41-0.34l-0.51-0.19h-0.54l-0.51,0.19L409.74,251.01l0.39,0.71v0.59l0.37,0.44l0.58,0.1l0.5-0.29l0.2-0.55l-0.2-0.54l-0.5-0.29l-0.58,0.1l0.43,0.73"/><path style="&st11;" d="M402.43,252.01h17"/><path style="&st11;" d="M410.93,252.01v8.5"/>
    <text transform="matrix(1 0 0 1 399.9102 232.7065)" style="&st5;"><tspan x="0" y="0" style="&st21; &st12;">A65</tspan></text>
    <text ewd:textID="8" transform="matrix(1 0 0 1 399.9102 239.8164)" style="&st5; &st21; &st12;">Junction Connector</text>
    <text transform="matrix(1 0 0 1 395.6396 248.3164)" style="&st5;"><tspan x="0" y="0" style="&st21; &st12;">3</tspan></text>
    <text transform="matrix(1 0 0 1 404.1396 268.7065)" style="&st5;"><tspan x="0" y="0" style="&st21; &st12;">2</tspan></text>
    <text transform="matrix(1 0 0 1 422.2598 248.3164)" style="&st5;"><tspan x="0" y="0" style="&st21; &st12;">1</tspan></text>
</g>
<g ewd:code="C66,C95,D1,D2,D4,D5,D6" ewd:figID="4" ewd:figtype="conn">
    <path style="&st6;" d="M138.97,593.37l-4.24,17"/><path style="&st11;" d="M223.96,608.95v-25.49"/><path style="&st11;" d="M235.29,625.95h14.17"/><path style="&st11;" d="M140.39,608.95h62.32"/><path style="&st11;" d="M219.71,608.95h8.5"/><path style="&st11;" d="M138.97,583.46v7.08"/><path style="&st11;" d="M240.96,651.45h16.99"/><path style="&st11;" d="M245.21,654.28h8.5"/><path style="&st11;" d="M246.62,657.11h5.67"/><path style="&st11;" d="M248.04,659.95h2.83"/><path style="&st11;" d="M245.21,608.95h4.25v42.5"/><path style="&st11;" d="M198.46,608.95v17h14.17"/><path style="&st6;" d="M257.95,642.95H121.98v-59.49h135.97V642.95"/><path style="&st6;" d="M216.59,621.7h-3.96v8.5h3.96"/><path style="&st6;" d="M231.33,621.7h3.96v8.5h-3.96"/><path style="&st11;" d="M222.77,607.95l-0.27,0.47l-0.1,0.53l0.1,0.54l0.27,0.47l0.41,0.34l0.51,0.19h0.54l0.51-0.19l0.41-0.34l0.27-0.47l0.1-0.54l-0.1-0.53l-0.27-0.47l-0.41-0.34l-0.51-0.19h-0.54l-0.51,0.19L222.77,607.95l0.39,0.71v0.59l0.38,0.44l0.57,0.1l0.5-0.29l0.2-0.55l-0.2-0.54l-0.5-0.29l-0.57,0.1l0.42,0.73"/><path style="&st11;" d="M197.27,607.95l-0.27,0.47l-0.09,0.53l0.09,0.54l0.27,0.47l0.42,0.34l0.5,0.19h0.55l0.5-0.19l0.42-0.34l0.27-0.47l0.09-0.54l-0.09-0.53l-0.27-0.47l-0.42-0.34l-0.5-0.19h-0.55l-0.5,0.19L197.27,607.95l0.4,0.71v0.59l0.37,0.44l0.57,0.1l0.51-0.29l0.19-0.55l-0.19-0.54l-0.51-0.29l-0.57,0.1l0.42,0.73"/><path style="&st11;" d="M248.26,624.95l-0.27,0.47l-0.09,0.53l0.09,0.53l0.27,0.47l0.42,0.35l0.5,0.19h0.55l0.5-0.19l0.42-0.35l0.27-0.47l0.09-0.53l-0.09-0.53l-0.27-0.47l-0.42-0.35l-0.5-0.18h-0.55l-0.5,0.18L248.26,624.95l0.4,0.71v0.58l0.37,0.45l0.57,0.1l0.51-0.29l0.2-0.55l-0.2-0.55l-0.51-0.28l-0.57,0.09l0.43,0.74"/><path style="&st11;" d="M140.39,591.96c0-0.79-0.63-1.42-1.42-1.42"/><path style="&st11;" d="M138.97,590.54c-0.78,0-1.41,0.63-1.41,1.42"/><path style="&st11;" d="M137.56,591.96c0,0.78,0.63,1.41,1.41,1.41"/><path style="&st11;" d="M138.97,593.37c0.79,0,1.42-0.63,1.42-1.41"/><path style="&st11;" d="M140.39,608.95c0-0.78-0.63-1.41-1.42-1.41"/><path style="&st11;" d="M138.97,607.54c-0.78,0-1.41,0.63-1.41,1.41"/><path style="&st11;" d="M137.56,608.95c0,0.79,0.63,1.42,1.41,1.42"/><path style="&st11;" d="M138.97,610.37c0.79,0,1.42-0.63,1.42-1.42"/><path style="&st6;" d="M232.46,625.95c0-4.69-3.81-8.5-8.5-8.5"/><path style="&st6;" d="M223.96,617.45c-4.69,0-8.5,3.81-8.5,8.5"/><path style="&st6;" d="M215.46,625.95c0,4.69,3.81,8.5,8.5,8.5"/><path style="&st6;" d="M223.96,634.45c4.69,0,8.5-3.81,8.5-8.5"/><path style="&st11;" d="M208.73,611.48c1.4-1.37,1.42-3.61,0.05-5"/><path style="&st11;" d="M208.78,606.48c-1.36-1.4-3.61-1.42-5-0.06"/><path style="&st11;" d="M203.78,606.42c-0.71,0.7-1.07,1.54-1.07,2.53"/><path style="&st11;" d="M213.69,611.48c1.4-1.37,1.42-3.61,0.05-5"/><path style="&st11;" d="M213.74,606.48c-1.37-1.4-3.61-1.42-5.01-0.06"/><path style="&st11;" d="M208.73,606.42c-1.39,1.37-1.42,3.62-0.05,5.01"/><path style="&st11;" d="M208.68,611.43c0.02,0.02,0.04,0.04,0.05,0.05"/><path style="&st11;" d="M219.71,608.95c0-1.95-1.58-3.54-3.54-3.54"/><path style="&st11;" d="M216.17,605.41c-1.96,0-3.54,1.59-3.54,3.54"/><path style="&st11;" d="M212.63,608.95c0,0.99,0.35,1.84,1.06,2.53"/><path style="&st11;" d="M234.23,611.48c1.4-1.37,1.42-3.61,0.05-5"/><path style="&st11;" d="M234.28,606.48c-1.37-1.4-3.61-1.42-5.01-0.06"/><path style="&st11;" d="M229.27,606.42c-0.71,0.7-1.06,1.54-1.06,2.53"/><path style="&st11;" d="M239.19,611.48c1.39-1.37,1.42-3.61,0.05-5"/><path style="&st11;" d="M239.24,606.48c-1.37-1.4-3.61-1.42-5.01-0.06"/><path style="&st11;" d="M234.23,606.42c-1.4,1.37-1.42,3.62-0.05,5.01"/><path style="&st11;" d="M234.18,611.43c0.02,0.02,0.03,0.04,0.05,0.05"/><path style="&st11;" d="M245.21,608.95c0-1.95-1.59-3.54-3.54-3.54"/><path style="&st11;" d="M241.67,605.41c-1.96,0-3.55,1.59-3.55,3.54"/><path style="&st11;" d="M238.12,608.95c0,0.99,0.36,1.84,1.07,2.53"/><path style="&st6;" d="M228.49,578.93c0-2.51-2.03-4.54-4.53-4.54"/><path style="&st6;" d="M223.96,574.39c-2.5,0-4.53,2.03-4.53,4.54"/><path style="&st6;" d="M219.43,578.93c0,2.5,2.03,4.53,4.53,4.53"/><path style="&st6;" d="M223.96,583.46c2.5,0,4.53-2.03,4.53-4.53"/><path style="&st6;" d="M228.49,569.86c0-2.5-2.03-4.53-4.53-4.53"/><path style="&st6;" d="M223.96,565.33c-2.5,0-4.53,2.03-4.53,4.53"/><path style="&st6;" d="M219.43,569.86c0,2.5,2.03,4.53,4.53,4.53"/><path style="&st6;" d="M223.96,574.39c2.5,0,4.53-2.03,4.53-4.53"/><path style="&st6;" d="M143.51,578.93c0-2.51-2.03-4.54-4.54-4.54"/><path style="&st6;" d="M138.97,574.39c-2.5,0-4.53,2.03-4.53,4.54"/><path style="&st6;" d="M134.44,578.93c0,2.5,2.03,4.53,4.53,4.53"/><path style="&st6;" d="M138.97,583.46c2.51,0,4.54-2.03,4.54-4.53"/><path style="&st6;" d="M143.51,569.86c0-2.5-2.03-4.53-4.54-4.53"/><path style="&st6;" d="M138.97,565.33c-2.5,0-4.53,2.03-4.53,4.53"/><path style="&st6;" d="M134.44,569.86c0,2.5,2.03,4.53,4.53,4.53"/><path style="&st6;" d="M138.97,574.39c2.51,0,4.54-2.03,4.54-4.53"/><path style="&st6;" d="M143.51,560.8c0-2.51-2.03-4.54-4.54-4.54"/><path style="&st6;" d="M138.97,556.26c-2.5,0-4.53,2.03-4.53,4.54"/><path style="&st6;" d="M134.44,560.8c0,2.5,2.03,4.53,4.53,4.53"/><path style="&st6;" d="M138.97,565.33c2.51,0,4.54-2.03,4.54-4.53"/><path style="&st6;" d="M228.49,560.8c0-2.51-2.03-4.54-4.53-4.54"/><path style="&st6;" d="M223.96,556.26c-2.5,0-4.53,2.03-4.53,4.54"/><path style="&st6;" d="M219.43,560.8c0,2.5,2.03,4.53,4.53,4.53"/><path style="&st6;" d="M223.96,565.33c2.5,0,4.53-2.03,4.53-4.53"/><path style="&st6;" d="M143.51,551.73c0-2.5-2.03-4.53-4.54-4.53"/><path style="&st6;" d="M138.97,547.2c-2.5,0-4.53,2.03-4.53,4.53"/><path style="&st6;" d="M134.44,551.73c0,2.5,2.03,4.53,4.53,4.53"/><path style="&st6;" d="M138.97,556.26c2.51,0,4.54-2.03,4.54-4.53"/>
    <text transform="matrix(1 0 0 1 128.8701 553.6968)" style="&st5;"><tspan x="0" y="0" style="&st21; &st12;">1</tspan></text>
    <text transform="matrix(1 0 0 1 136.2202 553.6968)" style="&st5;"><tspan x="0" y="0" style="&st21; &st12;">G</tspan></text>
    <text transform="matrix(1 0 0 1 221.0601 627.9175)" style="&st5;"><tspan x="0" y="0" style="&st21; &st12;">M</tspan></text>
    <text transform="matrix(1 0 0 1 213.8599 580.896)" style="&st5;"><tspan x="0" y="0" style="&st21; &st12;">1</tspan></text>
    <text transform="matrix(1 0 0 1 221.6299 580.896)" style="&st5;"><tspan x="0" y="0" style="&st21; &st12;">A</tspan></text>
    <text transform="matrix(1 0 0 1 213.8599 571.8257)" style="&st5;"><tspan x="0" y="0" style="&st21; &st12;">1</tspan></text>
    <text transform="matrix(1 0 0 1 221.6299 571.8257)" style="&st5;"><tspan x="0" y="0" style="&st21; &st12;">B</tspan></text>
    <text transform="matrix(1 0 0 1 128.8701 580.896)" style="&st5;"><tspan x="0" y="0" style="&st21; &st12;">1</tspan></text>
    <text transform="matrix(1 0 0 1 136.6401 580.896)" style="&st5;"><tspan x="0" y="0" style="&st21; &st12;">E</tspan></text>
    <text transform="matrix(1 0 0 1 128.8701 571.8257)" style="&st5;"><tspan x="0" y="0" style="&st21; &st12;">1</tspan></text>
    <text transform="matrix(1 0 0 1 136.8599 571.8257)" style="&st5;"><tspan x="0" y="0" style="&st21; &st12;">F</tspan></text>
    <text transform="matrix(0 -1 1 0 265.5698 645.4663)" style="&st5;"><tspan x="0" y="0" style="&st21; &st12;">C66(A),C95(B),D1(C),</tspan></text>
    <text transform="matrix(0 -1 1 0 271.5698 645.4663)" style="&st5;"><tspan x="0" y="0" style="&st21; &st12;">D2(D),D4(E),D5(F),D6(G)</tspan></text>
    <text ewd:textID="11" transform="matrix(0 -1 1 0 278.6201 645.4663)" style="&st5; &st21; &st12;">Starter Assembly</text>
    <text transform="matrix(1 0 0 1 128.8701 562.7573)" style="&st5;"><tspan x="0" y="0" style="&st21; &st12;">1</tspan></text>
    <text transform="matrix(1 0 0 1 136.5 562.7573)" style="&st5;"><tspan x="0" y="0" style="&st21; &st12;">C</tspan></text>
    <text transform="matrix(1 0 0 1 213.8599 562.7573)" style="&st5;"><tspan x="0" y="0" style="&st21; &st12;">1</tspan></text>
    <text transform="matrix(1 0 0 1 221.4902 562.7573)" style="&st5;"><tspan x="0" y="0" style="&st21; &st12;">D</tspan></text>
</g>
<g ewd:code="A70" ewd:figID="5" ewd:figtype="conn">
    <path style="&st6;" d="M334.44,532.47h17v16.99h-17V532.47"/><path style="&st11;" d="M342.94,532.47v16.99"/>
    <text transform="matrix(1 0 0 1 336.1504 557.6558)" style="&st5;"><tspan x="0" y="0" style="&st21; &st12;">6</tspan></text>
    <text transform="matrix(1 0 0 1 336.1504 528.7769)" style="&st5;"><tspan x="0" y="0" style="&st21; &st12;">7</tspan></text>
    <text transform="matrix(0 -1 1 0 359.0498 551.9858)" style="&st5;"><tspan x="0" y="0" style="&st21; &st12;">A70</tspan></text>
    <text ewd:textID="8" transform="matrix(0 -1 1 0 366.1602 551.9858)" style="&st5; &st21; &st12;">Junction Connector</text>
</g>
<g ewd:code="C49,G107" ewd:figID="3" ewd:figtype="conn">
    <path style="&st6;" d="M614.89,354v33.99h93.49V354H614.89"/><path style="&st17;" d="M614.89,362.5h93.49"/><path style="&st17;" d="M614.89,379.49h93.49"/><path style="&st11;" d="M699.88,354v33.99"/><path style="&st11;" d="M623.39,354v33.99"/><path style="&st6;" d="M627.93,392.52c0-2.5-2.03-4.53-4.54-4.53"/><path style="&st6;" d="M623.39,387.99c-2.5,0-4.53,2.03-4.53,4.53"/><path style="&st6;" d="M618.86,392.52c0,2.51,2.03,4.54,4.53,4.54"/><path style="&st6;" d="M623.39,397.06c2.51,0,4.54-2.03,4.54-4.54"/><path style="&st6;" d="M627.93,349.46c0-2.5-2.03-4.53-4.54-4.53"/><path style="&st6;" d="M623.39,344.93c-2.5,0-4.53,2.03-4.53,4.53"/><path style="&st6;" d="M618.86,349.46c0,2.51,2.03,4.54,4.53,4.54"/><path style="&st6;" d="M623.39,354c2.51,0,4.54-2.03,4.54-4.54"/><path style="&st6;" d="M704.41,349.46c0-2.5-2.03-4.53-4.53-4.53"/><path style="&st6;" d="M699.88,344.93c-2.5,0-4.53,2.03-4.53,4.53"/><path style="&st6;" d="M695.35,349.46c0,2.51,2.03,4.54,4.53,4.54"/><path style="&st6;" d="M699.88,354c2.5,0,4.53-2.03,4.53-4.54"/><path style="&st6;" d="M704.41,392.52c0-2.5-2.03-4.53-4.53-4.53"/><path style="&st6;" d="M699.88,387.99c-2.5,0-4.53,2.03-4.53,4.53"/><path style="&st6;" d="M695.35,392.52c0,2.51,2.03,4.54,4.53,4.54"/><path style="&st6;" d="M699.88,397.06c2.5,0,4.53-2.03,4.53-4.54"/>
    <text transform="matrix(1 0 0 1 621.0601 394.4868)" style="&st5;"><tspan x="0" y="0" style="&st21; &st12;">A</tspan></text>
    <text transform="matrix(1 0 0 1 609.3394 394.4868)" style="&st5;"><tspan x="0" y="0" style="&st21; &st12;">12</tspan></text>
    <text transform="matrix(1 0 0 1 621.0601 351.4268)" style="&st5;"><tspan x="0" y="0" style="&st21; &st12;">B</tspan></text>
    <text transform="matrix(1 0 0 1 609.3394 351.4268)" style="&st5;"><tspan x="0" y="0" style="&st21; &st12;">21</tspan></text>
    <text transform="matrix(0 -1 1 0 715.9897 390.5171)" style="&st5;"><tspan x="0" y="0" style="&st21; &st12;">C49(A),G107(B)</tspan></text>
    <text ewd:textID="8" transform="matrix(0 -1 1 0 723.0991 390.5171)" style="&st5; &st21; &st12;">Junction Connector</text>
    <text transform="matrix(1 0 0 1 685.8296 351.4268)" style="&st5;"><tspan x="0" y="0" style="&st21; &st12;">17</tspan></text>
    <text transform="matrix(1 0 0 1 697.5503 351.4268)" style="&st5;"><tspan x="0" y="0" style="&st21; &st12;">B</tspan></text>
    <text transform="matrix(1 0 0 1 685.8296 394.4868)" style="&st5;"><tspan x="0" y="0" style="&st21; &st12;">17</tspan></text>
    <text transform="matrix(1 0 0 1 697.5503 394.4868)" style="&st5;"><tspan x="0" y="0" style="&st21; &st12;">A</tspan></text>
</g>
<g ewd:code="C40" ewd:figID="6" ewd:figtype="conn">
    <path style="&st6;" d="M657.39,455.98h50.99v50.99h-50.99V455.98"/><path style="&st11;" d="M657.39,489.97h50.99"/><path style="&st11;" d="M674.38,455.98v50.99"/><path style="&st11;" d="M691.38,455.98v50.99"/><path style="&st11;" d="M698.46,481.48H684.3"/><path style="&st11;" d="M684.3,498.47h14.16"/><path style="&st11;" d="M657.39,472.98h50.99"/><path style="&st11;" d="M701.3,481.48c0-0.79-0.64-1.42-1.42-1.42"/><path style="&st11;" d="M699.88,480.06c-0.78,0-1.42,0.63-1.42,1.42"/><path style="&st11;" d="M698.46,481.48c0,0.78,0.64,1.41,1.42,1.41"/><path style="&st11;" d="M699.88,482.89c0.78,0,1.42-0.63,1.42-1.41"/><path style="&st11;" d="M701.3,498.47c0-0.78-0.64-1.41-1.42-1.41"/><path style="&st11;" d="M699.88,497.06c-0.78,0-1.42,0.63-1.42,1.41"/><path style="&st11;" d="M698.46,498.47c0,0.78,0.64,1.42,1.42,1.42"/><path style="&st11;" d="M699.88,499.89c0.78,0,1.42-0.64,1.42-1.42"/><path style="&st11;" d="M684.3,498.47c0-0.78-0.63-1.41-1.42-1.41"/><path style="&st11;" d="M682.88,497.06c-0.78,0-1.41,0.63-1.41,1.41"/><path style="&st11;" d="M681.47,498.47c0,0.78,0.63,1.42,1.41,1.42"/><path style="&st11;" d="M682.88,499.89c0.79,0,1.42-0.64,1.42-1.42"/><path style="&st11;" d="M684.3,481.48c0-0.79-0.63-1.42-1.42-1.42"/><path style="&st11;" d="M682.88,480.06c-0.78,0-1.41,0.63-1.41,1.42"/><path style="&st11;" d="M681.47,481.48c0,0.78,0.63,1.41,1.41,1.41"/><path style="&st11;" d="M682.88,482.89c0.79,0,1.42-0.63,1.42-1.41"/>
    <text transform="matrix(1 0 0 1 663.5601 483.437)" style="&st5;"><tspan x="0" y="0" style="&st21; &st12;">P</tspan></text>
    <text transform="matrix(1 0 0 1 663.4097 500.437)" style="&st5;"><tspan x="0" y="0" style="&st21; &st12;">N</tspan></text>
    <text transform="matrix(1 0 0 1 693.0894 452.2866)" style="&st5;"><tspan x="0" y="0" style="&st21; &st12;">4</tspan></text>
    <text transform="matrix(1 0 0 1 676.0894 515.1558)" style="&st5;"><tspan x="0" y="0" style="&st21; &st12;">5</tspan></text>
    <text transform="matrix(1 0 0 1 680.9097 466.4468)" style="&st5;"><tspan x="0" y="0" style="&st21; &st12;">L</tspan></text>
    <text transform="matrix(1 0 0 1 697.5503 466.4468)" style="&st5;"><tspan x="0" y="0" style="&st21; &st12;">B</tspan></text>
    <text transform="matrix(0 -1 1 0 715.9897 509.4976)" style="&st5;"><tspan x="0" y="0" style="&st21; &st12;">C40</tspan></text>
    <text ewd:textID="9" transform="matrix(0 -1 1 0 723.0991 509.4976)" style="&st5; &st21; &st12;">Park/Neutral <tspan x="0" y="7">Position Switch</tspan></text>
</g>
<g ewd:code="A40,A41" ewd:figID="7" ewd:figtype="conn">
    <path style="&st6;" d="M784.87,440.4l5.66-22.66"/><path style="&st11;" d="M784.87,447.48v-4.25"/><path style="&st11;" d="M784.87,417.74v-4.25"/><path style="&st6;" d="M793.36,447.48v-33.99h-16.99v33.99H793.36"/><path style="&st11;" d="M786.28,441.82c0-0.79-0.63-1.42-1.41-1.42"/><path style="&st11;" d="M784.87,440.4c-0.79,0-1.42,0.63-1.42,1.42"/><path style="&st11;" d="M783.45,441.82c0,0.78,0.63,1.41,1.42,1.41"/><path style="&st11;" d="M784.87,443.23c0.78,0,1.41-0.63,1.41-1.41"/><path style="&st11;" d="M786.28,419.15c0-0.78-0.63-1.41-1.41-1.41"/><path style="&st11;" d="M784.87,417.74c-0.79,0-1.42,0.63-1.42,1.41"/><path style="&st11;" d="M783.45,419.15c0,0.78,0.63,1.42,1.42,1.42"/><path style="&st11;" d="M784.87,420.57c0.78,0,1.41-0.64,1.41-1.42"/><path style="&st6;" d="M789.4,408.95c0-2.5-2.03-4.53-4.53-4.53"/><path style="&st6;" d="M784.87,404.42c-2.51,0-4.54,2.03-4.54,4.53"/><path style="&st6;" d="M780.33,408.95c0,2.51,2.03,4.54,4.54,4.54"/><path style="&st6;" d="M784.87,413.49c2.5,0,4.53-2.03,4.53-4.54"/><path style="&st6;" d="M789.4,399.89c0-2.5-2.03-4.53-4.53-4.53"/><path style="&st6;" d="M784.87,395.36c-2.51,0-4.54,2.03-4.54,4.53"/><path style="&st6;" d="M780.33,399.89c0,2.5,2.03,4.53,4.54,4.53"/><path style="&st6;" d="M784.87,404.42c2.5,0,4.53-2.03,4.53-4.53"/><path style="&st6;" d="M789.4,461.08c0-2.5-2.03-4.53-4.53-4.53"/><path style="&st6;" d="M784.87,456.55c-2.51,0-4.54,2.03-4.54,4.53"/><path style="&st6;" d="M780.33,461.08c0,2.5,2.03,4.53,4.54,4.53"/><path style="&st6;" d="M784.87,465.61c2.5,0,4.53-2.03,4.53-4.53"/><path style="&st6;" d="M789.4,452.01c0-2.5-2.03-4.53-4.53-4.53"/><path style="&st6;" d="M784.87,447.48c-2.51,0-4.54,2.03-4.54,4.53"/><path style="&st6;" d="M780.33,452.01c0,2.51,2.03,4.54,4.54,4.54"/><path style="&st6;" d="M784.87,456.55c2.5,0,4.53-2.03,4.53-4.54"/>
    <text transform="matrix(1 0 0 1 782.5405 410.9165)" style="&st5;"><tspan x="0" y="0" style="&st21; &st12;">A</tspan></text>
    <text transform="matrix(1 0 0 1 773.9897 410.9165)" style="&st5;"><tspan x="0" y="0" style="&st21; &st12;">2</tspan></text>
    <text transform="matrix(1 0 0 1 782.5405 401.8569)" style="&st5;"><tspan x="0" y="0" style="&st21; &st12;">B</tspan></text>
    <text transform="matrix(1 0 0 1 782.5405 463.0464)" style="&st5;"><tspan x="0" y="0" style="&st21; &st12;">B</tspan></text>
    <text transform="matrix(1 0 0 1 774.769 463.0464)" style="&st5;"><tspan x="0" y="0" style="&st21; &st12;">1</tspan></text>
    <text transform="matrix(1 0 0 1 782.5405 453.9761)" style="&st5;"><tspan x="0" y="0" style="&st21; &st12;">A</tspan></text>
    <text transform="matrix(1 0 0 1 774.769 453.9761)" style="&st5;"><tspan x="0" y="0" style="&st21; &st12;">1</tspan></text>
    <text ewd:textID="6" transform="matrix(0 -1 1 0 766.7202 450.0073)" style="&st5; &st21; &st12;">Clutch Start <tspan x="0" y="7">Switch Assembly</tspan></text>
    <text transform="matrix(0 -1 1 0 759.6206 450.0073)" style="&st5;"><tspan x="0" y="0" style="&st21; &st12;">A40(A),A41(B)</tspan></text>
    <text transform="matrix(1 0 0 1 773.9897 401.8569)" style="&st5;"><tspan x="0" y="0" style="&st21; &st12;">2</tspan></text>
</g>
<g ewd:code="r1" ewd:figID="8" ewd:figtype="conn">
    <path style="&st6;" d="M895.35,440.4l5.66-22.66"/><path style="&st11;" d="M895.35,447.48v-4.25"/><path style="&st11;" d="M895.35,417.74v-4.25"/><path style="&st6;" d="M903.85,447.48v-33.99h-17v33.99H903.85"/><path style="&st11;" d="M896.76,441.82c0-0.79-0.63-1.42-1.41-1.42"/><path style="&st11;" d="M895.35,440.4c-0.78,0-1.42,0.63-1.42,1.42"/><path style="&st11;" d="M893.93,441.82c0,0.78,0.64,1.41,1.42,1.41"/><path style="&st11;" d="M895.35,443.23c0.78,0,1.41-0.63,1.41-1.41"/><path style="&st11;" d="M896.76,419.15c0-0.78-0.63-1.41-1.41-1.41"/><path style="&st11;" d="M895.35,417.74c-0.78,0-1.42,0.63-1.42,1.41"/><path style="&st11;" d="M893.93,419.15c0,0.78,0.64,1.42,1.42,1.42"/><path style="&st11;" d="M895.35,420.57c0.78,0,1.41-0.64,1.41-1.42"/>
    <text ewd:textID="6" transform="matrix(0 -1 1 0 876.2007 450.0073)" style="&st5; &st21; &st12;">Clutch Start <tspan x="0" y="7">Switch Assembly</tspan></text>
    <text transform="matrix(1 0 0 1 888.5581 409.7974)" style="&st5;"><tspan x="0" y="0" style="&st21; &st12;">2</tspan></text>
    <text transform="matrix(1 0 0 1 888.5581 455.6655)" style="&st5;"><tspan x="0" y="0" style="&st21; &st12;">1 </tspan></text>
    <text transform="matrix(0 -1 1 0 869.0991 450.0073)" style="&st5;"><tspan x="0" y="0" style="&st21; &st12;">r1</tspan></text>
</g>
<path style="&st10;" d="M11.5,549.46h33.99v59.49H11.5V549.46"/>
<path style="&st11;" d="M28.49,583.46v2.83"/>
<path style="&st11;" d="M28.49,577.79v2.84"/>
<path style="&st11;" d="M28.49,572.13v2.83"/>
<path style="&st11;" d="M28.49,591.96v25.49"/>
<path style="&st11;" d="M28.49,566.46v-17"/>
<path style="&st11;" d="M19.99,586.29h17"/>
<path style="&st11;" d="M19.99,566.46h17"/>
<path style="&st0;" d="M147.47,578.93h63.74"/>
<path style="&st6;" d="M11.5,549.46h33.99v59.49H11.5V549.46"/>
<path style="&st6;" d="M32.74,591.96v-1.42h-8.5v1.42H32.74"/>
<path style="&st6;" d="M32.74,572.13h-8.5v-1.42h8.5V572.13"/>
<path style="&st11;" d="M27.08,625.95h2.83"/>
<path style="&st11;" d="M25.66,623.12h5.67"/>
<path style="&st11;" d="M24.24,620.29h8.5"/>
<path style="&st11;" d="M19.99,617.45h17"/>
<path style="&st0;" d="M147.47,560.8h63.74"/>
<text transform="matrix(1 0 0 1 905.2593 538.687)" style="&st5;"><tspan x="0" y="0" style="&st21; &st12;">(*1)</tspan></text>
<text transform="matrix(1 0 0 1 144.9502 553.6968)" style="&st5;"><tspan x="0" y="0" style="&st21; &st12;">(*3 *6)</tspan></text>
<text transform="matrix(1 0 0 1 561.3804 50.0166)" style="&st5;"><tspan x="0" y="0" style="&st21; &st12;">* 2 :2TR-FE</tspan></text>
<text transform="matrix(1 0 0 1 561.3804 41.5166)" style="&st5;"><tspan x="0" y="0" style="&st21; &st12;">* 1 :5L-E</tspan></text>
<text transform="matrix(0 -1 1 0 619.7007 331.8564)" style="&st5;"><tspan x="0" y="0" style="&st21; &st12;">W</tspan></text>
<text transform="matrix(0 -1 1 0 792.4995 251.8867)" style="&st5;"><tspan x="0" y="0" style="&st21; &st12;">(M/T)</tspan></text>
<text transform="matrix(0 -1 1 0 781.1694 245.8467)" style="&st5;"><tspan x="0" y="0" style="&st21; &st12;">B</tspan></text>
<text transform="matrix(0 -1 1 0 707.519 251.3164)" style="&st5;"><tspan x="0" y="0" style="&st21; &st12;">(A/T)</tspan></text>
<text transform="matrix(0 -1 1 0 696.1792 245.8467)" style="&st5;"><tspan x="0" y="0" style="&st21; &st12;">B</tspan></text>
<text transform="matrix(0 -1 1 0 707.519 336.3066)" style="&st5;"><tspan x="0" y="0" style="&st21; &st12;">(A/T)</tspan></text>
<text transform="matrix(0 -1 1 0 696.1792 330.8267)" style="&st5;"><tspan x="0" y="0" style="&st21; &st12;">B</tspan></text>
<text transform="matrix(0 -1 1 0 631.0308 429.7866)" style="&st5;"><tspan x="0" y="0" style="&st21; &st12;">(A/T)</tspan></text>
<text transform="matrix(0 -1 1 0 619.7007 425.3364)" style="&st5;"><tspan x="0" y="0" style="&st21; &st12;">W</tspan></text>
<text transform="matrix(0 -1 1 0 707.519 429.7866)" style="&st5;"><tspan x="0" y="0" style="&st21; &st12;">(A/T)</tspan></text>
<text transform="matrix(0 -1 1 0 696.1792 424.3159)" style="&st5;"><tspan x="0" y="0" style="&st21; &st12;">B</tspan></text>
<text transform="matrix(1 0 0 1 818.8999 302.1367)" style="&st5;"><tspan x="0" y="0" style="&st21; &st12;">(RHD M/T)</tspan></text>
<text transform="matrix(1 0 0 1 833.5308 290.8066)" style="&st5;"><tspan x="0" y="0" style="&st21; &st12;">B</tspan></text>
<text transform="matrix(0 -1 1 0 792.4995 378.9565)" style="&st5;"><tspan x="0" y="0" style="&st21; &st12;">(LHD M/T)</tspan></text>
<text transform="matrix(0 -1 1 0 781.1694 364.8267)" style="&st5;"><tspan x="0" y="0" style="&st21; &st12;">B</tspan></text>
<text transform="matrix(0 -1 1 0 902.9897 379.4468)" style="&st5;"><tspan x="0" y="0" style="&st21; &st12;">(RHD M/T)</tspan></text>
<text transform="matrix(0 -1 1 0 891.6499 364.8267)" style="&st5;"><tspan x="0" y="0" style="&st21; &st12;">B</tspan></text>
<text transform="matrix(0 -1 1 0 902.9897 600.4058)" style="&st5;"><tspan x="0" y="0" style="&st21; &st12;">(RHD M/T)</tspan></text>
<text transform="matrix(0 -1 1 0 891.6499 586.8062)" style="&st5;"><tspan x="0" y="0" style="&st21; &st12;">W</tspan></text>
<text transform="matrix(0 -1 1 0 792.4995 514.9272)" style="&st5;"><tspan x="0" y="0" style="&st21; &st12;">(LHD M/T)</tspan></text>
<text transform="matrix(0 -1 1 0 781.1694 501.8257)" style="&st5;"><tspan x="0" y="0" style="&st21; &st12;">W</tspan></text>
<text transform="matrix(1 0 0 1 229.9302 580.896)" style="&st5;"><tspan x="0" y="0" style="&st21; &st12;">(*2)</tspan></text>
<text transform="matrix(0 -1 1 0 902.9897 515.4272)" style="&st5;"><tspan x="0" y="0" style="&st21; &st12;">(RHD M/T)</tspan></text>
<text transform="matrix(0 -1 1 0 891.6499 501.8257)" style="&st5;"><tspan x="0" y="0" style="&st21; &st12;">W</tspan></text>
<text transform="matrix(0 -1 1 0 407.2402 356.8066)" style="&st5;"><tspan x="0" y="0" style="&st21; &st12;">W(LHD M/T)</tspan></text>
<text transform="matrix(1 0 0 1 229.9302 571.8257)" style="&st5;"><tspan x="0" y="0" style="&st21; &st12;">(*1,*6)</tspan></text>
<text transform="matrix(0 -1 1 0 390.2402 357.3066)" style="&st5;"><tspan x="0" y="0" style="&st21; &st12;">W(RHD M/T)</tspan></text>
<text ewd:textID="5" transform="matrix(1 0 0 1 48.6299 581.1772)" style="&st5; &st21; &st12;">Battery</text>
<text transform="matrix(0 -1 1 0 33.2998 126.5068)" style="&st5;"><tspan x="0" y="0" style="&st21; &st12;">L</tspan></text>
<text transform="matrix(1 0 0 1 633.3003 300.7266)" style="&st5;"><tspan x="0" y="0" style="&st21; &st12;">(RHD)</tspan></text>
<text transform="matrix(1 0 0 1 633.3003 292.2266)" style="&st5;"><tspan x="0" y="0" style="&st21; &st12;">(LHD)</tspan></text>
<text transform="matrix(1 0 0 1 111.5 188.8267)" style="&st5;"><tspan x="0" y="0" style="&st21; &st12;">L</tspan></text>
<text transform="matrix(1 0 0 1 161.7202 137.8364)" style="&st5;"><tspan x="0" y="0" style="&st21; &st12;">G</tspan></text>
<text transform="matrix(1 0 0 1 365.0801 248.3164)" style="&st5;"><tspan x="0" y="0" style="&st21; &st12;">W</tspan></text>
<text transform="matrix(0 -1 1 0 313.75 236.9863)" style="&st5;"><tspan x="0" y="0" style="&st21; &st12;">L</tspan></text>
<text transform="matrix(0 -1 1 0 313.75 287.9863)" style="&st5;"><tspan x="0" y="0" style="&st21; &st12;">L</tspan></text>
<text transform="matrix(0 -1 1 0 339.25 480.6772)" style="&st5;"><tspan x="0" y="0" style="&st21; &st12;">W-B</tspan></text>
<text transform="matrix(0 -1 1 0 339.25 625.146)" style="&st5;"><tspan x="0" y="0" style="&st21; &st12;">W-B</tspan></text>
<text transform="matrix(1 0 0 1 69.5801 452.2769)" style="&st5;"><tspan x="0" y="0" style="&st21; &st12;">B(*2 *4,*5)</tspan></text>
<text transform="matrix(1 0 0 1 70.5 435.2866)" style="&st5;"><tspan x="0" y="0" style="&st21; &st12;">B-R(*1,*6)</tspan></text>
<text transform="matrix(1 0 0 1 794.7808 275.2266)" style="&st5;"><tspan x="0" y="0" style="&st21; &st12;">(LHD)</tspan></text>
<text transform="matrix(1 0 0 1 794.7808 266.7266)" style="&st5;"><tspan x="0" y="0" style="&st21; &st12;">(RHD *1,RHD *6)</tspan></text>
<text transform="matrix(1 0 0 1 498.5601 248.3164)" style="&st5;"><tspan x="0" y="0" style="&st21; &st12;">W</tspan></text>
<text transform="matrix(1 0 0 1 536.5503 248.3164)" style="&st5;"><tspan x="0" y="0" style="&st21; &st12;">W</tspan></text>
<text transform="matrix(1 0 0 1 496.2593 154.8267)" style="&st5;"><tspan x="0" y="0" style="&st21; &st12;">SB</tspan></text>
<text transform="matrix(1 0 0 1 535.2495 154.8267)" style="&st5;"><tspan x="0" y="0" style="&st21; &st12;">SB</tspan></text>
<text transform="matrix(1 0 0 1 469.0991 596.7573)" style="&st5;"><tspan x="0" y="0" style="&st21; &st12;">W(LHD M/T)</tspan></text>
<text transform="matrix(1 0 0 1 468.6108 613.7573)" style="&st5;"><tspan x="0" y="0" style="&st21; &st12;">W(RHD M/T)</tspan></text>
<text transform="matrix(1 0 0 1 535.0894 596.7573)" style="&st5;"><tspan x="0" y="0" style="&st21; &st12;">W(LHD M/T)</tspan></text>
<text transform="matrix(1 0 0 1 535.5991 613.7573)" style="&st5;"><tspan x="0" y="0" style="&st21; &st12;">W(RHD M/T)</tspan></text>
<text transform="matrix(1 0 0 1 494.1108 259.6465)" style="&st5;"><tspan x="0" y="0" style="&st21; &st12;">(A/T)</tspan></text>
<text transform="matrix(1 0 0 1 532.0991 259.6465)" style="&st5;"><tspan x="0" y="0" style="&st21; &st12;">(A/T)</tspan></text>
<text transform="matrix(0 -1 1 0 631.0308 336.3066)" style="&st5;"><tspan x="0" y="0" style="&st21; &st12;">(A/T)</tspan></text>
<text transform="matrix(1 0 0 1 70.46 418.2866)" style="&st5;"><tspan x="0" y="0" style="&st21; &st12;">B-L(*2 *3)</tspan></text>
<text ewd:textID="1" transform="matrix(1 0 0 1 561.3804 58.5166)" style="&st5; &st21; &st12;">* 3 :Cold Area Spec.</text>
<text ewd:textID="2" transform="matrix(1 0 0 1 561.3804 67.0068)" style="&st5; &st21; &st12;">* 4 :Except *3</text>
<text transform="matrix(1 0 0 1 229.9302 562.7573)" style="&st5;"><tspan x="0" y="0" style="&st21; &st12;">(*5)</tspan></text>
<text transform="matrix(1 0 0 1 144.9502 571.8257)" style="&st5;"><tspan x="0" y="0" style="&st21; &st12;">(*1,*4 *6)</tspan></text>
<text transform="matrix(0 -1 1 0 305.25 466.8062)" style="&st5;"><tspan x="0" y="0" style="&st21; &st12;">B</tspan></text>
<text transform="matrix(0 -1 1 0 316.5801 470.6558)" style="&st5;"><tspan x="0" y="0" style="&st21; &st12;">(*5)</tspan></text>
<text transform="matrix(0 -1 1 0 177.77 466.8062)" style="&st5;"><tspan x="0" y="0" style="&st21; &st12;">B</tspan></text>
<text transform="matrix(0 -1 1 0 189.1001 475.6772)" style="&st5;"><tspan x="0" y="0" style="&st21; &st12;">(*6 *7)</tspan></text>
<text transform="matrix(0 -1 1 0 220.2598 466.8062)" style="&st5;"><tspan x="0" y="0" style="&st21; &st12;">B</tspan></text>
<text transform="matrix(0 -1 1 0 231.6001 480.1558)" style="&st5;"><tspan x="0" y="0" style="&st21; &st12;">(*1,*6 *8)</tspan></text>
<text transform="matrix(0 -1 1 0 262.7598 466.8062)" style="&st5;"><tspan x="0" y="0" style="&st21; &st12;">B</tspan></text>
<text transform="matrix(0 -1 1 0 274.0898 470.6558)" style="&st5;"><tspan x="0" y="0" style="&st21; &st12;">(*2)</tspan></text>
<text transform="matrix(0 -1 1 0 305.25 517.7964)" style="&st5;"><tspan x="0" y="0" style="&st21; &st12;">B</tspan></text>
<text transform="matrix(0 -1 1 0 316.5801 521.646)" style="&st5;"><tspan x="0" y="0" style="&st21; &st12;">(*5)</tspan></text>
<text transform="matrix(0 -1 1 0 262.7598 517.7964)" style="&st5;"><tspan x="0" y="0" style="&st21; &st12;">B</tspan></text>
<text transform="matrix(0 -1 1 0 274.0898 521.646)" style="&st5;"><tspan x="0" y="0" style="&st21; &st12;">(*2)</tspan></text>
<text transform="matrix(0 -1 1 0 220.2598 517.7964)" style="&st5;"><tspan x="0" y="0" style="&st21; &st12;">B</tspan></text>
<text transform="matrix(0 -1 1 0 231.6001 531.146)" style="&st5;"><tspan x="0" y="0" style="&st21; &st12;">(*1,*6 *8)</tspan></text>
<text transform="matrix(0 -1 1 0 177.77 517.7964)" style="&st5;"><tspan x="0" y="0" style="&st21; &st12;">B</tspan></text>
<text transform="matrix(0 -1 1 0 189.1001 526.6675)" style="&st5;"><tspan x="0" y="0" style="&st21; &st12;">(*6 *7)</tspan></text>
<text transform="matrix(1 0 0 1 561.3804 84.0068)" style="&st5;"><tspan x="0" y="0" style="&st21; &st12;">* 6 :1KD-FTV</tspan></text>
<text transform="matrix(1 0 0 1 561.3804 75.5068)" style="&st5;"><tspan x="0" y="0" style="&st21; &st12;">* 5 :1GR-FE</tspan></text>
<text ewd:textID="3" transform="matrix(1 0 0 1 561.3804 92.5068)" style="&st5; &st21; &st12;">* 7 :w/ DPF</text>
<text ewd:textID="4" transform="matrix(1 0 0 1 561.3804 101.0068)" style="&st5; &st21; &st12;">* 8 :w/o DPF</text>
<text transform="matrix(1 0 0 1 905.2593 326.2168)" style="&st5;"><tspan x="0" y="0" style="&st21; &st12;">(*1)</tspan></text>
<text transform="matrix(1 0 0 1 905.2593 317.7168)" style="&st5;"><tspan x="0" y="0" style="&st21; &st12;">(*6)</tspan></text>
<text transform="matrix(1 0 0 1 790.8394 410.9165)" style="&st5;"><tspan x="0" y="0" style="&st21; &st12;">(*1,*5)</tspan></text>
<text transform="matrix(1 0 0 1 790.8394 401.8569)" style="&st5;"><tspan x="0" y="0" style="&st21; &st12;">(*2,*6)</tspan></text>
<text transform="matrix(1 0 0 1 790.8394 463.0464)" style="&st5;"><tspan x="0" y="0" style="&st21; &st12;">(*2,*6)</tspan></text>
<text transform="matrix(1 0 0 1 790.8394 453.9761)" style="&st5;"><tspan x="0" y="0" style="&st21; &st12;">(*1,*5)</tspan></text>
<text transform="matrix(1 0 0 1 905.2593 547.1772)" style="&st5;"><tspan x="0" y="0" style="&st21; &st12;">(*6)</tspan></text>
</g>
</svg>
