﻿<?xml version="1.0" encoding="UTF-8"?>
<!DOCTYPE svg PUBLIC "-//W3C//DTD SVG 1.0//EN" "http://www.w3.org/TR/2001/REC-SVG-20010904/DTD/svg10.dtd"[
<!ENTITY ns_flows "http://ns.adobe.com/Flows/1.0/">
<!ENTITY ns_svg "http://www.w3.org/2000/svg">
<!ENTITY ns_xlink "http://www.w3.org/1999/xlink">
	<!ENTITY st0 "fill:none;stroke:#FB0F0C;stroke-width:5.1;stroke-linejoin:round;">
	<!ENTITY st1 "fill:none;stroke:#9A9999;stroke-width:5.1;stroke-linejoin:round;">
		<!ENTITY st2 "fill:none;stroke:#000000;stroke-width:0.85;stroke-linecap:round;stroke-linejoin:round;stroke-dasharray:3 1.5;enable-background:new    ;">
	<!ENTITY st3 "fill:none;stroke:#000000;stroke-width:5.1;stroke-linejoin:round;">
	<!ENTITY st4 "fill:none;stroke:#000000;stroke-linecap:round;stroke-linejoin:round;">
	<!ENTITY st5 "stroke:#000000;stroke-width:0.28;stroke-linecap:round;stroke-linejoin:round;enable-background:new    ;">
	<!ENTITY st6 "enable-background:new    ;">
		<!ENTITY st7 "fill:none;stroke:#000000;stroke-width:1.42;stroke-linecap:round;stroke-linejoin:round;enable-background:new    ;">
	<!ENTITY st8 "fill:none;stroke:#EE67AA;stroke-width:5.1;stroke-linejoin:round;">
	<!ENTITY st9 "fill:none;stroke:#199DBF;stroke-width:5.1;stroke-linejoin:round;">
	<!ENTITY st10 "opacity:0.5;fill:none;stroke:#34ACCE;stroke-linejoin:round;stroke-dasharray:6;">
	<!ENTITY st11 "fill:none;stroke:#FFFFFF;stroke-width:4.53;stroke-linejoin:round;">
		<!ENTITY st12 "fill:#CFE6E7;stroke:#000000;stroke-width:1.133;stroke-linecap:round;stroke-linejoin:round;enable-background:new    ;">
		<!ENTITY st13 "fill:none;stroke:#000000;stroke-width:0.85;stroke-linecap:round;stroke-linejoin:round;enable-background:new    ;">
	<!ENTITY st14 "fill:none;stroke:#56107C;stroke-width:5.1;stroke-linejoin:round;">
	<!ENTITY st15 "font-size:6px;">
	<!ENTITY st16 "fill:none;stroke:#168638;stroke-width:5.1;stroke-linejoin:round;">
	<!ENTITY st17 "fill:none;stroke:#000000;stroke-width:1.13;stroke-linejoin:round;">
		<!ENTITY st18 "fill:none;stroke:#000000;stroke-width:1.13;stroke-linecap:round;stroke-linejoin:round;stroke-dasharray:3 1.5;enable-background:new    ;">
	<!ENTITY st19 "fill:#FFFFFF;stroke:#000000;stroke-width:1.41;stroke-linecap:round;stroke-linejoin:round;">
	<!ENTITY st20 "fill:none;stroke:#3E65AC;stroke-width:3;">
	<!ENTITY st21 "fill:#CCCCCC;stroke:#CCCCCC;stroke-width:0.1;stroke-linecap:round;stroke-linejoin:round;">
	<!ENTITY st22 "font-family:'ArialMT';">
	<!ENTITY st23 "opacity:0.5;fill:none;stroke:#34ACCE;stroke-linejoin:round;">
	<!ENTITY st24 "fill:#CFE6E7;stroke:#000000;stroke-width:1.133;stroke-linecap:round;stroke-linejoin:round;">
	<!ENTITY st25 "fill:none;stroke:#99D5E0;stroke-width:5.1;stroke-linejoin:round;">
<!ATTLIST svg
xmlns:ewd CDATA #FIXED "http://shcl.co.jp/ewd"
xmlns:a CDATA #FIXED "http://ns.adobe.com/AdobeSVGViewerExtensions/3.0/"
ewd:ver CDATA #IMPLIED
>
<!ATTLIST a
ewd:lineID CDATA #IMPLIED
ewd:groupID CDATA #IMPLIED
ewd:figtype CDATA #IMPLIED
ewd:code CDATA #IMPLIED
ewd:figID CDATA #IMPLIED
ewd:pinNo CDATA #IMPLIED
ewd:comment CDATA #IMPLIED >
<!ATTLIST g
ewd:lineID CDATA #IMPLIED
ewd:groupID CDATA #IMPLIED
ewd:figtype CDATA #IMPLIED
ewd:code CDATA #IMPLIED
ewd:figID CDATA #IMPLIED
ewd:pinNo CDATA #IMPLIED
ewd:comment CDATA #IMPLIED >
<!ATTLIST text
ewd:textID CDATA #IMPLIED >
<!ATTLIST title
ewd:textID CDATA #IMPLIED >
]>
<svg 
viewBox='0 0 2595.05 729.44'
height='729.44'
width='2595.05'
xml:space="preserve"
xmlns="&ns_svg;"
xmlns:ewd="http://shcl.co.jp/ewd"
xmlns:xlink="&ns_xlink;" ewd:ver="L2.1">
<g ewd:code="GH1" ewd:figID="601" ewd:figtype="w2w" ewd:pinNo="3">
<path style="&st7;" d="M880.28,184.03h-8.49"/>
<path style="&st7;" d="M876.03,193.09l-4.25-4.25l-4.24,4.25"/>
<path style="&st7;" d="M876.03,189.69l-4.25-4.25l-4.24,4.25"/>
<text transform="matrix(1 0 0 1 856.9565 181.7466)" style="&st6;"><tspan x="0" y="0" style="&st22; &st15;">3</tspan></text>
</g>
<g ewd:code="GH1" ewd:figID="602" ewd:figtype="w2w" ewd:pinNo="4">
<path style="&st7;" d="M914.28,184.03h-8.5"/>
<path style="&st7;" d="M910.03,193.09l-4.25-4.25l-4.25,4.25"/>
<path style="&st7;" d="M910.03,189.69l-4.25-4.25l-4.25,4.25"/>
<text transform="matrix(1 0 0 1 890.9458 181.7466)" style="&st6;"><tspan x="0" y="0" style="&st22; &st15;">4</tspan></text>
</g>
<g ewd:code="GH1" ewd:figID="603" ewd:figtype="w2w" ewd:pinNo="5">
<path style="&st7;" d="M948.27,184.03h-8.5"/>
<path style="&st7;" d="M944.02,193.09l-4.25-4.25l-4.25,4.25"/>
<path style="&st7;" d="M944.02,189.69l-4.25-4.25l-4.25,4.25"/>
<text transform="matrix(1 0 0 1 924.9458 181.7466)" style="&st6;"><tspan x="0" y="0" style="&st22; &st15;">5</tspan></text>
</g>
<g ewd:code="2" ewd:figID="302" ewd:figtype="jb">
<path style="&st7;" d="M771.93,150.03h-4.25"/>
<path style="&st7;" d="M771.93,158.53h-4.25"/>
<path style="&st5;" d="M769.8,145.14l-2.83-2.84v4.25l2.83,2.84l2.83-2.84v-4.25L769.8,145.14"/>
<path style="&st13;" d="M769.8,150.03V82.04"/>
<path style="&st7;" d="M767.68,150.03c-2.35,0-4.25,1.9-4.25,4.25"/>
<path style="&st7;" d="M763.43,154.28c0,2.35,1.9,4.25,4.25,4.25"/>
<path style="&st7;" d="M771.93,158.53c2.34,0,4.25-1.9,4.25-4.25"/>
<path style="&st7;" d="M776.18,154.28c0-2.35-1.91-4.25-4.25-4.25"/>
<text transform="matrix(1 0 0 1 765.353 156.2466)" style="&st6;"><tspan x="0" y="0" style="&st22; &st15;">2D</tspan></text>
<text transform="matrix(1 0 0 1 757.1128 156.2466)" style="&st6;"><tspan x="0" y="0" style="&st22; &st15;">4</tspan></text>
</g>
<g ewd:code="G5" ewd:figID="201" ewd:figtype="gp">
<path style="&st13;" d="M616.83,701.02v4.25"/>
<path style="&st13;" d="M608.33,705.27h17"/>
<path style="&st13;" d="M612.58,708.1h8.5"/>
<path style="&st13;" d="M613.99,710.94h5.67"/>
<path style="&st13;" d="M615.41,713.77h2.83"/>
</g>
<g ewd:code="G3" ewd:figID="202" ewd:figtype="gp">
<path style="&st13;" d="M769.8,701.02v4.25"/>
<path style="&st13;" d="M761.3,705.27h17"/>
<path style="&st13;" d="M765.55,708.1h8.5"/>
<path style="&st13;" d="M766.97,710.94h5.66"/>
<path style="&st13;" d="M768.39,713.77h2.83"/>
</g>
<g ewd:code="G128-C,G129-D" ewd:figID="11" ewd:figtype="conn">
<path style="&st18;" d="M557.34,540.97h16.99"/>
<path style="&st7;" d="M557.34,532.47h16.99v25.49h-16.99V532.47"/>
<path style="&st13;" d="M565.84,532.47v25.49"/>
<path style="&st18;" d="M557.34,549.46h16.99"/>
<path style="&st7;" d="M570.37,562.5c0-2.51-2.03-4.54-4.53-4.54"/>
<path style="&st7;" d="M565.84,557.96c-2.51,0-4.54,2.03-4.54,4.54"/>
<path style="&st7;" d="M561.3,562.5c0,2.5,2.03,4.53,4.54,4.53"/>
<path style="&st7;" d="M565.84,567.03c2.5,0,4.53-2.03,4.53-4.53"/>
<path style="&st7;" d="M570.37,527.93c0-2.5-2.03-4.53-4.53-4.53"/>
<path style="&st7;" d="M565.84,523.4c-2.51,0-4.54,2.03-4.54,4.53"/>
<path style="&st7;" d="M561.3,527.93c0,2.51,2.03,4.54,4.54,4.54"/>
<path style="&st7;" d="M565.84,532.47c2.5,0,4.53-2.03,4.53-4.54"/>
<text transform="matrix(1 0 0 1 554.9634 564.4565)" style="&st6;"><tspan x="0" y="0" style="&st22; &st15;">7</tspan></text>
<text transform="matrix(1 0 0 1 563.3628 564.4565)" style="&st6;"><tspan x="0" y="0" style="&st22; &st15;">C</tspan></text>
<text transform="matrix(1 0 0 1 551.7827 529.896)" style="&st6;"><tspan x="0" y="0" style="&st22; &st15;">12</tspan></text>
<text transform="matrix(1 0 0 1 563.3628 529.896)" style="&st6;"><tspan x="0" y="0" style="&st22; &st15;">D</tspan></text>
<text ewd:textID="25" transform="matrix(0 -1 1 0 589.0532 560.4858)" style="&st6; &st22; &st15;">Junction Connector</text>
<text transform="matrix(0 -1 1 0 581.9526 560.4858)" style="&st6;"><tspan x="0" y="0" style="&st22; &st15;">G128(C),G129(D)</tspan></text>
</g>
<g ewd:code="G106" ewd:figID="13" ewd:figtype="conn">
<path style="&st7;" d="M608.33,659.95v16.99h17v-16.99H608.33"/>
<path style="&st13;" d="M616.83,659.95v25.49"/>
<text transform="matrix(1 0 0 1 610.0435 656.2573)" style="&st6;"><tspan x="0" y="0" style="&st22; &st15;">4</tspan></text>
<text ewd:textID="25" transform="matrix(1 0 0 1 628.4731 668.9976)" style="&st6; &st22; &st15;">Junction Connector</text>
<text transform="matrix(1 0 0 1 628.4731 661.8862)" style="&st6;"><tspan x="0" y="0" style="&st22; &st15;">G106</tspan></text>
</g>
<g ewd:code="G104" ewd:figID="14" ewd:figtype="conn">
<path style="&st7;" d="M761.3,659.95h17v16.99h-17V659.95"/>
<path style="&st13;" d="M769.8,659.95v25.49"/>
<text transform="matrix(1 0 0 1 763.0132 656.2573)" style="&st6;"><tspan x="0" y="0" style="&st22; &st15;">4</tspan></text>
<text ewd:textID="25" transform="matrix(1 0 0 1 781.4429 668.9976)" style="&st6; &st22; &st15;">Junction Connector</text>
<text transform="matrix(1 0 0 1 781.4429 661.8862)" style="&st6;"><tspan x="0" y="0" style="&st22; &st15;">G104</tspan></text>
</g>
<g ewd:code="G127" ewd:figID="2" ewd:figtype="conn">
<path style="&st7;" d="M710.31,319.5V337h17v-17.5"/>
<path style="&st13;" d="M718.81,337v-17.5"/>
<path style="&st7;" d="M723.34,341.53c0-2.5-2.03-4.53-4.53-4.53"/>
<path style="&st7;" d="M718.81,337c-2.5,0-4.53,2.03-4.53,4.53"/>
<path style="&st7;" d="M714.28,341.53c0,2.51,2.03,4.53,4.53,4.53"/>
<path style="&st7;" d="M718.81,346.06c2.5,0,4.53-2.02,4.53-4.53"/>
<path style="&st7;" d="M723.34,314.97c0-2.5-2.03-4.53-4.53-4.53"/>
<path style="&st7;" d="M718.81,310.44c-2.5,0-4.53,2.03-4.53,4.53"/>
<path style="&st7;" d="M714.28,314.97c0,2.5,2.03,4.53,4.53,4.53"/>
<path style="&st7;" d="M718.81,319.5c2.5,0,4.53-2.03,4.53-4.53"/>
<text transform="matrix(1 0 0 1 716.4829 316.9365)" style="&st6;"><tspan x="0" y="0" style="&st22; &st15;">B</tspan></text>
<text transform="matrix(1 0 0 1 707.9331 316.9365)" style="&st6;"><tspan x="0" y="0" style="&st22; &st15;">8</tspan></text>
<text transform="matrix(1 0 0 1 716.4829 343.4966)" style="&st6;"><tspan x="0" y="0" style="&st22; &st15;">B</tspan></text>
<text transform="matrix(1 0 0 1 707.9331 343.4966)" style="&st6;"><tspan x="0" y="0" style="&st22; &st15;">7</tspan></text>
<text ewd:textID="25" transform="matrix(0 -1 1 0 742.0327 339.5166)" style="&st6; &st22; &st15;">Junction Connector</text>
<text transform="matrix(0 -1 1 0 734.9233 339.5166)" style="&st6;"><tspan x="0" y="0" style="&st22; &st15;">G127(B)</tspan></text>
</g>
<g ewd:code="G79,G80,G140,G141" ewd:figID="3" ewd:figtype="conn">
<path style="&st13;" d="M769.8,311.5V337"/>
<path style="&st18;" d="M761.3,328.5h17"/>
<path style="&st18;" d="M761.3,320h17"/>
<path style="&st7;" d="M761.3,311.5V337h17v-25.5H761.3"/>
<path style="&st7;" d="M774.33,350.6c0-2.51-2.02-4.54-4.53-4.54"/>
<path style="&st7;" d="M769.8,346.06c-2.5,0-4.53,2.03-4.53,4.54"/>
<path style="&st7;" d="M765.27,350.6c0,2.5,2.03,4.53,4.53,4.53"/>
<path style="&st7;" d="M769.8,355.13c2.51,0,4.53-2.03,4.53-4.53"/>
<path style="&st7;" d="M774.33,297.91c0-2.51-2.02-4.54-4.53-4.54"/>
<path style="&st7;" d="M769.8,293.37c-2.5,0-4.53,2.03-4.53,4.54"/>
<path style="&st7;" d="M765.27,297.91c0,2.5,2.03,4.53,4.53,4.53"/>
<path style="&st7;" d="M769.8,302.44c2.51,0,4.53-2.03,4.53-4.53"/>
<path style="&st7;" d="M774.33,341.53c0-2.5-2.02-4.53-4.53-4.53"/>
<path style="&st7;" d="M769.8,337c-2.5,0-4.53,2.03-4.53,4.53"/>
<path style="&st7;" d="M765.27,341.53c0,2.51,2.03,4.53,4.53,4.53"/>
<path style="&st7;" d="M769.8,346.06c2.51,0,4.53-2.02,4.53-4.53"/>
<path style="&st7;" d="M774.33,306.97c0-2.5-2.02-4.53-4.53-4.53"/>
<path style="&st7;" d="M769.8,302.44c-2.5,0-4.53,2.03-4.53,4.53"/>
<path style="&st7;" d="M765.27,306.97c0,2.5,2.03,4.53,4.53,4.53"/>
<path style="&st7;" d="M769.8,311.5c2.51,0,4.53-2.03,4.53-4.53"/>
<text transform="matrix(1 0 0 1 756.5229 308.9365)" style="&st6;"><tspan x="0" y="0" style="&st22; &st15;">11</tspan></text>
<text transform="matrix(1 0 0 1 767.3335 308.9365)" style="&st6;"><tspan x="0" y="0" style="&st22; &st15;">D</tspan></text>
<text transform="matrix(1 0 0 1 756.5229 299.8765)" style="&st6;"><tspan x="0" y="0" style="&st22; &st15;">11</tspan></text>
<text transform="matrix(1 0 0 1 767.4731 299.8765)" style="&st6;"><tspan x="0" y="0" style="&st22; &st15;">B</tspan></text>
<text transform="matrix(1 0 0 1 758.9331 352.5664)" style="&st6;"><tspan x="0" y="0" style="&st22; &st15;">7</tspan></text>
<text transform="matrix(1 0 0 1 767.3335 352.5664)" style="&st6;"><tspan x="0" y="0" style="&st22; &st15;">C</tspan></text>
<text transform="matrix(1 0 0 1 758.9331 343.4966)" style="&st6;"><tspan x="0" y="0" style="&st22; &st15;">7</tspan></text>
<text transform="matrix(1 0 0 1 767.4731 343.4966)" style="&st6;"><tspan x="0" y="0" style="&st22; &st15;">A</tspan></text>
<text ewd:textID="25" transform="matrix(1 0 0 1 781.4429 329.3364)" style="&st6; &st22; &st15;">Junction <tspan x="0" y="7">Connector</tspan></text>
<text transform="matrix(1 0 0 1 781.4429 316.2764)" style="&st6;"><tspan x="0" y="0" style="&st22; &st15;">G79(A),G80(B),</tspan></text>
<text transform="matrix(1 0 0 1 781.4429 322.2764)" style="&st6;"><tspan x="0" y="0" style="&st22; &st15;">G140(C),G141(D)</tspan></text>
</g>
<g ewd:code="H19" ewd:figID="4" ewd:figtype="conn">
<path style="&st7;" d="M854.79,235.02v33.99h101.98v-33.99H854.79"/>
<text transform="matrix(1 0 0 1 852.2632 276.6167)" style="&st6;"><tspan x="0" y="0" style="&st22; &st15;">H19</tspan></text>
<text ewd:textID="14" transform="matrix(1 0 0 1 852.2632 283.7266)" style="&st6; &st22; &st15;">Automatic Light Control Sensor</text>
<text transform="matrix(1 0 0 1 865.0034 231.3267)" style="&st6;"><tspan x="0" y="0" style="&st22; &st15;">3</tspan></text>
<text transform="matrix(1 0 0 1 898.9927 231.3267)" style="&st6;"><tspan x="0" y="0" style="&st22; &st15;">5</tspan></text>
<text transform="matrix(1 0 0 1 932.9829 231.3267)" style="&st6;"><tspan x="0" y="0" style="&st22; &st15;">6</tspan></text>
<text transform="matrix(1 0 0 1 862.8833 242.6465)" style="&st6;"><tspan x="0" y="0" style="&st22; &st15;">CLTE</tspan></text>
<text transform="matrix(1 0 0 1 896.8833 242.6465)" style="&st6;"><tspan x="0" y="0" style="&st22; &st15;">CLTS</tspan></text>
<text transform="matrix(1 0 0 1 930.8735 242.6465)" style="&st6;"><tspan x="0" y="0" style="&st22; &st15;">CLTB</tspan></text>
</g>
<g ewd:code="G81-A,G82-B,G164,G165" ewd:figID="12" ewd:figtype="conn">
<path style="&st7;" d="M608.33,523.4h17v25.49h-17V523.4"/>
<path style="&st13;" d="M616.83,523.4v25.49"/>
<path style="&st7;" d="M621.36,518.86c0-2.5-2.03-4.53-4.53-4.53"/>
<path style="&st7;" d="M616.83,514.33c-2.51,0-4.53,2.03-4.53,4.53"/>
<path style="&st7;" d="M612.3,518.86c0,2.51,2.02,4.54,4.53,4.54"/>
<path style="&st7;" d="M616.83,523.4c2.5,0,4.53-2.03,4.53-4.54"/>
<path style="&st7;" d="M621.36,553.43c0-2.51-2.03-4.54-4.53-4.54"/>
<path style="&st7;" d="M616.83,548.89c-2.51,0-4.53,2.03-4.53,4.54"/>
<path style="&st7;" d="M612.3,553.43c0,2.5,2.02,4.53,4.53,4.53"/>
<path style="&st7;" d="M616.83,557.96c2.5,0,4.53-2.03,4.53-4.53"/>
<path style="&st7;" d="M621.36,509.79c0-2.5-2.03-4.53-4.53-4.53"/>
<path style="&st7;" d="M616.83,505.26c-2.51,0-4.53,2.03-4.53,4.53"/>
<path style="&st7;" d="M612.3,509.79c0,2.51,2.02,4.54,4.53,4.54"/>
<path style="&st7;" d="M616.83,514.33c2.5,0,4.53-2.03,4.53-4.54"/>
<path style="&st7;" d="M621.36,562.5c0-2.51-2.03-4.54-4.53-4.54"/>
<path style="&st7;" d="M616.83,557.96c-2.51,0-4.53,2.03-4.53,4.54"/>
<path style="&st7;" d="M612.3,562.5c0,2.5,2.02,4.53,4.53,4.53"/>
<path style="&st7;" d="M616.83,567.03c2.5,0,4.53-2.03,4.53-4.53"/>
<path style="&st18;" d="M608.34,531.61h16.99"/>
<path style="&st18;" d="M608.34,540.1h16.99"/>
<text transform="matrix(1 0 0 1 605.9526 555.3862)" style="&st6;"><tspan x="0" y="0" style="&st22; &st15;">7</tspan></text>
<text transform="matrix(1 0 0 1 614.5034 555.3862)" style="&st6;"><tspan x="0" y="0" style="&st22; &st15;">A</tspan></text>
<text transform="matrix(1 0 0 1 602.7729 520.8257)" style="&st6;"><tspan x="0" y="0" style="&st22; &st15;">12</tspan></text>
<text transform="matrix(1 0 0 1 614.5034 520.8257)" style="&st6;"><tspan x="0" y="0" style="&st22; &st15;">D</tspan></text>
<text ewd:textID="25" transform="matrix(1 0 0 1 629.0435 543.5161)" style="&st6; &st22; &st15;">Junction Connector</text>
<text transform="matrix(1 0 0 1 629.0435 536.4155)" style="&st6;"><tspan x="0" y="0" style="&st22; &st15;">G164(C),G165(D) </tspan></text>
<text transform="matrix(1 0 0 1 629.0435 529.3149)" style="&st6;"><tspan x="0" y="0" style="&st22; &st15;">G81(A),G82(B) </tspan></text>
<text transform="matrix(1 0 0 1 602.7729 511.7554)" style="&st6;"><tspan x="0" y="0" style="&st22; &st15;">12</tspan></text>
<text transform="matrix(1 0 0 1 614.5034 511.7554)" style="&st6;"><tspan x="0" y="0" style="&st22; &st15;">B</tspan></text>
<text transform="matrix(1 0 0 1 605.9526 564.4565)" style="&st6;"><tspan x="0" y="0" style="&st22; &st15;">7</tspan></text>
<text transform="matrix(1 0 0 1 614.5034 564.4565)" style="&st6;"><tspan x="0" y="0" style="&st22; &st15;">C</tspan></text>
</g>
<path id="_x0040_a_32_" style="&st12;" d="M2121.08,447.48h33.99v59.49h-33.99V447.48"/>
<path style="&st13;" d="M2129.58,464.48h16.99"/>
<path style="&st13;" d="M2129.58,484.31h16.99"/>
<path style="&st13;" d="M2138.07,464.48v-17"/>
<path style="&st13;" d="M2138.07,489.97v17"/>
<path style="&st13;" d="M2138.07,470.14v2.84"/>
<path style="&st13;" d="M2138.07,475.81v2.83"/>
<path style="&st13;" d="M2138.07,481.48v2.83"/>
<path style="&st2;" d="M1254.22,272.41h8.5"/>
<path style="&st2;" d="M1288.22,272.41h8.49"/>
<path style="&st2;" d="M1254.22,281.48h8.5"/>
<path style="&st2;" d="M1288.22,281.48h8.49"/>
<path style="&st7;" d="M2121.08,447.48h33.99v59.49h-33.99V447.48"/>
<path style="&st7;" d="M2142.32,489.97v-1.41h-8.5v1.41H2142.32"/>
<path style="&st7;" d="M2142.32,470.14h-8.5v-1.41h8.5V470.14"/>
<path style="&st13;" d="M2138.07,506.97v8.5"/>
<path style="&st13;" d="M2129.57,515.47h17"/>
<path style="&st13;" d="M2133.82,518.3h8.5"/>
<path style="&st13;" d="M2135.24,521.14h5.67"/>
<path style="&st13;" d="M2136.66,523.97h2.83"/>
<text transform="matrix(0 -1 1 0 624.4634 626.7065)" style="&st6;"><tspan x="0" y="0" style="&st22; &st15;">(LHD)</tspan></text>
<text transform="matrix(0 -1 1 0 613.1333 625.146)" style="&st6;"><tspan x="0" y="0" style="&st22; &st15;">W-B</tspan></text>
<text transform="matrix(0 -1 1 0 562.1431 217.2168)" style="&st6;"><tspan x="0" y="0" style="&st22; &st15;">W-B</tspan></text>
<text transform="matrix(0 -1 1 0 613.1333 217.2168)" style="&st6;"><tspan x="0" y="0" style="&st22; &st15;">W-B</tspan></text>
<text transform="matrix(0 -1 1 0 573.4731 219.2666)" style="&st6;"><tspan x="0" y="0" style="&st22; &st15;">(RHD)</tspan></text>
<text transform="matrix(0 -1 1 0 624.4634 218.7666)" style="&st6;"><tspan x="0" y="0" style="&st22; &st15;">(LHD)</tspan></text>
<text transform="matrix(0 -1 1 0 726.4526 219.2666)" style="&st6;"><tspan x="0" y="0" style="&st22; &st15;">(RHD)</tspan></text>
<text transform="matrix(0 -1 1 0 715.1235 217.2168)" style="&st6;"><tspan x="0" y="0" style="&st22; &st15;">W-B</tspan></text>
<text transform="matrix(0 -1 1 0 777.4429 218.7666)" style="&st6;"><tspan x="0" y="0" style="&st22; &st15;">(LHD)</tspan></text>
<text transform="matrix(0 -1 1 0 766.1128 217.2168)" style="&st6;"><tspan x="0" y="0" style="&st22; &st15;">W-B</tspan></text>
<text transform="matrix(0 -1 1 0 715.1235 378.687)" style="&st6;"><tspan x="0" y="0" style="&st22; &st15;">W-B</tspan></text>
<text transform="matrix(0 -1 1 0 726.4526 380.7368)" style="&st6;"><tspan x="0" y="0" style="&st22; &st15;">(RHD)</tspan></text>
<text transform="matrix(0 -1 1 0 766.1128 378.687)" style="&st6;"><tspan x="0" y="0" style="&st22; &st15;">W-B</tspan></text>
<text transform="matrix(0 -1 1 0 777.4429 380.2466)" style="&st6;"><tspan x="0" y="0" style="&st22; &st15;">(LHD)</tspan></text>
<text transform="matrix(0 -1 1 0 766.1128 625.146)" style="&st6;"><tspan x="0" y="0" style="&st22; &st15;">W-B</tspan></text>
<text transform="matrix(0 -1 1 0 777.4429 626.7065)" style="&st6;"><tspan x="0" y="0" style="&st22; &st15;">(LHD)</tspan></text>
<text transform="matrix(0 -1 1 0 715.1235 625.146)" style="&st6;"><tspan x="0" y="0" style="&st22; &st15;">W-B</tspan></text>
<text transform="matrix(0 -1 1 0 726.4526 627.1968)" style="&st6;"><tspan x="0" y="0" style="&st22; &st15;">(RHD)</tspan></text>
<text transform="matrix(0 -1 1 0 573.4731 627.1968)" style="&st6;"><tspan x="0" y="0" style="&st22; &st15;">(RHD)</tspan></text>
<text transform="matrix(0 -1 1 0 562.1431 625.146)" style="&st6;"><tspan x="0" y="0" style="&st22; &st15;">W-B</tspan></text>
<text transform="matrix(0 -1 1 0 936.0835 152.3564)" style="&st6;"><tspan x="0" y="0" style="&st22; &st15;">P</tspan></text>
<text transform="matrix(0 -1 1 0 868.0933 152.0068)" style="&st6;"><tspan x="0" y="0" style="&st22; &st15;">L</tspan></text>
<text transform="matrix(0 -1 1 0 902.0835 152.4966)" style="&st6;"><tspan x="0" y="0" style="&st22; &st15;">R</tspan></text>
<text transform="matrix(0 -1 1 0 868.0933 211.4966)" style="&st6;"><tspan x="0" y="0" style="&st22; &st15;">L</tspan></text>
<text transform="matrix(0 -1 1 0 902.0835 211.9863)" style="&st6;"><tspan x="0" y="0" style="&st22; &st15;">R</tspan></text>
<text transform="matrix(0 -1 1 0 936.0835 211.8467)" style="&st6;"><tspan x="0" y="0" style="&st22; &st15;">P</tspan></text>
<text ewd:textID="2" transform="matrix(1 0 0 1 860.7632 508.937)" style="&st6; &st22; &st15;">* 10 :Before Aug. 2013 Production</text>
<text ewd:textID="3" transform="matrix(1 0 0 1 860.7632 517.437)" style="&st6; &st22; &st15;">* 11 :From Aug. 2013 Production</text>
<text ewd:textID="12" transform="matrix(1 0 0 1 860.7632 491.937)" style="&st6; &st22; &st15;">* 8 :Before Oct. 2010 Production</text>
<text ewd:textID="13" transform="matrix(1 0 0 1 860.7632 500.437)" style="&st6; &st22; &st15;">* 9 :From Oct. 2010 Production</text>
<text transform="matrix(1 0 0 1 775.7827 308.9365)" style="&st6;"><tspan x="0" y="0" style="&st22; &st15;">(*9)</tspan></text>
<text transform="matrix(1 0 0 1 775.7827 299.8765)" style="&st6;"><tspan x="0" y="0" style="&st22; &st15;">(*8)</tspan></text>
<text transform="matrix(1 0 0 1 775.7827 352.5664)" style="&st6;"><tspan x="0" y="0" style="&st22; &st15;">(*9)</tspan></text>
<text transform="matrix(1 0 0 1 775.7827 343.4966)" style="&st6;"><tspan x="0" y="0" style="&st22; &st15;">(*8)</tspan></text>
<text transform="matrix(1 0 0 1 625.7729 520.8257)" style="&st6;"><tspan x="0" y="0" style="&st22; &st15;">(*11)</tspan></text>
<text transform="matrix(1 0 0 1 625.7729 511.7651)" style="&st6;"><tspan x="0" y="0" style="&st22; &st15;">(*10)</tspan></text>
<text transform="matrix(1 0 0 1 624.9526 564.4565)" style="&st6;"><tspan x="0" y="0" style="&st22; &st15;">(*11)</tspan></text>
<text transform="matrix(1 0 0 1 624.9526 555.3979)" style="&st6;"><tspan x="0" y="0" style="&st22; &st15;">(*10)</tspan></text>
</svg>
