﻿<?xml version="1.0" encoding="UTF-8"?>
<!DOCTYPE svg PUBLIC "-//W3C//DTD SVG 1.0//EN" "http://www.w3.org/TR/2001/REC-SVG-20010904/DTD/svg10.dtd"[
<!ENTITY ns_flows "http://ns.adobe.com/Flows/1.0/">
<!ENTITY ns_svg "http://www.w3.org/2000/svg">
<!ENTITY ns_xlink "http://www.w3.org/1999/xlink">
		<!ENTITY st0 "fill:none;stroke:#000000;stroke-width:0.85;stroke-linecap:round;stroke-linejoin:round;stroke-dasharray:3 1.5;enable-background:new    ;">
	<!ENTITY st1 "fill:none;stroke:#000000;stroke-width:5.1;stroke-linejoin:round;">
	<!ENTITY st2 "fill:none;stroke:#199DBF;stroke-width:1.13;stroke-linejoin:round;">
	<!ENTITY st3 "fill:none;stroke:#000000;stroke-linecap:round;stroke-linejoin:round;">
	<!ENTITY st4 "stroke:#000000;stroke-width:0.28;stroke-linecap:round;stroke-linejoin:round;enable-background:new    ;">
	<!ENTITY st5 "enable-background:new    ;">
		<!ENTITY st6 "fill:none;stroke:#000000;stroke-width:1.42;stroke-linecap:round;stroke-linejoin:round;enable-background:new    ;">
	<!ENTITY st7 "fill:none;stroke:#199DBF;stroke-width:5.1;stroke-linejoin:round;">
	<!ENTITY st8 "opacity:0.5;fill:none;stroke:#34ACCE;stroke-linejoin:round;stroke-dasharray:6;">
	<!ENTITY st9 "fill:none;stroke:#FFFFFF;stroke-width:4.53;stroke-linejoin:round;">
		<!ENTITY st10 "fill:#CFE6E7;stroke:#000000;stroke-width:1.133;stroke-linecap:round;stroke-linejoin:round;enable-background:new    ;">
		<!ENTITY st11 "fill:none;stroke:#000000;stroke-width:0.85;stroke-linecap:round;stroke-linejoin:round;enable-background:new    ;">
	<!ENTITY st12 "font-size:6px;">
	<!ENTITY st13 "fill:none;stroke:#FFFFFF;stroke-width:2.27;stroke-linejoin:round;">
	<!ENTITY st14 "fill:none;stroke:#FB0F0C;stroke-width:1.13;stroke-linejoin:round;">
	<!ENTITY st15 "fill:none;stroke:#168638;stroke-width:5.1;stroke-linejoin:round;">
	<!ENTITY st16 "fill:none;stroke:#000000;stroke-width:1.13;stroke-linejoin:round;">
		<!ENTITY st17 "fill:none;stroke:#000000;stroke-width:1.13;stroke-linecap:round;stroke-linejoin:round;stroke-dasharray:3 1.5;enable-background:new    ;">
	<!ENTITY st18 "fill:#FFFFFF;stroke:#000000;stroke-width:1.41;stroke-linecap:round;stroke-linejoin:round;">
	<!ENTITY st19 "fill:none;stroke:#3E65AC;stroke-width:3;">
	<!ENTITY st20 "fill:#CCCCCC;stroke:#CCCCCC;stroke-width:0.1;stroke-linecap:round;stroke-linejoin:round;">
	<!ENTITY st21 "font-family:'ArialMT';">
	<!ENTITY st22 "opacity:0.5;fill:none;stroke:#34ACCE;stroke-linejoin:round;">
	<!ENTITY st23 "fill:#CFE6E7;stroke:#000000;stroke-width:1.133;stroke-linecap:round;stroke-linejoin:round;">
	<!ENTITY st24 "fill:none;stroke:#99D5E0;stroke-width:5.1;stroke-linejoin:round;">
<!ATTLIST svg
xmlns:ewd CDATA #FIXED "http://shcl.co.jp/ewd"
xmlns:a CDATA #FIXED "http://ns.adobe.com/AdobeSVGViewerExtensions/3.0/"
ewd:ver CDATA #IMPLIED
>
<!ATTLIST a
ewd:lineID CDATA #IMPLIED
ewd:groupID CDATA #IMPLIED
ewd:figtype CDATA #IMPLIED
ewd:code CDATA #IMPLIED
ewd:figID CDATA #IMPLIED
ewd:pinNo CDATA #IMPLIED
ewd:comment CDATA #IMPLIED >
<!ATTLIST g
ewd:lineID CDATA #IMPLIED
ewd:groupID CDATA #IMPLIED
ewd:figtype CDATA #IMPLIED
ewd:code CDATA #IMPLIED
ewd:figID CDATA #IMPLIED
ewd:pinNo CDATA #IMPLIED
ewd:comment CDATA #IMPLIED >
<!ATTLIST text
ewd:textID CDATA #IMPLIED >
<!ATTLIST title
ewd:textID CDATA #IMPLIED >
]>
<svg 
viewBox='0 0 1039.82 729.44'
height='729.44'
width='1039.82'
xml:space="preserve"
xmlns="&ns_svg;"
xmlns:ewd="http://shcl.co.jp/ewd"
xmlns:xlink="&ns_xlink;" ewd:ver="L2.1">
<g ewd:code="AC3" ewd:figID="6009" ewd:figtype="w2w" ewd:pinNo="10">
<path style="&st6;" d="M189.97,489.97h-8.5"/>
<path style="&st6;" d="M185.72,499.04l-4.25-4.25l-4.25,4.25"/>
<path style="&st6;" d="M185.72,495.64l-4.25-4.25l-4.25,4.25"/>
<text transform="matrix(1 0 0 1 163.2964 487.687)" style="&st5;"><tspan x="0" y="0" style="&st21; &st12;">10</tspan></text>
</g>
<g ewd:code="AC2" ewd:figID="6010" ewd:figtype="w2w" ewd:pinNo="6">
<path style="&st6;" d="M232.46,489.97h-8.5"/>
<path style="&st6;" d="M228.21,499.04l-4.25-4.25l-4.25,4.25"/>
<path style="&st6;" d="M228.21,495.64l-4.25-4.25l-4.25,4.25"/>
<text transform="matrix(1 0 0 1 209.123 487.687)" style="&st5;"><tspan x="0" y="0" style="&st21; &st12;">6</tspan></text>
</g>
<g ewd:code="CA1" ewd:figID="6011" ewd:figtype="w2w" ewd:pinNo="6">
<path style="&st6;" d="M257.95,489.97h8.5"/>
<path style="&st6;" d="M262.2,480.91l4.25,4.25l4.25-4.25"/>
<path style="&st6;" d="M270.7,484.31l-4.25,4.25l-4.25-4.25"/>
<text transform="matrix(1 0 0 1 251.6133 496.187)" style="&st5;"><tspan x="0" y="0" style="&st21; &st12;">6</tspan></text>
</g>
<g ewd:code="DA1" ewd:figID="6012" ewd:figtype="w2w" ewd:pinNo="3">
<path style="&st6;" d="M300.45,489.97h8.5"/>
<path style="&st6;" d="M304.7,480.91l4.25,4.25l4.25-4.25"/>
<path style="&st6;" d="M313.2,484.31l-4.25,4.25l-4.25-4.25"/>
<text transform="matrix(1 0 0 1 294.1133 496.187)" style="&st5;"><tspan x="0" y="0" style="&st21; &st12;">3</tspan></text>
</g>
<g ewd:code="GA4" ewd:figID="6002" ewd:figtype="w2w" ewd:pinNo="1">
<path style="&st6;" d="M325.94,260.51h-8.5"/>
<path style="&st6;" d="M321.69,266.18l-4.25-4.25l-4.24,4.25"/>
<path style="&st6;" d="M321.69,269.36l-4.25-4.25l-4.24,4.25"/>
<path style="&st6;" d="M321.69,269.58l-4.25-4.25l-4.24,4.25"/>
<text transform="matrix(1 0 0 1 302.6133 258.2266)" style="&st5;"><tspan x="0" y="0" style="&st21; &st12;">1</tspan></text>
</g>
<g ewd:code="GA4" ewd:figID="6001" ewd:figtype="w2w" ewd:pinNo="2">
<path style="&st6;" d="M36.99,157.11l-4.25-4.24"/>
<path style="&st6;" d="M41.24,152.87l-4.25,4.24"/>
<path style="&st6;" d="M32.74,149.47l4.25,4.25l4.25-4.25"/>
<text transform="matrix(1 0 0 1 22.1533 164.7466)" style="&st5;"><tspan x="0" y="0" style="&st21; &st12;">2</tspan></text>
</g>
<g ewd:code="1" ewd:figID="4002" ewd:figtype="rb">
<path style="&st6;" d="M317.44,372.41l-5.66-22.66"/>
<path style="&st11;" d="M317.44,379.49v-4.25"/>
<path style="&st11;" d="M317.44,349.75v-4.25"/>
<path style="&st11;" d="M342.94,345.5v8.5"/>
<path style="&st11;" d="M342.94,370.99v8.5"/>
<path style="&st6;" d="M319.57,303.01h-4.25"/>
<path style="&st6;" d="M319.57,311.5h-4.25"/>
<path style="&st6;" d="M345.07,303.01h-4.25"/>
<path style="&st6;" d="M345.07,311.5h-4.25"/>
<path style="&st6;" d="M268.58,413.49h-4.25"/>
<path style="&st6;" d="M268.58,421.99h-4.25"/>
<path style="&st6;" d="M345.07,413.49h-4.25"/>
<path style="&st6;" d="M345.07,421.99h-4.25"/>
<path style="&st6;" d="M351.44,345.5h-42.49v33.99h42.49V345.5"/>
<path style="&st4;" d="M317.44,316.4l2.84,2.83v-4.25l-2.84-2.83l-2.83,2.83v4.25L317.44,316.4"/>
<path style="&st4;" d="M342.94,316.4l2.83,2.83v-4.25l-2.83-2.83l-2.83,2.83v4.25L342.94,316.4"/>
<path style="&st4;" d="M266.45,408.59l-2.83-2.83v4.25l2.83,2.83l2.84-2.83v-4.25L266.45,408.59"/>
<path style="&st4;" d="M342.94,408.59l-2.83-2.83v4.25l2.83,2.83l2.83-2.83v-4.25L342.94,408.59"/>
<path style="&st11;" d="M317.44,311.5v34"/>
<path style="&st11;" d="M342.94,311.5v34"/>
<path style="&st11;" d="M317.44,379.49v17h-50.99v17"/>
<path style="&st11;" d="M342.94,379.49v34"/>
<path style="&st11;" d="M318.86,373.83c0-0.79-0.63-1.42-1.42-1.42"/>
<path style="&st11;" d="M317.44,372.41c-0.78,0-1.41,0.63-1.41,1.42"/>
<path style="&st11;" d="M316.03,373.83c0,0.78,0.63,1.41,1.41,1.41"/>
<path style="&st11;" d="M317.44,375.24c0.79,0,1.42-0.63,1.42-1.41"/>
<path style="&st11;" d="M318.86,351.16c0-0.78-0.63-1.41-1.42-1.41"/>
<path style="&st11;" d="M317.44,349.75c-0.78,0-1.41,0.63-1.41,1.41"/>
<path style="&st11;" d="M316.03,351.16c0,0.79,0.63,1.42,1.41,1.42"/>
<path style="&st11;" d="M317.44,352.58c0.79,0,1.42-0.63,1.42-1.42"/>
<path style="&st11;" d="M340.41,360.02c1.37,1.39,3.61,1.42,5.01,0.05"/>
<path style="&st11;" d="M345.42,360.07c1.4-1.37,1.42-3.61,0.05-5.01"/>
<path style="&st11;" d="M345.47,355.06c-0.69-0.71-1.54-1.06-2.53-1.06"/>
<path style="&st11;" d="M340.41,364.97c1.37,1.4,3.61,1.42,5.01,0.06"/>
<path style="&st11;" d="M345.42,365.03c1.4-1.37,1.42-3.62,0.05-5.01"/>
<path style="&st11;" d="M345.47,360.02c-1.37-1.4-3.61-1.42-5.01-0.05"/>
<path style="&st11;" d="M340.46,359.97c-0.02,0.01-0.03,0.03-0.05,0.05"/>
<path style="&st11;" d="M342.94,370.99c1.96,0,3.54-1.58,3.54-3.54"/>
<path style="&st11;" d="M346.48,367.45c0-1.95-1.58-3.54-3.54-3.54"/>
<path style="&st11;" d="M342.94,363.91c-0.99,0-1.84,0.36-2.53,1.06"/>
<path style="&st6;" d="M315.32,303.01c-2.35,0-4.25,1.9-4.25,4.24"/>
<path style="&st6;" d="M311.07,307.25c0,2.35,1.9,4.25,4.25,4.25"/>
<path style="&st6;" d="M319.57,311.5c2.35,0,4.25-1.9,4.25-4.25"/>
<path style="&st6;" d="M323.82,307.25c0-2.34-1.9-4.24-4.25-4.24"/>
<path style="&st6;" d="M340.82,303.01c-2.35,0-4.25,1.9-4.25,4.24"/>
<path style="&st6;" d="M336.57,307.25c0,2.35,1.9,4.25,4.25,4.25"/>
<path style="&st6;" d="M345.07,311.5c2.34,0,4.24-1.9,4.24-4.25"/>
<path style="&st6;" d="M349.31,307.25c0-2.34-1.9-4.24-4.24-4.24"/>
<path style="&st6;" d="M264.33,413.49c-2.35,0-4.25,1.9-4.25,4.25"/>
<path style="&st6;" d="M260.08,417.74c0,2.34,1.9,4.25,4.25,4.25"/>
<path style="&st6;" d="M268.58,421.99c2.34,0,4.25-1.91,4.25-4.25"/>
<path style="&st6;" d="M272.83,417.74c0-2.35-1.91-4.25-4.25-4.25"/>
<path style="&st6;" d="M340.82,413.49c-2.35,0-4.25,1.9-4.25,4.25"/>
<path style="&st6;" d="M336.57,417.74c0,2.34,1.9,4.25,4.25,4.25"/>
<path style="&st6;" d="M345.07,421.99c2.34,0,4.24-1.91,4.24-4.25"/>
<path style="&st6;" d="M349.31,417.74c0-2.35-1.9-4.25-4.24-4.25"/>
<text ewd:textID="10" transform="matrix(1 0 0 1 354.5801 361.6367)" style="&st5; &st21; &st12;">ST <tspan x="0" y="7">Relay</tspan></text>
<text transform="matrix(1 0 0 1 310.6602 387.687)" style="&st5;"><tspan x="0" y="0" style="&st21; &st12;">3</tspan></text>
<text transform="matrix(1 0 0 1 336.1504 387.687)" style="&st5;"><tspan x="0" y="0" style="&st21; &st12;">2</tspan></text>
<text transform="matrix(1 0 0 1 310.6504 341.8066)" style="&st5;"><tspan x="0" y="0" style="&st21; &st12;">5</tspan></text>
<text transform="matrix(1 0 0 1 336.9199 341.8066)" style="&st5;"><tspan x="0" y="0" style="&st21; &st12;">1</tspan></text>
<text transform="matrix(1 0 0 1 315.8604 309.2168)" style="&st5;"><tspan x="0" y="0" style="&st21; &st12;">1</tspan></text>
<text transform="matrix(1 0 0 1 341.3496 309.2168)" style="&st5;"><tspan x="0" y="0" style="&st21; &st12;">1</tspan></text>
<text transform="matrix(1 0 0 1 264.8599 419.7065)" style="&st5;"><tspan x="0" y="0" style="&st21; &st12;">1</tspan></text>
<text transform="matrix(1 0 0 1 341.3496 419.7065)" style="&st5;"><tspan x="0" y="0" style="&st21; &st12;">1</tspan></text>
<text transform="matrix(1 0 0 1 336.9199 335.8066)" style="&st5;"><tspan x="0" y="0" style="&st21; &st12;">2</tspan></text>
<text transform="matrix(1 0 0 1 336.1504 393.687)" style="&st5;"><tspan x="0" y="0" style="&st21; &st12;">1</tspan></text>
<text transform="matrix(1 0 0 1 346.1504 387.687)" style="&st5;"><tspan x="0" y="0" style="&st21; &st12;">(*2,*5)</tspan></text>
<text transform="matrix(1 0 0 1 346.9199 341.8066)" style="&st5;"><tspan x="0" y="0" style="&st21; &st12;">(*2,*5)</tspan></text>
<text transform="matrix(1 0 0 1 346.9199 335.8066)" style="&st5;"><tspan x="0" y="0" style="&st21; &st12;">(*1,*6)</tspan></text>
<text transform="matrix(1 0 0 1 346.1504 393.687)" style="&st5;"><tspan x="0" y="0" style="&st21; &st12;">(*1,*6)</tspan></text>
</g>
<g ewd:code="FUSE55,FUSE50" ewd:figID="4001" ewd:figtype="rb">
<path style="&st3;" d="M24.24,39.55v42.49h25.5V39.55H24.24"/>
<path style="&st6;" d="M39.12,99.04h-4.25"/>
<path style="&st6;" d="M39.12,107.54h-4.25"/>
<path style="&st11;" d="M36.99,73.54v25.5"/>
<path style="&st4;" d="M36.99,94.14l-2.83-2.83v4.25l2.83,2.83l2.83-2.83v-4.25L36.99,94.14"/>
<path style="&st6;" d="M24.24,39.55v42.49h25.5V39.55H24.24"/>
<path style="&st6;" d="M34.87,99.04c-2.35,0-4.25,1.9-4.25,4.25"/>
<path style="&st6;" d="M30.62,103.29c0,2.35,1.9,4.25,4.25,4.25"/>
<path style="&st6;" d="M39.12,107.54c2.34,0,4.25-1.9,4.25-4.25"/>
<path style="&st6;" d="M43.37,103.29c0-2.35-1.91-4.25-4.25-4.25"/>
<path style="&st11;" d="M38.41,72.13c0-0.79-0.64-1.42-1.42-1.42"/>
<path style="&st11;" d="M36.99,70.71c-0.78,0-1.41,0.63-1.41,1.42"/>
<path style="&st11;" d="M35.58,72.13c0,0.78,0.63,1.41,1.41,1.41"/>
<path style="&st11;" d="M36.99,73.54c0.78,0,1.42-0.63,1.42-1.41"/>
<path style="&st6;" d="M36.99,50.88c-0.85,2.92-0.19,5.81,1.84,8.07"/>
<path style="&st6;" d="M36.99,50.88c-2.17,3.02-2.17,6.89,0,9.92"/>
<path style="&st6;" d="M36.99,50.88c-3.72,2.77-4.53,7.99-1.84,11.76"/>
<path style="&st6;" d="M36.99,70.71c3.72-2.77,4.54-7.98,1.84-11.75"/>
<path style="&st6;" d="M36.99,70.71c2.17-3.02,2.17-6.89,0-9.91"/>
<path style="&st6;" d="M36.99,70.71c0.86-2.92,0.19-5.81-1.84-8.07"/>
<path style="&st11;" d="M38.41,49.46c0-0.78-0.64-1.41-1.42-1.41"/>
<path style="&st11;" d="M36.99,48.05c-0.78,0-1.41,0.63-1.41,1.41"/>
<path style="&st11;" d="M35.58,49.46c0,0.79,0.63,1.42,1.41,1.42"/>
<path style="&st11;" d="M36.99,50.88c0.78,0,1.42-0.63,1.42-1.42"/>
<text transform="matrix(1 0 0 1 54.2998 54.2866)" style="&st5;"><tspan x="0" y="0" style="&st21; &st12;">40A</tspan></text>
<text transform="matrix(1 0 0 1 54.2998 60.2866)" style="&st5;"><tspan x="0" y="0" style="&st21; &st12;">ST (*1,*6)</tspan></text>
<text transform="matrix(1 0 0 1 54.2998 66.2866)" style="&st5;"><tspan x="0" y="0" style="&st21; &st12;">30A</tspan></text>
<text transform="matrix(1 0 0 1 54.2998 72.2866)" style="&st5;"><tspan x="0" y="0" style="&st21; &st12;">ST (*2,*5)</tspan></text>
<text transform="matrix(1 0 0 1 35.3999 105.2568)" style="&st5;"><tspan x="0" y="0" style="&st21; &st12;">1</tspan></text>
<text transform="matrix(1 0 0 1 30.2002 90.2363)" style="&st5;"><tspan x="0" y="0" style="&st21; &st12;">2</tspan></text>
<text transform="matrix(1 0 0 1 27.8799 35.8467)" style="&st5;"><tspan x="0" y="0" style="&st21; &st12;">(BAT)</tspan></text>
</g>
<g ewd:code="2" ewd:figID="3001" ewd:figtype="jb">
<path style="&st3;" d="M126.23,39.55v42.49h25.49V39.55H126.23"/>
<path style="&st11;" d="M138.97,73.54v25.5"/>
<path style="&st6;" d="M141.1,99.04h-4.25"/>
<path style="&st6;" d="M141.1,107.54h-4.25"/>
<path style="&st4;" d="M138.97,94.14l-2.83-2.83v4.25l2.83,2.83l2.84-2.83v-4.25L138.97,94.14"/>
<path style="&st6;" d="M126.23,39.55v42.49h25.49V39.55H126.23"/>
<path style="&st6;" d="M138.97,50.88c-2.73,1.61-3.65,5.14-2.03,7.88"/>
<path style="&st6;" d="M136.94,58.76c0.52,0.88,1.15,1.52,2.03,2.04"/>
<path style="&st6;" d="M138.97,70.71c2.74-1.61,3.65-5.14,2.04-7.88"/>
<path style="&st6;" d="M141.01,62.83c-0.52-0.88-1.15-1.51-2.04-2.03"/>
<path style="&st11;" d="M140.39,49.46c0-0.78-0.63-1.41-1.42-1.41"/>
<path style="&st11;" d="M138.97,48.05c-0.78,0-1.41,0.63-1.41,1.41"/>
<path style="&st11;" d="M137.56,49.46c0,0.79,0.63,1.42,1.41,1.42"/>
<path style="&st11;" d="M138.97,50.88c0.79,0,1.42-0.63,1.42-1.42"/>
<path style="&st11;" d="M140.39,72.13c0-0.79-0.63-1.42-1.42-1.42"/>
<path style="&st11;" d="M138.97,70.71c-0.78,0-1.41,0.63-1.41,1.42"/>
<path style="&st11;" d="M137.56,72.13c0,0.78,0.63,1.41,1.41,1.41"/>
<path style="&st11;" d="M138.97,73.54c0.79,0,1.42-0.63,1.42-1.41"/>
<path style="&st6;" d="M136.85,99.04c-2.35,0-4.25,1.9-4.25,4.25"/>
<path style="&st6;" d="M132.6,103.29c0,2.35,1.9,4.25,4.25,4.25"/>
<path style="&st6;" d="M141.1,107.54c2.35,0,4.25-1.9,4.25-4.25"/>
<path style="&st6;" d="M145.35,103.29c0-2.35-1.9-4.25-4.25-4.25"/>
<text transform="matrix(1 0 0 1 156.2798 59.9365)" style="&st5;"><tspan x="0" y="0" style="&st21; &st12;">7.5A</tspan></text>
<text transform="matrix(1 0 0 1 156.2798 65.9365)" style="&st5;"><tspan x="0" y="0" style="&st21; &st12;">AM1</tspan></text>
<text transform="matrix(1 0 0 1 134.6699 105.2568)" style="&st5;"><tspan x="0" y="0" style="&st21; &st12;">2A</tspan></text>
<text transform="matrix(1 0 0 1 122.3301 105.2568)" style="&st5;"><tspan x="0" y="0" style="&st21; &st12;">35</tspan></text>
<text transform="matrix(1 0 0 1 129.8599 35.8467)" style="&st5;"><tspan x="0" y="0" style="&st21; &st12;">(BAT)</tspan></text>
</g>
<g ewd:code="A1" ewd:figID="2001" ewd:figtype="gp">
<path style="&st11;" d="M342.94,701.02v4.25"/>
<path style="&st11;" d="M334.44,705.27h17"/>
<path style="&st11;" d="M338.69,708.1h8.5"/>
<path style="&st11;" d="M340.11,710.94h5.66"/>
<path style="&st11;" d="M341.52,713.77h2.84"/>
</g>
<g ewd:code="G2" ewd:figID="1" ewd:figtype="conn">
<path style="&st11;" d="M205.55,192.52h-15.58"/>
<path style="&st11;" d="M189.97,141.53h15.58"/>
<path style="&st11;" d="M249.46,141.53h-12.75"/>
<path style="&st11;" d="M249.46,192.52h-12.75"/>
<path style="&st11;" d="M216.54,136.51v5.66"/>
<path style="&st11;" d="M216.54,145.01v5.66"/>
<path style="&st11;" d="M216.54,153.5v5.67"/>
<path style="&st11;" d="M216.54,162v5.67"/>
<path style="&st11;" d="M249.46,124.54h-17v7.08"/>
<path style="&st11;" d="M232.46,151.45v7.08h17"/>
<path style="&st11;" d="M232.46,202.44v7.08h17"/>
<path style="&st6;" d="M189.97,226.52h59.49V107.54h-59.49V226.52"/>
<path style="&st6;" d="M218.03,119.01l-9.84,21.81l16.7-17.13"/>
<path style="&st6;" d="M218.03,170l-9.84,21.82l16.7-17.14"/>
<path style="&st11;" d="M208.38,192.52c0-0.78-0.63-1.41-1.42-1.41"/>
<path style="&st11;" d="M206.96,191.11c-0.78,0-1.41,0.63-1.41,1.41"/>
<path style="&st11;" d="M205.55,192.52c0,0.79,0.63,1.42,1.41,1.42"/>
<path style="&st11;" d="M206.96,193.94c0.79,0,1.42-0.63,1.42-1.42"/>
<path style="&st11;" d="M208.38,141.53c0-0.78-0.63-1.41-1.42-1.41"/>
<path style="&st11;" d="M206.96,140.12c-0.78,0-1.41,0.63-1.41,1.41"/>
<path style="&st11;" d="M205.55,141.53c0,0.78,0.63,1.42,1.41,1.42"/>
<path style="&st11;" d="M206.96,142.95c0.79,0,1.42-0.64,1.42-1.42"/>
<path style="&st11;" d="M233.88,133.03c0-0.78-0.64-1.41-1.42-1.41"/>
<path style="&st11;" d="M232.46,131.62c-0.78,0-1.42,0.63-1.42,1.41"/>
<path style="&st11;" d="M231.04,133.03c0,0.79,0.64,1.42,1.42,1.42"/>
<path style="&st11;" d="M232.46,134.45c0.78,0,1.42-0.63,1.42-1.42"/>
<path style="&st11;" d="M236.71,192.52c0-0.78-0.64-1.41-1.42-1.41"/>
<path style="&st11;" d="M235.29,191.11c-0.78,0-1.41,0.63-1.41,1.41"/>
<path style="&st11;" d="M233.88,192.52c0,0.79,0.63,1.42,1.41,1.42"/>
<path style="&st11;" d="M235.29,193.94c0.78,0,1.42-0.63,1.42-1.42"/>
<path style="&st11;" d="M233.88,201.02c0-0.78-0.64-1.41-1.42-1.41"/>
<path style="&st11;" d="M232.46,199.61c-0.78,0-1.42,0.63-1.42,1.41"/>
<path style="&st11;" d="M231.04,201.02c0,0.78,0.64,1.42,1.42,1.42"/>
<path style="&st11;" d="M232.46,202.44c0.78,0,1.42-0.64,1.42-1.42"/>
<path style="&st11;" d="M233.88,150.03c0-0.78-0.64-1.42-1.42-1.42"/>
<path style="&st11;" d="M232.46,148.61c-0.78,0-1.42,0.64-1.42,1.42"/>
<path style="&st11;" d="M231.04,150.03c0,0.78,0.64,1.42,1.42,1.42"/>
<path style="&st11;" d="M232.46,151.45c0.78,0,1.42-0.64,1.42-1.42"/>
<path style="&st11;" d="M236.71,141.53c0-0.78-0.64-1.41-1.42-1.41"/>
<path style="&st11;" d="M235.29,140.12c-0.78,0-1.41,0.63-1.41,1.41"/>
<path style="&st11;" d="M233.88,141.53c0,0.78,0.63,1.42,1.41,1.42"/>
<path style="&st11;" d="M235.29,142.95c0.78,0,1.42-0.64,1.42-1.42"/>
<path style="&st6;" d="M224.9,174.68c-0.99-2.98-3.74-4.86-6.87-4.68"/>
<path style="&st6;" d="M224.9,123.69c-0.99-2.98-3.74-4.86-6.87-4.68"/>
<text transform="matrix(1 0 0 1 183.1802 137.8364)" style="&st5;"><tspan x="0" y="0" style="&st21; &st12;">2</tspan></text>
<text transform="matrix(1 0 0 1 183.1802 188.8267)" style="&st5;"><tspan x="0" y="0" style="&st21; &st12;">7</tspan></text>
<text transform="matrix(1 0 0 1 252.29 154.8364)" style="&st5;"><tspan x="0" y="0" style="&st21; &st12;">1</tspan></text>
<text transform="matrix(1 0 0 1 252.29 205.8267)" style="&st5;"><tspan x="0" y="0" style="&st21; &st12;">8</tspan></text>
<text transform="matrix(1 0 0 1 192.0898 188.8267)" style="&st5;"><tspan x="0" y="0" style="&st21; &st12;">AM2</tspan></text>
<text transform="matrix(1 0 0 1 192.0898 137.8364)" style="&st5;"><tspan x="0" y="0" style="&st21; &st12;">AM1</tspan></text>
<text transform="matrix(1 0 0 1 233.4902 120.8467)" style="&st5;"><tspan x="0" y="0" style="&st21; &st12;">ACC</tspan></text>
<text transform="matrix(1 0 0 1 237.3701 137.8364)" style="&st5;"><tspan x="0" y="0" style="&st21; &st12;">IG1</tspan></text>
<text transform="matrix(1 0 0 1 235.96 154.8364)" style="&st5;"><tspan x="0" y="0" style="&st21; &st12;">ST1</tspan></text>
<text transform="matrix(1 0 0 1 236.6001 188.8267)" style="&st5;"><tspan x="0" y="0" style="&st21; &st12;">IG2</tspan></text>
<text transform="matrix(1 0 0 1 235.1802 205.8267)" style="&st5;"><tspan x="0" y="0" style="&st21; &st12;">ST2</tspan></text>
<text ewd:textID="7" transform="matrix(1 0 0 1 195.9399 241.2363)" style="&st5; &st21; &st12;">Ignition or <tspan x="0" y="7">Starter Switch </tspan><tspan x="0" y="14">Assembly</tspan></text>
<text transform="matrix(1 0 0 1 195.9399 234.1265)" style="&st5;"><tspan x="0" y="0" style="&st21; &st12;">G2</tspan></text>
</g>
<g ewd:code="A65" ewd:figID="2" ewd:figtype="conn">
<path style="&st6;" d="M402.43,243.52v16.99h17v-16.99H402.43"/>
<path style="&st11;" d="M409.74,251.01l-0.28,0.47l-0.09,0.53l0.09,0.54l0.28,0.47l0.41,0.34l0.51,0.19h0.54l0.51-0.19l0.41-0.34l0.27-0.47l0.1-0.54l-0.1-0.53l-0.27-0.47l-0.41-0.34l-0.51-0.19h-0.54l-0.51,0.19L409.74,251.01l0.39,0.71v0.59l0.37,0.44l0.58,0.1l0.5-0.29l0.2-0.55l-0.2-0.54l-0.5-0.29l-0.58,0.1l0.43,0.73"/>
<path style="&st11;" d="M402.43,252.01h17"/>
<path style="&st11;" d="M410.93,252.01v8.5"/>
<text transform="matrix(1 0 0 1 399.9102 232.7065)" style="&st5;"><tspan x="0" y="0" style="&st21; &st12;">A65</tspan></text>
<text ewd:textID="8" transform="matrix(1 0 0 1 399.9102 239.8164)" style="&st5; &st21; &st12;">Junction Connector</text>
<text transform="matrix(1 0 0 1 395.6396 248.3164)" style="&st5;"><tspan x="0" y="0" style="&st21; &st12;">3</tspan></text>
<text transform="matrix(1 0 0 1 404.1396 268.7065)" style="&st5;"><tspan x="0" y="0" style="&st21; &st12;">2</tspan></text>
<text transform="matrix(1 0 0 1 422.2598 248.3164)" style="&st5;"><tspan x="0" y="0" style="&st21; &st12;">1</tspan></text>
</g>
<g ewd:code="C66,C95,D1,D2,D4,D5,D6" ewd:figID="4" ewd:figtype="conn">
<path style="&st6;" d="M138.97,593.37l-4.24,17"/>
<path style="&st11;" d="M223.96,608.95v-25.49"/>
<path style="&st11;" d="M235.29,625.95h14.17"/>
<path style="&st11;" d="M140.39,608.95h62.32"/>
<path style="&st11;" d="M219.71,608.95h8.5"/>
<path style="&st11;" d="M138.97,583.46v7.08"/>
<path style="&st11;" d="M240.96,651.45h16.99"/>
<path style="&st11;" d="M245.21,654.28h8.5"/>
<path style="&st11;" d="M246.62,657.11h5.67"/>
<path style="&st11;" d="M248.04,659.95h2.83"/>
<path style="&st11;" d="M245.21,608.95h4.25v42.5"/>
<path style="&st11;" d="M198.46,608.95v17h14.17"/>
<path style="&st6;" d="M257.95,642.95H121.98v-59.49h135.97V642.95"/>
<path style="&st6;" d="M216.59,621.7h-3.96v8.5h3.96"/>
<path style="&st6;" d="M231.33,621.7h3.96v8.5h-3.96"/>
<path style="&st11;" d="M222.77,607.95l-0.27,0.47l-0.1,0.53l0.1,0.54l0.27,0.47l0.41,0.34l0.51,0.19h0.54l0.51-0.19l0.41-0.34l0.27-0.47l0.1-0.54l-0.1-0.53l-0.27-0.47l-0.41-0.34l-0.51-0.19h-0.54l-0.51,0.19L222.77,607.95l0.39,0.71v0.59l0.38,0.44l0.57,0.1l0.5-0.29l0.2-0.55l-0.2-0.54l-0.5-0.29l-0.57,0.1l0.42,0.73"/>
<path style="&st11;" d="M197.27,607.95l-0.27,0.47l-0.09,0.53l0.09,0.54l0.27,0.47l0.42,0.34l0.5,0.19h0.55l0.5-0.19l0.42-0.34l0.27-0.47l0.09-0.54l-0.09-0.53l-0.27-0.47l-0.42-0.34l-0.5-0.19h-0.55l-0.5,0.19L197.27,607.95l0.4,0.71v0.59l0.37,0.44l0.57,0.1l0.51-0.29l0.19-0.55l-0.19-0.54l-0.51-0.29l-0.57,0.1l0.42,0.73"/>
<path style="&st11;" d="M248.26,624.95l-0.27,0.47l-0.09,0.53l0.09,0.53l0.27,0.47l0.42,0.35l0.5,0.19h0.55l0.5-0.19l0.42-0.35l0.27-0.47l0.09-0.53l-0.09-0.53l-0.27-0.47l-0.42-0.35l-0.5-0.18h-0.55l-0.5,0.18L248.26,624.95l0.4,0.71v0.58l0.37,0.45l0.57,0.1l0.51-0.29l0.2-0.55l-0.2-0.55l-0.51-0.28l-0.57,0.09l0.43,0.74"/>
<path style="&st11;" d="M140.39,591.96c0-0.79-0.63-1.42-1.42-1.42"/>
<path style="&st11;" d="M138.97,590.54c-0.78,0-1.41,0.63-1.41,1.42"/>
<path style="&st11;" d="M137.56,591.96c0,0.78,0.63,1.41,1.41,1.41"/>
<path style="&st11;" d="M138.97,593.37c0.79,0,1.42-0.63,1.42-1.41"/>
<path style="&st11;" d="M140.39,608.95c0-0.78-0.63-1.41-1.42-1.41"/>
<path style="&st11;" d="M138.97,607.54c-0.78,0-1.41,0.63-1.41,1.41"/>
<path style="&st11;" d="M137.56,608.95c0,0.79,0.63,1.42,1.41,1.42"/>
<path style="&st11;" d="M138.97,610.37c0.79,0,1.42-0.63,1.42-1.42"/>
<path style="&st6;" d="M232.46,625.95c0-4.69-3.81-8.5-8.5-8.5"/>
<path style="&st6;" d="M223.96,617.45c-4.69,0-8.5,3.81-8.5,8.5"/>
<path style="&st6;" d="M215.46,625.95c0,4.69,3.81,8.5,8.5,8.5"/>
<path style="&st6;" d="M223.96,634.45c4.69,0,8.5-3.81,8.5-8.5"/>
<path style="&st11;" d="M208.73,611.48c1.4-1.37,1.42-3.61,0.05-5"/>
<path style="&st11;" d="M208.78,606.48c-1.36-1.4-3.61-1.42-5-0.06"/>
<path style="&st11;" d="M203.78,606.42c-0.71,0.7-1.07,1.54-1.07,2.53"/>
<path style="&st11;" d="M213.69,611.48c1.4-1.37,1.42-3.61,0.05-5"/>
<path style="&st11;" d="M213.74,606.48c-1.37-1.4-3.61-1.42-5.01-0.06"/>
<path style="&st11;" d="M208.73,606.42c-1.39,1.37-1.42,3.62-0.05,5.01"/>
<path style="&st11;" d="M208.68,611.43c0.02,0.02,0.04,0.04,0.05,0.05"/>
<path style="&st11;" d="M219.71,608.95c0-1.95-1.58-3.54-3.54-3.54"/>
<path style="&st11;" d="M216.17,605.41c-1.96,0-3.54,1.59-3.54,3.54"/>
<path style="&st11;" d="M212.63,608.95c0,0.99,0.35,1.84,1.06,2.53"/>
<path style="&st11;" d="M234.23,611.48c1.4-1.37,1.42-3.61,0.05-5"/>
<path style="&st11;" d="M234.28,606.48c-1.37-1.4-3.61-1.42-5.01-0.06"/>
<path style="&st11;" d="M229.27,606.42c-0.71,0.7-1.06,1.54-1.06,2.53"/>
<path style="&st11;" d="M239.19,611.48c1.39-1.37,1.42-3.61,0.05-5"/>
<path style="&st11;" d="M239.24,606.48c-1.37-1.4-3.61-1.42-5.01-0.06"/>
<path style="&st11;" d="M234.23,606.42c-1.4,1.37-1.42,3.62-0.05,5.01"/>
<path style="&st11;" d="M234.18,611.43c0.02,0.02,0.03,0.04,0.05,0.05"/>
<path style="&st11;" d="M245.21,608.95c0-1.95-1.59-3.54-3.54-3.54"/>
<path style="&st11;" d="M241.67,605.41c-1.96,0-3.55,1.59-3.55,3.54"/>
<path style="&st11;" d="M238.12,608.95c0,0.99,0.36,1.84,1.07,2.53"/>
<path style="&st6;" d="M228.49,578.93c0-2.51-2.03-4.54-4.53-4.54"/>
<path style="&st6;" d="M223.96,574.39c-2.5,0-4.53,2.03-4.53,4.54"/>
<path style="&st6;" d="M219.43,578.93c0,2.5,2.03,4.53,4.53,4.53"/>
<path style="&st6;" d="M223.96,583.46c2.5,0,4.53-2.03,4.53-4.53"/>
<path style="&st6;" d="M228.49,569.86c0-2.5-2.03-4.53-4.53-4.53"/>
<path style="&st6;" d="M223.96,565.33c-2.5,0-4.53,2.03-4.53,4.53"/>
<path style="&st6;" d="M219.43,569.86c0,2.5,2.03,4.53,4.53,4.53"/>
<path style="&st6;" d="M223.96,574.39c2.5,0,4.53-2.03,4.53-4.53"/>
<path style="&st6;" d="M143.51,578.93c0-2.51-2.03-4.54-4.54-4.54"/>
<path style="&st6;" d="M138.97,574.39c-2.5,0-4.53,2.03-4.53,4.54"/>
<path style="&st6;" d="M134.44,578.93c0,2.5,2.03,4.53,4.53,4.53"/>
<path style="&st6;" d="M138.97,583.46c2.51,0,4.54-2.03,4.54-4.53"/>
<path style="&st6;" d="M143.51,569.86c0-2.5-2.03-4.53-4.54-4.53"/>
<path style="&st6;" d="M138.97,565.33c-2.5,0-4.53,2.03-4.53,4.53"/>
<path style="&st6;" d="M134.44,569.86c0,2.5,2.03,4.53,4.53,4.53"/>
<path style="&st6;" d="M138.97,574.39c2.51,0,4.54-2.03,4.54-4.53"/>
<path style="&st6;" d="M143.51,560.8c0-2.51-2.03-4.54-4.54-4.54"/>
<path style="&st6;" d="M138.97,556.26c-2.5,0-4.53,2.03-4.53,4.54"/>
<path style="&st6;" d="M134.44,560.8c0,2.5,2.03,4.53,4.53,4.53"/>
<path style="&st6;" d="M138.97,565.33c2.51,0,4.54-2.03,4.54-4.53"/>
<path style="&st6;" d="M228.49,560.8c0-2.51-2.03-4.54-4.53-4.54"/>
<path style="&st6;" d="M223.96,556.26c-2.5,0-4.53,2.03-4.53,4.54"/>
<path style="&st6;" d="M219.43,560.8c0,2.5,2.03,4.53,4.53,4.53"/>
<path style="&st6;" d="M223.96,565.33c2.5,0,4.53-2.03,4.53-4.53"/>
<path style="&st6;" d="M143.51,551.73c0-2.5-2.03-4.53-4.54-4.53"/>
<path style="&st6;" d="M138.97,547.2c-2.5,0-4.53,2.03-4.53,4.53"/>
<path style="&st6;" d="M134.44,551.73c0,2.5,2.03,4.53,4.53,4.53"/>
<path style="&st6;" d="M138.97,556.26c2.51,0,4.54-2.03,4.54-4.53"/>
<text transform="matrix(1 0 0 1 128.8701 553.6968)" style="&st5;"><tspan x="0" y="0" style="&st21; &st12;">1</tspan></text>
<text transform="matrix(1 0 0 1 136.2202 553.6968)" style="&st5;"><tspan x="0" y="0" style="&st21; &st12;">G</tspan></text>
<text transform="matrix(1 0 0 1 221.0601 627.9175)" style="&st5;"><tspan x="0" y="0" style="&st21; &st12;">M</tspan></text>
<text transform="matrix(1 0 0 1 213.8599 580.896)" style="&st5;"><tspan x="0" y="0" style="&st21; &st12;">1</tspan></text>
<text transform="matrix(1 0 0 1 221.6299 580.896)" style="&st5;"><tspan x="0" y="0" style="&st21; &st12;">A</tspan></text>
<text transform="matrix(1 0 0 1 213.8599 571.8257)" style="&st5;"><tspan x="0" y="0" style="&st21; &st12;">1</tspan></text>
<text transform="matrix(1 0 0 1 221.6299 571.8257)" style="&st5;"><tspan x="0" y="0" style="&st21; &st12;">B</tspan></text>
<text transform="matrix(1 0 0 1 128.8701 580.896)" style="&st5;"><tspan x="0" y="0" style="&st21; &st12;">1</tspan></text>
<text transform="matrix(1 0 0 1 136.6401 580.896)" style="&st5;"><tspan x="0" y="0" style="&st21; &st12;">E</tspan></text>
<text transform="matrix(1 0 0 1 128.8701 571.8257)" style="&st5;"><tspan x="0" y="0" style="&st21; &st12;">1</tspan></text>
<text transform="matrix(1 0 0 1 136.8599 571.8257)" style="&st5;"><tspan x="0" y="0" style="&st21; &st12;">F</tspan></text>
<text transform="matrix(0 -1 1 0 265.5698 645.4663)" style="&st5;"><tspan x="0" y="0" style="&st21; &st12;">C66(A),C95(B),D1(C),</tspan></text>
<text transform="matrix(0 -1 1 0 271.5698 645.4663)" style="&st5;"><tspan x="0" y="0" style="&st21; &st12;">D2(D),D4(E),D5(F),D6(G)</tspan></text>
<text ewd:textID="11" transform="matrix(0 -1 1 0 278.6201 645.4663)" style="&st5; &st21; &st12;">Starter Assembly</text>
<text transform="matrix(1 0 0 1 128.8701 562.7573)" style="&st5;"><tspan x="0" y="0" style="&st21; &st12;">1</tspan></text>
<text transform="matrix(1 0 0 1 136.5 562.7573)" style="&st5;"><tspan x="0" y="0" style="&st21; &st12;">C</tspan></text>
<text transform="matrix(1 0 0 1 213.8599 562.7573)" style="&st5;"><tspan x="0" y="0" style="&st21; &st12;">1</tspan></text>
<text transform="matrix(1 0 0 1 221.4902 562.7573)" style="&st5;"><tspan x="0" y="0" style="&st21; &st12;">D</tspan></text>
</g>
<g ewd:code="A70" ewd:figID="5" ewd:figtype="conn">
<path style="&st6;" d="M334.44,532.47h17v16.99h-17V532.47"/>
<path style="&st11;" d="M342.94,532.47v16.99"/>
<text transform="matrix(1 0 0 1 336.1504 557.6558)" style="&st5;"><tspan x="0" y="0" style="&st21; &st12;">6</tspan></text>
<text transform="matrix(1 0 0 1 336.1504 528.7769)" style="&st5;"><tspan x="0" y="0" style="&st21; &st12;">7</tspan></text>
<text transform="matrix(0 -1 1 0 359.0498 551.9858)" style="&st5;"><tspan x="0" y="0" style="&st21; &st12;">A70</tspan></text>
<text ewd:textID="8" transform="matrix(0 -1 1 0 366.1602 551.9858)" style="&st5; &st21; &st12;">Junction Connector</text>
</g>
<text transform="matrix(1 0 0 1 144.9502 553.6968)" style="&st5;"><tspan x="0" y="0" style="&st21; &st12;">(*3 *6)</tspan></text>
<text transform="matrix(1 0 0 1 229.9302 580.896)" style="&st5;"><tspan x="0" y="0" style="&st21; &st12;">(*2)</tspan></text>
<text transform="matrix(0 -1 1 0 407.2402 356.8066)" style="&st5;"><tspan x="0" y="0" style="&st21; &st12;">W(LHD M/T)</tspan></text>
<text transform="matrix(1 0 0 1 229.9302 571.8257)" style="&st5;"><tspan x="0" y="0" style="&st21; &st12;">(*1,*6)</tspan></text>
<text transform="matrix(0 -1 1 0 390.2402 357.3066)" style="&st5;"><tspan x="0" y="0" style="&st21; &st12;">W(RHD M/T)</tspan></text>
<text ewd:textID="5" transform="matrix(1 0 0 1 48.6299 581.1772)" style="&st5; &st21; &st12;">Battery</text>
<text transform="matrix(0 -1 1 0 33.2998 126.5068)" style="&st5;"><tspan x="0" y="0" style="&st21; &st12;">L</tspan></text>
<text transform="matrix(1 0 0 1 111.5 188.8267)" style="&st5;"><tspan x="0" y="0" style="&st21; &st12;">L</tspan></text>
<text transform="matrix(1 0 0 1 161.7202 137.8364)" style="&st5;"><tspan x="0" y="0" style="&st21; &st12;">G</tspan></text>
<text transform="matrix(1 0 0 1 365.0801 248.3164)" style="&st5;"><tspan x="0" y="0" style="&st21; &st12;">W</tspan></text>
<text transform="matrix(0 -1 1 0 313.75 236.9863)" style="&st5;"><tspan x="0" y="0" style="&st21; &st12;">L</tspan></text>
<text transform="matrix(0 -1 1 0 313.75 287.9863)" style="&st5;"><tspan x="0" y="0" style="&st21; &st12;">L</tspan></text>
<text transform="matrix(0 -1 1 0 339.25 480.6772)" style="&st5;"><tspan x="0" y="0" style="&st21; &st12;">W-B</tspan></text>
<text transform="matrix(0 -1 1 0 339.25 625.146)" style="&st5;"><tspan x="0" y="0" style="&st21; &st12;">W-B</tspan></text>
<text transform="matrix(1 0 0 1 69.5801 452.2769)" style="&st5;"><tspan x="0" y="0" style="&st21; &st12;">B(*2 *4,*5)</tspan></text>
<text transform="matrix(1 0 0 1 70.5 435.2866)" style="&st5;"><tspan x="0" y="0" style="&st21; &st12;">B-R(*1,*6)</tspan></text>
<text transform="matrix(1 0 0 1 498.5601 248.3164)" style="&st5;"><tspan x="0" y="0" style="&st21; &st12;">W</tspan></text>
<text transform="matrix(1 0 0 1 496.2593 154.8267)" style="&st5;"><tspan x="0" y="0" style="&st21; &st12;">SB</tspan></text>
<text transform="matrix(1 0 0 1 469.0991 596.7573)" style="&st5;"><tspan x="0" y="0" style="&st21; &st12;">W(LHD M/T)</tspan></text>
<text transform="matrix(1 0 0 1 468.6108 613.7573)" style="&st5;"><tspan x="0" y="0" style="&st21; &st12;">W(RHD M/T)</tspan></text>
<text transform="matrix(1 0 0 1 494.1108 259.6465)" style="&st5;"><tspan x="0" y="0" style="&st21; &st12;">(A/T)</tspan></text>
<text transform="matrix(1 0 0 1 70.46 418.2866)" style="&st5;"><tspan x="0" y="0" style="&st21; &st12;">B-L(*2 *3)</tspan></text>
<text transform="matrix(1 0 0 1 229.9302 562.7573)" style="&st5;"><tspan x="0" y="0" style="&st21; &st12;">(*5)</tspan></text>
<text transform="matrix(1 0 0 1 144.9502 571.8257)" style="&st5;"><tspan x="0" y="0" style="&st21; &st12;">(*1,*4 *6)</tspan></text>
<text transform="matrix(0 -1 1 0 305.25 466.8062)" style="&st5;"><tspan x="0" y="0" style="&st21; &st12;">B</tspan></text>
<text transform="matrix(0 -1 1 0 316.5801 470.6558)" style="&st5;"><tspan x="0" y="0" style="&st21; &st12;">(*5)</tspan></text>
<text transform="matrix(0 -1 1 0 177.77 466.8062)" style="&st5;"><tspan x="0" y="0" style="&st21; &st12;">B</tspan></text>
<text transform="matrix(0 -1 1 0 189.1001 475.6772)" style="&st5;"><tspan x="0" y="0" style="&st21; &st12;">(*6 *7)</tspan></text>
<text transform="matrix(0 -1 1 0 220.2598 466.8062)" style="&st5;"><tspan x="0" y="0" style="&st21; &st12;">B</tspan></text>
<text transform="matrix(0 -1 1 0 231.6001 480.1558)" style="&st5;"><tspan x="0" y="0" style="&st21; &st12;">(*1,*6 *8)</tspan></text>
<text transform="matrix(0 -1 1 0 262.7598 466.8062)" style="&st5;"><tspan x="0" y="0" style="&st21; &st12;">B</tspan></text>
<text transform="matrix(0 -1 1 0 274.0898 470.6558)" style="&st5;"><tspan x="0" y="0" style="&st21; &st12;">(*2)</tspan></text>
<text transform="matrix(0 -1 1 0 305.25 517.7964)" style="&st5;"><tspan x="0" y="0" style="&st21; &st12;">B</tspan></text>
<text transform="matrix(0 -1 1 0 316.5801 521.646)" style="&st5;"><tspan x="0" y="0" style="&st21; &st12;">(*5)</tspan></text>
<text transform="matrix(0 -1 1 0 262.7598 517.7964)" style="&st5;"><tspan x="0" y="0" style="&st21; &st12;">B</tspan></text>
<text transform="matrix(0 -1 1 0 274.0898 521.646)" style="&st5;"><tspan x="0" y="0" style="&st21; &st12;">(*2)</tspan></text>
<text transform="matrix(0 -1 1 0 220.2598 517.7964)" style="&st5;"><tspan x="0" y="0" style="&st21; &st12;">B</tspan></text>
<text transform="matrix(0 -1 1 0 231.6001 531.146)" style="&st5;"><tspan x="0" y="0" style="&st21; &st12;">(*1,*6 *8)</tspan></text>
<text transform="matrix(0 -1 1 0 177.77 517.7964)" style="&st5;"><tspan x="0" y="0" style="&st21; &st12;">B</tspan></text>
<text transform="matrix(0 -1 1 0 189.1001 526.6675)" style="&st5;"><tspan x="0" y="0" style="&st21; &st12;">(*6 *7)</tspan></text>
</svg>
