﻿<?xml version="1.0" encoding="UTF-8"?>
<!DOCTYPE svg PUBLIC "-//W3C//DTD SVG 1.0//EN" "http://www.w3.org/TR/2001/REC-SVG-20010904/DTD/svg10.dtd"[
<!ENTITY ns_flows "http://ns.adobe.com/Flows/1.0/">
<!ENTITY ns_svg "http://www.w3.org/2000/svg">
<!ENTITY ns_xlink "http://www.w3.org/1999/xlink">
	<!ENTITY st0 "fill:none;stroke:#FB0F0C;stroke-width:5.1;stroke-linejoin:round;">
	<!ENTITY st1 "fill:none;stroke:#000000;stroke-width:5.1;stroke-linejoin:round;">
		<!ENTITY st2 "fill:none;stroke:#000000;stroke-width:0.8492;stroke-linecap:round;stroke-linejoin:round;stroke-dasharray:4.3477 2.1738;">
	<!ENTITY st3 "fill:none;stroke:#000000;stroke-linecap:round;stroke-linejoin:round;">
	<!ENTITY st4 "stroke:#000000;stroke-width:0.28;stroke-linecap:round;stroke-linejoin:round;enable-background:new    ;">
	<!ENTITY st5 "enable-background:new    ;">
		<!ENTITY st6 "fill:none;stroke:#000000;stroke-width:1.42;stroke-linecap:round;stroke-linejoin:round;enable-background:new    ;">
	<!ENTITY st7 "fill:none;stroke:#199DBF;stroke-width:5.1;stroke-linejoin:round;">
	<!ENTITY st8 "opacity:0.5;fill:none;stroke:#34ACCE;stroke-linejoin:round;stroke-dasharray:6;">
	<!ENTITY st9 "fill:none;stroke:#FFFFFF;stroke-width:4.53;stroke-linejoin:round;">
		<!ENTITY st10 "fill:none;stroke:#000000;stroke-width:0.85;stroke-linecap:round;stroke-linejoin:round;enable-background:new    ;">
	<!ENTITY st11 "font-size:6px;">
	<!ENTITY st12 "fill:none;stroke:#FFFFFF;stroke-width:2.27;stroke-linejoin:round;">
	<!ENTITY st13 "fill:none;stroke:#FB0F0C;stroke-width:1.13;stroke-linejoin:round;">
	<!ENTITY st14 "fill:none;stroke:#168638;stroke-width:5.1;stroke-linejoin:round;">
	<!ENTITY st15 "fill:none;stroke:#000000;stroke-width:1.13;stroke-linejoin:round;">
	<!ENTITY st16 "fill:#FFFFFF;stroke:#000000;stroke-width:1.41;stroke-linecap:round;stroke-linejoin:round;">
	<!ENTITY st17 "fill:none;stroke:#3E65AC;stroke-width:3;">
	<!ENTITY st18 "fill:#CCCCCC;stroke:#CCCCCC;stroke-width:0.1;stroke-linecap:round;stroke-linejoin:round;">
	<!ENTITY st19 "font-family:'ArialMT';">
	<!ENTITY st20 "opacity:0.5;fill:none;stroke:#34ACCE;stroke-linejoin:round;">
	<!ENTITY st21 "fill:#CFE6E7;stroke:#000000;stroke-width:1.133;stroke-linecap:round;stroke-linejoin:round;">
<!ATTLIST svg
xmlns:ewd CDATA #FIXED "http://shcl.co.jp/ewd"
xmlns:a CDATA #FIXED "http://ns.adobe.com/AdobeSVGViewerExtensions/3.0/"
ewd:ver CDATA #IMPLIED
>
<!ATTLIST a
ewd:lineID CDATA #IMPLIED
ewd:groupID CDATA #IMPLIED
ewd:figtype CDATA #IMPLIED
ewd:code CDATA #IMPLIED
ewd:figID CDATA #IMPLIED
ewd:pinNo CDATA #IMPLIED
ewd:comment CDATA #IMPLIED >
<!ATTLIST g
ewd:lineID CDATA #IMPLIED
ewd:groupID CDATA #IMPLIED
ewd:figtype CDATA #IMPLIED
ewd:code CDATA #IMPLIED
ewd:figID CDATA #IMPLIED
ewd:pinNo CDATA #IMPLIED
ewd:comment CDATA #IMPLIED >
<!ATTLIST text
ewd:textID CDATA #IMPLIED >
<!ATTLIST title
ewd:textID CDATA #IMPLIED >
]>
<svg 
viewBox='0 0 521.41 729.44'
height='729.44'
width='521.41'
xml:space="preserve"
xmlns="&ns_svg;"
xmlns:ewd="http://shcl.co.jp/ewd"
xmlns:xlink="&ns_xlink;" ewd:ver="L2.1">
<g ewd:code="GA2" ewd:figID="601" ewd:figtype="w2w" ewd:pinNo="42">
<text transform="matrix(1 0 0 1 299.2764 207.2363)" style="&st5;"><tspan x="0" y="0" style="&st19; &st11;">42</tspan></text>
</g>
<g ewd:code="GA1" ewd:figID="602" ewd:figtype="w2w" ewd:pinNo="54">
<path style="&st6;" d="M325.95,218.02h-8.5"/>
<path style="&st6;" d="M321.7,227.08l-4.25-4.24l-4.25,4.24"/>
<path style="&st6;" d="M321.7,223.69l-4.25-4.25l-4.25,4.25"/>
<text transform="matrix(1 0 0 1 299.2764 215.7363)" style="&st5;"><tspan x="0" y="0" style="&st19; &st11;">54</tspan></text>
</g>
<g ewd:code="1,5" ewd:figID="402" ewd:figtype="rb">
<path style="&st6;" d="M155.98,261.93l-5.67-22.66"/>
<path style="&st10;" d="M155.98,269.01v-4.25"/>
<path style="&st10;" d="M155.98,239.27v-4.25"/>
<path style="&st10;" d="M181.48,235.02v8.5"/>
<path style="&st10;" d="M181.48,260.51v8.5"/>
<path style="&st6;" d="M234.59,303.01h-4.25"/>
<path style="&st6;" d="M158.1,209.52h-4.24"/>
<path style="&st6;" d="M158.1,201.02h-4.24"/>
<path style="&st6;" d="M183.6,303.01h-4.25"/>
<path style="&st6;" d="M183.6,294.51h-4.25"/>
<path style="&st6;" d="M158.1,303.01h-4.24"/>
<path style="&st6;" d="M158.1,294.51h-4.24"/>
<path style="&st6;" d="M234.59,294.51h-4.25"/>
<path style="&st4;" d="M155.98,289.61l-2.83-2.83v4.25l2.83,2.83l2.83-2.83v-4.25L155.98,289.61"/>
<path style="&st4;" d="M181.48,289.61l-2.84-2.83v4.25l2.84,2.83l2.83-2.83v-4.25L181.48,289.61"/>
<path style="&st10;" d="M155.98,269.01v25.5"/>
<path style="&st10;" d="M181.48,269.01v25.5"/>
<path style="&st10;" d="M232.47,294.51v-76.49h-50.99v17"/>
<path style="&st4;" d="M232.47,289.61l-2.84-2.83v4.25l2.84,2.83l2.83-2.83v-4.25L232.47,289.61"/>
<path style="&st4;" d="M155.98,214.42l2.83,2.83V213l-2.83-2.83l-2.83,2.83v4.25L155.98,214.42"/>
<path style="&st10;" d="M155.98,209.52v25.5"/>
<path style="&st6;" d="M189.97,235.02h-42.49v33.99h42.49V235.02"/>
<path style="&st10;" d="M157.4,263.35c0-0.79-0.64-1.42-1.42-1.42"/>
<path style="&st10;" d="M155.98,261.93c-0.78,0-1.42,0.63-1.42,1.42"/>
<path style="&st10;" d="M154.56,263.35c0,0.78,0.64,1.41,1.42,1.41"/>
<path style="&st10;" d="M155.98,264.76c0.78,0,1.42-0.63,1.42-1.41"/>
<path style="&st10;" d="M157.4,240.68c0-0.78-0.64-1.41-1.42-1.41"/>
<path style="&st10;" d="M155.98,239.27c-0.78,0-1.42,0.63-1.42,1.41"/>
<path style="&st10;" d="M154.56,240.68c0,0.78,0.64,1.42,1.42,1.42"/>
<path style="&st10;" d="M155.98,242.1c0.78,0,1.42-0.64,1.42-1.42"/>
<path style="&st10;" d="M178.95,249.54c1.37,1.39,3.61,1.42,5,0.05"/>
<path style="&st10;" d="M183.95,249.59c1.4-1.37,1.42-3.62,0.06-5.01"/>
<path style="&st10;" d="M184.01,244.58c-0.7-0.71-1.54-1.07-2.53-1.07"/>
<path style="&st10;" d="M178.95,254.49c1.37,1.4,3.61,1.42,5,0.05"/>
<path style="&st10;" d="M183.95,254.54c1.4-1.37,1.42-3.61,0.06-5"/>
<path style="&st10;" d="M184.01,249.54c-1.37-1.4-3.62-1.42-5.01-0.06"/>
<path style="&st10;" d="M179,249.48c-0.02,0.02-0.04,0.04-0.05,0.06"/>
<path style="&st10;" d="M181.48,260.51c1.95,0,3.54-1.58,3.54-3.54"/>
<path style="&st10;" d="M185.02,256.97c0-1.95-1.59-3.54-3.54-3.54"/>
<path style="&st10;" d="M181.48,253.43c-0.99,0-1.84,0.36-2.53,1.06"/>
<path style="&st6;" d="M230.34,294.51c-2.34,0-4.25,1.9-4.25,4.25"/>
<path style="&st6;" d="M234.59,303.01c2.35,0,4.25-1.91,4.25-4.25"/>
<path style="&st6;" d="M238.84,298.76c0-2.35-1.9-4.25-4.25-4.25"/>
<path style="&st6;" d="M162.35,205.27c0-2.35-1.9-4.25-4.25-4.25"/>
<path style="&st6;" d="M158.1,209.52c2.35,0,4.25-1.9,4.25-4.25"/>
<path style="&st6;" d="M149.61,205.27c0,2.35,1.9,4.25,4.25,4.25"/>
<path style="&st6;" d="M153.86,201.02c-2.35,0-4.25,1.9-4.25,4.25"/>
<path style="&st6;" d="M226.09,298.76c0,2.34,1.91,4.25,4.25,4.25"/>
<path style="&st6;" d="M187.85,298.76c0-2.35-1.9-4.25-4.25-4.25"/>
<path style="&st6;" d="M183.6,303.01c2.35,0,4.25-1.91,4.25-4.25"/>
<path style="&st6;" d="M175.1,298.76c0,2.34,1.9,4.25,4.25,4.25"/>
<path style="&st6;" d="M179.35,294.51c-2.35,0-4.25,1.9-4.25,4.25"/>
<path style="&st6;" d="M162.35,298.76c0-2.35-1.9-4.25-4.25-4.25"/>
<path style="&st6;" d="M158.1,303.01c2.35,0,4.25-1.91,4.25-4.25"/>
<path style="&st6;" d="M149.61,298.76c0,2.34,1.9,4.25,4.25,4.25"/>
<path style="&st6;" d="M153.86,294.51c-2.35,0-4.25,1.9-4.25,4.25"/>
<path style="&st6;" d="M234.59,311.51h-4.25"/>
<path style="&st6;" d="M183.6,311.51h-4.25"/>
<path style="&st6;" d="M183.6,303.01h-4.25"/>
<path style="&st6;" d="M158.1,311.51h-4.24"/>
<path style="&st6;" d="M158.1,303.01h-4.24"/>
<path style="&st6;" d="M234.59,303.01h-4.25"/>
<path style="&st6;" d="M230.34,303.01c-2.34,0-4.25,1.9-4.25,4.25"/>
<path style="&st6;" d="M234.59,311.51c2.35,0,4.25-1.91,4.25-4.25"/>
<path style="&st6;" d="M238.84,307.26c0-2.35-1.9-4.25-4.25-4.25"/>
<path style="&st6;" d="M226.09,307.26c0,2.34,1.91,4.25,4.25,4.25"/>
<path style="&st6;" d="M187.85,307.26c0-2.35-1.9-4.25-4.25-4.25"/>
<path style="&st6;" d="M183.6,311.51c2.35,0,4.25-1.91,4.25-4.25"/>
<path style="&st6;" d="M175.1,307.26c0,2.34,1.9,4.25,4.25,4.25"/>
<path style="&st6;" d="M179.35,303.01c-2.35,0-4.25,1.9-4.25,4.25"/>
<path style="&st6;" d="M162.35,307.26c0-2.35-1.9-4.25-4.25-4.25"/>
<path style="&st6;" d="M158.1,311.51c2.35,0,4.25-1.91,4.25-4.25"/>
<path style="&st6;" d="M149.61,307.26c0,2.34,1.9,4.25,4.25,4.25"/>
<path style="&st6;" d="M153.86,303.01c-2.35,0-4.25,1.9-4.25,4.25"/>
<path style="&st6;" d="M158.1,201.02h-4.24"/>
<path style="&st6;" d="M158.1,192.52h-4.24"/>
<path style="&st6;" d="M162.35,196.77c0-2.35-1.9-4.25-4.25-4.25"/>
<path style="&st6;" d="M158.1,201.02c2.35,0,4.25-1.9,4.25-4.25"/>
<path style="&st6;" d="M149.61,196.77c0,2.35,1.9,4.25,4.25,4.25"/>
<path style="&st6;" d="M153.86,192.52c-2.35,0-4.25,1.9-4.25,4.25"/>
<text transform="matrix(1 0 0 1 149.1899 277.1968)" style="&st5;"><tspan x="0" y="0" style="&st19; &st11;">3</tspan></text>
<text transform="matrix(1 0 0 1 174.6899 277.1968)" style="&st5;"><tspan x="0" y="0" style="&st19; &st11;">2</tspan></text>
<text transform="matrix(1 0 0 1 149.1899 231.3267)" style="&st5;"><tspan x="0" y="0" style="&st19; &st11;">5</tspan></text>
<text transform="matrix(1 0 0 1 175.46 231.3267)" style="&st5;"><tspan x="0" y="0" style="&st19; &st11;">1</tspan></text>
<text transform="matrix(1 0 0 1 154.3896 207.2363)" style="&st5;"><tspan x="0" y="0" style="&st19; &st11;">1</tspan></text>
<text transform="matrix(1 0 0 1 230.8799 300.7266)" style="&st5;"><tspan x="0" y="0" style="&st19; &st11;">1</tspan></text>
<text transform="matrix(1 0 0 1 179.8896 300.7266)" style="&st5;"><tspan x="0" y="0" style="&st19; &st11;">1</tspan></text>
<text transform="matrix(1 0 0 1 154.3896 300.7266)" style="&st5;"><tspan x="0" y="0" style="&st19; &st11;">1</tspan></text>
<text transform="matrix(1 0 0 1 230.8799 309.2266)" style="&st5;"><tspan x="0" y="0" style="&st19; &st11;">5</tspan></text>
<text transform="matrix(1 0 0 1 179.8896 309.2266)" style="&st5;"><tspan x="0" y="0" style="&st19; &st11;">5</tspan></text>
<text transform="matrix(1 0 0 1 154.3896 309.2266)" style="&st5;"><tspan x="0" y="0" style="&st19; &st11;">5</tspan></text>
<text transform="matrix(1 0 0 1 154.3896 198.7363)" style="&st5;"><tspan x="0" y="0" style="&st19; &st11;">5</tspan></text>
<text ewd:textID="4" transform="matrix(1 0 0 1 193.1196 251.1567)" style="&st5; &st19; &st11;">DEICER <tspan x="0" y="7">Relay</tspan></text>
</g>
<g ewd:code="FUSE33" ewd:figID="401" ewd:figtype="rb">
<path style="&st3;" d="M168.73,82.04V39.55h-25.5v42.49H168.73"/>
<path style="&st10;" d="M155.98,73.54v8.5"/>
<path style="&st6;" d="M158.1,124.54h-4.24"/>
<path style="&st6;" d="M158.1,116.04h-4.24"/>
<path style="&st6;" d="M168.73,82.04V39.55h-25.5v42.49H168.73"/>
<path style="&st10;" d="M155.98,116.04v-34"/>
<path style="&st4;" d="M155.98,111.14l-2.83-2.83v4.25l2.83,2.83l2.83-2.83v-4.25L155.98,111.14"/>
<path style="&st6;" d="M155.98,70.71c2.74-1.61,3.65-5.14,2.04-7.88"/>
<path style="&st6;" d="M158.02,62.83c-0.52-0.88-1.16-1.51-2.04-2.03"/>
<path style="&st10;" d="M157.4,72.13c0-0.79-0.64-1.42-1.42-1.42"/>
<path style="&st10;" d="M155.98,70.71c-0.78,0-1.42,0.63-1.42,1.42"/>
<path style="&st10;" d="M154.56,72.13c0,0.78,0.64,1.41,1.42,1.41"/>
<path style="&st10;" d="M155.98,73.54c0.78,0,1.42-0.63,1.42-1.41"/>
<path style="&st10;" d="M157.4,49.46c0-0.78-0.64-1.41-1.42-1.41"/>
<path style="&st10;" d="M155.98,48.05c-0.78,0-1.42,0.63-1.42,1.41"/>
<path style="&st10;" d="M154.56,49.46c0,0.79,0.64,1.42,1.42,1.42"/>
<path style="&st10;" d="M155.98,50.88c0.78,0,1.42-0.63,1.42-1.42"/>
<path style="&st6;" d="M155.98,50.88c-2.74,1.61-3.65,5.14-2.04,7.88"/>
<path style="&st6;" d="M153.94,58.76c0.52,0.88,1.16,1.52,2.04,2.04"/>
<path style="&st6;" d="M162.35,120.29c0-2.35-1.9-4.25-4.25-4.25"/>
<path style="&st6;" d="M158.1,124.54c2.35,0,4.25-1.91,4.25-4.25"/>
<path style="&st6;" d="M149.61,120.29c0,2.34,1.9,4.25,4.25,4.25"/>
<path style="&st6;" d="M153.86,116.04c-2.35,0-4.25,1.9-4.25,4.25"/>
<text transform="matrix(1 0 0 1 146.8696 35.8467)" style="&st5;"><tspan x="0" y="0" style="&st19; &st11;">(BAT)</tspan></text>
<text transform="matrix(1 0 0 1 173.2896 59.9365)" style="&st5;"><tspan x="0" y="0" style="&st19; &st11;">20A</tspan></text>
<text transform="matrix(1 0 0 1 173.2896 65.9365)" style="&st5;"><tspan x="0" y="0" style="&st19; &st11;">DEICER</tspan></text>
<text transform="matrix(1 0 0 1 154.3896 122.2568)" style="&st5;"><tspan x="0" y="0" style="&st19; &st11;">1</tspan></text>
<text transform="matrix(1 0 0 1 149.1899 90.2363)" style="&st5;"><tspan x="0" y="0" style="&st19; &st11;">2</tspan></text>
</g>
<g ewd:code="3JB" ewd:figID="301" ewd:figtype="jb">
<path style="&st6;" d="M30.63,243.52h-4.25"/>
<path style="&st6;" d="M30.63,235.02h-4.25"/>
<path style="&st6;" d="M30.63,201.02h-4.25"/>
<path style="&st6;" d="M30.63,192.52h-4.25"/>
<path style="&st4;" d="M28.5,230.12l-2.83-2.83v4.25l2.83,2.83l2.83-2.83v-4.25L28.5,230.12"/>
<path style="&st10;" d="M28.5,235.02v-34"/>
<path style="&st4;" d="M28.5,205.92l2.83,2.83v-4.25l-2.83-2.83l-2.83,2.83v4.25L28.5,205.92"/>
<path style="&st6;" d="M34.88,239.27c0-2.35-1.91-4.25-4.25-4.25"/>
<path style="&st6;" d="M30.63,243.52c2.34,0,4.25-1.91,4.25-4.25"/>
<path style="&st6;" d="M22.13,239.27c0,2.34,1.9,4.25,4.25,4.25"/>
<path style="&st6;" d="M26.38,235.02c-2.35,0-4.25,1.9-4.25,4.25"/>
<path style="&st6;" d="M34.88,196.77c0-2.34-1.91-4.25-4.25-4.25"/>
<path style="&st6;" d="M30.63,201.02c2.34,0,4.25-1.9,4.25-4.25"/>
<path style="&st6;" d="M22.13,196.77c0,2.35,1.9,4.25,4.25,4.25"/>
<path style="&st6;" d="M26.38,192.52c-2.35,0-4.25,1.91-4.25,4.25"/>
<text transform="matrix(1 0 0 1 12.6299 241.2363)" style="&st5;"><tspan x="0" y="0" style="&st19; &st11;">18</tspan></text>
<text transform="matrix(1 0 0 1 24.1899 241.2363)" style="&st5;"><tspan x="0" y="0" style="&st19; &st11;">3A</tspan></text>
<text transform="matrix(1 0 0 1 11.8599 198.7363)" style="&st5;"><tspan x="0" y="0" style="&st19; &st11;">36</tspan></text>
<text transform="matrix(1 0 0 1 24.1899 198.7363)" style="&st5;"><tspan x="0" y="0" style="&st19; &st11;">3B</tspan></text>
</g>
<g ewd:code="4JB" ewd:figID="303" ewd:figtype="jb">
<path style="&st6;" d="M30.63,303.01h-4.25"/>
<path style="&st6;" d="M30.63,311.5h-4.25"/>
<path style="&st6;" d="M30.63,345.5h-4.25"/>
<path style="&st6;" d="M30.63,354h-4.25"/>
<path style="&st10;" d="M28.5,345.5v-34"/>
<path style="&st4;" d="M28.5,340.6l-2.83-2.83v4.25l2.83,2.83l2.83-2.83v-4.25L28.5,340.6"/>
<path style="&st4;" d="M28.5,316.4l2.83,2.83v-4.25l-2.83-2.83l-2.83,2.83v4.25L28.5,316.4"/>
<path style="&st6;" d="M26.38,303.01c-2.35,0-4.25,1.9-4.25,4.24"/>
<path style="&st6;" d="M22.13,307.25c0,2.35,1.9,4.25,4.25,4.25"/>
<path style="&st6;" d="M30.63,311.5c2.34,0,4.25-1.9,4.25-4.25"/>
<path style="&st6;" d="M34.88,307.25c0-2.34-1.91-4.24-4.25-4.24"/>
<path style="&st6;" d="M26.38,345.5c-2.35,0-4.25,1.9-4.25,4.25"/>
<path style="&st6;" d="M22.13,349.75c0,2.34,1.9,4.25,4.25,4.25"/>
<path style="&st6;" d="M30.63,354c2.34,0,4.25-1.91,4.25-4.25"/>
<path style="&st6;" d="M34.88,349.75c0-2.35-1.91-4.25-4.25-4.25"/>
<text transform="matrix(1 0 0 1 24.1899 309.2168)" style="&st5;"><tspan x="0" y="0" style="&st19; &st11;">4A</tspan></text>
<text transform="matrix(1 0 0 1 12.6299 309.2168)" style="&st5;"><tspan x="0" y="0" style="&st19; &st11;">14</tspan></text>
<text transform="matrix(1 0 0 1 24.1899 351.7168)" style="&st5;"><tspan x="0" y="0" style="&st19; &st11;">4B</tspan></text>
<text transform="matrix(1 0 0 1 11.8599 351.7168)" style="&st5;"><tspan x="0" y="0" style="&st19; &st11;">38</tspan></text>
</g>
<g ewd:code="2" ewd:figID="302" ewd:figtype="jb">
<path style="&st3;" d="M92.24,82.04V39.55H66.75v42.49H92.24"/>
<path style="&st6;" d="M30.63,124.54h-4.25"/>
<path style="&st6;" d="M81.62,116.04h-4.25"/>
<path style="&st6;" d="M81.62,124.54h-4.25"/>
<path style="&st10;" d="M79.49,73.54v8.5"/>
<path style="&st6;" d="M30.63,116.04h-4.25"/>
<path style="&st10;" d="M78.3,98.04l-0.27,0.47l-0.1,0.53l0.1,0.53l0.27,0.47l0.41,0.35l0.51,0.19h0.54l0.51-0.19l0.42-0.35l0.27-0.47l0.09-0.53l-0.09-0.53l-0.27-0.47l-0.42-0.35l-0.51-0.19h-0.54l-0.51,0.19L78.3,98.04l0.39,0.71v0.58l0.38,0.45l0.57,0.1l0.5-0.29l0.2-0.55l-0.2-0.55l-0.5-0.29l-0.57,0.1l0.42,0.74"/>
<path style="&st10;" d="M79.49,99.04H28.5v17"/>
<path style="&st4;" d="M79.49,111.14l-2.83-2.83v4.25l2.83,2.83l2.84-2.83v-4.25L79.49,111.14"/>
<path style="&st10;" d="M79.49,116.04v-34"/>
<path style="&st6;" d="M92.24,82.04V39.55H66.75v42.49H92.24"/>
<path style="&st4;" d="M28.5,111.14l-2.83-2.83v4.25l2.83,2.83l2.83-2.83v-4.25L28.5,111.14"/>
<path style="&st6;" d="M34.88,120.29c0-2.35-1.91-4.25-4.25-4.25"/>
<path style="&st6;" d="M30.63,124.54c2.34,0,4.25-1.91,4.25-4.25"/>
<path style="&st6;" d="M22.13,120.29c0,2.34,1.9,4.25,4.25,4.25"/>
<path style="&st6;" d="M26.38,116.04c-2.35,0-4.25,1.9-4.25,4.25"/>
<path style="&st6;" d="M77.37,116.04c-2.35,0-4.25,1.9-4.25,4.25"/>
<path style="&st6;" d="M73.12,120.29c0,2.34,1.9,4.25,4.25,4.25"/>
<path style="&st6;" d="M81.62,124.54c2.34,0,4.25-1.91,4.25-4.25"/>
<path style="&st6;" d="M85.87,120.29c0-2.35-1.91-4.25-4.25-4.25"/>
<path style="&st6;" d="M79.49,50.88c-2.73,1.61-3.65,5.14-2.03,7.88"/>
<path style="&st6;" d="M77.46,58.76c0.52,0.88,1.15,1.52,2.03,2.04"/>
<path style="&st10;" d="M80.91,49.46c0-0.78-0.63-1.41-1.42-1.41"/>
<path style="&st10;" d="M79.49,48.05c-0.78,0-1.41,0.63-1.41,1.41"/>
<path style="&st10;" d="M78.08,49.46c0,0.79,0.63,1.42,1.41,1.42"/>
<path style="&st10;" d="M79.49,50.88c0.79,0,1.42-0.63,1.42-1.42"/>
<path style="&st10;" d="M80.91,72.13c0-0.79-0.63-1.42-1.42-1.42"/>
<path style="&st10;" d="M79.49,70.71c-0.78,0-1.41,0.63-1.41,1.42"/>
<path style="&st10;" d="M78.08,72.13c0,0.78,0.63,1.41,1.41,1.41"/>
<path style="&st10;" d="M79.49,73.54c0.79,0,1.42-0.63,1.42-1.41"/>
<path style="&st6;" d="M79.49,70.71c2.74-1.61,3.65-5.14,2.04-7.88"/>
<path style="&st6;" d="M81.53,62.83c-0.52-0.88-1.16-1.51-2.04-2.03"/>
<text transform="matrix(1 0 0 1 11.8599 122.2568)" style="&st5;"><tspan x="0" y="0" style="&st19; &st11;">39</tspan></text>
<text transform="matrix(1 0 0 1 24.0498 122.2568)" style="&st5;"><tspan x="0" y="0" style="&st19; &st11;">2D</tspan></text>
<text transform="matrix(1 0 0 1 62.8496 122.2568)" style="&st5;"><tspan x="0" y="0" style="&st19; &st11;">27</tspan></text>
<text transform="matrix(1 0 0 1 75.3999 122.2568)" style="&st5;"><tspan x="0" y="0" style="&st19; &st11;">2F</tspan></text>
<text transform="matrix(1 0 0 1 96.7998 57.1064)" style="&st5;"><tspan x="0" y="0" style="&st19; &st11;">10A</tspan></text>
<text transform="matrix(1 0 0 1 96.7998 63.1064)" style="&st5;"><tspan x="0" y="0" style="&st19; &st11;">ECU-IG</tspan></text>
<text transform="matrix(1 0 0 1 96.7998 69.1064)" style="&st5;"><tspan x="0" y="0" style="&st19; &st11;">NO.2</tspan></text>
<text transform="matrix(1 0 0 1 73.4199 35.8467)" style="&st5;"><tspan x="0" y="0" style="&st19; &st11;">(IG)</tspan></text>
</g>
<g ewd:code="A2" ewd:figID="201" ewd:figtype="gp">
<path style="&st10;" d="M151.73,708.1h8.5"/>
<path style="&st10;" d="M155.98,701.02v4.25"/>
<path style="&st10;" d="M147.48,705.27h17"/>
<path style="&st10;" d="M154.56,713.77h2.84"/>
<path style="&st10;" d="M153.15,710.94h5.66"/>
</g>
<g ewd:code="A69" ewd:figID="1" ewd:figtype="conn">
<path style="&st6;" d="M70.99,201.02h17v17h-17V201.02"/>
<path style="&st10;" d="M79.49,201.02v17"/>
<text transform="matrix(1 0 0 1 69.5298 197.3267)" style="&st5;"><tspan x="0" y="0" style="&st19; &st11;">19</tspan></text>
<text transform="matrix(0 -1 1 0 95.5996 220.5366)" style="&st5;"><tspan x="0" y="0" style="&st19; &st11;">A69</tspan></text>
<text ewd:textID="6" transform="matrix(0 -1 1 0 102.71 220.5366)" style="&st5; &st19; &st11;">Junction Connector</text>
<text transform="matrix(1 0 0 1 69.5298 226.2065)" style="&st5;"><tspan x="0" y="0" style="&st19; &st11;">21</tspan></text>
</g>
<g ewd:code="G24-A,G25-B" ewd:figID="2" ewd:figtype="conn">
<path style="&st6;" d="M300.46,48.05v33.99h152.97V48.05H300.46"/>
<path style="&st6;" d="M321.99,86.57c0-2.5-2.03-4.53-4.54-4.53"/>
<path style="&st6;" d="M317.45,82.04c-2.5,0-4.53,2.03-4.53,4.53"/>
<path style="&st6;" d="M312.92,86.57c0,2.51,2.03,4.54,4.53,4.54"/>
<path style="&st6;" d="M317.45,91.11c2.51,0,4.54-2.03,4.54-4.54"/>
<path style="&st6;" d="M406.97,86.57c0-2.5-2.03-4.53-4.53-4.53"/>
<path style="&st6;" d="M402.44,82.04c-2.5,0-4.53,2.03-4.53,4.53"/>
<path style="&st6;" d="M397.91,86.57c0,2.51,2.03,4.54,4.53,4.54"/>
<path style="&st6;" d="M402.44,91.11c2.5,0,4.53-2.03,4.53-4.54"/>
<path style="&st6;" d="M440.97,86.57c0-2.5-2.03-4.53-4.54-4.53"/>
<path style="&st6;" d="M436.43,82.04c-2.5,0-4.53,2.03-4.53,4.53"/>
<path style="&st6;" d="M431.9,86.57c0,2.51,2.03,4.54,4.53,4.54"/>
<path style="&st6;" d="M436.43,91.11c2.51,0,4.54-2.03,4.54-4.54"/>
<text transform="matrix(1 0 0 1 395.1602 78.3467)" style="&st5;"><tspan x="0" y="0" style="&st19; &st11;">SW1</tspan></text>
<text transform="matrix(1 0 0 1 302.6201 88.5366)" style="&st5;"><tspan x="0" y="0" style="&st19; &st11;">40</tspan></text>
<text transform="matrix(1 0 0 1 315.1201 88.5366)" style="&st5;"><tspan x="0" y="0" style="&st19; &st11;">B</tspan></text>
<text transform="matrix(1 0 0 1 391.5596 88.5366)" style="&st5;"><tspan x="0" y="0" style="&st19; &st11;">5</tspan></text>
<text transform="matrix(1 0 0 1 400.1094 88.5366)" style="&st5;"><tspan x="0" y="0" style="&st19; &st11;">A</tspan></text>
<text transform="matrix(1 0 0 1 428.7295 78.3467)" style="&st5;"><tspan x="0" y="0" style="&st19; &st11;">FDFI</tspan></text>
<text transform="matrix(1 0 0 1 423.1494 88.5366)" style="&st5;"><tspan x="0" y="0" style="&st19; &st11;">11</tspan></text>
<text transform="matrix(1 0 0 1 434.0996 88.5366)" style="&st5;"><tspan x="0" y="0" style="&st19; &st11;">A</tspan></text>
<text transform="matrix(1 0 0 1 308.4102 78.3467)" style="&st5;"><tspan x="0" y="0" style="&st19; &st11;">FDEF</tspan></text>
<text ewd:textID="3" transform="matrix(1 0 0 1 297.9297 44.3467)" style="&st5; &st19; &st11;">A/C Amplifier Assembly</text>
<text transform="matrix(1 0 0 1 297.9297 37.2363)" style="&st5;"><tspan x="0" y="0" style="&st19; &st11;">G24(A),G25(B)</tspan></text>
</g>
<g ewd:code="G66" ewd:figID="3" ewd:figtype="conn">
<path style="&st6;" d="M385.44,209.52v34h67.99v-34H385.44"/>
<text transform="matrix(1 0 0 1 433.96 217.1567)" style="&st5;"><tspan x="0" y="0" style="&st19; &st11;">D</tspan></text>
<text transform="matrix(1 0 0 1 400.1094 217.1567)" style="&st5;"><tspan x="0" y="0" style="&st19; &st11;">E</tspan></text>
<text transform="matrix(1 0 0 1 395.6494 251.7065)" style="&st5;"><tspan x="0" y="0" style="&st19; &st11;">6</tspan></text>
<text ewd:textID="7" transform="matrix(0 -1 1 0 468.1494 246.0366)" style="&st5; &st19; &st11;">Outer Mirror Heater Switch Assembly</text>
<text transform="matrix(0 -1 1 0 461.04 246.0366)" style="&st5;"><tspan x="0" y="0" style="&st19; &st11;">G66</tspan></text>
<text transform="matrix(1 0 0 1 398.6895 239.8164)" style="&st5;"><tspan x="0" y="0" style="&st19; &st11;">IG</tspan></text>
<text transform="matrix(1 0 0 1 395.6494 205.8267)" style="&st5;"><tspan x="0" y="0" style="&st19; &st11;">9</tspan></text>
<text transform="matrix(1 0 0 1 426.4697 205.8267)" style="&st5;"><tspan x="0" y="0" style="&st19; &st11;">10</tspan></text>
</g>
<g ewd:code="A53" ewd:figID="4" ewd:figtype="conn">
<path style="&st10;" d="M154.79,480.47l-0.27,0.47l-0.1,0.54l0.1,0.53l0.27,0.47l0.41,0.34l0.51,0.19h0.54l0.51-0.19l0.41-0.34l0.27-0.47l0.1-0.53l-0.1-0.54l-0.27-0.47l-0.41-0.34l-0.51-0.19h-0.54l-0.51,0.19L154.79,480.47l0.39,0.71v0.59l0.38,0.44l0.57,0.1l0.5-0.29l0.2-0.54l-0.2-0.55l-0.5-0.29l-0.57,0.1l0.42,0.74"/>
<path style="&st10;" d="M155.98,489.97v-16.99l-2.83-1.42l5.66-2.83l-5.66-2.84l5.66-2.83l-5.66-2.83l5.66-2.83l-2.83-1.42v-8.5"/>
<path style="&st10;" d="M206.97,447.48v8.5l2.83,1.42l-5.66,2.83l5.66,2.83l-5.66,2.83l5.66,2.84l-5.66,2.83l2.83,1.42v8.5h-50.99"/>
<path style="&st6;" d="M138.98,447.48v42.49h84.99v-42.49H138.98"/>
<text ewd:textID="5" transform="matrix(1 0 0 1 227.1099 465.0269)" style="&st5; &st19; &st11;">Front Wiper Deicer (Windshield Glass)</text>
<text transform="matrix(1 0 0 1 149.9697 443.7866)" style="&st5;"><tspan x="0" y="0" style="&st19; &st11;">1</tspan></text>
<text transform="matrix(1 0 0 1 200.1797 443.7866)" style="&st5;"><tspan x="0" y="0" style="&st19; &st11;">3</tspan></text>
<text transform="matrix(1 0 0 1 227.1099 457.9175)" style="&st5;"><tspan x="0" y="0" style="&st19; &st11;">A53</tspan></text>
<text transform="matrix(1 0 0 1 149.1899 498.1675)" style="&st5;"><tspan x="0" y="0" style="&st19; &st11;">2</tspan></text>
</g>
<path style="&st2;" d="M190,298.76h33.93"/>
<path style="&st2;" d="M190,307.82h33.93"/>
<path style="&st2;" d="M164.35,298.76h8.93"/>
<path style="&st2;" d="M164.35,307.82h8.93"/>
<text transform="matrix(0 -1 1 0 24.8096 169.0068)" style="&st5;"><tspan x="0" y="0" style="&st19; &st11;">L</tspan></text>
<text transform="matrix(0 -1 1 0 152.2896 173.8364)" style="&st5;"><tspan x="0" y="0" style="&st19; &st11;">B-R</tspan></text>
<text transform="matrix(0 -1 1 0 313.7598 169.7764)" style="&st5;"><tspan x="0" y="0" style="&st19; &st11;">G</tspan></text>
<text transform="matrix(0 -1 1 0 152.2798 372.9663)" style="&st5;"><tspan x="0" y="0" style="&st19; &st11;">L</tspan></text>
<text transform="matrix(0 -1 1 0 203.2798 372.9663)" style="&st5;"><tspan x="0" y="0" style="&st19; &st11;">L</tspan></text>
<text transform="matrix(0 -1 1 0 152.2896 591.1558)" style="&st5;"><tspan x="0" y="0" style="&st19; &st11;">W-B</tspan></text>
<text transform="matrix(0 -1 1 0 313.7598 254.7666)" style="&st5;"><tspan x="0" y="0" style="&st19; &st11;">G</tspan></text>
<text transform="matrix(0 -1 1 0 75.7998 270.9863)" style="&st5;"><tspan x="0" y="0" style="&st19; &st11;">L</tspan></text>
<text transform="matrix(0 -1 1 0 75.7998 169.0068)" style="&st5;"><tspan x="0" y="0" style="&st19; &st11;">L</tspan></text>
<text transform="matrix(0 -1 1 0 432.7402 169.3564)" style="&st5;"><tspan x="0" y="0" style="&st19; &st11;">B</tspan></text>
<text transform="matrix(0 -1 1 0 398.7402 169.4966)" style="&st5;"><tspan x="0" y="0" style="&st19; &st11;">R</tspan></text>
<text transform="matrix(0 -1 1 0 398.7402 296.4766)" style="&st5;"><tspan x="0" y="0" style="&st19; &st11;">L</tspan></text>
<text transform="matrix(0 -1 1 0 24.8096 279.4863)" style="&st5;"><tspan x="0" y="0" style="&st19; &st11;">L</tspan></text>
<text transform="matrix(0 -1 1 0 24.8096 389.9663)" style="&st5;"><tspan x="0" y="0" style="&st19; &st11;">L</tspan></text>
<text transform="matrix(1 0 0 1 327.3594 215.7363)" style="&st5;"><tspan x="0" y="0" style="&st19; &st11;">(RHD)</tspan></text>
<text transform="matrix(1 0 0 1 327.3594 207.2363)" style="&st5;"><tspan x="0" y="0" style="&st19; &st11;">(LHD)</tspan></text>
<text ewd:textID="1" transform="matrix(1 0 0 1 343.96 538.3296)" style="&st5; &st19; &st11;">* 1 :Before Aug. 2013 Production</text>
<text ewd:textID="2" transform="matrix(1 0 0 1 343.96 546.8296)" style="&st5; &st19; &st11;">* 2 :From Aug. 2013 Production</text>
<text transform="matrix(1 0 0 1 164.3496 207.2666)" style="&st5;"><tspan x="0" y="0" style="&st19; &st11;">(*1)</tspan></text>
<text transform="matrix(1 0 0 1 164.3496 198.7666)" style="&st5;"><tspan x="0" y="0" style="&st19; &st11;">(*2)</tspan></text>
<text transform="matrix(1 0 0 1 239.8398 300.7568)" style="&st5;"><tspan x="0" y="0" style="&st19; &st11;">(*1)</tspan></text>
<text transform="matrix(1 0 0 1 239.8398 309.2568)" style="&st5;"><tspan x="0" y="0" style="&st19; &st11;">(*2)</tspan></text>
</svg>
