﻿<?xml version="1.0" encoding="UTF-8"?>
<!DOCTYPE svg PUBLIC "-//W3C//DTD SVG 1.0//EN" "http://www.w3.org/TR/2001/REC-SVG-20010904/DTD/svg10.dtd"[
<!ENTITY ns_flows "http://ns.adobe.com/Flows/1.0/">
<!ENTITY ns_svg "http://www.w3.org/2000/svg">
<!ENTITY ns_xlink "http://www.w3.org/1999/xlink">
	<!ENTITY st0 "fill:none;stroke:#FB0F0C;stroke-width:5.1;stroke-linejoin:round;">
	<!ENTITY st1 "fill:none;stroke:#9A9999;stroke-width:5.1;stroke-linejoin:round;">
		<!ENTITY st2 "fill:none;stroke:#000000;stroke-width:0.85;stroke-linecap:round;stroke-linejoin:round;stroke-dasharray:3 1.5;enable-background:new    ;">
	<!ENTITY st3 "fill:none;stroke:#000000;stroke-width:5.1;stroke-linejoin:round;">
	<!ENTITY st4 "fill:none;stroke:#000000;stroke-linecap:round;stroke-linejoin:round;">
	<!ENTITY st5 "stroke:#000000;stroke-width:0.28;stroke-linecap:round;stroke-linejoin:round;enable-background:new    ;">
	<!ENTITY st6 "enable-background:new    ;">
		<!ENTITY st7 "fill:none;stroke:#000000;stroke-width:1.42;stroke-linecap:round;stroke-linejoin:round;enable-background:new    ;">
	<!ENTITY st8 "fill:none;stroke:#EE67AA;stroke-width:5.1;stroke-linejoin:round;">
	<!ENTITY st9 "fill:none;stroke:#199DBF;stroke-width:5.1;stroke-linejoin:round;">
	<!ENTITY st10 "opacity:0.5;fill:none;stroke:#34ACCE;stroke-linejoin:round;stroke-dasharray:6;">
	<!ENTITY st11 "fill:none;stroke:#FFFFFF;stroke-width:4.53;stroke-linejoin:round;">
		<!ENTITY st12 "fill:none;stroke:#000000;stroke-width:0.85;stroke-linecap:round;stroke-linejoin:round;enable-background:new    ;">
	<!ENTITY st13 "fill:none;stroke:#56107C;stroke-width:5.1;stroke-linejoin:round;">
	<!ENTITY st14 "font-size:6px;">
	<!ENTITY st15 "fill:none;stroke:#FFFFFF;stroke-width:2.27;stroke-linejoin:round;">
	<!ENTITY st16 "fill:none;stroke:#FB0F0C;stroke-width:1.13;stroke-linejoin:round;">
	<!ENTITY st17 "fill:none;stroke:#168638;stroke-width:5.1;stroke-linejoin:round;">
	<!ENTITY st18 "fill:none;stroke:#000000;stroke-width:1.13;stroke-linejoin:round;">
		<!ENTITY st19 "fill:none;stroke:#000000;stroke-width:1.13;stroke-linecap:round;stroke-linejoin:round;stroke-dasharray:3 1.5;enable-background:new    ;">
	<!ENTITY st20 "fill:#FFFFFF;stroke:#000000;stroke-width:1.41;stroke-linecap:round;stroke-linejoin:round;">
	<!ENTITY st21 "fill:none;stroke:#3E65AC;stroke-width:3;">
	<!ENTITY st22 "fill:#CCCCCC;stroke:#CCCCCC;stroke-width:0.1;stroke-linecap:round;stroke-linejoin:round;">
	<!ENTITY st23 "font-family:'ArialMT';">
	<!ENTITY st24 "opacity:0.5;fill:none;stroke:#34ACCE;stroke-linejoin:round;">
	<!ENTITY st25 "fill:#CFE6E7;stroke:#000000;stroke-width:1.133;stroke-linecap:round;stroke-linejoin:round;">
	<!ENTITY st26 "fill:none;stroke:#99D5E0;stroke-width:5.1;stroke-linejoin:round;">
	<!ENTITY st27 "fill:none;stroke:#7EC57E;stroke-width:5.1;stroke-linejoin:round;">
<!ATTLIST svg
xmlns:ewd CDATA #FIXED "http://shcl.co.jp/ewd"
xmlns:a CDATA #FIXED "http://ns.adobe.com/AdobeSVGViewerExtensions/3.0/"
ewd:ver CDATA #IMPLIED
>
<!ATTLIST a
ewd:lineID CDATA #IMPLIED
ewd:groupID CDATA #IMPLIED
ewd:figtype CDATA #IMPLIED
ewd:code CDATA #IMPLIED
ewd:figID CDATA #IMPLIED
ewd:pinNo CDATA #IMPLIED
ewd:comment CDATA #IMPLIED >
<!ATTLIST g
ewd:lineID CDATA #IMPLIED
ewd:groupID CDATA #IMPLIED
ewd:figtype CDATA #IMPLIED
ewd:code CDATA #IMPLIED
ewd:figID CDATA #IMPLIED
ewd:pinNo CDATA #IMPLIED
ewd:comment CDATA #IMPLIED >
<!ATTLIST text
ewd:textID CDATA #IMPLIED >
<!ATTLIST title
ewd:textID CDATA #IMPLIED >
]>
<svg onload="call_execInitLoadProc_svg('system')"
style='overflow:visible;enable-background:new 0 0 3631.87 729.44'
viewBox='0 0 3631.87 729.44'
height='729.44'
width='3631.87'
xml:space="preserve"
xmlns="&ns_svg;"
xmlns:ewd="http://shcl.co.jp/ewd"
xmlns:a="http://ns.adobe.com/AdobeSVGViewerExtensions/3.0/"
xmlns:xlink="&ns_xlink;" ewd:ver="L2.1">
<style type="text/css">
	<![CDATA[
@font-face{font-family:'ArialMT';src:url("data:;base64,\
T1RUTwADACAAAQAQQ0ZGID/GxVQAAAA8AAAcPUdQT1OgTbHxAAAc4AAAAhJjbWFwAdkCGwAAHHwA\
AABkAQAEAgABAQEIQXJpYWxNVAABAQE3+BsB+BgEHPqv/S0cEAAcCAwFHqAASIKBJf+Lix6gAEiC\
gSX/i4sMB/dKD/djEPdlEZMcHDUSAAEBAWVBcmlhbChSKSBUcmFkZW1hcmsgb2YgVGhlIE1vbm90\
eXBlIENvcnBvcmF0aW9uIHBsYyByZWdpc3RlcmVkIGluIHRoZSBVUyBQYXQgJiBUTSBPZmYuIGFu\
ZCBlbHNld2hlcmUuAAABAAEAAAcAAAkSACIZAEIIAEwFAFMFAFoBAAAARwIAAQAbAB4BCQFcAbIC\
DAIrAlQCYgJvAoMDGQNDA80EjAS2BTsGAwZJBykH+wgWCFQJCwmyCjQKUQprCycLRQtUC6oL1wvo\
DCgMTg0CDWMOPQ7JD68PxxAsEFkQvhEJEToRYhJIEsUTSBPLFFkUoxVgFa8VzBX6FgkWlhbtF24X\
+Bg4GQsZZRnCGe4aOBqiGtLK95QWHAUA+pQc+wAH/nSrFfpUHATA/lQGDv4cDiD6YfdBFVBJSlpF\
aghqRT96Ohv7KvsLvvAzH0TeZ+fxGuao3cbUHsXU4sv3CMJJ11/JdboIdbqAubca467Y0MwezNDh\
q/Qb791sTssfyk6rQTUa+x8v+wv7TSge95v746nGos+c2Bn3T2Nr+xRgIlQ4Gc4y2EDgTvsN+yMY\
QrpA0D7mCPwC+ZAV2bm+s6KuCKKulrG1Gr17tGyrHqprY5tcG1pje2xrH2pse2ReGnSRdJdyHpZy\
nXCibwj34f1fFfve+C0qUUlVaVoZaVl6WloaUKNNukseS7rOa+IbwcOcrcUfxKy5t67ACA79q/hz\
/EMVKPcRN/cnRvc8CEb3PGn3QvdIGvczpfcsvvclHsf3Pej3PPcR9zsI9xUGOvsfVihxUGIvayt0\
Jwhu+xF9+xH7Ehr71e/71Pdb+9QeDv2r95H8QxX7FQb3W/fU7/fU99Ua9xF99xFu9w8edO9s62Ln\
ccdV7zr3IAj3FQb3Efs76Ps8x/s9CL77JaX7LPszGvtIaftCRvs8Hkb7PDf7Jyj7EQgO/TjLHASt\
Fbn3IvVm2Gq7cBl+9w2F3oq4CPclBolJgzh+KNCu2avkqLn7Ihg2bzh4OoK0aMRM1TD7DDYYZMBe\
0lbmWi1fQ2Za+wrgGNjqw8qsqjWcOZ0+oAgO+6n4lfeBFfgm/CP3PPgj+CP3Pvwj+CP7PPwj/CYH\
Dv4c90oW92H3YfthB0B+TnBdHnBcYWdRclnYGLGcp6OdrJ2rlbmNyAgO/avM+EwV90n4vftJBw7+\
HPdOFvdh92H7YQcO/hxyBPg9HAXsBfckBvw8HPoUBQ7g+WcV90Gd9yCv9R6u9MDd0sQIxNHjqPYb\
2tB7bMYfxmu8XbJQsk+pQqE2CKE1lvsI+yUa+0B5+x9oIh5oIVY5RVIIUUQybiAb+yH7A77wOh8q\
9w5b91v3pxr3TRb7haf7NMQ8HjvD0GPeG97Qs9vEH8Pbp/c094Qa94Vv9zVT2h7aUkWzNxs4SWhF\
Wh9NMmz7OfuFGg75jxb7SBwEewZgYlJhRWJEYkxsU3YI90IH8LrjxdbO1s7BzarKCPcIBg76m/dB\
FftB/l0HiraStZqzpM2yzMLLwcvZ1fLf9zP3F/cA8sPYCMPXp9PPGtJyyFi8HrxYSKM5GzRGcVdX\
H1dXcUOKL/tNnhiY9x669N7UCNPe9wOv9x8b9yH3A2Q93R/dPbQq+wcaUH9Sc1Iec1JjUFRMU0wu\
NfsV+wH7ADBGTmxrbGpya3dqCA7h+BcV90ijoCWuQr1eGV68yHTSG+DSqMbGH8XGqNPiGt5wz1XB\
HsBVRqY4G2lhhH5YH5/3MgWKl5WKkhvY0J+zyB/Is6rJ3hrNdcJeth62XlKhRBtFUXVfXB9cX21J\
fjP7SKsYofcNvejZzgjN2eys9wgb29V6ac4fzmi/XK9QCK5QnUxIGkx6UWlXHmlXWWJIbOJ3zmK7\
TAi7TKM8LBr7FFz7AC4yHjIu+wpe+yMb+xUhsdg2HzbYWu5/9w4IDvkqFvfz/RD3OQf5MfpKBfcn\
/kr3Wvs5+1r78wb7SPiYFfkpB/xf/SkFDuD4FBX3UZuZL6xGvl0ZXL7IdNMb4tSszMcfx8yp4vcA\
GvJu3FLGHsZRP6kuG1FXfnFcH1xwZ2lwYfs9oRj3IvmFBflt+0D83QY8/B4FyOPnquwb9xT3AF8y\
4x/jMrf7BvsfGvsZZPsGPioe+wst+xRQ+zcb+xn7AbDWNx821lvuf/cPCA76j/rnFftHfXvSdL5u\
qxm+Wk+lRBtSWHtrYB9SYl9OajxqPHr7BYr7J7bNwLzKqwirysyb0Bv3DPFfM+Af3zK1+wb7IBov\
dzZkPB5jPFRORmEIYUY8djMb+yr7DsL3AywfLPcCXPdK95Ea96+/92L09xUe9wTm9w/D9y8b9wfq\
a0rVH9RKtzKa+wYI/XP9DBVNmFCmUh6lUrBgum4Ibbq9fL8b18yqyMIfwsim3/Qa8HDbVcYexVVH\
qDkbOkZuUVIfUlBvPywaDuwcBPoV90H6SfsgBy4oLvsYMPs5L/s5RPs9WftCZ/sPdPsagfsmCPtN\
Bo33B6L3ILb3N7b3N8r3Mtz3LNz3K+H3FObzCA73/vmvFUCmVLJnvghnvnnH0hr2seTY1B7U2PGv\
9xMb9xTyZkHZH9lAsjEgGkd5UGhZHmdYVWRCcOVu0Fu6Sgi6SqI9MBr7EV8hMjYeNjL7CGD7JRv7\
JfsItuEyHzLgX/b3FBrqo9u8zB67y9C35KIIZ/fFFUahUrhfHl+4xXXSG9DEobe4H7e2ocHKGs10\
w164HrhdUqFHG0ZSdV9eH15fdFZOGlH9ORVYl1mkWx6jW69mu3EIcLu/fsIb4dKnwsMfw8Kn0uAa\
4m7SUsQexFFDpzQbNkVvU1QfU1NvRTcaDvcE9+cV90GbmjqnULRmGWa0wHnMG8K8mKS1H7Skra2m\
tqa1ocSd0wid05TU1hqTi5eKmx5nUlpcTWgIZ0xIeUIb+w0kt+M3HzfjYfcI9yQa9ym39wvj5h7m\
4vcCuPcYG+rjcVjaH9pYx0K0LAi0LJ/7HvtIGvtPd/spYvsDHmL7A082O1EIUTotbvsAG/sHLqvL\
Qh9CymDlfPcHCPl1+RsV8nDdVMgeyFRIqT4bO0VqSlAfUEptNiMaLqc/xFEeUMPQbt4b3tCoxsEf\
wMWm3PIaDv4c90357RX3Yfdh+2EH+2H97RX3Yfdh+2EHDiCIFvjHHAW6BfdlBvjsHPpGBftxBvs/\
+FAF/PkG+zX8UAX3bfjuFfiFBvst+Cpc9w9p8XTaGXgtcS5pLggOIPcqFhwFuvi6B/cE5Xxuzx/O\
bcBdsk4IsU2eSkgaTHpQaVQeaVRYXkZp5HHPX7tMCLpMo0E2GkZ9TG5QHm5QZ11ga2BrVnNLewh6\
SjyDLhv8AfnmFffRBuHJkZawH7yasaOkrQikrZe2vhq8f7Z0sB50sGmkYJkImGBAkiIb+7kG/vQE\
+AEGyreNkKQfuJOwmKmeqZ6kpp6vCJ6ulbS6GsJ9um+0Hm+zZKdanAibWUOTLhv75wYOkRwEtPiW\
FfdWWmL7M0L7DiI4GTch+xVh+y0b+zL7FKvMKB8oyz/oWPcOCFf3DnH3F/cgGvctqPcZxvcGHsX3\
Bd7i9wDGCMb29wuo9xUb9yf3D2ZA7x/vQNEisvsb+1NeGGn2WthKvAi8SjqjKRv7BS1wVUAfP1VW\
Q2wwCGwwfC0qGvsRnfsAsC4ery7DRdhdCF3Y3nTkG/cB56rK1h/Wyr7opvcPCA6R9zIWHAW6+I0H\
9wbihH3HH99402jGWNhKxTeyJgixJZ77CPsXGvsDfihxNR5xNWpEYlNiUl9fW2taalFzR3oIekY9\
gzIb++P3QRX3zQbs15Sdwh/CnbakrKy5ua/JpdkIpNiY6fcDGvctcvcKWd4eWN1OwkOnCJ9XN5X7\
Bxv7yAYOIPc2FhwFuvq4+0H99vxV+b/7QP2//If6GPtBBw77cvc8FhwFuvpx+0H9r/xa+UT7Qf1E\
/S4HDvcM+eD40xX3QAf5AYwF/LQHLD8oUiZlCGQmI3ggG/sk+xeqyfsJH/sKyDLkT/cJCE/3CW33\
FvckGvcjqfcZx/cQHsb3D+Hn9wTHCMf3BPcVqfcmG/XremnhH+Bozlu8TrxOsDukKPtDWxh11nDF\
arZqtl2tTqUIpE5ImEEbMj9+cEofSnBXZ2RfY19sW3VWCGYweCkhGvsXovsBuDMeuDPMSuFgCGDh\
5nbsG9/dm6zbH9uryK20sAj3pQcOkfc4FhwFuvdW/O75jvju91Yc+kb7VvlH/Y79RwcO/hz3UxYc\
Bbr3Vhz6RgcO/FXG+DQV90OjkPsEoD6wYhlisL92zRu8tZairh+uoaSpmLIImLGSyN8a+ob3Vv57\
B/sPfCxuSB5tSFxXS2gIaEpAeTQb+xUpsNVHH0bVavcCjvcmCA4g9yoWHAW691b9awf5bPlrBfeb\
Bvz7/Ob5Fv38BfuUBvye+Xr7hPt+BfyQBw73KhYcBbr3Vhz68/lm+0EHDvd99ywWHAW697gH9+/+\
oqsqokOaWxmcwKXarvL38/qQGPeZHPpG+08cBMsG/D4c+zUF+0MG/DwcBOAFHPsgBw6R9zAWHAW6\
91sH+ZYc+4EFHAR/904c+kb7Wwf9lhwEgAUc+4AHDvcM7vleFfeHzPdT9xf3Hh73HfcX9zzQ92Mb\
9xv3DmtK9wEf9wFK3jHE+wcIxPsIp/sX+yca+ylt+xlP+wkeT/sJNjL7Ak8ITvsC+wtt+xMb+x77\
D6zO+wEf+wHOOeZT9wcIU/cHb/cO9xUa91yIFftFu/sf6iYeJer3C1j3Ixv3JvcMvvLqH+nyuvcl\
91Ea9wt39GPkHmLkUNA+vAi8PTSjKhv7HfsKXC0oHygsWfsx+3EaDiD3MhYcBbr4vQfs1oaCvh/T\
f8d0vGq8abJcqU4IqE6aSUIa+xFjIjw1HjQ8+yRg+2Mb/Az86Ab5lQT4Dwb3EeSiusAfwLqlzOAa\
yHzAbLcebLZiqFiZCJRqT48zG/wLBg73DBwE9fcxFeVN3l7XblL7GxgisSLHIt0ITvsB+wxt+xcb\
+xn7DKvL+wAf+wDLOOVR9wgIUPcIbvcX9yUa9yWo9xfG9wsexvcL3uX3AckIyfcA9w2q9xob9xv3\
DmtL9wEf9wFK3jHE+wcIxPsIp/sX+yUa+w15+wBmKx5mKlQ3QUQI/D/3jBX3BGznXNRNCPcG88T3\
MPdlGvcLd/Jj5B5i5FDQPrwIvD00oyob+yX7DFooLB8sKFv7KPtZGvtTuvsm6iUeJen3DFj3JxvQ\
zZilyB9OskunSJwIDpH3NRYcBbr5Hgf3F+5+cc8fz3DBXbRICLRIn0I6GiNpM0hEHkhEI137IXi+\
crJzpnPEV8BKvj33k/wjGPuIBvtW98VS413OZroZZrprq26ebp5tmG2SCJB1Z41ZG/t1/R8G+ccE\
+DUG5NCUnr0fvZ2xqKW0CKWzmLe6GtByxFm4HrhYPKH7ARv8ZAYOIOf4axX3S5uUQp9Pq1wZqly8\
Zc5uCG7O1nzeG9XMlqHEH8ShtamnsgimsZm1uBq5frNwrh5wrV+oTqJkmjSj+xus+xurLalVqEWw\
V7hpwghowXrIzhrVoNC1zB61y8i83KwIrNzknO4b9wHremjeH95oyle4R7hHoz6ONftOfRiB6GnR\
UroIulE2o/sFG/sJNXZgVh9VYHBXThpWnmCxaR6wae1o9zJo9zFn9wBsxnDgZMpZtE8ItE6fRjwa\
PXVCXkYeXkZLVThlCGQ3LXgiG/sZ+wOesjIfMbJFxVjZWNhw44jtCA77cvinFhwFDfx390EcBIr7\
Qfx5HPrzBw6R+vQcBboV91b94wb7J3r7CWo0Hmo0T0U0VQhUNPsHcPshG/sd+wWjujQfNLpM0Gbl\
CGbkePcP9y8a+eP3Vv3iB/sTly2jTx6iTrRdxWoIasTSe94b9yPwq8zIH8jMqfcQ90waDiD41Rb8\
zBwFugX3Zgb4Ef69qjakO6BAGaLbpdup2/gg+r0Y91oG/NIc+kYFDvhg+DIW/BkcBboF91sG93P+\
VaMmoCecKBmw9zGh5ZKj96v6chj3fgb3Zv16wPtMsftBovs2GZ7oo/Wp9wz3evpCGPdXBvwmHPpG\
BftPBvvJ+vFx6HzFhqAZfEh8UX5c+8v+8RgOIJQW+Mv5kPyI+VIF93sG9578DMI9s0+iYRmswLHD\
uMX3u/gZGPdnBvyX/Uf4v/2bBfuEBvwF+J92qXasda4ZalZ0Zn13/AT8kxgOIPjPFvkBB/zJ+eEF\
94AG97X8TsA4vTm5OBm32MDhyuv3sPhDGPd2Bvzd/eEF/QEHDvtytBb3SAf5g/o/wM6+xbu8Gf3G\
90H6rvtBBv3L/o0yJAX6PPtBBg750PcXFUhSS2NOdAh0TUl/RBv7CTKoxEwfTMRs0+Qav5e7o7Ye\
oraqrbKlsaW2n7uYrpTBlNKU9yWc9qDQowiMpIuakhrUer9pqR60XUefMBs2TXxuYx9ibW1WeED7\
RKMYm9alyLC6sLnAr9CkCKTQ3JfmG+bUgHbEH8R2tHCma6ZqnWKWWgiRbI5UOxr7hAf7O48hk18e\
kl6aYaJiCPtQBniwf7eGvQh8+CYVSnApdfsXeEGAV39sfmx+dHd6cgh6cYNubBpbnWOwax5rr8B7\
0RvQyZqqwR/BqbO0pMAInrSVx9oaDvfBFvs7HAW690j8nwbq1+y79wobzMl+ccYfxXC7ZrFcsFup\
UaBICKBIlkM+GvtKXvshMSgeKDH7AFn7Ehv7ESi/9EQfifgqFfsTnC+uUh4uxNdd7Bvaz63QxB/E\
z6jx9xsa9x9w8VTNHs1USKw9GzxHaUdSH1JGbij7FRoO/FX50PgZFfdFdHj7DlksPEYZRjspaPsI\
G/sl+wm76jMfMupf9xz3RRr3B57vseEeseHFzNm2CLbY4KDmG/cH6m5R1B/UULo4oCD7Q3AYetJu\
wWGvCK9gWJ1PGzBCa0pSH1JKbyT7IRr7I6YkwkoeSsLSa+Mb0sahtrofurapzpjlCA75zBb3Ggci\
SChW+xcbNj6iukQfRLpUzGTfCGTed+v3ARr1neuu4h6u4cDN0rkIudLaouIby8R+cL0fvXC0Z6pg\
CPii90cc+kYH/XT4phX7HKglxEgeSMTPadkb2s6rzMIfwsum7fcYGvclb/ZTzx7PU0atORs7SGpK\
Vh9VSnAk+yEaDvny9+oV9050bvsBVDc8TxlPPCVt+w8b+y/7D7vrMB8w6l33GvdBGvdHufce5+4e\
7uf3C7z3Jxv3IvcIWyrlH+UquPsc+0MagIt7inYe/awGkvsJrDLGTQhNxtVs5BvNw5yuuh+6rrDC\
ptcI/OP3txX45QaD5HTOZrgI0FJArjAbOEZvVFMfUlRsQYUuCA7+HPdGFvou+zP3IPcz9wUH0pHA\
mK4enLqqsbeoCKi2yJnaG77DhX/IH3D7MQWSZmeOahtUZX90dB90dIBfSxop92P7IPtj/i4HDvEz\
FfdDcZJVoGSschlquMh62BvezJysuB+4rKq6m8eUsJDYivcJCC48KV37CRv7JvsFwPQ7Hzv0Y/cT\
9yca8J3psOEesODAzdG6CLrQ3aLpG/cR81gm3B/3FPc6/ioH+zl6+wpqRx5pRlZUQmMIY0IxdyAb\
+xMlp8U9Hz3EZeCO9wcI9yn5EhX7H6clwkseS8LRa94b3tCry8Mfw8qn7/ccGvcWbu1SzR7NUUWs\
Ohs7R2tKUx9TSm8q+xQaDvcbFhwFuvdI/KIH7N/1vPcUG9rPfGzFH8VstWCkVAikVJc8Ixr9NftI\
+TUH5XjNZLQetGRTn0QbVll9cFwfXG9pZXdcCHdcgUk4GvzZBw7+jvccHATrFfdj90j7Ywf7SBz7\
FRX6uvdI/roHDvxV9xwWHAW690j92Af4PvhEBfd9Bvwq/B74U/0wBftyBvvz+LP7E/sOBfw5Bw7+\
jvcXFhwFuvdIHPpGBw73ffcbFvq69zX7KQesv7i1wqsIqsLKm9Ib2st7ar4fvWquXqBQCPcQ3/cB\
yfcbG/TcblHEH8RQpzH7DRr9bftH+TEH04W/gKsef6p2pWyeCJ5sZ5ViG0BNclpaH1pZcjv7ARr8\
/ftI+UYH23zHbrMes25bn0gbWF1+cGAfYHBrZHhYCHhYgUEqGvy7Bw73Gxb6uvc2+ysH9wnZ9wXF\
9ycby8aAdMEfwHSzbKZmpmadXpZYCJJqjlA4Gv0h+0j5GgfUhMJ9sB59r3KoaKEIoGdhllsbPklz\
WlQfU1pvL/scGvzYBw7P+KcV91nC9yX3Aeoe2ub3BLL3Fxv3JvcLWyzoH+grufsY+z0a+x13IGI9\
HmI8T049YAhgPDZ1Lhv7KfsMu+owHy/qXfce90ca900W+xypJcZIHkfG1mnlG+TWrc/GH8bPqfP3\
Hxr3F23vUM8ezk9BrTIbMUBpSFAfUEhtJfscGg73G/wrFRwFvfc4+x4HssG2tLymCKa8xpjQG+bb\
dFzQH9BcwEquNgiuNp0tJhr7AXgqZDQeZDRSSEFdCFxAPXQ5G09VmKRcH1ukZKtssgj8mQd6+jgV\
+x2nJsJKHkrCzmraG9vQrc/EH8TOp/T3Ihr3G2/xVM4ezlNIrT4bPkhnRFAfUENtI/sdGg79q/cZ\
Fvq69zb7NQe01rK9rqMIo66xl7UbyMh4ZMofTfs7BaVfX5hfG2Rnf3RsH2xzdGp+YQh3S4FFPxr8\
wAcO/FXK99EV90anlUSnVLllGWW4y3jdG97InK2zH7Osn7O4GrR5q2iiHnKbTp8ppPsYrDCoWKRY\
o2StcbYIcLZ+ur8aupa3obQeoLOprLCmp6CxnLyaCJm7v5LCG97Vf3PKH8pzuWupYqlioFSWRvtE\
cxiDwnS1ZaoIqmRVmkUbOFB9cGgfaHB5a2YadJJ2mngemniie6p+nYTAfONz9xNp5G++dr11smuo\
YgioYplXThpPelNoVh5oVlhiSW4IbklAfDgb+x4iqMRDH0LEXeB39wUIDv4c+KT3NRWl+zMFgFhe\
hmMbSliVoGcfZ6BypnytCHyshNL3ABr49/sY9yD3GPebB/dH9wAF/Af3Sfsg+0n9AQdYjmqSfB6R\
fJWAmoIIgpmfh6Ybn6WNkKwfDvnTFvcwB/sMOPsET/siG0xRl6NVH1SjY6lxsHCvebeAwAiErofD\
2Br5JvdI/OEHLY9MkmoellyjZrBwCHCwuH3BG8G+mae6H7qmrbGfuwieupXQ5hr4zfdI/roHDvxV\
+EIW/Cj6ugX3Ugb3eP0QpEahRKBBGZvDoc6o2veA+RwY900G/Cb+ugUOkfffFvvZ+roF904G9z38\
+cr7eI6WndSt9xsZ9z35AgX3TQb3M/z8wPtfyPdh90r4+gX3Qwb74P66BftPBvs9+RBi90n7a/3F\
BQ78VfcT/C0Vd/c9BYCyroaoG7OrkpijH6OYn56ao5adnrik0o6VkZqSnvwn+rwY91YG93H8+6g9\
pDmiNRmg3qPbqNr3d/j/GPdIBvwo/sxg+wlpO3NfGWtQZl9icAhvYll9UhtoZZKaYB8O/FWzFvcm\
B/k4+ZwFhz5IiVAb/EX3Jvn4+wsG/NP9NvsD+w8FkdzWjtIb+H/7LwYOHARzFBwFwRUAAAAAAAAB\
AAAAAwAAAAwABABYAAAAEgAQAAMAAgAgACYAOgBaAGkAcAB3AHr//wAAACAAJgAoAEEAYQBrAHIA\
ef///+H/3P/b/9X/z//O/83/zAABAAAAAAAAAAAAAAAAAAAAAAAAAAEAAAAKAB4ALAABREZMVAAI\
AAQAAAAA//8AAQAAAAFrZXJuAAgAAAABAAAAAQAEAAIAAAABAAgAAQG2AAQAAAAQACoAOAA+AGAA\
bgCIAJoArADyASQBUgGIAY4BmAGiAawAAwAW/48AKf/bAC7/2wABAAz/aAAIAAH/jwAp/2gAK/9o\
ACz/tAAu/2gAQ//bAET/2wBF/9sAAwAH/x0ACf8dABb/jwAGAAH/tAAp/2gAK/9oACz/aAAu/2gA\
Rf+0AAQAAf/bAAf++AAJ/vgAFv9oAAQAKf/bACv/2wAs/9sALv/bABEAAf/bAAf/HQAI/48ACf8d\
ABX/HQAW/2gAJP/bADD/HQAy/x0ANP8dADj/tAA9/x0AP/+0AED/HQBC/7QARP+PAEX/jwAMAAf/\
RAAI/48ACf9EABX/tAAW/2gAMP9oADT/jwA4/9sAPf+PAD//tABC/7QARf+0AAsAB/+PAAj/2wAJ\
/48AFf/bABb/tAAw/7QANP/bAD3/2wA//9sAQv/bAEX/7gANAAH/2wAH/vgACP9EAAn++AAV/48A\
Fv9oADD/aAA0/0QAOP+0AD3/RAA+/2gAQv+PAEP/jwABADX/2wACAAf/jwAJ/48AAgAH/2gACf9o\
AAIAB/+PAAn/jwACAAf/aAAJ/2gAAQAQAAEADAAWABsAIQAlACcAKQArACwALgA1AD8AQwBEAEUA\
	]]>
	</style>
<script type="text/javascript" xlink:href="../../../../../system/js/ewd/fig/svgfig.js"/>
<defs>
<font horiz-adv-x="1229">
<font-face font-family="Svg Symbol" units-per-em="2048" panose-1="5 5 1 2 1 7 6 2 5 7" ascent="2059" descent="450" alphabetic="0"/>
<missing-glyph d="M 103,0 l 0,1280 1024,0 0,-1280 -1024,0 z m 32,32 l 960,0 0,1216 -960,0 0,-1216 z"/>
<glyph unicode="&#xF057;" horiz-adv-x="1573" d="M 1517,0 l -567,0 24,279 q 141,59 207.5,168 66.5,109 66.5,306    0,272 -132.5,417.5 -132.5,145.5 -333.5,145.5 -194,0 -328,-147.5 -134,-147.5 -134,-401.5 0,-200 68.5,-319 68.5,-119     206.5,-169 l 25,-279 -564,0 0,279 35,0 q 3,-61 32,-83 45,-35 137,-35 l 270,0 0,70 q -210,61 -324.5,209 -114.5,148     -114.5,349 0,252 186.5,425 186.5,173 504.5,173 195,0 358.5,-73.5 163.5,-73.5 252,-214.5 88.5,-141 88.5,-310 0,-207     -121.5,-360.5 -121.5,-153.5 -317.5,-197.5 l -8,-70 275,0 q 92,0 128,28 36,28 42,90 l 38,0 0,-279 z"/>
</font>
</defs>
<g id="ewd_top">
<a ewd:lineID="1" style="cursor:pointer;">
<path style="&st9;" d="M 481.35 , 124.54 L 481.35 , 150.03 L 90.42 , 150.03 L 90.42 , 107.54"/>
</a>
<a ewd:lineID="2" style="cursor:pointer;">
<path style="&st3;" d="M 617.33 , 505.26 L 617.33 , 107.54 L 574.83 , 107.54 L 566.34 , 99.04 L 566.34 , 91.11"/>
<path style="&st11;" d="M 617.33 , 505.26 L 617.33 , 107.54 L 574.83 , 107.54 L 566.34 , 99.04 L 566.34 , 91.11"/>
<path style="&st18;" d="M 617.33 , 505.26 L 617.33 , 107.54 L 574.83 , 107.54 L 566.34 , 99.04 L 566.34 , 91.11"/>
</a>
<a ewd:lineID="65" style="cursor:pointer;">
<path style="&st3;" d="M 566.34 , 567.03 L 566.34 , 642.95 L 608.83 , 642.95 L 617.33 , 651.45 L 617.33 , 659.95"/>
<path style="&st11;" d="M 566.34 , 567.03 L 566.34 , 642.95 L 608.83 , 642.95 L 617.33 , 651.45 L 617.33 , 659.95"/>
<path style="&st18;" d="M 566.34 , 567.03 L 566.34 , 642.95 L 608.83 , 642.95 L 617.33 , 651.45 L 617.33 , 659.95"/>
</a>
<a ewd:lineID="66" style="cursor:pointer;">
<path style="&st3;" d="M 617.33 , 567.03 L 617.33 , 659.95"/>
<path style="&st11;" d="M 617.33 , 567.03 L 617.33 , 659.95"/>
<path style="&st18;" d="M 617.33 , 567.03 L 617.33 , 659.95"/>
</a>
<a ewd:lineID="10" style="cursor:pointer;">
<path style="&st17;" d="M 957.27 , 91.11 L 957.27 , 218.02"/>
</a>
<a ewd:lineID="9" style="cursor:pointer;">
<path style="&st17;" d="M 957.27 , 232.75 L 957.27 , 337"/>
</a>
<a ewd:lineID="12" style="cursor:pointer;">
<path style="&st17;" d="M 1101.75 , 91.11 L 1101.75 , 254.28"/>
</a>
<a ewd:lineID="11" style="cursor:pointer;">
<path style="&st17;" d="M 1101.75 , 269.01 L 1101.75 , 352.86"/>
</a>
<a ewd:lineID="67" style="cursor:pointer;">
<path style="&st3;" d="M 1101.75 , 440.12 L 1101.75 , 685.44"/>
<path style="&st11;" d="M 1101.75 , 440.12 L 1101.75 , 685.44"/>
<path style="&st18;" d="M 1101.75 , 440.12 L 1101.75 , 685.44"/>
</a>
<a ewd:lineID="68" style="cursor:pointer;">
<path style="&st3;" d="M 1195.23 , 440.12 L 1195.23 , 685.44"/>
<path style="&st11;" d="M 1195.23 , 440.12 L 1195.23 , 685.44"/>
<path style="&st18;" d="M 1195.23 , 440.12 L 1195.23 , 685.44"/>
</a>
<a ewd:lineID="69" style="cursor:pointer;">
<path style="&st3;" d="M 1288.72 , 440.12 L 1288.72 , 566.46"/>
<path style="&st11;" d="M 1288.72 , 440.12 L 1288.72 , 566.46"/>
<path style="&st18;" d="M 1288.72 , 440.12 L 1288.72 , 566.46"/>
</a>
<a ewd:lineID="71" style="cursor:pointer;">
<path style="&st3;" d="M 1382.2 , 440.12 L 1382.2 , 566.46"/>
<path style="&st11;" d="M 1382.2 , 440.12 L 1382.2 , 566.46"/>
<path style="&st18;" d="M 1382.2 , 440.12 L 1382.2 , 566.46"/>
</a>
<a ewd:lineID="72" style="cursor:pointer;">
<path style="&st3;" d="M 1382.2 , 581.19 L 1382.2 , 685.44"/>
<path style="&st11;" d="M 1382.2 , 581.19 L 1382.2 , 685.44"/>
<path style="&st18;" d="M 1382.2 , 581.19 L 1382.2 , 685.44"/>
</a>
<a ewd:lineID="13" style="cursor:pointer;">
<path style="&st17;" d="M 1195.23 , 352.86 L 1195.23 , 269.01"/>
</a>
<a ewd:lineID="17" style="cursor:pointer;">
<path style="&st0;" d="M 1288.72 , 352.86 L 1288.72 , 269.01"/>
</a>
<a ewd:lineID="21" style="cursor:pointer;">
<path style="&st0;" d="M 1382.2 , 260.51 L 1382.2 , 352.86"/>
</a>
<a ewd:lineID="70" style="cursor:pointer;">
<path style="&st3;" d="M 1288.72 , 581.19 L 1288.72 , 685.44"/>
<path style="&st11;" d="M 1288.72 , 581.19 L 1288.72 , 685.44"/>
<path style="&st18;" d="M 1288.72 , 581.19 L 1288.72 , 685.44"/>
</a>
<a ewd:lineID="14" style="cursor:pointer;">
<path style="&st17;" d="M 1195.23 , 254.28 L 1195.23 , 91.11"/>
</a>
<a ewd:lineID="15" style="cursor:pointer;">
<path style="&st3;" d="M 1288.72 , 254.28 L 1288.72 , 124.54"/>
</a>
<a ewd:lineID="18" style="cursor:pointer;">
<path style="&st3;" d="M 1322.71 , 124.54 L 1322.71 , 175.53"/>
</a>
<a ewd:lineID="16" style="cursor:pointer;">
<path style="&st3;" d="M 1288.72 , 254.28 L 1288.72 , 252.01 L 1297.21 , 243.52 L 1322.71 , 243.52 L 1322.71 , 190.26"/>
</a>
<a ewd:lineID="20" style="cursor:pointer;">
<path style="&st13;" d="M 1382.2 , 175.53 L 1382.2 , 91.11"/>
</a>
<a ewd:lineID="19" style="cursor:pointer;">
<path style="&st13;" d="M 1382.2 , 245.78 L 1382.2 , 190.26"/>
</a>
<a ewd:lineID="24" style="cursor:pointer;">
<path style="&st26;" d="M 1484.18 , 245.78 L 1484.18 , 190.26"/>
</a>
<a ewd:lineID="22" style="cursor:pointer;">
<path style="&st26;" d="M 1484.18 , 175.53 L 1484.18 , 91.11"/>
</a>
<a ewd:lineID="23" style="cursor:pointer;">
<path style="&st3;" d="M 1484.18 , 260.51 L 1484.18 , 370.99"/>
</a>
<a ewd:lineID="73" style="cursor:pointer;">
<path style="&st3;" d="M 1484.18 , 421.99 L 1484.18 , 557.96"/>
</a>
<a ewd:lineID="74" style="cursor:pointer;">
<path style="&st3;" d="M 1484.18 , 574.96 L 1484.18 , 685.44"/>
<path style="&st11;" d="M 1484.18 , 574.96 L 1484.18 , 685.44"/>
<path style="&st18;" d="M 1484.18 , 574.96 L 1484.18 , 685.44"/>
</a>
<a ewd:lineID="75" style="cursor:pointer;">
<path style="&st3;" d="M 1645.66 , 413.49 L 1645.66 , 421.99 L 1637.16 , 430.48 L 1603.16 , 430.48 L 1603.16 , 497.34"/>
<path style="&st11;" d="M 1645.66 , 413.49 L 1645.66 , 421.99 L 1637.16 , 430.48 L 1603.16 , 430.48 L 1603.16 , 497.34"/>
<path style="&st18;" d="M 1645.66 , 413.49 L 1645.66 , 421.99 L 1637.16 , 430.48 L 1603.16 , 430.48 L 1603.16 , 497.34"/>
</a>
<a ewd:lineID="77" style="cursor:pointer;">
<path style="&st3;" d="M 1645.66 , 413.49 L 1645.66 , 506.4"/>
<path style="&st11;" d="M 1645.66 , 413.49 L 1645.66 , 506.4"/>
<path style="&st18;" d="M 1645.66 , 413.49 L 1645.66 , 506.4"/>
</a>
<a ewd:lineID="76" style="cursor:pointer;">
<path style="&st3;" d="M 1645.66 , 659.95 L 1645.66 , 651.45 L 1637.16 , 642.95 L 1603.16 , 642.95 L 1603.16 , 559.1"/>
<path style="&st11;" d="M 1645.66 , 659.95 L 1645.66 , 651.45 L 1637.16 , 642.95 L 1603.16 , 642.95 L 1603.16 , 559.1"/>
<path style="&st18;" d="M 1645.66 , 659.95 L 1645.66 , 651.45 L 1637.16 , 642.95 L 1603.16 , 642.95 L 1603.16 , 559.1"/>
</a>
<a ewd:lineID="78" style="cursor:pointer;">
<path style="&st3;" d="M 1645.66 , 541.52 L 1645.66 , 659.95"/>
<path style="&st11;" d="M 1645.66 , 541.52 L 1645.66 , 659.95"/>
<path style="&st18;" d="M 1645.66 , 541.52 L 1645.66 , 659.95"/>
</a>
<a ewd:lineID="83" style="cursor:pointer;">
<path style="&st3;" d="M 1739.14 , 413.49 L 1739.14 , 483.74"/>
</a>
<a ewd:lineID="81" style="cursor:pointer;">
<path style="&st3;" d="M 1739.14 , 483.74 L 1739.14 , 481.48 L 1747.64 , 472.98 L 1783.9 , 472.98"/>
</a>
<a ewd:lineID="87" style="cursor:pointer;">
<path style="&st3;" d="M 1807.13 , 472.98 L 1841.12 , 472.98 L 1841.12 , 455.98"/>
</a>
<a ewd:lineID="88" style="cursor:pointer;">
<path style="&st3;" d="M 1841.12 , 413.49 L 1841.12 , 441.25"/>
</a>
<a ewd:lineID="26" style="cursor:pointer;">
<path style="&st3;" d="M 1968.6 , 252.01 L 1968.6 , 506.97 L 1773.13 , 506.97 L 1773.13 , 532.47"/>
</a>
<a ewd:lineID="80" style="cursor:pointer;">
<path style="&st3;" d="M 1739.14 , 498.47 L 1739.14 , 532.47"/>
</a>
<a ewd:lineID="82" style="cursor:pointer;">
<path style="&st3;" d="M 1739.14 , 583.46 L 1739.14 , 634.45 L 1764.64 , 634.45"/>
<path style="&st11;" d="M 1739.14 , 583.46 L 1739.14 , 634.45 L 1764.64 , 634.45"/>
<path style="&st18;" d="M 1739.14 , 583.46 L 1739.14 , 634.45 L 1764.64 , 634.45"/>
</a>
<a ewd:lineID="86" style="cursor:pointer;">
<path style="&st3;" d="M 2028.09 , 379.49 L 2028.09 , 634.45 L 1781.63 , 634.45"/>
<path style="&st11;" d="M 2028.09 , 379.49 L 2028.09 , 634.45 L 1781.63 , 634.45"/>
<path style="&st18;" d="M 2028.09 , 379.49 L 2028.09 , 634.45 L 1781.63 , 634.45"/>
</a>
<a ewd:lineID="84" style="cursor:pointer;">
<path style="&st3;" d="M 1773.13 , 583.46 L 1773.13 , 625.95"/>
<path style="&st11;" d="M 1773.13 , 583.46 L 1773.13 , 625.95"/>
<path style="&st18;" d="M 1773.13 , 583.46 L 1773.13 , 625.95"/>
</a>
<a ewd:lineID="85" style="cursor:pointer;">
<path style="&st3;" d="M 1773.13 , 642.95 L 1773.13 , 685.44"/>
<path style="&st11;" d="M 1773.13 , 642.95 L 1773.13 , 685.44"/>
<path style="&st18;" d="M 1773.13 , 642.95 L 1773.13 , 685.44"/>
</a>
<a ewd:lineID="25" style="cursor:pointer;">
<path style="&st3;" d="M 1679.65 , 175.53 L 1679.65 , 201.02"/>
<path style="&st15;" d="M 1679.65 , 175.53 L 1679.65 , 201.02"/>
<path style="&st16;" d="M 1679.65 , 175.53 L 1679.65 , 201.02"/>
</a>
<a ewd:lineID="27" style="cursor:pointer;">
<path style="&st13;" d="M 1968.6 , 164.76 L 1968.6 , 237.28"/>
</a>
<a ewd:lineID="28" style="cursor:pointer;">
<path style="&st13;" d="M 1968.6 , 91.11 L 1968.6 , 150.03"/>
</a>
<a ewd:lineID="31" style="cursor:pointer;">
<path style="&st27;" d="M 2028.09 , 91.11 L 2028.09 , 150.03"/>
</a>
<a ewd:lineID="29" style="cursor:pointer;">
<path style="&st27;" d="M 2028.09 , 164.76 L 2028.09 , 237.28"/>
</a>
<a ewd:lineID="30" style="cursor:pointer;">
<path style="&st3;" d="M 2028.09 , 252.01 L 2028.09 , 345.5"/>
</a>
<a ewd:lineID="33" style="cursor:pointer;">
<path style="&st17;" d="M 2155.57 , 91.11 L 2155.57 , 184.03"/>
</a>
<a ewd:lineID="34" style="cursor:pointer;">
<path style="&st17;" d="M 2155.57 , 235.02 L 2155.57 , 286.01"/>
</a>
<a ewd:lineID="32" style="cursor:pointer;">
<path style="&st3;" d="M 2155.57 , 320 L 2155.57 , 396.49"/>
<path style="&st11;" d="M 2155.57 , 320 L 2155.57 , 396.49"/>
<path style="&st18;" d="M 2155.57 , 320 L 2155.57 , 396.49"/>
</a>
<a ewd:lineID="89" style="cursor:pointer;">
<path style="&st3;" d="M 2155.57 , 455.98 L 2155.57 , 659.95"/>
<path style="&st11;" d="M 2155.57 , 455.98 L 2155.57 , 659.95"/>
<path style="&st18;" d="M 2155.57 , 455.98 L 2155.57 , 659.95"/>
</a>
<a ewd:lineID="35" style="cursor:pointer;">
<path style="&st3;" d="M 2266.05 , 294.51 L 2266.05 , 685.44"/>
<path style="&st11;" d="M 2266.05 , 294.51 L 2266.05 , 685.44"/>
<path style="&st18;" d="M 2266.05 , 294.51 L 2266.05 , 685.44"/>
</a>
<a ewd:lineID="36" style="cursor:pointer;">
<path style="&st1;" d="M 2266.05 , 133.03 L 2266.05 , 243.52"/>
</a>
<a ewd:lineID="37" style="cursor:pointer;">
<path style="&st8;" d="M 2376.53 , 303.01 L 2376.53 , 207.25"/>
</a>
<a ewd:lineID="40" style="cursor:pointer;">
<path style="&st27;" d="M 2419.03 , 303.01 L 2419.03 , 207.25"/>
</a>
<a ewd:lineID="39" style="cursor:pointer;">
<path style="&st8;" d="M 2376.53 , 192.52 L 2376.53 , 91.11"/>
</a>
<a ewd:lineID="43" style="cursor:pointer;">
<path style="&st27;" d="M 2419.03 , 192.52 L 2419.03 , 91.11"/>
</a>
<a ewd:lineID="38" style="cursor:pointer;">
<path style="&st3;" d="M 2376.53 , 337 L 2376.53 , 421.99"/>
<path style="&st11;" d="M 2376.53 , 337 L 2376.53 , 421.99"/>
<path style="&st18;" d="M 2376.53 , 337 L 2376.53 , 421.99"/>
</a>
<a ewd:lineID="90" style="cursor:pointer;">
<path style="&st3;" d="M 2376.53 , 438.98 L 2376.53 , 659.95"/>
<path style="&st11;" d="M 2376.53 , 438.98 L 2376.53 , 659.95"/>
<path style="&st18;" d="M 2376.53 , 438.98 L 2376.53 , 659.95"/>
</a>
<a ewd:lineID="91" style="cursor:pointer;">
<path style="&st9;" d="M 2419.03 , 448.05 L 2419.03 , 517.74"/>
</a>
<a ewd:lineID="92" style="cursor:pointer;">
<path style="&st9;" d="M 2419.03 , 532.47 L 2419.03 , 549.46 L 2529.51 , 549.46 L 2529.51 , 515.47"/>
</a>
<a ewd:lineID="41" style="cursor:pointer;">
<path style="&st9;" d="M 2419.03 , 337 L 2419.03 , 404.42"/>
</a>
<a ewd:lineID="42" style="cursor:pointer;">
<path style="&st9;" d="M 2419.03 , 448.05 L 2419.03 , 455.98 L 2427.53 , 464.48 L 2495.51 , 464.48 L 2495.51 , 277.51"/>
</a>
<a ewd:lineID="44" style="cursor:pointer;">
<path style="&st9;" d="M 2529.51 , 337 L 2529.51 , 277.51"/>
</a>
<a ewd:lineID="93" style="cursor:pointer;">
<path style="&st9;" d="M 2529.51 , 464.48 L 2529.51 , 387.99"/>
</a>
<a ewd:lineID="45" style="cursor:pointer;">
<path style="&st9;" d="M 2529.51 , 175.53 L 2529.51 , 226.52"/>
</a>
<a ewd:lineID="46" style="cursor:pointer;">
<path style="&st3;" d="M 2656.99 , 233.88 L 2656.99 , 226.52 L 2648.49 , 218.02 L 2622.99 , 218.02 L 2622.99 , 99.04 L 3260.39 , 99.04 L 3260.39 , 218.02 L 3217.89 , 218.02 L 3209.39 , 226.52 L 3209.39 , 233.88"/>
<path style="&st11;" d="M 2656.99 , 233.88 L 2656.99 , 226.52 L 2648.49 , 218.02 L 2622.99 , 218.02 L 2622.99 , 99.04 L 3260.39 , 99.04 L 3260.39 , 218.02 L 3217.89 , 218.02 L 3209.39 , 226.52 L 3209.39 , 233.88"/>
</a>
<a ewd:lineID="47" style="cursor:pointer;">
<path style="&st3;" d="M 3209.39 , 158.53 L 3209.39 , 116.04 L 2656.99 , 116.04 L 2656.99 , 233.88"/>
<path style="&st11;" d="M 3209.39 , 158.53 L 3209.39 , 116.04 L 2656.99 , 116.04 L 2656.99 , 233.88"/>
</a>
<a ewd:lineID="49" style="cursor:pointer;">
<path style="&st1;" d="M 3175.4 , 158.53 L 3175.4 , 133.03 L 2690.98 , 133.03 L 2690.98 , 233.88"/>
</a>
<a ewd:lineID="50" style="cursor:pointer;">
<path style="&st1;" d="M 2690.98 , 233.88 L 2690.98 , 226.52 L 2699.48 , 218.02 L 3166.9 , 218.02 L 3175.4 , 226.52 L 3175.4 , 233.88"/>
</a>
<a ewd:lineID="48" style="cursor:pointer;">
<path style="&st3;" d="M 2656.99 , 361.93 L 2656.99 , 295.64"/>
<path style="&st11;" d="M 2656.99 , 361.93 L 2656.99 , 295.64"/>
</a>
<a ewd:lineID="51" style="cursor:pointer;">
<path style="&st8;" d="M 2690.98 , 361.93 L 2690.98 , 295.64"/>
</a>
<a ewd:lineID="95" style="cursor:pointer;">
<path style="&st9;" d="M 2656.99 , 414.05 L 2656.99 , 455.98"/>
</a>
<a ewd:lineID="96" style="cursor:pointer;">
<path style="&st9;" d="M 2656.99 , 470.71 L 2656.99 , 532.47"/>
</a>
<a ewd:lineID="97" style="cursor:pointer;">
<path style="&st17;" d="M 2699.48 , 414.05 L 2699.48 , 455.98"/>
</a>
<a ewd:lineID="98" style="cursor:pointer;">
<path style="&st17;" d="M 2699.48 , 470.71 L 2699.48 , 532.47"/>
</a>
<a ewd:lineID="99" style="cursor:pointer;">
<path style="&st8;" d="M 2741.97 , 414.05 L 2741.97 , 455.98"/>
</a>
<a ewd:lineID="100" style="cursor:pointer;">
<path style="&st8;" d="M 2741.97 , 470.71 L 2741.97 , 532.47"/>
</a>
<a ewd:lineID="94" style="cursor:pointer;">
<path style="&st3;" d="M 2656.99 , 659.95 L 2656.99 , 566.46"/>
<path style="&st11;" d="M 2656.99 , 659.95 L 2656.99 , 566.46"/>
<path style="&st18;" d="M 2656.99 , 659.95 L 2656.99 , 566.46"/>
</a>
<a ewd:lineID="52" style="cursor:pointer;">
<path style="&st3;" d="M 2809.96 , 286.57 L 2809.96 , 396.49"/>
<path style="&st11;" d="M 2809.96 , 286.57 L 2809.96 , 396.49"/>
</a>
<a ewd:lineID="53" style="cursor:pointer;">
<path style="&st0;" d="M 2843.96 , 396.49 L 2843.96 , 286.57"/>
</a>
<a ewd:lineID="103" style="cursor:pointer;">
<path style="&st3;" d="M 2809.96 , 411.5 L 2809.96 , 480.91"/>
<path style="&st11;" d="M 2809.96 , 411.5 L 2809.96 , 480.91"/>
</a>
<a ewd:lineID="108" style="cursor:pointer;">
<path style="&st0;" d="M 2843.96 , 411.22 L 2843.96 , 480.91"/>
</a>
<a ewd:lineID="101" style="cursor:pointer;">
<path style="&st3;" d="M 2809.96 , 583.46 L 2809.96 , 574.96 L 2826.96 , 557.96 L 2826.96 , 532.47 L 2962.94 , 532.47 L 2962.94 , 489.97 L 3404.86 , 489.97 L 3404.86 , 481.48 L 3421.86 , 464.48 L 3421.86 , 457.11"/>
<path style="&st11;" d="M 2809.96 , 583.46 L 2809.96 , 574.96 L 2826.96 , 557.96 L 2826.96 , 532.47 L 2962.94 , 532.47 L 2962.94 , 489.97 L 3404.86 , 489.97 L 3404.86 , 481.48 L 3421.86 , 464.48 L 3421.86 , 457.11"/>
</a>
<a ewd:lineID="107" style="cursor:pointer;">
<path style="&st0;" d="M 2843.96 , 583.46 L 2843.96 , 574.96 L 2860.95 , 557.96 L 2988.43 , 557.96 L 2988.43 , 472.98 L 3345.37 , 472.98 L 3353.87 , 464.48 L 3353.87 , 457.11"/>
</a>
<a ewd:lineID="104" style="cursor:pointer;">
<path style="&st17;" d="M 2809.96 , 617.45 L 2809.96 , 676.94"/>
</a>
<a ewd:lineID="105" style="cursor:pointer;">
<path style="&st0;" d="M 2835.46 , 617.45 L 2835.46 , 676.94"/>
</a>
<a ewd:lineID="109" style="cursor:pointer;">
<path style="&st9;" d="M 2860.95 , 617.45 L 2860.95 , 676.94"/>
</a>
<a ewd:lineID="110" style="cursor:pointer;">
<path style="&st8;" d="M 2886.45 , 617.45 L 2886.45 , 676.94"/>
</a>
<a ewd:lineID="111" style="cursor:pointer;">
<path style="&st17;" d="M 2911.94 , 617.45 L 2911.94 , 676.94"/>
</a>
<a ewd:lineID="112" style="cursor:pointer;">
<path style="&st0;" d="M 2937.44 , 617.45 L 2937.44 , 676.94"/>
</a>
<a ewd:lineID="113" style="cursor:pointer;">
<path style="&st3;" d="M 2962.94 , 617.45 L 2962.94 , 676.94"/>
<path style="&st11;" d="M 2962.94 , 617.45 L 2962.94 , 676.94"/>
</a>
<a ewd:lineID="114" style="cursor:pointer;">
<path style="&st3;" d="M 2988.43 , 617.45 L 2988.43 , 676.94"/>
</a>
<a ewd:lineID="54" style="cursor:pointer;">
<path style="&st27;" d="M 3175.4 , 175.53 L 3175.4 , 233.88"/>
</a>
<a ewd:lineID="55" style="cursor:pointer;">
<path style="&st3;" d="M 3209.39 , 175.53 L 3209.39 , 233.88"/>
<path style="&st11;" d="M 3209.39 , 175.53 L 3209.39 , 233.88"/>
</a>
<a ewd:lineID="56" style="cursor:pointer;">
<path style="&st9;" d="M 3285.88 , 91.11 L 3285.88 , 233.88"/>
</a>
<a ewd:lineID="115" style="cursor:pointer;">
<path style="&st17;" d="M 3141.41 , 634.45 L 3141.41 , 566.46"/>
</a>
<a ewd:lineID="116" style="cursor:pointer;">
<path style="&st0;" d="M 3166.9 , 634.45 L 3166.9 , 566.46"/>
</a>
<a ewd:lineID="117" style="cursor:pointer;">
<path style="&st9;" d="M 3192.4 , 634.45 L 3192.4 , 566.46"/>
</a>
<a ewd:lineID="57" style="cursor:pointer;">
<path style="&st3;" d="M 3319.88 , 91.11 L 3319.88 , 233.88"/>
<path style="&st11;" d="M 3319.88 , 91.11 L 3319.88 , 233.88"/>
</a>
<a ewd:lineID="118" style="cursor:pointer;">
<path style="&st8;" d="M 3217.89 , 634.45 L 3217.89 , 566.46"/>
</a>
<a ewd:lineID="119" style="cursor:pointer;">
<path style="&st17;" d="M 3243.39 , 634.45 L 3243.39 , 566.46"/>
</a>
<a ewd:lineID="120" style="cursor:pointer;">
<path style="&st0;" d="M 3268.88 , 634.45 L 3268.88 , 566.46"/>
</a>
<a ewd:lineID="121" style="cursor:pointer;">
<path style="&st3;" d="M 3294.38 , 634.45 L 3294.38 , 566.46"/>
<path style="&st11;" d="M 3294.38 , 634.45 L 3294.38 , 566.46"/>
</a>
<a ewd:lineID="122" style="cursor:pointer;">
<path style="&st3;" d="M 3319.88 , 634.45 L 3319.88 , 566.46"/>
</a>
<a ewd:lineID="126" style="cursor:pointer;">
<path style="&st0;" d="M 3353.87 , 634.45 L 3353.87 , 625.95 L 3362.37 , 617.45 L 3379.37 , 617.45 L 3379.37 , 583.46 L 3362.37 , 583.46 L 3353.87 , 574.96 L 3353.87 , 567.03"/>
</a>
<a ewd:lineID="125" style="cursor:pointer;">
<path style="&st0;" d="M 3353.87 , 531.9 L 3353.87 , 523.97 L 3362.37 , 515.47 L 3379.37 , 515.47 L 3379.37 , 472.98 L 3362.37 , 472.98 L 3353.87 , 464.48 L 3353.87 , 457.11"/>
</a>
<a ewd:lineID="58" style="cursor:pointer;">
<path style="&st0;" d="M 3472.85 , 351.73 L 3472.85 , 354 L 3464.35 , 362.5 L 3447.35 , 362.5 L 3447.35 , 379.49 L 3464.35 , 379.49 L 3472.85 , 387.99 L 3472.85 , 395.36"/>
</a>
<a ewd:lineID="60" style="cursor:pointer;">
<path style="&st3;" d="M 3472.85 , 395.36 L 3472.85 , 351.73"/>
</a>
<a ewd:lineID="59" style="cursor:pointer;">
<path style="&st3;" d="M 3472.85 , 328.5 L 3472.85 , 295.64"/>
</a>
<a ewd:lineID="62" style="cursor:pointer;">
<path style="&st3;" d="M 3506.84 , 328.5 L 3506.84 , 295.64"/>
<path style="&st11;" d="M 3506.84 , 328.5 L 3506.84 , 295.64"/>
</a>
<a ewd:lineID="61" style="cursor:pointer;">
<path style="&st3;" d="M 3506.84 , 395.36 L 3506.84 , 352.01"/>
<path style="&st11;" d="M 3506.84 , 395.36 L 3506.84 , 352.01"/>
</a>
<a ewd:lineID="128" style="cursor:pointer;">
<path style="&st3;" d="M 3421.86 , 457.11 L 3421.86 , 531.9"/>
<path style="&st11;" d="M 3421.86 , 457.11 L 3421.86 , 531.9"/>
</a>
<a ewd:lineID="127" style="cursor:pointer;">
<path style="&st3;" d="M 3421.86 , 567.03 L 3421.86 , 634.45"/>
<path style="&st11;" d="M 3421.86 , 567.03 L 3421.86 , 634.45"/>
</a>
<a ewd:lineID="130" style="cursor:pointer;">
<path style="&st27;" d="M 3472.85 , 457.11 L 3472.85 , 509.24"/>
</a>
<a ewd:lineID="129" style="cursor:pointer;">
<path style="&st27;" d="M 3472.85 , 532.47 L 3472.85 , 591.96 L 3540.84 , 591.96 L 3549.34 , 600.46 L 3549.34 , 608.39"/>
</a>
<a ewd:lineID="132" style="cursor:pointer;">
<path style="&st3;" d="M 3506.84 , 532.47 L 3506.84 , 574.96 L 3566.34 , 574.96 L 3566.34 , 583.46 L 3583.33 , 600.46 L 3583.33 , 608.39"/>
<path style="&st11;" d="M 3506.84 , 532.47 L 3506.84 , 574.96 L 3566.34 , 574.96 L 3566.34 , 583.46 L 3583.33 , 600.46 L 3583.33 , 608.39"/>
</a>
<a ewd:lineID="131" style="cursor:pointer;">
<path style="&st3;" d="M 3506.84 , 457.11 L 3506.84 , 508.95"/>
<path style="&st11;" d="M 3506.84 , 457.11 L 3506.84 , 508.95"/>
</a>
<a ewd:lineID="64" style="cursor:pointer;">
<path style="&st3;" d="M 3583.33 , 608.39 L 3583.33 , 286.57"/>
<path style="&st11;" d="M 3583.33 , 608.39 L 3583.33 , 286.57"/>
</a>
<a ewd:lineID="3" style="cursor:pointer;">
<path style="&st3;" d="M 566.34 , 91.11 L 566.34 , 523.4"/>
<path style="&st11;" d="M 566.34 , 91.11 L 566.34 , 523.4"/>
<path style="&st18;" d="M 566.34 , 91.11 L 566.34 , 523.4"/>
</a>
<a ewd:lineID="102" style="cursor:pointer;">
<path style="&st3;" d="M 2809.96 , 524.53 L 2809.96 , 583.46"/>
<path style="&st11;" d="M 2809.96 , 524.53 L 2809.96 , 583.46"/>
</a>
<a ewd:lineID="106" style="cursor:pointer;">
<path style="&st3;" d="M 2843.96 , 524.53 L 2843.96 , 583.46"/>
</a>
<a ewd:lineID="124" style="cursor:pointer;">
<path style="&st3;" d="M 3353.87 , 567.03 L 3353.87 , 634.45"/>
</a>
<a ewd:lineID="123" style="cursor:pointer;">
<path style="&st3;" d="M 3353.87 , 457.11 L 3353.87 , 531.9"/>
</a>
<a ewd:lineID="63" style="cursor:pointer;">
<path style="&st13;" d="M 3549.34 , 286.57 L 3549.34 , 608.39"/>
</a>
<a ewd:code="GR1" ewd:figtype="w2w" style="cursor:pointer;" ewd:figID="601">
<path style="&st20;" d="M965.77,218.02h-17v8.5h17V218.02"/>
<text transform="matrix(1 0 0 1 951.1045 224.7568)" style="&st6;"><tspan x="0" y="0" style="&st23; &st14;">GR1</tspan></text>
</a>
<a ewd:code="KG2" ewd:figtype="w2w" style="cursor:pointer;" ewd:figID="602">
<path style="&st20;" d="M1110.25,260.51h-17v8.5h17V260.51"/>
<text transform="matrix(1 0 0 1 1095.7505 267.2568)" style="&st6;"><tspan x="0" y="0" style="&st23; &st14;">KG2</tspan></text>
</a>
<a ewd:code="JG2" ewd:figtype="w2w" style="cursor:pointer;" ewd:figID="603">
<path style="&st20;" d="M1203.73,260.51h-17v8.5h17V260.51"/>
<text transform="matrix(1 0 0 1 1189.731 267.2568)" style="&st6;"><tspan x="0" y="0" style="&st23; &st14;">JG2</tspan></text>
</a>
<a ewd:code="MR1" ewd:figtype="w2w" style="cursor:pointer;" ewd:figID="604">
<path style="&st20;" d="M1297.21,260.51h-16.99v8.5h16.99V260.51"/>
<text transform="matrix(1 0 0 1 1282.3843 267.2568)" style="&st6;"><tspan x="0" y="0" style="&st23; &st14;">MR1</tspan></text>
</a>
<a ewd:code="GR2" ewd:figtype="w2w" style="cursor:pointer;" ewd:figID="605">
<path style="&st20;" d="M1331.21,175.53h-17v8.5h17V175.53"/>
<text transform="matrix(1 0 0 1 1316.5449 182.2666)" style="&st6;"><tspan x="0" y="0" style="&st23; &st14;">GR2</tspan></text>
</a>
<a ewd:code="GA2" ewd:figtype="w2w" style="cursor:pointer;" ewd:figID="631">
<path style="&st20;" d="M3481.35,515.47h-17v8.5h17V515.47"/>
<text transform="matrix(1 0 0 1 3466.8501 522.2065)" style="&st6;"><tspan x="0" y="0" style="&st23; &st14;">GA2</tspan></text>
</a>
<a ewd:code="GA6" ewd:figtype="w2w" style="cursor:pointer;" ewd:figID="632">
<path style="&st20;" d="M3481.35,523.97h-17v8.5h17V523.97"/>
<text transform="matrix(1 0 0 1 3466.8501 530.7065)" style="&st6;"><tspan x="0" y="0" style="&st23; &st14;">GA6</tspan></text>
</a>
<a ewd:code="GA2" ewd:figtype="w2w" style="cursor:pointer;" ewd:figID="634">
<path style="&st20;" d="M3515.34,515.47h-16.99v8.5h16.99V515.47"/>
<text transform="matrix(1 0 0 1 3500.8452 522.2065)" style="&st6;"><tspan x="0" y="0" style="&st23; &st14;">GA2</tspan></text>
</a>
<a ewd:code="GA6" ewd:figtype="w2w" style="cursor:pointer;" ewd:figID="633">
<path style="&st20;" d="M3515.34,523.97h-16.99v8.5h16.99V523.97"/>
<text transform="matrix(1 0 0 1 3500.8452 530.7065)" style="&st6;"><tspan x="0" y="0" style="&st23; &st14;">GA6</tspan></text>
</a>
<a ewd:code="GA2" ewd:figtype="w2w" style="cursor:pointer;" ewd:figID="617">
<path style="&st20;" d="M3481.35,328.5h-17v8.5h17V328.5"/>
<text transform="matrix(1 0 0 1 3466.8501 335.2368)" style="&st6;"><tspan x="0" y="0" style="&st23; &st14;">GA2</tspan></text>
</a>
<a ewd:code="GA6" ewd:figtype="w2w" style="cursor:pointer;" ewd:figID="616">
<path style="&st20;" d="M3481.35,337h-17v8.5h17V337"/>
<text transform="matrix(1 0 0 1 3466.8501 343.7368)" style="&st6;"><tspan x="0" y="0" style="&st23; &st14;">GA6</tspan></text>
</a>
<a ewd:code="GA2" ewd:figtype="w2w" style="cursor:pointer;" ewd:figID="618">
<path style="&st20;" d="M3515.34,328.5h-16.99v8.5h16.99V328.5"/>
<text transform="matrix(1 0 0 1 3500.8452 335.2368)" style="&st6;"><tspan x="0" y="0" style="&st23; &st14;">GA2</tspan></text>
</a>
<a ewd:code="GA6" ewd:figtype="w2w" style="cursor:pointer;" ewd:figID="619">
<path style="&st20;" d="M3515.34,337h-16.99v8.5h16.99V337"/>
<text transform="matrix(1 0 0 1 3500.8452 343.7368)" style="&st6;"><tspan x="0" y="0" style="&st23; &st14;">GA6</tspan></text>
</a>
<a ewd:code="XQ2" ewd:figtype="w2w" style="cursor:pointer;" ewd:figID="609">
<path style="&st20;" d="M1492.68,252.01h-17v8.5h17V252.01"/>
<text transform="matrix(1 0 0 1 1478.1802 258.7568)" style="&st6;"><tspan x="0" y="0" style="&st23; &st14;">XQ2</tspan></text>
</a>
<a ewd:code="LQ1" ewd:figtype="w2w" style="cursor:pointer;" ewd:figID="607">
<path style="&st20;" d="M1390.7,252.01h-17v8.5h17V252.01"/>
<text transform="matrix(1 0 0 1 1376.5322 258.7568)" style="&st6;"><tspan x="0" y="0" style="&st23; &st14;">LQ1</tspan></text>
</a>
<a ewd:code="GQ1" ewd:figtype="w2w" style="cursor:pointer;" ewd:figID="608">
<path style="&st20;" d="M1492.68,175.53h-17v8.5h17V175.53"/>
<text transform="matrix(1 0 0 1 1477.8477 182.2666)" style="&st6;"><tspan x="0" y="0" style="&st23; &st14;">GQ1</tspan></text>
</a>
<a ewd:code="GQ1" ewd:figtype="w2w" style="cursor:pointer;" ewd:figID="606">
<path style="&st20;" d="M1390.7,175.53h-17v8.5h17V175.53"/>
<text transform="matrix(1 0 0 1 1375.8672 182.2666)" style="&st6;"><tspan x="0" y="0" style="&st23; &st14;">GQ1</tspan></text>
</a>
<a ewd:code="GQ1" ewd:figtype="w2w" style="cursor:pointer;" ewd:figID="610">
<path style="&st20;" d="M1977.1,150.03h-17v8.5h17V150.03"/>
<text transform="matrix(1 0 0 1 1962.2681 156.7666)" style="&st6;"><tspan x="0" y="0" style="&st23; &st14;">GQ1</tspan></text>
</a>
<a ewd:code="GQ1" ewd:figtype="w2w" style="cursor:pointer;" ewd:figID="612">
<path style="&st20;" d="M2036.59,150.03h-17v8.5h17V150.03"/>
<text transform="matrix(1 0 0 1 2021.7583 156.7666)" style="&st6;"><tspan x="0" y="0" style="&st23; &st14;">GQ1</tspan></text>
</a>
<a ewd:code="XQ1" ewd:figtype="w2w" style="cursor:pointer;" ewd:figID="611">
<path style="&st20;" d="M1977.1,243.52h-17v8.49h17V243.52"/>
<text transform="matrix(1 0 0 1 1962.6001 250.2568)" style="&st6;"><tspan x="0" y="0" style="&st23; &st14;">XQ1</tspan></text>
</a>
<a ewd:code="XQ1" ewd:figtype="w2w" style="cursor:pointer;" ewd:figID="613">
<path style="&st20;" d="M2036.59,243.52h-17v8.49h17V243.52"/>
<text transform="matrix(1 0 0 1 2022.0903 250.2568)" style="&st6;"><tspan x="0" y="0" style="&st23; &st14;">XQ1</tspan></text>
</a>
<a ewd:code="GR1" ewd:figtype="w2w" style="cursor:pointer;" ewd:figID="614">
<path style="&st20;" d="M2385.03,192.52h-16.99v8.5h16.99V192.52"/>
<text transform="matrix(1 0 0 1 2370.3696 199.2666)" style="&st6;"><tspan x="0" y="0" style="&st23; &st14;">GR1</tspan></text>
</a>
<a ewd:code="GR1" ewd:figtype="w2w" style="cursor:pointer;" ewd:figID="615">
<path style="&st20;" d="M2427.53,192.52h-17v8.5h17V192.52"/>
<text transform="matrix(1 0 0 1 2412.8638 199.2666)" style="&st6;"><tspan x="0" y="0" style="&st23; &st14;">GR1</tspan></text>
</a>
<a ewd:code="GR1" ewd:figtype="w2w" style="cursor:pointer;" ewd:figID="626">
<path style="&st20;" d="M2665.49,455.98h-17v8.5h17V455.98"/>
<text transform="matrix(1 0 0 1 2650.8247 462.7163)" style="&st6;"><tspan x="0" y="0" style="&st23; &st14;">GR1</tspan></text>
</a>
<a ewd:code="GR1" ewd:figtype="w2w" style="cursor:pointer;" ewd:figID="627">
<path style="&st20;" d="M2707.98,455.98h-17v8.5h17V455.98"/>
<text transform="matrix(1 0 0 1 2693.3149 462.7163)" style="&st6;"><tspan x="0" y="0" style="&st23; &st14;">GR1</tspan></text>
</a>
<a ewd:code="GR1" ewd:figtype="w2w" style="cursor:pointer;" ewd:figID="628">
<path style="&st20;" d="M2750.47,455.98h-17v8.5h17V455.98"/>
<text transform="matrix(1 0 0 1 2735.8052 462.7163)" style="&st6;"><tspan x="0" y="0" style="&st23; &st14;">GR1</tspan></text>
</a>
<a ewd:code="GA6" ewd:figtype="w2w" style="cursor:pointer;" ewd:figID="629">
<path style="&st20;" d="M2818.46,396.49h-17v8.5h17V396.49"/>
<text transform="matrix(1 0 0 1 2803.9604 403.2261)" style="&st6;"><tspan x="0" y="0" style="&st23; &st14;">GA6</tspan></text>
</a>
<a ewd:code="GA6" ewd:figtype="w2w" style="cursor:pointer;" ewd:figID="630">
<path style="&st20;" d="M2852.45,396.49h-16.99v8.5h16.99V396.49"/>
<text transform="matrix(1 0 0 1 2837.9546 403.2261)" style="&st6;"><tspan x="0" y="0" style="&st23; &st14;">GA6</tspan></text>
</a>
<a ewd:code="GR1" ewd:figtype="w2w" style="cursor:pointer;" ewd:figID="625">
<path style="&st20;" d="M2427.53,523.97h-17v8.5h17V523.97"/>
<text transform="matrix(1 0 0 1 2412.8638 530.7065)" style="&st6;"><tspan x="0" y="0" style="&st23; &st14;">GR1</tspan></text>
</a>
<a ewd:code="MR1" ewd:figtype="w2w" style="cursor:pointer;" ewd:figID="620">
<path style="&st20;" d="M1297.21,566.46h-16.99v8.5h16.99V566.46"/>
<text transform="matrix(1 0 0 1 1282.3843 573.1968)" style="&st6;"><tspan x="0" y="0" style="&st23; &st14;">MR1</tspan></text>
</a>
<a ewd:code="LQ1" ewd:figtype="w2w" style="cursor:pointer;" ewd:figID="621">
<path style="&st20;" d="M1390.7,566.46h-17v8.5h17V566.46"/>
<text transform="matrix(1 0 0 1 1376.5322 573.1968)" style="&st6;"><tspan x="0" y="0" style="&st23; &st14;">LQ1</tspan></text>
</a>
<a ewd:code="XQ1" ewd:figtype="w2w" style="cursor:pointer;" ewd:figID="622">
<path style="&st20;" d="M1747.64,489.97h-17v8.5h17V489.97"/>
<text transform="matrix(1 0 0 1 1733.1401 496.7163)" style="&st6;"><tspan x="0" y="0" style="&st23; &st14;">XQ1</tspan></text>
</a>
<a ewd:code="GQ1" ewd:figtype="w2w" style="cursor:pointer;" ewd:figID="623">
<path style="&st20;" d="M1807.13,468.73h-17v8.5h17V468.73"/>
<text transform="matrix(1 0 0 1 1792.2979 475.4663)" style="&st6;"><tspan x="0" y="0" style="&st23; &st14;">GQ1</tspan></text>
</a>
<a ewd:code="GR1" ewd:figtype="w2w" style="cursor:pointer;" ewd:figID="624">
<path style="&st20;" d="M1849.62,447.48h-17v8.5h17V447.48"/>
<text transform="matrix(1 0 0 1 1834.9541 454.2163)" style="&st6;"><tspan x="0" y="0" style="&st23; &st14;">GR1</tspan></text>
</a>
<a ewd:code="228001" ewd:figtype="sp" style="cursor:pointer;" ewd:figID="501">
<path style="&st20;" d="M1479.93,557.96h8.5l4.25,4.25v8.5l-4.25,4.25h-8.5l-4.25-4.25v-8.5L1479.93,557.96"/>
</a>
<a ewd:code="228002" ewd:figtype="sp" style="cursor:pointer;" ewd:figID="502">
<path style="&st20;" d="M1768.89,625.95h8.49l4.25,4.25v8.5l-4.25,4.25h-8.49l-4.25-4.25v-8.5L1768.89,625.95"/>
</a>
<a ewd:code="FUSE10" ewd:figtype="rb" style="cursor:pointer;" ewd:figID="401">
<path style="&st25;" d="M77.67,40.55v41.49h25.49V39.55H77.67"/>
</a>
<a ewd:code="FUSE38" ewd:figtype="rb" style="cursor:pointer;" ewd:figID="402">
<path style="&st25;" d="M1666.9,108.54v41.49h25.5v-42.49h-25.5"/>
</a>
<a ewd:code="FUSE10" ewd:figtype="rb" style="cursor:pointer;" ewd:figID="403">
<path style="&st25;" d="M2516.76,107.54v42.49h25.5v-42.49H2516.76"/>
</a>
<a ewd:code="2" ewd:figtype="jb" style="cursor:pointer;" ewd:figID="301">
<path style="&st22;" d="M149.91,39.55v84.99h339.94v-42.5H294.38V39.55H149.91"/>
</a>
<a ewd:code="2" ewd:figtype="jb" style="cursor:pointer;" ewd:figID="304">
<path style="&st22;" d="M1628.66,201.02h101.98v-93.48h50.99v-25.5h161.48v331.45h-314.45V201.02"/>
</a>
<a ewd:code="3JB" ewd:figtype="jb" style="cursor:pointer;" ewd:figID="305">
<path style="&st22;" d="M2138.57,184.03v50.99h25.5v-50.99H2138.57"/>
</a>
<a ewd:code="3JB" ewd:figtype="jb" style="cursor:pointer;" ewd:figID="309">
<path style="&st22;" d="M2138.57,396.49v59.49h38.53v-59.49H2138.57"/>
</a>
<a ewd:code="2" ewd:figtype="jb" style="cursor:pointer;" ewd:figID="303">
<path style="&st22;" d="M1271.72,82.04v42.5h59.49v-42.5H1271.72"/>
</a>
<a ewd:code="2" ewd:figtype="jb" style="cursor:pointer;" ewd:figID="306">
<path style="&st22;" d="M2249.06,82.04v50.99h25.49V82.04H2249.06"/>
</a>
<a ewd:code="4JB" ewd:figtype="jb" style="cursor:pointer;" ewd:figID="310">
<path style="&st22;" d="M2512.51,464.48v50.99h25.5v-50.99H2512.51"/>
</a>
<a ewd:code="3JB" ewd:figtype="jb" style="cursor:pointer;" ewd:figID="308">
<path style="&st22;" d="M2512.51,337v50.99h25.5V337H2512.51"/>
</a>
<a ewd:code="2" ewd:figtype="jb" style="cursor:pointer;" ewd:figID="307">
<path style="&st22;" d="M2478.52,226.52v50.99h59.49v-50.99H2478.52"/>
</a>
<a ewd:code="G5" ewd:figtype="gp" style="cursor:pointer;" ewd:figID="201">
<path style="&st20;" d="M606.7,685.44h21.25l-10.62,15.58L606.7,685.44"/>
<text transform="matrix(1 0 0 1 612.353 693.5972)" style="&st6;"><tspan x="0" y="0" style="&st23; &st14;">G5</tspan></text>
</a>
<a ewd:code="K1" ewd:figtype="gp" style="cursor:pointer;" ewd:figID="203">
<path style="&st20;" d="M1091.12,685.44h21.25l-10.62,15.58L1091.12,685.44"/>
<text transform="matrix(1 0 0 1 1097.6226 693.5972)" style="&st6;"><tspan x="0" y="0" style="&st23; &st14;">K1</tspan></text>
</a>
<a ewd:code="J1" ewd:figtype="gp" style="cursor:pointer;" ewd:figID="204">
<path style="&st20;" d="M1184.61,685.44h21.24l-10.62,15.58L1184.61,685.44"/>
<text transform="matrix(1 0 0 1 1191.7026 693.5972)" style="&st6;"><tspan x="0" y="0" style="&st23; &st14;">J1</tspan></text>
</a>
<a ewd:code="R1" ewd:figtype="gp" style="cursor:pointer;" ewd:figID="205">
<path style="&st20;" d="M1278.09,685.44h21.25l-10.62,15.58L1278.09,685.44"/>
<text transform="matrix(1 0 0 1 1284.4429 693.5972)" style="&st6;"><tspan x="0" y="0" style="&st23; &st14;">R1</tspan></text>
</a>
<a ewd:code="Q1" ewd:figtype="gp" style="cursor:pointer;" ewd:figID="206">
<path style="&st20;" d="M1371.58,685.44h21.24l-10.62,15.58L1371.58,685.44"/>
<text transform="matrix(1 0 0 1 1377.6333 693.5972)" style="&st6;"><tspan x="0" y="0" style="&st23; &st14;">Q1</tspan></text>
</a>
<a ewd:code="X1" ewd:figtype="gp" style="cursor:pointer;" ewd:figID="207">
<path style="&st20;" d="M1473.56,685.44h21.25l-10.63,15.58L1473.56,685.44"/>
<text transform="matrix(1 0 0 1 1480.063 693.5972)" style="&st6;"><tspan x="0" y="0" style="&st23; &st14;">X1</tspan></text>
</a>
<a ewd:code="G3" ewd:figtype="gp" style="cursor:pointer;" ewd:figID="208">
<path style="&st20;" d="M1635.03,685.44h21.25l-10.62,15.58L1635.03,685.44"/>
<text transform="matrix(1 0 0 1 1640.6733 693.5972)" style="&st6;"><tspan x="0" y="0" style="&st23; &st14;">G3</tspan></text>
</a>
<a ewd:code="X1" ewd:figtype="gp" style="cursor:pointer;" ewd:figID="209">
<path style="&st20;" d="M1762.51,685.44h21.25l-10.63,15.58L1762.51,685.44"/>
<text transform="matrix(1 0 0 1 1769.0132 693.5972)" style="&st6;"><tspan x="0" y="0" style="&st23; &st14;">X1</tspan></text>
</a>
<a ewd:code="G3" ewd:figtype="gp" style="cursor:pointer;" ewd:figID="210">
<path style="&st20;" d="M2144.95,685.44h21.24l-10.62,15.58L2144.95,685.44"/>
<text transform="matrix(1 0 0 1 2150.5933 693.5972)" style="&st6;"><tspan x="0" y="0" style="&st23; &st14;">G3</tspan></text>
</a>
<a ewd:code="A2" ewd:figtype="gp" style="cursor:pointer;" ewd:figID="211">
<path style="&st20;" d="M2255.43,685.44h21.25l-10.63,15.58L2255.43,685.44"/>
<text transform="matrix(1 0 0 1 2261.5229 693.5972)" style="&st6;"><tspan x="0" y="0" style="&st23; &st14;">A2</tspan></text>
</a>
<a ewd:code="R2" ewd:figtype="gp" style="cursor:pointer;" ewd:figID="212">
<path style="&st20;" d="M2365.91,685.44h21.25l-10.63,15.58L2365.91,685.44"/>
<text transform="matrix(1 0 0 1 2371.853 693.5972)" style="&st6;"><tspan x="0" y="0" style="&st23; &st14;">R2</tspan></text>
</a>
<a ewd:code="R2" ewd:figtype="gp" style="cursor:pointer;" ewd:figID="213">
<path style="&st20;" d="M2646.36,685.44h21.25l-10.62,15.58L2646.36,685.44"/>
<text transform="matrix(1 0 0 1 2652.3032 693.5972)" style="&st6;"><tspan x="0" y="0" style="&st23; &st14;">R2</tspan></text>
</a>
<a ewd:code="FUSE10" ewd:figtype="fuse" style="cursor:pointer;" ewd:figID="101">
<path style="&st7;" d="M77.67,39.55v42.49h25.49V39.55H77.67"/>
</a>
<a ewd:code="FUSE38" ewd:figtype="fuse" style="cursor:pointer;" ewd:figID="104">
<path style="&st7;" d="M1666.9,107.54v42.49h25.5v-42.49H1666.9"/>
</a>
<a ewd:code="FUSE65" ewd:figtype="fuse" style="cursor:pointer;" ewd:figID="102">
<path style="&st7;" d="M154.16,39.55v42.49h25.49V39.55H154.16"/>
</a>
<a ewd:code="FUSE75" ewd:figtype="fuse" style="cursor:pointer;" ewd:figID="103">
<path style="&st7;" d="M230.64,39.55v42.49h25.5V39.55H230.64"/>
</a>
<a ewd:code="FUSE87" ewd:figtype="fuse" style="cursor:pointer;" ewd:figID="105">
<path style="&st7;" d="M1734.89,107.54v42.49h25.5v-42.49H1734.89"/>
</a>
<a ewd:code="FUSE10" ewd:figtype="fuse" style="cursor:pointer;" ewd:figID="106">
<path style="&st7;" d="M2516.76,107.54v42.49h25.5v-42.49H2516.76"/>
</a>
<a ewd:code="G128-C,G129-D" ewd:figtype="conn" style="cursor:pointer;" ewd:figID="18">
<path style="&st25;" d="M557.84,532.47h16.99v25.49h-16.99V532.47"/>
<title ewd:textID="23">Junction Connector</title>
</a>
<a ewd:code="G106" ewd:figtype="conn" style="cursor:pointer;" ewd:figID="20">
<path style="&st25;" d="M608.83,660.95v15.99h17v-16.99h-17"/>
<title ewd:textID="23">Junction Connector</title>
</a>
<a ewd:code="R9" ewd:figtype="conn" style="cursor:pointer;" ewd:figID="4">
<path style="&st25;" d="M965.77,370.99V337h-17v33.99H965.77"/>
<title ewd:textID="10">Back Door Courtesy Light Switch Assembly</title>
</a>
<a ewd:code="K6" ewd:figtype="conn" style="cursor:pointer;" ewd:figID="5">
<path style="&st25;" d="M1076.25,421.99v-51h50.99v51H1076.25"/>
<title ewd:textID="19">Front Door with Motor Lock Assembly LH</title>
</a>
<a ewd:code="J6" ewd:figtype="conn" style="cursor:pointer;" ewd:figID="6">
<path style="&st25;" d="M1169.74,370.99v51h50.99v-51H1169.74"/>
<title ewd:textID="20">Front Door with Motor Lock Assembly RH</title>
</a>
<a ewd:code="M5" ewd:figtype="conn" style="cursor:pointer;" ewd:figID="7">
<path style="&st25;" d="M1263.22,421.99v-51h50.99v51H1263.22"/>
<title ewd:textID="25">Rear Door Lock Assembly LH</title>
</a>
<a ewd:code="L5" ewd:figtype="conn" style="cursor:pointer;" ewd:figID="8">
<path style="&st25;" d="M1356.7,421.99v-51h51v51H1356.7"/>
<title ewd:textID="26">Rear Door Lock Assembly RH</title>
</a>
<a ewd:code="X2" ewd:figtype="conn" style="cursor:pointer;" ewd:figID="9">
<path style="&st25;" d="M1458.69,421.99v-51h50.99v51H1458.69"/>
<title ewd:textID="11">Back Door Lock Assembly</title>
</a>
<a ewd:code="A72,A73" ewd:figtype="conn" style="cursor:pointer;" ewd:figID="35">
<path style="&st25;" d="M3345.37,413.49v25.49h169.97v-25.49H3345.37"/>
<title ewd:textID="23">Junction Connector</title>
</a>
<a ewd:code="A7" ewd:figtype="conn" style="cursor:pointer;" ewd:figID="34">
<path style="&st25;" d="M3124.41,668.44v-33.99h314.45v33.99H3124.41"/>
<title ewd:textID="13">Brake Actuator Assembly</title>
</a>
<a ewd:code="A47,A48" ewd:figtype="conn" style="cursor:pointer;" ewd:figID="36">
<path style="&st25;" d="M3345.37,540.97h84.99v16.99h-84.99V540.97"/>
<title ewd:textID="27">Short Connector</title>
</a>
<a ewd:code="G6-A" ewd:figtype="conn" style="cursor:pointer;" ewd:figID="37">
<path style="&st25;" d="M3532.34,617.45v42.5h67.99v-42.5H3532.34"/>
<title ewd:textID="15">Combination Meter Assembly</title>
</a>
<a ewd:code="G100" ewd:figtype="conn" style="cursor:pointer;" ewd:figID="17">
<path style="&st25;" d="M3166.9,158.53v17h50.99v-17H3166.9"/>
<title ewd:textID="23">Junction Connector</title>
</a>
<a ewd:code="G38-A,G39-B" ewd:figtype="conn" style="cursor:pointer;" ewd:figID="14">
<path style="&st25;" d="M2639.99,404.99v-34h118.98v34H2639.99"/>
<title ewd:textID="14">Certification ECU Assembly</title>
</a>
<a ewd:code="A72" ewd:figtype="conn" style="cursor:pointer;" ewd:figID="33">
<path style="&st25;" d="M2801.46,489.97v25.5h50.99v-25.5H2801.46"/>
<title ewd:textID="23">Junction Connector</title>
</a>
<a ewd:code="R17" ewd:figtype="conn" style="cursor:pointer;" ewd:figID="30">
<path style="&st25;" d="M2639.99,532.47v33.99h118.98v-33.99H2639.99"/>
<title ewd:textID="18">Door Control Receiver</title>
</a>
<a ewd:code="R27" ewd:figtype="conn" style="cursor:pointer;" ewd:figID="27">
<path style="&st25;" d="M2368.04,421.99v16.99h16.99v-16.99H2368.04"/>
<title ewd:textID="23">Junction Connector</title>
</a>
<a ewd:code="R29,R30" ewd:figtype="conn" style="cursor:pointer;" ewd:figID="29">
<path style="&st25;" d="M2410.53,413.49v25.49h17v-25.49H2410.53"/>
<title ewd:textID="23">Junction Connector</title>
</a>
<a ewd:code="R26" ewd:figtype="conn" style="cursor:pointer;" ewd:figID="13">
<path style="&st25;" d="M2359.54,303.01V337h76.48v-33.99H2359.54"/>
<title ewd:textID="18">Door Control Receiver</title>
</a>
<a ewd:code="G3" ewd:figtype="conn" style="cursor:pointer;" ewd:figID="11">
<path style="&st25;" d="M2147.07,286.01V320h17v-33.99H2147.07"/>
<title ewd:textID="30">Un-Lock Warning Switch Assembly</title>
</a>
<a ewd:code="A39" ewd:figtype="conn" style="cursor:pointer;" ewd:figID="12">
<path style="&st25;" d="M2232.06,294.51h50.99v-50.99h-50.99V294.51"/>
<title ewd:textID="31">Wireless Door Lock Buzzer</title>
</a>
<a ewd:code="X4" ewd:figtype="conn" style="cursor:pointer;" ewd:figID="25">
<path style="&st25;" d="M1722.14,583.46h67.99v-50.99h-67.99V583.46"/>
<title ewd:textID="12">Back Window Lock Assembly</title>
</a>
<a ewd:code="G127" ewd:figtype="conn" style="cursor:pointer;" ewd:figID="23">
<path style="&st25;" d="M1637.16,515.47v16.99h16.99v-16.99H1637.16"/>
<title ewd:textID="23">Junction Connector</title>
</a>
<a ewd:code="G79,G80,G140,G141" ewd:figtype="conn" style="cursor:pointer;" ewd:figID="22">
<path style="&st25;" d="M1594.66,515.47v25.5h17v-25.5H1594.66"/>
<title ewd:textID="23">Junction Connector</title>
</a>
<a ewd:code="G104" ewd:figtype="conn" style="cursor:pointer;" ewd:figID="24">
<path style="&st25;" d="M1637.16,659.95v16.99h16.99v-16.99H1637.16"/>
<title ewd:textID="23">Junction Connector</title>
</a>
<a ewd:code="G104" ewd:figtype="conn" style="cursor:pointer;" ewd:figID="26">
<path style="&st25;" d="M2147.07,659.95v16.99h17v-16.99H2147.07"/>
<title ewd:textID="23">Junction Connector</title>
</a>
<a ewd:code="R31" ewd:figtype="conn" style="cursor:pointer;" ewd:figID="28">
<path style="&st25;" d="M2368.04,659.95v16.99h16.99v-16.99H2368.04"/>
<title ewd:textID="23">Junction Connector</title>
</a>
<a ewd:code="R31" ewd:figtype="conn" style="cursor:pointer;" ewd:figID="31">
<path style="&st25;" d="M2648.49,659.95h17v16.99h-17V659.95"/>
<title ewd:textID="23">Junction Connector</title>
</a>
<a ewd:code="A6" ewd:figtype="conn" style="cursor:pointer;" ewd:figID="32">
<path style="&st25;" d="M2792.96,617.45v-33.99h212.47v33.99H2792.96"/>
<title ewd:textID="13">Brake Actuator Assembly</title>
</a>
<a ewd:code="G94,G132" ewd:figtype="conn" style="cursor:pointer;" ewd:figID="16">
<path style="&st25;" d="M3166.9,252.01v25.5h424.93v-25.5H3166.9"/>
<title ewd:textID="23">Junction Connector</title>
</a>
<a ewd:code="G97,G134" ewd:figtype="conn" style="cursor:pointer;" ewd:figID="15">
<path style="&st25;" d="M2648.49,252.01v25.5h203.96v-25.5H2648.49"/>
<title ewd:textID="23">Junction Connector</title>
</a>
<a ewd:code="X3" ewd:figtype="conn" style="cursor:pointer;" ewd:figID="10">
<path style="&st25;" d="M2036.59,345.5v33.99h-17V345.5H2036.59"/>
<title ewd:textID="22">Glass Hatch Opener Switch Assembly</title>
</a>
<a ewd:code="G63-A,G64-B,G65-C" ewd:figtype="conn" style="cursor:pointer;" ewd:figID="1">
<path style="&st25;" d="M328.38,40.55v41.49h3008.49V39.55H328.38"/>
<title ewd:textID="24">Main Body ECU</title>
</a>
<a ewd:code="G81-A,G82-B,G164,G165" ewd:figtype="conn" style="cursor:pointer;" ewd:figID="19">
<path style="&st25;" d="M608.83,523.4h17v25.49h-17V523.4"/>
<title ewd:textID="23">Junction Connector</title>
</a>
</g>
</svg>
