﻿<?xml version="1.0" encoding="UTF-8"?>
<!DOCTYPE svg PUBLIC "-//W3C//DTD SVG 1.0//EN" "http://www.w3.org/TR/2001/REC-SVG-20010904/DTD/svg10.dtd"[
<!ENTITY ns_flows "http://ns.adobe.com/Flows/1.0/">
<!ENTITY ns_svg "http://www.w3.org/2000/svg">
<!ENTITY ns_xlink "http://www.w3.org/1999/xlink">
	<!ENTITY st0 "fill:none;stroke:#FB0F0C;stroke-width:5.1;stroke-linejoin:round;">
	<!ENTITY st1 "fill:none;stroke:#9A9999;stroke-width:5.1;stroke-linejoin:round;">
	<!ENTITY st2 "fill:none;stroke:#99280B;stroke-width:5.1;stroke-linejoin:round;">
		<!ENTITY st3 "fill:none;stroke:#000000;stroke-width:0.85;stroke-linecap:round;stroke-linejoin:round;stroke-dasharray:3 1.5;enable-background:new    ;">
	<!ENTITY st4 "fill:none;stroke:#000000;stroke-width:5.1;stroke-linejoin:round;">
	<!ENTITY st5 "fill:none;stroke:#000000;stroke-linecap:round;stroke-linejoin:round;">
	<!ENTITY st6 "stroke:#000000;stroke-width:0.28;stroke-linecap:round;stroke-linejoin:round;enable-background:new    ;">
	<!ENTITY st7 "enable-background:new    ;">
		<!ENTITY st8 "fill:none;stroke:#000000;stroke-width:1.42;stroke-linecap:round;stroke-linejoin:round;enable-background:new    ;">
	<!ENTITY st9 "fill:none;stroke:#EE67AA;stroke-width:5.1;stroke-linejoin:round;">
	<!ENTITY st10 "fill:none;stroke:#199DBF;stroke-width:5.1;stroke-linejoin:round;">
	<!ENTITY st11 "opacity:0.5;fill:none;stroke:#34ACCE;stroke-linejoin:round;stroke-dasharray:6;">
	<!ENTITY st12 "fill:none;stroke:#FFFFFF;stroke-width:4.53;stroke-linejoin:round;">
		<!ENTITY st13 "fill:none;stroke:#000000;stroke-width:0.85;stroke-linecap:round;stroke-linejoin:round;enable-background:new    ;">
	<!ENTITY st14 "fill:none;stroke:#56107C;stroke-width:5.1;stroke-linejoin:round;">
	<!ENTITY st15 "font-size:6px;">
	<!ENTITY st16 "fill:none;stroke:#168638;stroke-width:5.1;stroke-linejoin:round;">
	<!ENTITY st17 "fill:none;stroke:#000000;stroke-width:1.13;stroke-linejoin:round;">
		<!ENTITY st18 "fill:none;stroke:#000000;stroke-width:1.13;stroke-linecap:round;stroke-linejoin:round;stroke-dasharray:3 1.5;enable-background:new    ;">
	<!ENTITY st19 "fill:#FFFFFF;stroke:#000000;stroke-width:1.41;stroke-linecap:round;stroke-linejoin:round;">
	<!ENTITY st20 "fill:none;stroke:#3E65AC;stroke-width:3;">
	<!ENTITY st21 "fill:#CCCCCC;stroke:#CCCCCC;stroke-width:0.1;stroke-linecap:round;stroke-linejoin:round;">
	<!ENTITY st22 "font-family:'ArialMT';">
	<!ENTITY st23 "opacity:0.5;fill:none;stroke:#34ACCE;stroke-linejoin:round;">
	<!ENTITY st24 "fill:#CFE6E7;stroke:#000000;stroke-width:1.133;stroke-linecap:round;stroke-linejoin:round;">
	<!ENTITY st25 "fill:none;stroke:#99D5E0;stroke-width:5.1;stroke-linejoin:round;">
<!ATTLIST svg
xmlns:ewd CDATA #FIXED "http://shcl.co.jp/ewd"
xmlns:a CDATA #FIXED "http://ns.adobe.com/AdobeSVGViewerExtensions/3.0/"
ewd:ver CDATA #IMPLIED
>
<!ATTLIST a
ewd:lineID CDATA #IMPLIED
ewd:groupID CDATA #IMPLIED
ewd:figtype CDATA #IMPLIED
ewd:code CDATA #IMPLIED
ewd:figID CDATA #IMPLIED
ewd:pinNo CDATA #IMPLIED
ewd:comment CDATA #IMPLIED >
<!ATTLIST g
ewd:lineID CDATA #IMPLIED
ewd:groupID CDATA #IMPLIED
ewd:figtype CDATA #IMPLIED
ewd:code CDATA #IMPLIED
ewd:figID CDATA #IMPLIED
ewd:pinNo CDATA #IMPLIED
ewd:comment CDATA #IMPLIED >
<!ATTLIST text
ewd:textID CDATA #IMPLIED >
<!ATTLIST title
ewd:textID CDATA #IMPLIED >
]>
<svg 
viewBox='0 0 2595.05 729.44'
height='729.44'
width='2595.05'
xml:space="preserve"
xmlns="&ns_svg;"
xmlns:ewd="http://shcl.co.jp/ewd"
xmlns:xlink="&ns_xlink;" ewd:ver="L2.1">
<g ewd:code="WG1" ewd:figID="607" ewd:figtype="w2w" ewd:pinNo="2">
<path style="&st8;" d="M947.34,442.48h-8.5"/>
<path style="&st8;" d="M943.09,451.54l-4.25-4.24l-4.25,4.24"/>
<path style="&st8;" d="M943.09,448.15l-4.25-4.25l-4.25,4.25"/>
<text transform="matrix(1 0 0 1 924.0127 440.1968)" style="&st7;"><tspan x="0" y="0" style="&st22; &st15;">2</tspan></text>
</g>
<g ewd:code="GA3" ewd:figID="605" ewd:figtype="w2w" ewd:pinNo="3">
<path style="&st8;" d="M675.39,392.49h-8.5"/>
<path style="&st8;" d="M671.14,401.56l-4.25-4.25l-4.25,4.25"/>
<path style="&st8;" d="M671.14,398.16l-4.25-4.25l-4.25,4.25"/>
<text transform="matrix(1 0 0 1 652.0527 390.2065)" style="&st7;"><tspan x="0" y="0" style="&st22; &st15;">3</tspan></text>
</g>
<g ewd:code="WG2" ewd:figID="604" ewd:figtype="w2w" ewd:pinNo="10">
<path style="&st8;" d="M573.4,384h8.5"/>
<path style="&st8;" d="M577.65,374.93l4.25,4.25l4.25-4.25"/>
<path style="&st8;" d="M586.15,378.33l-4.25,4.25l-4.25-4.25"/>
<text transform="matrix(1 0 0 1 563.7266 390.2065)" style="&st7;"><tspan x="0" y="0" style="&st22; &st15;">10</tspan></text>
</g>
<g ewd:code="WG1" ewd:figID="606" ewd:figtype="w2w" ewd:pinNo="14">
<path style="&st8;" d="M930.35,235.02h8.49"/>
<path style="&st8;" d="M943.09,229.35l-4.25,4.25l-4.25-4.25"/>
<path style="&st8;" d="M934.59,225.95l4.25,4.25l4.25-4.25"/>
<text transform="matrix(1 0 0 1 920.6758 241.2363)" style="&st7;"><tspan x="0" y="0" style="&st22; &st15;">14</tspan></text>
</g>
<g ewd:code="3JB" ewd:figID="313" ewd:figtype="jb">
<path style="&st8;" d="M940.97,541.95h-4.25"/>
<path style="&st8;" d="M940.97,533.46h-4.25"/>
<path style="&st8;" d="M940.97,499.46h-4.25"/>
<path style="&st8;" d="M940.97,490.96h-4.25"/>
<path style="&st13;" d="M938.84,533.46v-34"/>
<path style="&st6;" d="M938.84,528.56l-2.83-2.83v4.25l2.83,2.83l2.84-2.83v-4.25L938.84,528.56"/>
<path style="&st6;" d="M938.84,504.36l2.84,2.83v-4.25l-2.84-2.83l-2.83,2.83v4.25L938.84,504.36"/>
<path style="&st8;" d="M945.22,537.7c0-2.34-1.9-4.24-4.25-4.24"/>
<path style="&st8;" d="M940.97,541.95c2.35,0,4.25-1.9,4.25-4.25"/>
<path style="&st8;" d="M932.47,537.7c0,2.35,1.9,4.25,4.25,4.25"/>
<path style="&st8;" d="M936.72,533.46c-2.35,0-4.25,1.9-4.25,4.24"/>
<path style="&st8;" d="M945.22,495.21c0-2.34-1.9-4.25-4.25-4.25"/>
<path style="&st8;" d="M940.97,499.46c2.35,0,4.25-1.9,4.25-4.25"/>
<path style="&st8;" d="M932.47,495.21c0,2.35,1.9,4.25,4.25,4.25"/>
<path style="&st8;" d="M936.72,490.96c-2.35,0-4.25,1.91-4.25,4.25"/>
<path style="&st8;" d="M940.97,550.44h-4.25"/>
<path style="&st8;" d="M940.97,541.95h-4.25"/>
<path style="&st8;" d="M945.22,546.19c0-2.34-1.9-4.24-4.25-4.24"/>
<path style="&st8;" d="M940.97,550.44c2.35,0,4.25-1.9,4.25-4.25"/>
<path style="&st8;" d="M932.47,546.19c0,2.35,1.9,4.25,4.25,4.25"/>
<path style="&st8;" d="M936.72,541.95c-2.35,0-4.25,1.9-4.25,4.24"/>
<text transform="matrix(1 0 0 1 934.5303 497.1772)" style="&st7;"><tspan x="0" y="0" style="&st22; &st15;">3B</tspan></text>
<text transform="matrix(1 0 0 1 922.2002 497.1772)" style="&st7;"><tspan x="0" y="0" style="&st22; &st15;">44</tspan></text>
<text transform="matrix(1 0 0 1 934.5303 539.6675)" style="&st7;"><tspan x="0" y="0" style="&st22; &st15;">3A</tspan></text>
<text transform="matrix(1 0 0 1 922.9805 539.6675)" style="&st7;"><tspan x="0" y="0" style="&st22; &st15;">71</tspan></text>
<text transform="matrix(1 0 0 1 934.5303 548.1577)" style="&st7;"><tspan x="0" y="0" style="&st22; &st15;">3A</tspan></text>
<text transform="matrix(1 0 0 1 922.9805 548.1577)" style="&st7;"><tspan x="0" y="0" style="&st22; &st15;">96</tspan></text>
</g>
<g ewd:code="3JB" ewd:figID="305" ewd:figtype="jb">
<path style="&st8;" d="M940.97,141.53h-4.25"/>
<path style="&st8;" d="M940.97,150.03h-4.25"/>
<path style="&st8;" d="M940.97,184.03h-4.25"/>
<path style="&st8;" d="M940.97,192.52h-4.25"/>
<path style="&st6;" d="M938.84,154.93l2.84,2.83v-4.25l-2.84-2.83l-2.83,2.83v4.25L938.84,154.93"/>
<path style="&st6;" d="M938.84,179.13l-2.83-2.83v4.25l2.83,2.83l2.84-2.83v-4.25L938.84,179.13"/>
<path style="&st13;" d="M938.84,184.03v-34"/>
<path style="&st8;" d="M936.72,141.53c-2.35,0-4.25,1.9-4.25,4.25"/>
<path style="&st8;" d="M932.47,145.78c0,2.35,1.9,4.25,4.25,4.25"/>
<path style="&st8;" d="M940.97,150.03c2.35,0,4.25-1.9,4.25-4.25"/>
<path style="&st8;" d="M945.22,145.78c0-2.35-1.9-4.25-4.25-4.25"/>
<path style="&st8;" d="M936.72,184.03c-2.35,0-4.25,1.9-4.25,4.24"/>
<path style="&st8;" d="M932.47,188.27c0,2.35,1.9,4.25,4.25,4.25"/>
<path style="&st8;" d="M940.97,192.52c2.35,0,4.25-1.9,4.25-4.25"/>
<path style="&st8;" d="M945.22,188.27c0-2.34-1.9-4.24-4.25-4.24"/>
<text transform="matrix(1 0 0 1 922.2002 190.2363)" style="&st7;"><tspan x="0" y="0" style="&st22; &st15;">48</tspan></text>
<text transform="matrix(1 0 0 1 934.5303 190.2363)" style="&st7;"><tspan x="0" y="0" style="&st22; &st15;">3B</tspan></text>
<text transform="matrix(1 0 0 1 922.2002 147.7466)" style="&st7;"><tspan x="0" y="0" style="&st22; &st15;">36</tspan></text>
<text transform="matrix(1 0 0 1 934.5303 147.7466)" style="&st7;"><tspan x="0" y="0" style="&st22; &st15;">3B</tspan></text>
</g>
<g ewd:code="2" ewd:figID="304" ewd:figtype="jb">
<path style="&st5;" d="M747.63,39.55v42.49h25.49V39.55H747.63"/>
<path style="&st13;" d="M760.37,73.54v25.5"/>
<path style="&st8;" d="M762.5,99.04h-4.25"/>
<path style="&st8;" d="M762.5,107.54h-4.25"/>
<path style="&st6;" d="M760.37,94.14l-2.83-2.83v4.25l2.83,2.83l2.84-2.83v-4.25L760.37,94.14"/>
<path style="&st8;" d="M747.63,39.55v42.49h25.49V39.55H747.63"/>
<path style="&st8;" d="M760.37,50.88c-2.73,1.61-3.65,5.14-2.03,7.88"/>
<path style="&st8;" d="M758.34,58.76c0.52,0.88,1.15,1.52,2.03,2.04"/>
<path style="&st8;" d="M760.37,70.71c2.74-1.61,3.65-5.14,2.04-7.88"/>
<path style="&st8;" d="M762.41,62.83c-0.52-0.88-1.15-1.51-2.04-2.03"/>
<path style="&st13;" d="M761.79,49.46c0-0.78-0.63-1.41-1.42-1.41"/>
<path style="&st13;" d="M760.37,48.05c-0.78,0-1.41,0.63-1.41,1.41"/>
<path style="&st13;" d="M758.96,49.46c0,0.79,0.63,1.42,1.41,1.42"/>
<path style="&st13;" d="M760.37,50.88c0.79,0,1.42-0.63,1.42-1.42"/>
<path style="&st13;" d="M761.79,72.13c0-0.79-0.63-1.42-1.42-1.42"/>
<path style="&st13;" d="M760.37,70.71c-0.78,0-1.41,0.63-1.41,1.42"/>
<path style="&st13;" d="M758.96,72.13c0,0.78,0.63,1.41,1.41,1.41"/>
<path style="&st13;" d="M760.37,73.54c0.79,0,1.42-0.63,1.42-1.41"/>
<path style="&st8;" d="M758.25,99.04c-2.35,0-4.25,1.9-4.25,4.25"/>
<path style="&st8;" d="M754,103.29c0,2.35,1.9,4.25,4.25,4.25"/>
<path style="&st8;" d="M762.5,107.54c2.35,0,4.25-1.9,4.25-4.25"/>
<path style="&st8;" d="M766.75,103.29c0-2.35-1.9-4.25-4.25-4.25"/>
<text transform="matrix(1 0 0 1 777.6797 59.9365)" style="&st7;"><tspan x="0" y="0" style="&st22; &st15;">20A</tspan></text>
<text transform="matrix(1 0 0 1 777.6797 65.9365)" style="&st7;"><tspan x="0" y="0" style="&st22; &st15;">WASHER</tspan></text>
<text transform="matrix(1 0 0 1 756.2803 105.2568)" style="&st7;"><tspan x="0" y="0" style="&st22; &st15;">2F</tspan></text>
<text transform="matrix(1 0 0 1 748.46 105.2568)" style="&st7;"><tspan x="0" y="0" style="&st22; &st15;">1</tspan></text>
<text transform="matrix(1 0 0 1 754.2998 35.8467)" style="&st7;"><tspan x="0" y="0" style="&st22; &st15;">(IG)</tspan></text>
</g>
<g ewd:code="2" ewd:figID="306" ewd:figtype="jb">
<path style="&st5;" d="M951.59,82.04V39.55H926.1v42.49H951.59"/>
<path style="&st13;" d="M938.84,73.54v8.5"/>
<path style="&st8;" d="M940.97,107.54h-4.25"/>
<path style="&st8;" d="M940.97,99.04h-4.25"/>
<path style="&st6;" d="M938.84,94.14l-2.83-2.83v4.25l2.83,2.83l2.84-2.83v-4.25L938.84,94.14"/>
<path style="&st13;" d="M938.84,99.04v-17"/>
<path style="&st8;" d="M951.59,82.04V39.55H926.1v42.49H951.59"/>
<path style="&st8;" d="M936.72,99.04c-2.35,0-4.25,1.9-4.25,4.25"/>
<path style="&st8;" d="M932.47,103.29c0,2.35,1.9,4.25,4.25,4.25"/>
<path style="&st8;" d="M940.97,107.54c2.35,0,4.25-1.9,4.25-4.25"/>
<path style="&st8;" d="M945.22,103.29c0-2.35-1.9-4.25-4.25-4.25"/>
<path style="&st8;" d="M938.84,50.88c-2.73,1.61-3.65,5.14-2.03,7.88"/>
<path style="&st8;" d="M936.81,58.76c0.52,0.88,1.15,1.52,2.03,2.04"/>
<path style="&st13;" d="M940.26,49.46c0-0.78-0.63-1.41-1.42-1.41"/>
<path style="&st13;" d="M938.84,48.05c-0.78,0-1.41,0.63-1.41,1.41"/>
<path style="&st13;" d="M937.43,49.46c0,0.79,0.63,1.42,1.41,1.42"/>
<path style="&st13;" d="M938.84,50.88c0.79,0,1.42-0.63,1.42-1.42"/>
<path style="&st13;" d="M940.26,72.13c0-0.79-0.63-1.42-1.42-1.42"/>
<path style="&st13;" d="M938.84,70.71c-0.78,0-1.41,0.63-1.41,1.42"/>
<path style="&st13;" d="M937.43,72.13c0,0.78,0.63,1.41,1.41,1.41"/>
<path style="&st13;" d="M938.84,73.54c0.79,0,1.42-0.63,1.42-1.41"/>
<path style="&st8;" d="M938.84,70.71c2.74-1.61,3.65-5.14,2.04-7.88"/>
<path style="&st8;" d="M940.88,62.83c-0.52-0.88-1.15-1.51-2.04-2.03"/>
<text transform="matrix(1 0 0 1 932.7695 35.8467)" style="&st7;"><tspan x="0" y="0" style="&st22; &st15;">(IG)</tspan></text>
<text transform="matrix(1 0 0 1 922.2002 105.2568)" style="&st7;"><tspan x="0" y="0" style="&st22; &st15;">39</tspan></text>
<text transform="matrix(1 0 0 1 934.3896 105.2568)" style="&st7;"><tspan x="0" y="0" style="&st22; &st15;">2D</tspan></text>
<text transform="matrix(1 0 0 1 956.1504 57.1064)" style="&st7;"><tspan x="0" y="0" style="&st22; &st15;">10A</tspan></text>
<text transform="matrix(1 0 0 1 956.1504 63.1064)" style="&st7;"><tspan x="0" y="0" style="&st22; &st15;">ECU-IG</tspan></text>
<text transform="matrix(1 0 0 1 956.1504 69.1064)" style="&st7;"><tspan x="0" y="0" style="&st22; &st15;">NO.2</tspan></text>
</g>
<g ewd:code="G3" ewd:figID="203" ewd:figtype="gp">
<path style="&st13;" d="M937.43,713.77h2.83"/>
<path style="&st13;" d="M936.01,710.94h5.67"/>
<path style="&st13;" d="M934.59,708.1h8.5"/>
<path style="&st13;" d="M930.34,705.27h17"/>
<path style="&st13;" d="M938.84,701.02v4.25"/>
</g>
<g ewd:code="A23" ewd:figID="3" ewd:figtype="conn">
<path style="&st8;" d="M756.12,212.35h8.5"/>
<path style="&st8;" d="M756.12,208.39v3.96"/>
<path style="&st8;" d="M764.62,212.35v-3.96"/>
<path style="&st8;" d="M756.12,189.69h8.5"/>
<path style="&st8;" d="M764.62,189.69v3.97"/>
<path style="&st8;" d="M756.12,193.66v-3.97"/>
<path style="&st8;" d="M734.88,184.03v33.99h42.49v-33.99H734.88"/>
<path style="&st13;" d="M760.37,184.03v5.66"/>
<path style="&st13;" d="M760.37,218.02v-5.67"/>
<path style="&st8;" d="M751.88,201.02c0,4.7,3.8,8.5,8.49,8.5"/>
<path style="&st8;" d="M760.37,209.52c4.7,0,8.5-3.8,8.5-8.5"/>
<path style="&st8;" d="M768.87,201.02c0-4.69-3.8-8.5-8.5-8.5"/>
<path style="&st8;" d="M760.37,192.52c-4.69,0-8.49,3.81-8.49,8.5"/>
<text transform="matrix(1 0 0 1 753.5801 180.3364)" style="&st7;"><tspan x="0" y="0" style="&st22; &st15;">2</tspan></text>
<text transform="matrix(1 0 0 1 754.3604 226.2065)" style="&st7;"><tspan x="0" y="0" style="&st22; &st15;">1</tspan></text>
<text transform="matrix(1 0 0 1 757.4805 202.9863)" style="&st7;"><tspan x="0" y="0" style="&st22; &st15;">M</tspan></text>
<text ewd:textID="30" transform="matrix(1 0 0 1 780.5098 202.9863)" style="&st7; &st22; &st15;">Windshield Washer Motor <tspan x="0" y="7">and Pump Assembly</tspan></text>
<text transform="matrix(1 0 0 1 780.5098 195.8867)" style="&st7;"><tspan x="0" y="0" style="&st22; &st15;">A23</tspan></text>
<text ewd:textID="11" transform="matrix(0 -1 1 0 742.5195 213.2764)" style="&st7; &st22; &st15;">Front <tspan x="0" y="7">Washer</tspan></text>
</g>
<g ewd:code="W6" ewd:figID="4" ewd:figtype="conn">
<path style="&st8;" d="M862.36,352.99v34h93.48v-34H862.36"/>
<text transform="matrix(1 0 0 1 871.79 383.2866)" style="&st7;"><tspan x="0" y="0" style="&st22; &st15;">MPX</tspan></text>
<text transform="matrix(1 0 0 1 868.3301 342.1865)" style="&st7;"><tspan x="0" y="0" style="&st22; &st15;">W6</tspan></text>
<text ewd:textID="27" transform="matrix(1 0 0 1 868.3301 349.2964)" style="&st7; &st22; &st15;">Rain Sensor</text>
<text transform="matrix(1 0 0 1 934.1797 383.2866)" style="&st7;"><tspan x="0" y="0" style="&st22; &st15;">ES</tspan></text>
<text transform="matrix(1 0 0 1 932.8301 395.1772)" style="&st7;"><tspan x="0" y="0" style="&st22; &st15;">1</tspan></text>
<text transform="matrix(1 0 0 1 872.5596 395.1772)" style="&st7;"><tspan x="0" y="0" style="&st22; &st15;">3</tspan></text>
<text transform="matrix(1 0 0 1 932.0498 349.2964)" style="&st7;"><tspan x="0" y="0" style="&st22; &st15;">4</tspan></text>
<text transform="matrix(1 0 0 1 932.7695 360.6265)" style="&st7;"><tspan x="0" y="0" style="&st22; &st15;">SIG</tspan></text>
</g>
<g ewd:code="W7" ewd:figID="5" ewd:figtype="conn">
<path style="&st13;" d="M938.84,278.01V312"/>
<path style="&st8;" d="M921.85,278.01V312h42.49v-33.99H921.85"/>
<text transform="matrix(1 0 0 1 941.6797 286.1973)" style="&st7;"><tspan x="0" y="0" style="&st22; &st15;">IG</tspan></text>
<text transform="matrix(1 0 0 1 941.6797 308.3071)" style="&st7;"><tspan x="0" y="0" style="&st22; &st15;">IG4</tspan></text>
<text ewd:textID="21" transform="matrix(0 -1 1 0 979.0596 314.5269)" style="&st7; &st22; &st15;">Map Light Assembly</text>
<text transform="matrix(0 -1 1 0 971.9502 314.5269)" style="&st7;"><tspan x="0" y="0" style="&st22; &st15;">W7</tspan></text>
<text transform="matrix(1 0 0 1 928.0996 320.1973)" style="&st7;"><tspan x="0" y="0" style="&st22; &st15;">22</tspan></text>
<text transform="matrix(1 0 0 1 932.0498 274.3169)" style="&st7;"><tspan x="0" y="0" style="&st22; &st15;">8</tspan></text>
</g>
<g ewd:code="G104" ewd:figID="15" ewd:figtype="conn">
<path style="&st8;" d="M930.34,659.95h17v16.99h-17V659.95"/>
<path style="&st13;" d="M938.84,659.95v25.49"/>
<text transform="matrix(1 0 0 1 932.0498 656.2573)" style="&st7;"><tspan x="0" y="0" style="&st22; &st15;">3</tspan></text>
<text ewd:textID="17" transform="matrix(1 0 0 1 950.4805 668.9976)" style="&st7; &st22; &st15;">Junction Connector</text>
<text transform="matrix(1 0 0 1 950.4805 661.8862)" style="&st7;"><tspan x="0" y="0" style="&st22; &st15;">G104</tspan></text>
</g>
<text transform="matrix(0 -1 1 0 756.6797 132.1733)" style="&st7;"><tspan x="0" y="0" style="&st22; &st15;">L</tspan></text>
<text transform="matrix(0 -1 1 0 756.6797 262.8364)" style="&st7;"><tspan x="0" y="0" style="&st22; &st15;">B</tspan></text>
<text transform="matrix(0 -1 1 0 663.1904 417.3159)" style="&st7;"><tspan x="0" y="0" style="&st22; &st15;">B</tspan></text>
<text transform="matrix(0 -1 1 0 935.1504 211.4966)" style="&st7;"><tspan x="0" y="0" style="&st22; &st15;">L</tspan></text>
<text transform="matrix(0 -1 1 0 935.1504 424.6772)" style="&st7;"><tspan x="0" y="0" style="&st22; &st15;">W-B</tspan></text>
<text transform="matrix(0 -1 1 0 935.1504 475.6772)" style="&st7;"><tspan x="0" y="0" style="&st22; &st15;">W-B</tspan></text>
<text transform="matrix(0 -1 1 0 935.1504 592.6558)" style="&st7;"><tspan x="0" y="0" style="&st22; &st15;">W-B</tspan></text>
<text transform="matrix(0 -1 1 0 875.6602 432.8062)" style="&st7;"><tspan x="0" y="0" style="&st22; &st15;">P</tspan></text>
<text transform="matrix(0 -1 1 0 935.1504 132.1733)" style="&st7;"><tspan x="0" y="0" style="&st22; &st15;">L</tspan></text>
<text transform="matrix(0 -1 1 0 935.1504 263.2666)" style="&st7;"><tspan x="0" y="0" style="&st22; &st15;">G</tspan></text>
<text transform="matrix(0 -1 1 0 935.1504 332.7266)" style="&st7;"><tspan x="0" y="0" style="&st22; &st15;">GR</tspan></text>
<text transform="matrix(0 -1 1 0 578.21 417.3159)" style="&st7;"><tspan x="0" y="0" style="&st22; &st15;">P</tspan></text>
<text transform="matrix(0 -1 1 0 663.1904 361.9819)" style="&st7;"><tspan x="0" y="0" style="&st22; &st15;">B</tspan></text>
<text transform="matrix(0 -1 1 0 578.21 361.9819)" style="&st7;"><tspan x="0" y="0" style="&st22; &st15;">P</tspan></text>
<text transform="matrix(1 0 0 1 536.9404 634.5229)" style="&st7;"><tspan x="0" y="0" style="&st22; &st15;">R</tspan></text>
<text transform="matrix(1 0 0 1 537.0801 600.5327)" style="&st7;"><tspan x="0" y="0" style="&st22; &st15;">V</tspan></text>
<text transform="matrix(1 0 0 1 533.2305 611.8628)" style="&st7;"><tspan x="0" y="0" style="&st22; &st15;">(*7)</tspan></text>
<text transform="matrix(1 0 0 1 537.0801 566.5425)" style="&st7;"><tspan x="0" y="0" style="&st22; &st15;">V</tspan></text>
<text transform="matrix(1 0 0 1 533.2305 577.8726)" style="&st7;"><tspan x="0" y="0" style="&st22; &st15;">(*8)</tspan></text>
<text transform="matrix(1 0 0 1 947.6602 548.7261)" style="&st7;"><tspan x="0" y="0" style="&st22; &st15;">(*8)</tspan></text>
<text transform="matrix(1 0 0 1 947.6602 539.6675)" style="&st7;"><tspan x="0" y="0" style="&st22; &st15;">(*7)</tspan></text>
</svg>
