﻿<?xml version="1.0" encoding="UTF-8"?>
<!DOCTYPE svg PUBLIC "-//W3C//DTD SVG 1.0//EN" "http://www.w3.org/TR/2001/REC-SVG-20010904/DTD/svg10.dtd"[
<!ENTITY ns_flows "http://ns.adobe.com/Flows/1.0/">
<!ENTITY ns_svg "http://www.w3.org/2000/svg">
<!ENTITY ns_xlink "http://www.w3.org/1999/xlink">
	<!ENTITY st0 "fill:none;stroke:#FB0F0C;stroke-width:5.1;stroke-linejoin:round;">
	<!ENTITY st1 "fill:none;stroke:#9A9999;stroke-width:5.1;stroke-linejoin:round;">
		<!ENTITY st2 "fill:none;stroke:#000000;stroke-width:0.85;stroke-linecap:round;stroke-linejoin:round;stroke-dasharray:3 1.5;enable-background:new    ;">
	<!ENTITY st3 "fill:none;stroke:#000000;stroke-width:5.1;stroke-linejoin:round;">
	<!ENTITY st4 "fill:none;stroke:#000000;stroke-linecap:round;stroke-linejoin:round;">
	<!ENTITY st5 "stroke:#000000;stroke-width:0.28;stroke-linecap:round;stroke-linejoin:round;enable-background:new    ;">
	<!ENTITY st6 "enable-background:new    ;">
		<!ENTITY st7 "fill:none;stroke:#000000;stroke-width:1.42;stroke-linecap:round;stroke-linejoin:round;enable-background:new    ;">
	<!ENTITY st8 "fill:none;stroke:#EE67AA;stroke-width:5.1;stroke-linejoin:round;">
	<!ENTITY st9 "fill:none;stroke:#199DBF;stroke-width:5.1;stroke-linejoin:round;">
	<!ENTITY st10 "opacity:0.5;fill:none;stroke:#34ACCE;stroke-linejoin:round;stroke-dasharray:6;">
	<!ENTITY st11 "fill:none;stroke:#FFFFFF;stroke-width:4.53;stroke-linejoin:round;">
		<!ENTITY st12 "fill:none;stroke:#000000;stroke-width:0.85;stroke-linecap:round;stroke-linejoin:round;enable-background:new    ;">
	<!ENTITY st13 "fill:none;stroke:#56107C;stroke-width:5.1;stroke-linejoin:round;">
	<!ENTITY st14 "font-size:6px;">
	<!ENTITY st15 "fill:none;stroke:#168638;stroke-width:5.1;stroke-linejoin:round;">
	<!ENTITY st16 "fill:none;stroke:#000000;stroke-width:1.13;stroke-linejoin:round;">
		<!ENTITY st17 "fill:none;stroke:#000000;stroke-width:1.13;stroke-linecap:round;stroke-linejoin:round;stroke-dasharray:3 1.5;enable-background:new    ;">
	<!ENTITY st18 "fill:#FFFFFF;stroke:#000000;stroke-width:1.41;stroke-linecap:round;stroke-linejoin:round;">
	<!ENTITY st19 "fill:none;stroke:#3E65AC;stroke-width:3;">
	<!ENTITY st20 "fill:#CCCCCC;stroke:#CCCCCC;stroke-width:0.1;stroke-linecap:round;stroke-linejoin:round;">
	<!ENTITY st21 "font-family:'ArialMT';">
	<!ENTITY st22 "opacity:0.5;fill:none;stroke:#34ACCE;stroke-linejoin:round;">
	<!ENTITY st23 "fill:#CFE6E7;stroke:#000000;stroke-width:1.133;stroke-linecap:round;stroke-linejoin:round;">
	<!ENTITY st24 "fill:none;stroke:#99D5E0;stroke-width:5.1;stroke-linejoin:round;">
	<!ENTITY st25 "fill:none;stroke:#7EC57E;stroke-width:5.1;stroke-linejoin:round;">
<!ATTLIST svg
xmlns:ewd CDATA #FIXED "http://shcl.co.jp/ewd"
xmlns:a CDATA #FIXED "http://ns.adobe.com/AdobeSVGViewerExtensions/3.0/"
ewd:ver CDATA #IMPLIED
>
<!ATTLIST a
ewd:lineID CDATA #IMPLIED
ewd:groupID CDATA #IMPLIED
ewd:figtype CDATA #IMPLIED
ewd:code CDATA #IMPLIED
ewd:figID CDATA #IMPLIED
ewd:pinNo CDATA #IMPLIED
ewd:comment CDATA #IMPLIED >
<!ATTLIST g
ewd:lineID CDATA #IMPLIED
ewd:groupID CDATA #IMPLIED
ewd:figtype CDATA #IMPLIED
ewd:code CDATA #IMPLIED
ewd:figID CDATA #IMPLIED
ewd:pinNo CDATA #IMPLIED
ewd:comment CDATA #IMPLIED >
<!ATTLIST text
ewd:textID CDATA #IMPLIED >
<!ATTLIST title
ewd:textID CDATA #IMPLIED >
]>
<svg onload="call_execInitLoadProc_svg('system')"
style='overflow:visible;enable-background:new 0 0 3631.87 729.44'
viewBox='0 0 3631.87 729.44'
height='729.44'
width='3631.87'
xml:space="preserve"
xmlns="&ns_svg;"
xmlns:ewd="http://shcl.co.jp/ewd"
xmlns:a="http://ns.adobe.com/AdobeSVGViewerExtensions/3.0/"
xmlns:xlink="&ns_xlink;" ewd:ver="L2.1">
<style type="text/css">
	<![CDATA[
@font-face{font-family:'ArialMT';src:url("data:;base64,\
T1RUTwADACAAAQAQQ0ZGIPYKrpsAAAA8AAAa50dQT1OgQLGeAAAbgAAAAhJjbWFwAaICMAAAGyQA\
AABcAQAEAgABAQEIQXJpYWxNVAABAQE3+BsB+BgEHPqv/S0cEAAcCAwFHqAASIKBJf+Lix6gAEiC\
gSX/i4sMB/dKD/dgEPdiEZMcGt8SAAEBAWVBcmlhbChSKSBUcmFkZW1hcmsgb2YgVGhlIE1vbm90\
eXBlIENvcnBvcmF0aW9uIHBsYyByZWdpc3RlcmVkIGluIHRoZSBVUyBQYXQgJiBUTSBPZmYuIGFu\
ZCBlbHNld2hlcmUuAAABAAEAAAkSACIWADoAAEIIAEwFAFMHAAAARAIAAQAbAB4AcQDHASEBQAFp\
AXcBhAGYAi4CWALiA6EDywRQBRgFXgY+BxAHKwdpCCAIxwlJCWYJgAo8CloKaQq/CuwK/Qs9C2MM\
Fwx4DVIN3g7EDtwPQQ9uD9MQBBDqEWcR6hJtEvsTRRQCFFEUbhScFKsVOBWPFhAWmhbaF60YBxhk\
GJAY2hkbGYXK95QWHAUA+pQc+wAH/nSrFfpUHATA/lQGDv4cDv2r+HP8QxUo9xE39ydG9zwIRvc8\
afdC90ga9zOl9yy+9yUex/c96Pc89xH3Owj3FQY6+x9WKHFQYi9rK3QnCG77EX37EfsSGvvV7/vU\
91v71B4O/av3kfxDFfsVBvdb99Tv99T31Rr3EX33EW73Dx5072zrYudxx1XvOvcgCPcVBvcR+zvo\
+zzH+z0Ivvslpfss+zMa+0hp+0JG+zweRvs8N/snKPsRCA79OMscBK0Vufci9WbYartwGX73DYXe\
irgI9yUGiUmDOH4o0K7Zq+SoufsiGDZvOHg6grRoxEzVMPsMNhhkwF7SVuZaLV9DZlr7CuAY2OrD\
yqyqNZw5nT6gCA77qfiV94EV+Cb8I/c8+CP4I/c+/CP4I/s8/CP8JgcO/hz3Shb3Yfdh+2EHQH5O\
cF0ecFxhZ1FyWdgYsZyno52snauVuY3ICA79q8z4TBX3Sfi9+0kHDv4c904W92H3YfthBw7+HHIE\
+D0cBewF9yQG/Dwc+hQFDuD5ZxX3QZ33IK/1Hq70wN3SxAjE0eOo9hva0Htsxh/Ga7xdslCyT6lC\
oTYIoTWW+wj7JRr7QHn7H2giHmghVjlFUghRRDJuIBv7IfsDvvA6Hyr3Dlv3W/enGvdNFvuFp/s0\
xDweO8PQY94b3tCz28Qfw9un9zT3hBr3hW/3NVPaHtpSRbM3GzhJaEVaH00ybPs5+4UaDvmPFvtI\
HAR7BmBiUmFFYkRiTGxTdgj3QgfwuuPF1s7WzsHNqsoI9wgGDvqb90EV+0H+XQeKtpK1mrOkzbLM\
wsvBy9nV8t/3M/cX9wDyw9gIw9en088a0nLIWLwevFhIozkbNEZxV1cfV1dxQ4ov+02eGJj3Hrr0\
3tQI0973A6/3Hxv3IfcDZD3dH909tCr7BxpQf1JzUh5zUmNQVExTTC41+xX7AfsAMEZObGtsanJr\
d2oIDuH4FxX3SKOgJa5CvV4ZXrzIdNIb4NKoxsYfxcao0+Ia3nDPVcEewFVGpjgbaWGEflgfn/cy\
BYqXlYqSG9jQn7PIH8izqsneGs11wl62HrZeUqFEG0VRdV9cH1xfbUl+M/tIqxih9w296NnOCM3Z\
7Kz3CBvb1Xppzh/OaL9cr1AIrlCdTEgaTHpRaVceaVdZYkhs4nfOYrtMCLtMozwsGvsUXPsALjIe\
Mi77Cl77Ixv7FSGx2DYfNtha7n/3DggO+SoW9/P9EPc5B/kx+koF9yf+Svda+zn7WvvzBvtI+JgV\
+SkH/F/9KQUO4PgUFfdRm5kvrEa+XRlcvsh00xvi1KzMxx/HzKni9wAa8m7cUsYexlE/qS4bUVd+\
cVwfXHBnaXBh+z2hGPci+YUF+W37QPzdBjz8HgXI4+eq7Bv3FPcAXzLjH+Myt/sG+x8a+xlk+wY+\
Kh77Cy37FFD7Nxv7GfsBsNY3HzbWW+5/9w8IDvqP+ucV+0d9e9J0vm6rGb5aT6VEG1JYe2tgH1Ji\
X05qPGo8evsFivsnts3AvMqrCKvKzJvQG/cM8V8z4B/fMrX7BvsgGi93NmQ8HmM8VE5GYQhhRjx2\
Mxv7KvsOwvcDLB8s9wJc90r3kRr3r7/3YvT3FR73BOb3D8P3Lxv3B+prStUf1Eq3Mpr7Bgj9c/0M\
FU2YUKZSHqVSsGC6bghtur18vxvXzKrIwh/CyKbf9BrwcNtVxh7FVUeoORs6Rm5RUh9SUG8/LBoO\
7BwE+hX3QfpJ+yAHLigu+xgw+zkv+zlE+z1Z+0Jn+w90+xqB+yYI+00GjfcHovcgtvc3tvc3yvcy\
3Pcs3Pcr4fcU5vMIDvf++a8VQKZUsme+CGe+ecfSGvax5NjUHtTY8a/3Exv3FPJmQdkf2UCyMSAa\
R3lQaFkeZ1hVZEJw5W7QW7pKCLpKoj0wGvsRXyEyNh42MvsIYPslG/sl+wi24TIfMuBf9vcUGuqj\
27zMHrvL0Lfkoghn98UVRqFSuF8eX7jFddIb0MSht7gft7ahwcoazXTDXrgeuF1SoUcbRlJ1X14f\
Xl90Vk4aUf05FViXWaRbHqNbr2a7cQhwu79+whvh0qfCwx/DwqfS4BribtJSxB7EUUOnNBs2RW9T\
VB9TU29FNxoO9wT35xX3QZuaOqdQtGYZZrTAecwbwryYpLUftKStraa2prWhxJ3TCJ3TlNTWGpOL\
l4qbHmdSWlxNaAhnTEh5Qhv7DSS34zcfN+Nh9wj3JBr3Kbf3C+PmHubi9wK49xgb6uNxWNof2ljH\
QrQsCLQsn/se+0ga+093+yli+wMeYvsDTzY7UQhROi1u+wAb+wcuq8tCH0LKYOV89wcI+XX5GxXy\
cN1UyB7IVEipPhs7RWpKUB9QSm02Ixoupz/EUR5Qw9Bu3hve0KjGwR/Axabc8hoO/hz3TfntFfdh\
92H7YQf7Yf3tFfdh92H7YQcOIIgW+MccBboF92UG+Owc+kYF+3EG+z/4UAX8+Qb7NfxQBfdt+O4V\
+IUG+y34Klz3D2nxdNoZeC1xLmkuCA4g9yoWHAW6+LoH9wTlfG7PH85twF2yTgixTZ5KSBpMelBp\
VB5pVFheRmnkcc9fu0wIukyjQTYaRn1MblAeblBnXWBrYGtWc0t7CHpKPIMuG/wB+eYV99EG4cmR\
lrAfvJqxo6StCKStl7a+Grx/tnSwHnSwaaRgmQiYYECSIhv7uQb+9AT4AQbKt42QpB+4k7CYqZ6p\
nqSmnq8Inq6VtLoawn26b7Qeb7Nkp1qcCJtZQ5MuG/vnBg6RHAS0+JYV91ZaYvszQvsOIjgZNyH7\
FWH7LRv7MvsUq8woHyjLP+hY9w4IV/cOcfcX9yAa9y2o9xnG9wYexfcF3uL3AMYIxvb3C6j3FRv3\
J/cPZkDvH+9A0SKy+xv7U14YafZa2Eq8CLxKOqMpG/sFLXBVQB8/VVZDbDAIbDB8LSoa+xGd+wCw\
Lh6vLsNF2F0IXdjedOQb9wHnqsrWH9bKvuim9w8IDpH3MhYcBbr4jQf3BuKEfccf33jTaMZY2ErF\
N7ImCLElnvsI+xca+wN+KHE1HnE1akRiU2JSX19ba1pqUXNHegh6Rj2DMhv74/dBFffNBuzXlJ3C\
H8KdtqSsrLm5r8ml2Qik2Jjp9wMa9y1y9wpZ3h5Y3U7CQ6cIn1c3lfsHG/vIBg4g9zYWHAW6+rj7\
Qf32/FX5v/tA/b/8h/oY+0EHDvty9zwWHAW6+nH7Qf2v/Fr5RPtB/UT9LgcO9wz54PjTFfdAB/kB\
jAX8tAcsPyhSJmUIZCYjeCAb+yT7F6rJ+wkf+wrIMuRP9wkIT/cJbfcW9yQa9yOp9xnH9xAexvcP\
4ef3BMcIx/cE9xWp9yYb9et6aeEf4GjOW7xOvE6wO6Qo+0NbGHXWcMVqtmq2Xa1OpQikTkiYQRsy\
P35wSh9KcFdnZF9jX2xbdVYIZjB4KSEa+xei+wG4Mx64M8xK4WAIYOHmduwb392brNsf26vIrbSw\
CPelBw6R9zgWHAW691b87vmO+O73Vhz6RvtW+Uf9jv1HBw7+HPdTFhwFuvdWHPpGBw78Vcb4NBX3\
Q6OQ+wSgPrBiGWKwv3bNG7y1lqKuH66hpKmYsgiYsZLI3xr6hvdW/nsH+w98LG5IHm1IXFdLaAho\
SkB5NBv7FSmw1UcfRtVq9wKO9yYIDiD3KhYcBbr3Vv1rB/ls+WsF95sG/Pv85vkW/fwF+5QG/J75\
evuE+34F/JAHDvcqFhwFuvdWHPrz+Wb7QQcO9333LBYcBbr3uAf37/6iqyqiQ5pbGZzApdqu8vfz\
+pAY95kc+kb7TxwEywb8Phz7NQX7Qwb8PBwE4AUc+yAHDpH3MBYcBbr3Wwf5lhz7gQUcBH/3Thz6\
RvtbB/2WHASABRz7gAcO9wzu+V4V94fM91P3F/ceHvcd9xf3PND3Yxv3G/cOa0r3AR/3AUreMcT7\
BwjE+win+xf7Jxr7KW37GU/7CR5P+wk2MvsCTwhO+wL7C237Exv7HvsPrM77AR/7Ac455lP3BwhT\
9wdv9w73FRr3XIgV+0W7+x/qJh4l6vcLWPcjG/cm9wy+8uof6fK69yX3URr3C3f0Y+QeYuRQ0D68\
CLw9NKMqG/sd+wpcLSgfKCxZ+zH7cRoOIPcyFhwFuvi9B+zWhoK+H9N/x3S8arxpslypTgioTppJ\
Qhr7EWMiPDUeNDz7JGD7Yxv8DPzoBvmVBPgPBvcR5KK6wB/AuqXM4BrIfMBstx5stmKoWJkIlGpP\
jzMb/AsGDvcMHAT19zEV5U3eXtduUvsbGCKxIsci3QhO+wH7DG37Fxv7GfsMq8v7AB/7AMs45VH3\
CAhQ9whu9xf3JRr3Jaj3F8b3Cx7G9wve5fcByQjJ9wD3Dar3Ghv3G/cOa0v3AR/3AUreMcT7BwjE\
+win+xf7JRr7DXn7AGYrHmYqVDdBRAj8P/eMFfcEbOdc1E0I9wbzxPcw92Ua9wt38mPkHmLkUNA+\
vAi8PTSjKhv7JfsMWigsHywoW/so+1ka+1O6+ybqJR4l6fcMWPcnG9DNmKXIH06yS6dInAgOkfc1\
FhwFuvkeB/cX7n5xzx/PcMFdtEgItEifQjoaI2kzSEQeSEQjXfsheL5ysnOmc8RXwEq+PfeT/CMY\
+4gG+1b3xVLjXc5muhlmumurbp5unm2YbZIIkHVnjVkb+3X9Hwb5xwT4NQbk0JSevR+9nbGopbQI\
pbOYt7oa0HLEWbgeuFg8ofsBG/xkBg4g5/hrFfdLm5RCn0+rXBmqXLxlzm4Ibs7WfN4b1cyWocQf\
xKG1qaeyCKaxmbW4Grl+s3CuHnCtX6hOomSaNKP7G6z7G6stqVWoRbBXuGnCCGjBesjOGtWg0LXM\
HrXLyLzcrAis3OSc7hv3Aet6aN4f3mjKV7hHuEejPo41+059GIHoadFSugi6UTaj+wUb+wk1dmBW\
H1VgcFdOGlaeYLFpHrBp7Wj3Mmj3MWf3AGzGcOBkylm0Twi0Tp9GPBo9dUJeRh5eRktVOGUIZDct\
eCIb+xn7A56yMh8xskXFWNlY2HDjiO0IDvty+KcWHAUN/Hf3QRwEivtB/Hkc+vMHDpH69BwFuhX3\
Vv3jBvsnevsJajQeajRPRTRVCFQ0+wdw+yEb+x37BaO6NB80ukzQZuUIZuR49w/3Lxr54/dW/eIH\
+xOXLaNPHqJOtF3FaghqxNJ73hv3I/CrzMgfyMyp9xD3TBoOIPjVFvzMHAW6BfdmBvgR/r2qNqQ7\
oEAZotul26nb+CD6vRj3Wgb80hz6RgUO+GD4Mhb8GRwFugX3Wwb3c/5VoyagJ5woGbD3MaHlkqP3\
q/pyGPd+Bvdm/XrA+0yx+0Gi+zYZnuij9an3DPd6+kIY91cG/CYc+kYF+08G+8n68XHofMWGoBl8\
SHxRflz7y/7xGA4g+M8W+QEH/Mn54QX3gAb3tfxOwDi9Obk4GbfYwOHK6/ew+EMY93YG/N394QX9\
AQcO+dD3FxVIUktjTnQIdE1Jf0Qb+wkyqMRMH0zEbNPkGr+Xu6O2HqK2qq2ypbGltp+7mK6UwZTS\
lPclnPag0KMIjKSLmpIa1Hq/aaketF1HnzAbNk18bmMfYm1tVnhA+0SjGJvWpciwurC5wK/QpAik\
0NyX5hvm1IB2xB/EdrRwpmumap1illoIkWyOVDsa+4QH+zuPIZNfHpJemmGiYgj7UAZ4sH+3hr0I\
fPgmFUpwKXX7F3hBgFd/bH5sfnR3enIIenGDbmwaW51jsGsea6/Ae9Eb0MmaqsEfwamztKTACJ60\
lcfaGg73wRb7OxwFuvdI/J8G6tfsu/cKG8zJfnHGH8Vwu2axXLBbqVGgSAigSJZDPhr7Sl77ITEo\
Higx+wBZ+xIb+xEov/REH4n4KhX7E5wvrlIeLsTXXewb2s+t0MQfxM+o8fcbGvcfcPFUzR7NVEis\
PRs8R2lHUh9SRm4o+xUaDvxV+dD4GRX3RXR4+w5ZLDxGGUY7KWj7CBv7JfsJu+ozHzLqX/cc90Ua\
9wee77HhHrHhxczZtgi22OCg5hv3B+puUdQf1FC6OKAg+0NwGHrSbsFhrwivYFidTxswQmtKUh9S\
Sm8k+yEa+yOmJMJKHkrC0mvjG9LGoba6H7q2qc6Y5QgO+cwW9xoHIkgoVvsXGzY+orpEH0S6VMxk\
3whk3nfr9wEa9Z3rruIeruHAzdK5CLnS2qLiG8vEfnC9H71wtGeqYAj4ovdHHPpGB/10+KYV+xyo\
JcRIHkjEz2nZG9rOq8zCH8LLpu33GBr3JW/2U88ez1NGrTkbO0hqSlYfVUpwJPshGg758vfqFfdO\
dG77AVQ3PE8ZTzwlbfsPG/sv+w+76zAfMOpd9xr3QRr3R7n3HufuHu7n9wu89ycb9yL3CFsq5R/l\
Krj7HPtDGoCLe4p2Hv2sBpL7Cawyxk0ITcbVbOQbzcOcrrofuq6wwqbXCPzj97cV+OUGg+R0zma4\
CNBSQK4wGzhGb1RTH1JUbEGFLggO/hz3Rhb6Lvsz9yD3M/cFB9KRwJiuHpy6qrG3qAiotsiZ2hu+\
w4V/yB9w+zEFkmZnjmobVGV/dHQfdHSAX0saKfdj+yD7Y/4uBw7xMxX3Q3GSVaBkrHIZarjIetgb\
3sycrLgfuKyqupvHlLCQ2Ir3CQguPCld+wkb+yb7BcD0Ox879GP3E/cnGvCd6bDhHrDgwM3Rugi6\
0N2i6Rv3EfNYJtwf9xT3Ov4qB/s5evsKakceaUZWVEJjCGNCMXcgG/sTJafFPR89xGXgjvcHCPcp\
+RIV+x+nJcJLHkvC0WveG97Qq8vDH8PKp+/3HBr3Fm7tUs0ezVFFrDobO0drSlMfU0pvKvsUGg73\
GxYcBbr3SPyiB+zf9bz3FBvaz3xsxR/FbLVgpFQIpFSXPCMa/TX7SPk1B+V4zWS0HrRkU59EG1ZZ\
fXBcH1xvaWV3XAh3XIFJOBr82QcO/o73HBwE6xX3Y/dI+2MH+0gc+xUV+rr3SP66Bw78VfccFhwF\
uvdI/dgH+D74RAX3fQb8Kvwe+FP9MAX7cgb78/iz+xP7DgX8OQcO/o73FxYcBbr3SBz6RgcO9333\
Gxb6uvc1+ykHrL+4tcKrCKrCypvSG9rLe2q+H71qrl6gUAj3EN/3Acn3Gxv03G5RxB/EUKcx+w0a\
/W37R/kxB9OFv4CrHn+qdqVsngiebGeVYhtATXJaWh9aWXI7+wEa/P37SPlGB9t8x26zHrNuW59I\
G1hdfnBgH2Bwa2R4WAh4WIFBKhr8uwcO9xsW+rr3NvsrB/cJ2fcFxfcnG8vGgHTBH8B0s2ymZqZm\
nV6WWAiSao5QOBr9IftI+RoH1ITCfbAefa9yqGihCKBnYZZbGz5Jc1pUH1Naby/7HBr82AcOz/in\
FfdZwvcl9wHqHtrm9wSy9xcb9yb3C1ss6B/oK7n7GPs9GvsddyBiPR5iPE9OPWAIYDw2dS4b+yn7\
DLvqMB8v6l33HvdHGvdNFvscqSXGSB5HxtZp5Rvk1q3Pxh/Gz6nz9x8a9xdt71DPHs5PQa0yGzFA\
aUhQH1BIbSX7HBoO9xv8KxUcBb33OPseB7LBtrS8pgimvMaY0Bvm23Rc0B/QXMBKrjYIrjadLSYa\
+wF4KmQ0HmQ0UkhBXQhcQD10ORtPVZikXB9bpGSrbLII/JkHevo4FfsdpybCSh5Kws5q2hvb0K3P\
xB/Ezqf09yIa9xtv8VTOHs5TSK0+Gz5IZ0RQH1BDbSP7HRoO/av3GRb6uvc2+zUHtNayva6jCKOu\
sZe1G8jIeGTKH037OwWlX1+YXxtkZ390bB9sc3RqfmEId0uBRT8a/MAHDvxVyvfRFfdGp5VEp1S5\
ZRlluMt43RveyJytsx+zrJ+zuBq0eatooh5ym06fKaT7GKwwqFikWKNkrXG2CHC2frq/GrqWt6G0\
HqCzqaywpqegsZy8mgiZu7+Swhve1X9zyh/Kc7lrqWKpYqBUlkb7RHMYg8J0tWWqCKpkVZpFGzhQ\
fXBoH2hweWtmGnSSdpp4Hpp4onuqfp2EwHzjc/cTaeRvvna9dbJrqGIIqGKZV04aT3pTaFYeaFZY\
YkluCG5JQHw4G/seIqjEQx9CxF3gd/cFCA7+HPik9zUVpfszBYBYXoZjG0pYlaBnH2egcqZ8rQh8\
rITS9wAa+Pf7GPcg9xj3mwf3R/cABfwH90n7IPtJ/QEHWI5qknwekXyVgJqCCIKZn4emG5+ljZCs\
Hw750xb3MAf7DDj7BE/7IhtMUZejVR9Uo2OpcbBwr3m3gMAIhK6Hw9ga+Sb3SPzhBy2PTJJqHpZc\
o2awcAhwsLh9wRvBvpmnuh+6pq2xn7sInrqV0OYa+M33SP66Bw78VfhCFvwo+roF91IG93j9EKRG\
oUSgQRmbw6HOqNr3gPkcGPdNBvwm/roFDpH33xb72fq6BfdOBvc9/PnK+3iOlp3UrfcbGfc9+QIF\
900G9zP8/MD7X8j3YfdK+PoF90MG++D+ugX7Twb7PfkQYvdJ+2v9xQUO/FWaFvgY+Lz7+/iSBfd1\
Bvc3+42qXKNjnmsZqLemsqSt90f3jxj3awb8A/yI+B/8xgX7cQb7bvfeUeT7q/w3BQ78VfcT/C0V\
d/c9BYCyroaoG7OrkpijH6OYn56ao5adnrik0o6VkZqSnvwn+rwY91YG93H8+6g9pDmiNRmg3qPb\
qNr3d/j/GPdIBvwo/sxg+wlpO3NfGWtQZl9icAhvYll9UhtoZZKaYB8OHARzFBwFwRUAAAAAAQAA\
AAMAAAAMAAQAUAAAABAAEAADAAAAIAA6AFcAWQBpAHAAef//AAAAIAAoAEEAWQBhAGsAcv///+H/\
2v/U/9P/zP/L/8oAAQAAAAAAAAAAAAAAAAAAAAAAAQAAAAoAHgAsAAFERkxUAAgABAAAAAD//wAB\
AAAAAWtlcm4ACAAAAAEAAAABAAQAAgAAAAEACAABAbYABAAAABAAKgA4AD4AYABuAIgAmgCsAPIB\
JAFSAYgBjgGYAaIBrAADABX/jwAo/9sALP/bAAEAC/9oAAgAAf+PACj/aAAq/2gAK/+0ACz/aABA\
/9sAQf/bAEP/2wADAAb/HQAI/x0AFf+PAAYAAf+0ACj/aAAq/2gAK/9oACz/aABD/7QABAAB/9sA\
Bv74AAj++AAV/2gABAAo/9sAKv/bACv/2wAs/9sAEQAB/9sABv8dAAf/jwAI/x0AFP8dABX/aAAj\
/9sALf8dAC//HQAx/x0ANf+0ADr/HQA8/7QAPf8dAD//tABB/48AQ/+PAAwABv9EAAf/jwAI/0QA\
FP+0ABX/aAAt/2gAMf+PADX/2wA6/48APP+0AD//tABD/7QACwAG/48AB//bAAj/jwAU/9sAFf+0\
AC3/tAAx/9sAOv/bADz/2wA//9sAQ//uAA0AAf/bAAb++AAH/0QACP74ABT/jwAV/2gALf9oADH/\
RAA1/7QAOv9EADv/aAA//48AQP+PAAEAMv/bAAIABv+PAAj/jwACAAb/aAAI/2gAAgAG/48ACP+P\
	]]>
	</style>
<script type="text/javascript" xlink:href="../../../../../system/js/ewd/fig/svgfig.js"/>
<defs>
<font horiz-adv-x="1229">
<font-face font-family="Svg Symbol" units-per-em="2048" panose-1="5 5 1 2 1 7 6 2 5 7" ascent="2059" descent="450" alphabetic="0"/>
<missing-glyph d="M 103,0 l 0,1280 1024,0 0,-1280 -1024,0 z m 32,32 l 960,0 0,1216 -960,0 0,-1216 z"/>
<glyph unicode="&#xF057;" horiz-adv-x="1573" d="M 1517,0 l -567,0 24,279 q 141,59 207.5,168 66.5,109 66.5,306    0,272 -132.5,417.5 -132.5,145.5 -333.5,145.5 -194,0 -328,-147.5 -134,-147.5 -134,-401.5 0,-200 68.5,-319 68.5,-119     206.5,-169 l 25,-279 -564,0 0,279 35,0 q 3,-61 32,-83 45,-35 137,-35 l 270,0 0,70 q -210,61 -324.5,209 -114.5,148     -114.5,349 0,252 186.5,425 186.5,173 504.5,173 195,0 358.5,-73.5 163.5,-73.5 252,-214.5 88.5,-141 88.5,-310 0,-207     -121.5,-360.5 -121.5,-153.5 -317.5,-197.5 l -8,-70 275,0 q 92,0 128,28 36,28 42,90 l 38,0 0,-279 z"/>
</font>
</defs>
<g id="ewd_top">
<a ewd:lineID="3" style="cursor:pointer;">
<path style="&st15;" d="M 413.41 , 107.53 L 413.41 , 152.29"/>
</a>
<a ewd:lineID="1" style="cursor:pointer;">
<path style="&st15;" d="M 413.41 , 167.02 L 413.41 , 235.01"/>
</a>
<a ewd:lineID="59" style="cursor:pointer;">
<path style="&st24;" d="M 413.41 , 481.47 L 413.41 , 396.48"/>
</a>
<a ewd:lineID="58" style="cursor:pointer;">
<path style="&st13;" d="M 353.92 , 396.48 L 353.92 , 515.46"/>
</a>
<a ewd:lineID="57" style="cursor:pointer;">
<path style="&st9;" d="M 302.93 , 396.48 L 302.93 , 515.46"/>
</a>
<a ewd:lineID="56" style="cursor:pointer;">
<path style="&st3;" d="M 260.44 , 396.48 L 260.44 , 515.46"/>
</a>
<a ewd:lineID="55" style="cursor:pointer;">
<path style="&st8;" d="M 209.45 , 396.48 L 209.45 , 515.46"/>
</a>
<a ewd:lineID="54" style="cursor:pointer;">
<path style="&st3;" d="M 132.96 , 396.48 L 132.96 , 447.47"/>
<path style="&st11;" d="M 132.96 , 396.48 L 132.96 , 447.47"/>
<path style="&st16;" d="M 132.96 , 396.48 L 132.96 , 447.47"/>
</a>
<a ewd:lineID="52" style="cursor:pointer;">
<path style="&st3;" d="M 81.97 , 685.43 L 81.97 , 455.97 L 124.46 , 455.97"/>
<path style="&st11;" d="M 81.97 , 685.43 L 81.97 , 455.97 L 124.46 , 455.97"/>
<path style="&st16;" d="M 81.97 , 685.43 L 81.97 , 455.97 L 124.46 , 455.97"/>
</a>
<a ewd:lineID="53" style="cursor:pointer;">
<path style="&st3;" d="M 132.96 , 464.47 L 132.96 , 515.46"/>
<path style="&st11;" d="M 132.96 , 464.47 L 132.96 , 515.46"/>
<path style="&st16;" d="M 132.96 , 464.47 L 132.96 , 515.46"/>
</a>
<a ewd:lineID="2" style="cursor:pointer;">
<path style="&st24;" d="M 413.41 , 496.2 L 413.41 , 668.43 L 2742.02 , 668.43 L 2742.02 , 346.62"/>
</a>
<a ewd:lineID="60" style="cursor:pointer;">
<path style="&st3;" d="M 600.38 , 481.47 L 600.38 , 413.48 L 642.87 , 413.48"/>
<path style="&st11;" d="M 600.38 , 481.47 L 600.38 , 413.48 L 642.87 , 413.48"/>
<path style="&st16;" d="M 600.38 , 481.47 L 600.38 , 413.48 L 642.87 , 413.48"/>
</a>
<a ewd:lineID="4" style="cursor:pointer;">
<path style="&st3;" d="M 651.37 , 362.49 L 651.37 , 404.98"/>
<path style="&st11;" d="M 651.37 , 362.49 L 651.37 , 404.98"/>
<path style="&st16;" d="M 651.37 , 362.49 L 651.37 , 404.98"/>
</a>
<a ewd:lineID="62" style="cursor:pointer;">
<path style="&st3;" d="M 651.37 , 421.98 L 651.37 , 464.47"/>
<path style="&st11;" d="M 651.37 , 421.98 L 651.37 , 464.47"/>
<path style="&st16;" d="M 651.37 , 421.98 L 651.37 , 464.47"/>
</a>
<a ewd:lineID="10" style="cursor:pointer;">
<path style="&st24;" d="M 931.83 , 362.49 L 931.83 , 455.97"/>
</a>
<a ewd:lineID="8" style="cursor:pointer;">
<path style="&st13;" d="M 872.34 , 362.49 L 872.34 , 464.47"/>
</a>
<a ewd:lineID="7" style="cursor:pointer;">
<path style="&st9;" d="M 821.34 , 362.49 L 821.34 , 464.47"/>
</a>
<a ewd:lineID="6" style="cursor:pointer;">
<path style="&st3;" d="M 778.85 , 362.49 L 778.85 , 464.47"/>
</a>
<a ewd:lineID="5" style="cursor:pointer;">
<path style="&st8;" d="M 727.86 , 362.49 L 727.86 , 464.47"/>
</a>
<a ewd:lineID="63" style="cursor:pointer;">
<path style="&st24;" d="M 931.83 , 526.22 L 931.83 , 470.7"/>
</a>
<a ewd:lineID="9" style="cursor:pointer;">
<path style="&st24;" d="M 931.83 , 540.96 L 931.83 , 651.44 L 2699.53 , 651.44 L 2699.53 , 346.62"/>
</a>
<a ewd:lineID="11" style="cursor:pointer;">
<path style="&st0;" d="M 940.32 , 133.02 L 940.32 , 107.53"/>
</a>
<a ewd:lineID="13" style="cursor:pointer;">
<path style="&st0;" d="M 940.32 , 177.78 L 940.32 , 147.75"/>
</a>
<a ewd:lineID="12" style="cursor:pointer;">
<path style="&st3;" d="M 940.32 , 192.51 L 940.32 , 235.01"/>
<path style="&st11;" d="M 940.32 , 192.51 L 940.32 , 235.01"/>
</a>
<a ewd:lineID="20" style="cursor:pointer;">
<path style="&st24;" d="M 1390.75 , 404.98 L 1390.75 , 353.99"/>
</a>
<a ewd:lineID="18" style="cursor:pointer;">
<path style="&st13;" d="M 1331.26 , 353.99 L 1331.26 , 455.97"/>
</a>
<a ewd:lineID="17" style="cursor:pointer;">
<path style="&st9;" d="M 1288.77 , 353.99 L 1288.77 , 455.97"/>
</a>
<a ewd:lineID="16" style="cursor:pointer;">
<path style="&st3;" d="M 1246.27 , 353.99 L 1246.27 , 455.97"/>
</a>
<a ewd:lineID="15" style="cursor:pointer;">
<path style="&st8;" d="M 1195.28 , 353.99 L 1195.28 , 455.97"/>
</a>
<a ewd:lineID="14" style="cursor:pointer;">
<path style="&st3;" d="M 1161.29 , 353.99 L 1161.29 , 396.48"/>
<path style="&st11;" d="M 1161.29 , 353.99 L 1161.29 , 396.48"/>
<path style="&st16;" d="M 1161.29 , 353.99 L 1161.29 , 396.48"/>
</a>
<a ewd:lineID="65" style="cursor:pointer;">
<path style="&st3;" d="M 1093.3 , 455.97 L 1093.3 , 404.98 L 1152.79 , 404.98"/>
<path style="&st11;" d="M 1093.3 , 455.97 L 1093.3 , 404.98 L 1152.79 , 404.98"/>
<path style="&st16;" d="M 1093.3 , 455.97 L 1093.3 , 404.98 L 1152.79 , 404.98"/>
</a>
<a ewd:lineID="66" style="cursor:pointer;">
<path style="&st3;" d="M 1161.29 , 413.48 L 1161.29 , 455.97"/>
<path style="&st11;" d="M 1161.29 , 413.48 L 1161.29 , 455.97"/>
<path style="&st16;" d="M 1161.29 , 413.48 L 1161.29 , 455.97"/>
</a>
<a ewd:lineID="19" style="cursor:pointer;">
<path style="&st24;" d="M 1390.75 , 419.71 L 1390.75 , 634.44 L 2640.04 , 634.44 L 2640.04 , 141.52"/>
</a>
<a ewd:lineID="24" style="cursor:pointer;">
<path style="&st0;" d="M 1458.74 , 167.02 L 1458.74 , 557.95 L 1892.16 , 557.95 L 1892.16 , 515.46"/>
</a>
<a ewd:lineID="28" style="cursor:pointer;">
<path style="&st24;" d="M 1679.7 , 411.21 L 1679.7 , 617.44 L 2784.52 , 617.44 L 2784.52 , 346.62"/>
</a>
<a ewd:lineID="26" style="cursor:pointer;">
<path style="&st9;" d="M 1509.73 , 107.53 L 1509.73 , 152.29"/>
</a>
<a ewd:lineID="23" style="cursor:pointer;">
<path style="&st0;" d="M 1458.74 , 107.53 L 1458.74 , 152.29"/>
</a>
<a ewd:lineID="21" style="cursor:pointer;">
<path style="&st3;" d="M 1399.25 , 152 L 1399.25 , 107.53"/>
<path style="&st11;" d="M 1399.25 , 152 L 1399.25 , 107.53"/>
</a>
<a ewd:lineID="22" style="cursor:pointer;">
<path style="&st3;" d="M 1399.25 , 167.02 L 1399.25 , 218.01"/>
<path style="&st11;" d="M 1399.25 , 167.02 L 1399.25 , 218.01"/>
</a>
<a ewd:lineID="25" style="cursor:pointer;">
<path style="&st9;" d="M 1509.73 , 167.02 L 1509.73 , 387.98 L 1637.21 , 387.98 L 1637.21 , 328.49"/>
</a>
<a ewd:lineID="27" style="cursor:pointer;">
<path style="&st24;" d="M 1679.7 , 328.49 L 1679.7 , 396.48"/>
</a>
<a ewd:lineID="29" style="cursor:pointer;">
<path style="&st25;" d="M 1730.69 , 328.49 L 1730.69 , 396.48"/>
</a>
<a ewd:lineID="30" style="cursor:pointer;">
<path style="&st13;" d="M 1773.18 , 328.49 L 1773.18 , 396.48"/>
</a>
<a ewd:lineID="31" style="cursor:pointer;">
<path style="&st8;" d="M 1807.18 , 328.49 L 1807.18 , 396.48"/>
</a>
<a ewd:lineID="32" style="cursor:pointer;">
<path style="&st3;" d="M 1849.67 , 328.49 L 1849.67 , 396.48"/>
</a>
<a ewd:lineID="33" style="cursor:pointer;">
<path style="&st3;" d="M 2011.14 , 328.49 L 2011.14 , 532.46"/>
<path style="&st11;" d="M 2011.14 , 328.49 L 2011.14 , 532.46"/>
<path style="&st16;" d="M 2011.14 , 328.49 L 2011.14 , 532.46"/>
</a>
<a ewd:lineID="67" style="cursor:pointer;">
<path style="&st3;" d="M 1934.66 , 515.46 L 1934.66 , 540.96 L 2002.65 , 540.96"/>
<path style="&st11;" d="M 1934.66 , 515.46 L 1934.66 , 540.96 L 2002.65 , 540.96"/>
<path style="&st16;" d="M 1934.66 , 515.46 L 1934.66 , 540.96 L 2002.65 , 540.96"/>
</a>
<a ewd:lineID="68" style="cursor:pointer;">
<path style="&st3;" d="M 2011.14 , 549.45 L 2011.14 , 685.43"/>
<path style="&st11;" d="M 2011.14 , 549.45 L 2011.14 , 685.43"/>
<path style="&st16;" d="M 2011.14 , 549.45 L 2011.14 , 685.43"/>
</a>
<a ewd:lineID="34" style="cursor:pointer;">
<path style="&st9;" d="M 2512.56 , 158.52 L 2512.56 , 184.02 L 2164.12 , 184.02 L 2164.12 , 107.53"/>
</a>
<a ewd:lineID="35" style="cursor:pointer;">
<path style="&st24;" d="M 2699.53 , 141.52 L 2699.53 , 201.01"/>
</a>
<a ewd:lineID="36" style="cursor:pointer;">
<path style="&st24;" d="M 2699.53 , 252 L 2699.53 , 293.36"/>
</a>
<a ewd:lineID="37" style="cursor:pointer;">
<path style="&st3;" d="M 2861 , 91.1 L 2861 , 523.39"/>
<path style="&st11;" d="M 2861 , 91.1 L 2861 , 523.39"/>
<path style="&st16;" d="M 2861 , 91.1 L 2861 , 523.39"/>
</a>
<a ewd:lineID="40" style="cursor:pointer;">
<path style="&st3;" d="M 3039.47 , 302.43 L 3039.47 , 116.05"/>
<path style="&st11;" d="M 3039.47 , 302.43 L 3039.47 , 116.05"/>
<path style="&st16;" d="M 3039.47 , 302.43 L 3039.47 , 116.05"/>
</a>
<a ewd:lineID="39" style="cursor:pointer;">
<path style="&st3;" d="M 3039.47 , 659.94 L 3039.47 , 337.55"/>
<path style="&st11;" d="M 3039.47 , 659.94 L 3039.47 , 337.55"/>
<path style="&st16;" d="M 3039.47 , 659.94 L 3039.47 , 337.55"/>
</a>
<a ewd:lineID="42" style="cursor:pointer;">
<path style="&st3;" d="M 3175.45 , 268.43 L 3175.45 , 116.05"/>
</a>
<a ewd:lineID="41" style="cursor:pointer;">
<path style="&st3;" d="M 3175.45 , 303.56 L 3175.45 , 387.98"/>
</a>
<a ewd:lineID="69" style="cursor:pointer;">
<path style="&st3;" d="M 2861 , 567.02 L 2861 , 659.94"/>
<path style="&st11;" d="M 2861 , 567.02 L 2861 , 659.94"/>
<path style="&st16;" d="M 2861 , 567.02 L 2861 , 659.94"/>
</a>
<a ewd:lineID="43" style="cursor:pointer;">
<path style="&st1;" d="M 3285.93 , 300.73 L 3285.93 , 591.95 L 3532.39 , 591.95 L 3532.39 , 370.98"/>
</a>
<a ewd:lineID="45" style="cursor:pointer;">
<path style="&st3;" d="M 3302.93 , 148.89 L 3302.93 , 124.53 L 3379.42 , 124.53 L 3379.42 , 685.43"/>
<path style="&st11;" d="M 3302.93 , 148.89 L 3302.93 , 124.53 L 3379.42 , 124.53 L 3379.42 , 685.43"/>
<path style="&st16;" d="M 3302.93 , 148.89 L 3302.93 , 124.53 L 3379.42 , 124.53 L 3379.42 , 685.43"/>
</a>
<a ewd:lineID="47" style="cursor:pointer;">
<path style="&st25;" d="M 3319.93 , 300.73 L 3319.93 , 472.97 L 3481.4 , 472.97 L 3481.4 , 370.98"/>
</a>
<a ewd:lineID="46" style="cursor:pointer;">
<path style="&st25;" d="M 3319.93 , 253.14 L 3319.93 , 286"/>
</a>
<a ewd:lineID="44" style="cursor:pointer;">
<path style="&st1;" d="M 3285.93 , 253.14 L 3285.93 , 286"/>
</a>
<a ewd:lineID="48" style="cursor:pointer;">
<path style="&st25;" d="M 3481.4 , 91.1 L 3481.4 , 218.01"/>
</a>
<a ewd:lineID="50" style="cursor:pointer;">
<path style="&st1;" d="M 3532.39 , 91.1 L 3532.39 , 218.01"/>
</a>
<a ewd:lineID="51" style="cursor:pointer;">
<path style="&st1;" d="M 3532.39 , 269 L 3532.39 , 319.99"/>
</a>
<a ewd:lineID="49" style="cursor:pointer;">
<path style="&st25;" d="M 3481.4 , 269 L 3481.4 , 319.99"/>
</a>
<a ewd:lineID="61" style="cursor:pointer;">
<path style="&st3;" d="M 600.38 , 685.43 L 600.38 , 496.2"/>
<path style="&st11;" d="M 600.38 , 685.43 L 600.38 , 496.2"/>
<path style="&st16;" d="M 600.38 , 685.43 L 600.38 , 496.2"/>
</a>
<a ewd:lineID="64" style="cursor:pointer;">
<path style="&st3;" d="M 1093.3 , 685.43 L 1093.3 , 470.7"/>
<path style="&st11;" d="M 1093.3 , 685.43 L 1093.3 , 470.7"/>
<path style="&st16;" d="M 1093.3 , 685.43 L 1093.3 , 470.7"/>
</a>
<a ewd:code="JG3" ewd:figtype="w2w" style="cursor:pointer;" ewd:figID="608">
<path style="&st18;" d="M3328.42,286h-16.99v8.5h16.99V286"/>
<text transform="matrix(1 0 0 1 3314.4243 292.7432)" style="&st6;"><tspan x="0" y="0" style="&st21; &st14;">JG3</tspan></text>
</a>
<a ewd:code="JG3" ewd:figtype="w2w" style="cursor:pointer;" ewd:figID="607">
<path style="&st18;" d="M3294.43,286h-17v8.5h17V286"/>
<text transform="matrix(1 0 0 1 3280.4292 292.7432)" style="&st6;"><tspan x="0" y="0" style="&st21; &st14;">JG3</tspan></text>
</a>
<a ewd:code="JG2" ewd:figtype="w2w" style="cursor:pointer;" ewd:figID="615">
<path style="&st18;" d="M1688.2,396.48h-17v8.5h17V396.48"/>
<text transform="matrix(1 0 0 1 1674.1987 403.2227)" style="&st6;"><tspan x="0" y="0" style="&st21; &st14;">JG2</tspan></text>
</a>
<a ewd:code="LQ1" ewd:figtype="w2w" style="cursor:pointer;" ewd:figID="614">
<path style="&st18;" d="M1399.25,404.98h-17v8.5h17V404.98"/>
<text transform="matrix(1 0 0 1 1385.0801 411.7227)" style="&st6;"><tspan x="0" y="0" style="&st21; &st14;">LQ1</tspan></text>
</a>
<a ewd:code="JG1" ewd:figtype="w2w" style="cursor:pointer;" ewd:figID="606">
<path style="&st18;" d="M1518.23,158.52h-17v8.5h17V158.52"/>
<text transform="matrix(1 0 0 1 1504.229 165.2632)" style="&st6;"><tspan x="0" y="0" style="&st21; &st14;">JG1</tspan></text>
</a>
<a ewd:code="JG2" ewd:figtype="w2w" style="cursor:pointer;" ewd:figID="605">
<path style="&st18;" d="M1467.24,158.52h-17v8.5h17V158.52"/>
<text transform="matrix(1 0 0 1 1453.2388 165.2632)" style="&st6;"><tspan x="0" y="0" style="&st21; &st14;">JG2</tspan></text>
</a>
<a ewd:code="LQ1" ewd:figtype="w2w" style="cursor:pointer;" ewd:figID="604">
<path style="&st18;" d="M1407.75,158.52h-17v8.5h17V158.52"/>
<text transform="matrix(1 0 0 1 1393.5801 165.2632)" style="&st6;"><tspan x="0" y="0" style="&st21; &st14;">LQ1</tspan></text>
</a>
<a ewd:code="LQ1" ewd:figtype="w2w" style="cursor:pointer;" ewd:figID="613">
<path style="&st18;" d="M1101.8,455.97h-17v8.5h17V455.97"/>
<text transform="matrix(1 0 0 1 1087.6309 462.7129)" style="&st6;"><tspan x="0" y="0" style="&st21; &st14;">LQ1</tspan></text>
</a>
<a ewd:code="MR1" ewd:figtype="w2w" style="cursor:pointer;" ewd:figID="611">
<path style="&st18;" d="M940.32,455.97h-16.99v8.5h16.99V455.97"/>
<text transform="matrix(1 0 0 1 925.4917 462.7129)" style="&st6;"><tspan x="0" y="0" style="&st21; &st14;">MR1</tspan></text>
</a>
<a ewd:code="GR2" ewd:figtype="w2w" style="cursor:pointer;" ewd:figID="612">
<path style="&st18;" d="M940.32,532.46h-16.99v8.5h16.99V532.46"/>
<text transform="matrix(1 0 0 1 925.6572 539.2031)" style="&st6;"><tspan x="0" y="0" style="&st21; &st14;">GR2</tspan></text>
</a>
<a ewd:code="MR1" ewd:figtype="w2w" style="cursor:pointer;" ewd:figID="602">
<path style="&st18;" d="M948.82,184.02h-16.99v8.49h16.99V184.02"/>
<text transform="matrix(1 0 0 1 933.9917 190.7632)" style="&st6;"><tspan x="0" y="0" style="&st21; &st14;">MR1</tspan></text>
</a>
<a ewd:code="GR3" ewd:figtype="w2w" style="cursor:pointer;" ewd:figID="603">
<path style="&st18;" d="M948.82,133.02h-16.99v8.5h16.99V133.02"/>
<text transform="matrix(1 0 0 1 934.1572 139.7729)" style="&st6;"><tspan x="0" y="0" style="&st21; &st14;">GR3</tspan></text>
</a>
<a ewd:code="KG3" ewd:figtype="w2w" style="cursor:pointer;" ewd:figID="601">
<path style="&st18;" d="M421.91,158.52h-17v8.5h17V158.52"/>
<text transform="matrix(1 0 0 1 407.4077 165.2632)" style="&st6;"><tspan x="0" y="0" style="&st21; &st14;">KG3</tspan></text>
</a>
<a ewd:code="MR1" ewd:figtype="w2w" style="cursor:pointer;" ewd:figID="610">
<path style="&st18;" d="M608.88,481.47h-17v8.49h17V481.47"/>
<text transform="matrix(1 0 0 1 594.0474 488.2129)" style="&st6;"><tspan x="0" y="0" style="&st21; &st14;">MR1</tspan></text>
</a>
<a ewd:code="KG2" ewd:figtype="w2w" style="cursor:pointer;" ewd:figID="609">
<path style="&st18;" d="M421.91,481.47h-17v8.49h17V481.47"/>
<text transform="matrix(1 0 0 1 407.4077 488.2129)" style="&st6;"><tspan x="0" y="0" style="&st21; &st14;">KG2</tspan></text>
</a>
<a ewd:code="239004" ewd:figtype="sp" style="cursor:pointer;" ewd:figID="504">
<path style="&st18;" d="M2006.9,532.46h8.49l4.25,4.25v8.49l-4.25,4.25h-8.49l-4.25-4.25v-8.49L2006.9,532.46"/>
</a>
<a ewd:code="239003" ewd:figtype="sp" style="cursor:pointer;" ewd:figID="503">
<path style="&st18;" d="M1157.04,396.48h8.5l4.25,4.25v8.5l-4.25,4.25h-8.5l-4.25-4.25v-8.5L1157.04,396.48"/>
</a>
<a ewd:code="239002" ewd:figtype="sp" style="cursor:pointer;" ewd:figID="502">
<path style="&st18;" d="M647.12,404.98h8.5l4.25,4.25v8.5l-4.25,4.25h-8.5l-4.25-4.25v-8.5L647.12,404.98"/>
</a>
<a ewd:code="239001" ewd:figtype="sp" style="cursor:pointer;" ewd:figID="501">
<path style="&st18;" d="M128.71,447.47h8.5l4.25,4.25v8.5l-4.25,4.25h-8.5l-4.25-4.25v-8.5L128.71,447.47"/>
</a>
<a ewd:code="FUSE10" ewd:figtype="rb" style="cursor:pointer;" ewd:figID="401">
<path style="&st23;" d="M2151.37,39.54v42.49h25.5V39.54H2151.37"/>
</a>
<a ewd:code="3JB" ewd:figtype="jb" style="cursor:pointer;" ewd:figID="309">
<path style="&st20;" d="M3464.4,218.01V269h76.49v-50.99H3464.4"/>
</a>
<a ewd:code="4JB" ewd:figtype="jb" style="cursor:pointer;" ewd:figID="310">
<path style="&st20;" d="M3464.4,319.99v50.99h76.49v-50.99H3464.4"/>
</a>
<a ewd:code="2" ewd:figtype="jb" style="cursor:pointer;" ewd:figID="308">
<path style="&st20;" d="M3158.45,82.03v34.02h25.5V82.03H3158.45"/>
</a>
<a ewd:code="2" ewd:figtype="jb" style="cursor:pointer;" ewd:figID="307">
<path style="&st20;" d="M3022.48,82.03v34.02h25.49V82.03H3022.48"/>
</a>
<a ewd:code="2" ewd:figtype="jb" style="cursor:pointer;" ewd:figID="305">
<path style="&st20;" d="M2623.04,82.03v59.49h84.99V82.03H2623.04"/>
</a>
<a ewd:code="3JB" ewd:figtype="jb" style="cursor:pointer;" ewd:figID="306">
<path style="&st20;" d="M2682.53,201.01V252h25.5v-50.99H2682.53"/>
</a>
<a ewd:code="2" ewd:figtype="jb" style="cursor:pointer;" ewd:figID="304">
<path style="&st20;" d="M2206.61,39.54v118.98h314.45V82.03h-127.48V39.54H2206.61"/>
</a>
<a ewd:code="2" ewd:figtype="jb" style="cursor:pointer;" ewd:figID="303">
<path style="&st20;" d="M1382.25,39.54v67.99h169.97V39.54H1382.25"/>
</a>
<a ewd:code="2" ewd:figtype="jb" style="cursor:pointer;" ewd:figID="302">
<path style="&st20;" d="M923.33,39.54h67.99v67.99h-67.99V39.54"/>
</a>
<a ewd:code="2" ewd:figtype="jb" style="cursor:pointer;" ewd:figID="301">
<path style="&st20;" d="M396.41,39.54h67.99v67.99h-67.99V39.54"/>
</a>
<a ewd:code="K1" ewd:figtype="gp" style="cursor:pointer;" ewd:figID="201">
<path style="&st18;" d="M71.34,685.43h21.25l-10.62,15.58L71.34,685.43"/>
<text transform="matrix(1 0 0 1 77.8408 693.5938)" style="&st6;"><tspan x="0" y="0" style="&st21; &st14;">K1</tspan></text>
</a>
<a ewd:code="R1" ewd:figtype="gp" style="cursor:pointer;" ewd:figID="202">
<path style="&st18;" d="M589.76,685.43H611l-10.62,15.58L589.76,685.43"/>
<text transform="matrix(1 0 0 1 596.1011 693.5938)" style="&st6;"><tspan x="0" y="0" style="&st21; &st14;">R1</tspan></text>
</a>
<a ewd:code="Q1" ewd:figtype="gp" style="cursor:pointer;" ewd:figID="203">
<path style="&st18;" d="M1082.68,685.43h21.24l-10.62,15.58L1082.68,685.43"/>
<text transform="matrix(1 0 0 1 1088.7212 693.5938)" style="&st6;"><tspan x="0" y="0" style="&st21; &st14;">Q1</tspan></text>
</a>
<a ewd:code="J1" ewd:figtype="gp" style="cursor:pointer;" ewd:figID="204">
<path style="&st18;" d="M2000.52,685.43h21.25l-10.63,15.58L2000.52,685.43"/>
<text transform="matrix(1 0 0 1 2007.6108 693.5938)" style="&st6;"><tspan x="0" y="0" style="&st21; &st14;">J1</tspan></text>
</a>
<a ewd:code="G5" ewd:figtype="gp" style="cursor:pointer;" ewd:figID="205">
<path style="&st18;" d="M2850.38,685.43h21.25L2861,701.01L2850.38,685.43"/>
<text transform="matrix(1 0 0 1 2856.021 693.5938)" style="&st6;"><tspan x="0" y="0" style="&st21; &st14;">G5</tspan></text>
</a>
<a ewd:code="G3" ewd:figtype="gp" style="cursor:pointer;" ewd:figID="206">
<path style="&st18;" d="M3028.85,685.43h21.25l-10.63,15.58L3028.85,685.43"/>
<text transform="matrix(1 0 0 1 3034.4907 693.5938)" style="&st6;"><tspan x="0" y="0" style="&st21; &st14;">G3</tspan></text>
</a>
<a ewd:code="J1" ewd:figtype="gp" style="cursor:pointer;" ewd:figID="207">
<path style="&st18;" d="M3368.79,685.43h21.25l-10.62,15.58L3368.79,685.43"/>
<text transform="matrix(1 0 0 1 3375.8813 693.5938)" style="&st6;"><tspan x="0" y="0" style="&st21; &st14;">J1</tspan></text>
</a>
<a ewd:code="FUSE92" ewd:figtype="fuse" style="cursor:pointer;" ewd:figID="101">
<path style="&st7;" d="M400.66,39.54v42.49h25.5V39.54H400.66"/>
</a>
<a ewd:code="FUSE89" ewd:figtype="fuse" style="cursor:pointer;" ewd:figID="102">
<path style="&st7;" d="M927.58,39.54v42.49h25.49V39.54H927.58"/>
</a>
<a ewd:code="FUSE90" ewd:figtype="fuse" style="cursor:pointer;" ewd:figID="103">
<path style="&st7;" d="M1386.5,39.54v42.49h25.49V39.54H1386.5"/>
</a>
<a ewd:code="FUSE88" ewd:figtype="fuse" style="cursor:pointer;" ewd:figID="104">
<path style="&st7;" d="M1445.99,39.54v42.49h25.49V39.54H1445.99"/>
</a>
<a ewd:code="FUSE73" ewd:figtype="fuse" style="cursor:pointer;" ewd:figID="105">
<path style="&st7;" d="M1496.98,39.54v42.49h25.5V39.54H1496.98"/>
</a>
<a ewd:code="FUSE75" ewd:figtype="fuse" style="cursor:pointer;" ewd:figID="109">
<path style="&st7;" d="M2329.84,39.54v42.49h25.5V39.54H2329.84"/>
</a>
<a ewd:code="FUSE65" ewd:figtype="fuse" style="cursor:pointer;" ewd:figID="108">
<path style="&st7;" d="M2270.35,39.54v42.49h25.5V39.54H2270.35"/>
</a>
<a ewd:code="FUSE87" ewd:figtype="fuse" style="cursor:pointer;" ewd:figID="107">
<path style="&st7;" d="M2210.86,39.54v42.49h25.5V39.54H2210.86"/>
</a>
<a ewd:code="FUSE10" ewd:figtype="fuse" style="cursor:pointer;" ewd:figID="106">
<path style="&st7;" d="M2151.37,39.54v42.49h25.5V39.54H2151.37"/>
</a>
<a ewd:code="K7" ewd:figtype="conn" style="cursor:pointer;" ewd:figID="1">
<path style="&st23;" d="M430.41,396.48H98.96V167.02h118.98v67.99h212.47V396.48"/>
<title ewd:textID="14">Front Power Window Regulator Motor Assembly LH</title>
</a>
<a ewd:code="K10" ewd:figtype="conn" style="cursor:pointer;" ewd:figID="12">
<path style="&st23;" d="M379.42,617.44V515.46H107.46v101.98H379.42"/>
<title ewd:textID="16">Front Power Window Regulator Switch Assembly LH</title>
</a>
<a ewd:code="M2" ewd:figtype="conn" style="cursor:pointer;" ewd:figID="13">
<path style="&st23;" d="M897.83,566.45V464.47H625.88v101.98H897.83"/>
<title ewd:textID="28">Rear Power Window Regulator Switch Assembly LH</title>
</a>
<a ewd:code="M4" ewd:figtype="conn" style="cursor:pointer;" ewd:figID="2">
<path style="&st23;" d="M957.32,362.49H617.38V167.02h118.98v67.99h220.96V362.49"/>
<title ewd:textID="26">Rear Power Window Regulator Motor Assembly LH</title>
</a>
<a ewd:code="L4" ewd:figtype="conn" style="cursor:pointer;" ewd:figID="3">
<path style="&st23;" d="M1416.24,353.99H1076.3V150.02h118.98v67.99h220.96V353.99"/>
<title ewd:textID="27">Rear Power Window Regulator Motor Assembly RH</title>
</a>
<a ewd:code="L2" ewd:figtype="conn" style="cursor:pointer;" ewd:figID="14">
<path style="&st23;" d="M1365.25,557.95V455.97h-229.46v101.98H1365.25"/>
<title ewd:textID="29">Rear Power Window Regulator Switch Assembly RH</title>
</a>
<a ewd:code="J7" ewd:figtype="conn" style="cursor:pointer;" ewd:figID="5">
<path style="&st23;" d="M1705.2,396.48h161.47v-50.99h84.98v50.99h34v118.98H1705.2V396.48"/>
<title ewd:textID="15">Front Power Window Regulator Motor Assembly RH</title>
</a>
<a ewd:code="J9" ewd:figtype="conn" style="cursor:pointer;" ewd:figID="4">
<path style="&st23;" d="M1594.71,48.04v280.45h458.93V48.04H1594.71"/>
<title ewd:textID="23">Multiplex Network Master Switch Assembly</title>
</a>
<a ewd:code="G63-A,G64-B" ewd:figtype="conn" style="cursor:pointer;" ewd:figID="6">
<path style="&st23;" d="M2393.58,39.54v42.49h1155.81V39.54H2393.58"/>
<title ewd:textID="22">Main Body ECU</title>
</a>
<a ewd:code="J6" ewd:figtype="conn" style="cursor:pointer;" ewd:figID="11">
<path style="&st23;" d="M3268.93,167.02v67.99h67.99v-67.99H3268.93"/>
<title ewd:textID="12">Front Door with Motor Lock Assembly RH</title>
</a>
<a ewd:code="Q23" ewd:figtype="conn" style="cursor:pointer;" ewd:figID="9">
<path style="&st23;" d="M3166.95,277.5h17v17h-17V277.5"/>
<title ewd:textID="18">Junction Connector</title>
</a>
<a ewd:code="Q8" ewd:figtype="conn" style="cursor:pointer;" ewd:figID="10">
<path style="&st23;" d="M3183.95,421.98v-34h-17v34H3183.95"/>
<title ewd:textID="11">Front Door Courtesy Light Switch Assembly RH</title>
</a>
<a ewd:code="G127" ewd:figtype="conn" style="cursor:pointer;" ewd:figID="8">
<path style="&st23;" d="M3047.97,311.49h-17v17h17V311.49"/>
<title ewd:textID="18">Junction Connector</title>
</a>
<a ewd:code="G128-C,G129-D" ewd:figtype="conn" style="cursor:pointer;" ewd:figID="15">
<path style="&st23;" d="M2852.5,532.46h17v25.49h-17V532.46"/>
<title ewd:textID="18">Junction Connector</title>
</a>
<a ewd:code="G104" ewd:figtype="conn" style="cursor:pointer;" ewd:figID="17">
<path style="&st23;" d="M3030.97,659.94h17v16.99h-17V659.94"/>
<title ewd:textID="18">Junction Connector</title>
</a>
<a ewd:code="G106" ewd:figtype="conn" style="cursor:pointer;" ewd:figID="16">
<path style="&st23;" d="M2852.5,659.94v16.99h17v-16.99H2852.5"/>
<title ewd:textID="18">Junction Connector</title>
</a>
<a ewd:code="G92,G143" ewd:figtype="conn" style="cursor:pointer;" ewd:figID="7">
<path style="&st23;" d="M2691.03,311.49h101.98v17h-101.98V311.49"/>
<title ewd:textID="18">Junction Connector</title>
</a>
</g>
</svg>
