﻿<?xml version="1.0" encoding="UTF-8"?>
<!DOCTYPE svg PUBLIC "-//W3C//DTD SVG 1.0//EN" "http://www.w3.org/TR/2001/REC-SVG-20010904/DTD/svg10.dtd"[
<!ENTITY ns_flows "http://ns.adobe.com/Flows/1.0/">
<!ENTITY ns_svg "http://www.w3.org/2000/svg">
<!ENTITY ns_xlink "http://www.w3.org/1999/xlink">
	<!ENTITY st0 "fill:none;stroke:#FB0F0C;stroke-width:5.1;stroke-linejoin:round;">
	<!ENTITY st1 "fill:none;stroke:#9A9999;stroke-width:5.1;stroke-linejoin:round;">
	<!ENTITY st2 "fill:none;stroke:#99280B;stroke-width:5.1;stroke-linejoin:round;">
		<!ENTITY st3 "fill:none;stroke:#000000;stroke-width:0.85;stroke-linecap:round;stroke-linejoin:round;stroke-dasharray:3 1.5;enable-background:new    ;">
	<!ENTITY st4 "fill:none;stroke:#000000;stroke-width:5.1;stroke-linejoin:round;">
	<!ENTITY st5 "fill:none;stroke:#000000;stroke-linecap:round;stroke-linejoin:round;">
	<!ENTITY st6 "stroke:#000000;stroke-width:0.28;stroke-linecap:round;stroke-linejoin:round;enable-background:new    ;">
	<!ENTITY st7 "enable-background:new    ;">
	<!ENTITY st8 "fill:none;stroke:#000000;stroke-width:0.5;">
		<!ENTITY st9 "fill:none;stroke:#000000;stroke-width:1.42;stroke-linecap:round;stroke-linejoin:round;enable-background:new    ;">
	<!ENTITY st10 "fill:none;stroke:#EE67AA;stroke-width:5.1;stroke-linejoin:round;">
	<!ENTITY st11 "fill:none;stroke:#199DBF;stroke-width:5.1;stroke-linejoin:round;">
	<!ENTITY st12 "fill:none;stroke:#FFFFFF;stroke-width:4.53;stroke-linejoin:round;">
		<!ENTITY st13 "fill:none;stroke:#000000;stroke-width:0.85;stroke-linecap:round;stroke-linejoin:round;enable-background:new    ;">
	<!ENTITY st14 "fill:none;stroke:#56107C;stroke-width:5.1;stroke-linejoin:round;">
	<!ENTITY st15 "font-size:6px;">
	<!ENTITY st16 "fill:none;stroke:#168638;stroke-width:5.1;stroke-linejoin:round;">
	<!ENTITY st17 "fill:none;stroke:#000000;stroke-width:1.13;stroke-linejoin:round;">
		<!ENTITY st18 "fill:none;stroke:#000000;stroke-width:1.13;stroke-linecap:round;stroke-linejoin:round;stroke-dasharray:3 1.5;enable-background:new    ;">
	<!ENTITY st19 "fill:none;stroke:#FFFFFF;stroke-width:4.53;stroke-linejoin:round;enable-background:new    ;">
	<!ENTITY st20 "fill:#FFFFFF;stroke:#000000;stroke-width:1.41;stroke-linecap:round;stroke-linejoin:round;">
	<!ENTITY st21 "fill:#CCCCCC;stroke:#CCCCCC;stroke-width:0.1;stroke-linecap:round;stroke-linejoin:round;">
	<!ENTITY st22 "fill:none;stroke:#000000;stroke-width:5.1;stroke-linejoin:round;enable-background:new    ;">
	<!ENTITY st23 "fill:none;stroke:#FB0F0C;stroke-width:5.1;stroke-linejoin:round;enable-background:new    ;">
	<!ENTITY st24 "font-family:'ArialMT';">
	<!ENTITY st25 "fill:#CFE6E7;stroke:#000000;stroke-width:1.133;stroke-linecap:round;stroke-linejoin:round;">
	<!ENTITY st26 "fill:none;stroke:#7EC57E;stroke-width:5.1;stroke-linejoin:round;">
<!ATTLIST svg
xmlns:ewd CDATA #FIXED "http://shcl.co.jp/ewd"
xmlns:a CDATA #FIXED "http://ns.adobe.com/AdobeSVGViewerExtensions/3.0/"
ewd:ver CDATA #IMPLIED
>
<!ATTLIST a
ewd:lineID CDATA #IMPLIED
ewd:groupID CDATA #IMPLIED
ewd:figtype CDATA #IMPLIED
ewd:code CDATA #IMPLIED
ewd:figID CDATA #IMPLIED
ewd:pinNo CDATA #IMPLIED
ewd:comment CDATA #IMPLIED >
<!ATTLIST g
ewd:lineID CDATA #IMPLIED
ewd:groupID CDATA #IMPLIED
ewd:figtype CDATA #IMPLIED
ewd:code CDATA #IMPLIED
ewd:figID CDATA #IMPLIED
ewd:pinNo CDATA #IMPLIED
ewd:comment CDATA #IMPLIED >
<!ATTLIST text
ewd:textID CDATA #IMPLIED >
<!ATTLIST title
ewd:textID CDATA #IMPLIED >
]>
<svg 
viewBox='0 0 9287.33 726.94'
height='726.94'
width='9287.33'
xml:space="preserve"
xmlns="&ns_svg;"
xmlns:ewd="http://shcl.co.jp/ewd"
xmlns:xlink="&ns_xlink;" ewd:ver="L2.1">
<g ewd:code="GH1" ewd:figID="638" ewd:figtype="w2w" ewd:pinNo="19">
<path style="&st9;" d="M9112.15,505.72h8.5"/>
<path style="&st9;" d="M9116.39,496.66l4.25,4.25l4.25-4.25"/>
<path style="&st9;" d="M9124.89,500.06l-4.25,4.24l-4.25-4.24"/>
<text transform="matrix(1 0 0 1 9102.4805 511.936)" style="&st7;"><tspan x="0" y="0" style="&st24; &st15;">19</tspan></text>
</g>
<g ewd:code="GH1" ewd:figID="639" ewd:figtype="w2w" ewd:pinNo="38">
<path style="&st9;" d="M9239.63,505.72h8.5"/>
<path style="&st9;" d="M9252.37,500.06l-4.25,4.24l-4.25-4.24"/>
<path style="&st9;" d="M9243.87,496.66l4.25,4.25l4.25-4.25"/>
<text transform="matrix(1 0 0 1 9229.9609 511.936)" style="&st7;"><tspan x="0" y="0" style="&st24; &st15;">38</tspan></text>
</g>
<g ewd:code="H1" ewd:figID="65" ewd:figtype="conn">
<path style="&st9;" d="M9001.66,335.75h50.99v50.99h-50.99V335.75"/>
<text transform="matrix(0 -1 1 0 9060.2734 389.2661)" style="&st7;"><tspan x="0" y="0" style="&st24; &st15;">H1</tspan></text>
<text ewd:textID="76" transform="matrix(0 -1 1 0 9067.3848 389.2661)" style="&st7; &st24; &st15;">Radio Receiver Assembly</text>
<text transform="matrix(1 0 0 1 9020.373 332.0566)" style="&st7;"><tspan x="0" y="0" style="&st24; &st15;">3</tspan></text>
<text transform="matrix(1 0 0 1 9017.1934 394.9263)" style="&st7;"><tspan x="0" y="0" style="&st24; &st15;">17</tspan></text>
<text transform="matrix(1 0 0 1 9020.2051 343.3765)" style="&st7;"><tspan x="0" y="0" style="&st24; &st15;">ILL+</tspan></text>
<text transform="matrix(1 0 0 1 9020.2051 383.0366)" style="&st7;"><tspan x="0" y="0" style="&st24; &st15;">ILL-</tspan></text>
</g>
<g ewd:code="H4" ewd:figID="66" ewd:figtype="conn">
<path style="&st9;" d="M9103.65,293.26v50.99h101.98v-50.99H9103.65"/>
<path style="&st9;" d="M9125.18,288.72c0-2.5-2.03-4.53-4.53-4.53"/>
<path style="&st9;" d="M9120.65,284.19c-2.51,0-4.54,2.03-4.54,4.53"/>
<path style="&st9;" d="M9116.11,288.72c0,2.51,2.03,4.54,4.54,4.54"/>
<path style="&st9;" d="M9120.65,293.26c2.5,0,4.53-2.03,4.53-4.54"/>
<path style="&st9;" d="M9125.18,348.78c0-2.5-2.03-4.53-4.53-4.53"/>
<path style="&st9;" d="M9120.65,344.25c-2.51,0-4.54,2.03-4.54,4.53"/>
<path style="&st9;" d="M9116.11,348.78c0,2.5,2.03,4.53,4.54,4.53"/>
<path style="&st9;" d="M9120.65,353.31c2.5,0,4.53-2.03,4.53-4.53"/>
<path style="&st9;" d="M9193.17,348.78c0-2.5-2.03-4.53-4.54-4.53"/>
<path style="&st9;" d="M9188.63,344.25c-2.5,0-4.53,2.03-4.53,4.53"/>
<path style="&st9;" d="M9184.1,348.78c0,2.5,2.03,4.53,4.53,4.53"/>
<path style="&st9;" d="M9188.63,353.31c2.51,0,4.54-2.03,4.54-4.53"/>
<text transform="matrix(1 0 0 1 9181.6836 340.5464)" style="&st7;"><tspan x="0" y="0" style="&st24; &st15;">ILL-</tspan></text>
<text transform="matrix(0 -1 1 0 9213.2441 346.7764)" style="&st7;"><tspan x="0" y="0" style="&st24; &st15;">H4(C)</tspan></text>
<text ewd:textID="44" transform="matrix(0 -1 1 0 9220.3535 346.7764)" style="&st7; &st24; &st15;">Display &amp; Navigation Module Display</text>
<text transform="matrix(1 0 0 1 9113.6934 300.8867)" style="&st7;"><tspan x="0" y="0" style="&st24; &st15;">ILL+</tspan></text>
<text transform="matrix(1 0 0 1 9112.2051 340.5464)" style="&st7;"><tspan x="0" y="0" style="&st24; &st15;">SWG</tspan></text>
<text transform="matrix(1 0 0 1 9106.5938 290.6865)" style="&st7;"><tspan x="0" y="0" style="&st24; &st15;">12</tspan></text>
<text transform="matrix(1 0 0 1 9118.1738 290.6865)" style="&st7;"><tspan x="0" y="0" style="&st24; &st15;">C</tspan></text>
<text transform="matrix(1 0 0 1 9105.8145 350.7466)" style="&st7;"><tspan x="0" y="0" style="&st24; &st15;">23</tspan></text>
<text transform="matrix(1 0 0 1 9118.1738 350.7466)" style="&st7;"><tspan x="0" y="0" style="&st24; &st15;">C</tspan></text>
<text transform="matrix(1 0 0 1 9175.3652 350.7466)" style="&st7;"><tspan x="0" y="0" style="&st24; &st15;">11</tspan></text>
<text transform="matrix(1 0 0 1 9186.1641 350.7466)" style="&st7;"><tspan x="0" y="0" style="&st24; &st15;">C</tspan></text>
</g>
<g ewd:code="H24,H25" ewd:figID="98" ewd:figtype="conn">
<path style="&st18;" d="M9180.13,420.74h76.49"/>
<path style="&st18;" d="M9180.13,403.74h76.49"/>
<path style="&st9;" d="M9180.13,395.24h76.49v33.99h-76.49V395.24"/>
<path style="&st13;" d="M9188.63,395.24v33.99"/>
<path style="&st13;" d="M9187.44,411.23l-0.27,0.47l-0.1,0.54l0.1,0.53l0.27,0.47l0.41,0.35l0.51,0.18h0.54l0.51-0.18l0.41-0.35l0.28-0.47l0.09-0.53l-0.09-0.54l-0.28-0.47l-0.41-0.34l-0.51-0.19h-0.54l-0.51,0.19L9187.44,411.23l0.39,0.72v0.58l0.38,0.44l0.57,0.1l0.5-0.29l0.2-0.54l-0.2-0.55l-0.5-0.29l-0.57,0.1l0.42,0.74"/>
<path style="&st13;" d="M9188.63,412.24h59.49v16.99"/>
<path style="&st9;" d="M9193.17,433.77c0-2.51-2.03-4.54-4.54-4.54"/>
<path style="&st9;" d="M9188.63,429.23c-2.5,0-4.53,2.03-4.53,4.54"/>
<path style="&st9;" d="M9184.1,433.77c0,2.5,2.03,4.53,4.53,4.53"/>
<path style="&st9;" d="M9188.63,438.3c2.51,0,4.54-2.03,4.54-4.53"/>
<path style="&st9;" d="M9252.66,433.77c0-2.51-2.03-4.54-4.53-4.54"/>
<path style="&st9;" d="M9248.13,429.23c-2.51,0-4.54,2.03-4.54,4.54"/>
<path style="&st9;" d="M9243.59,433.77c0,2.5,2.03,4.53,4.54,4.53"/>
<path style="&st9;" d="M9248.13,438.3c2.5,0,4.53-2.03,4.53-4.53"/>
<path style="&st9;" d="M9193.17,390.71c0-2.51-2.03-4.54-4.54-4.54"/>
<path style="&st9;" d="M9188.63,386.17c-2.5,0-4.53,2.03-4.53,4.54"/>
<path style="&st9;" d="M9184.1,390.71c0,2.5,2.03,4.53,4.53,4.53"/>
<path style="&st9;" d="M9188.63,395.24c2.51,0,4.54-2.03,4.54-4.53"/>
<text transform="matrix(1 0 0 1 9177.7637 435.7368)" style="&st7;"><tspan x="0" y="0" style="&st24; &st15;">9</tspan></text>
<text transform="matrix(1 0 0 1 9186.3027 435.7368)" style="&st7;"><tspan x="0" y="0" style="&st24; &st15;">A</tspan></text>
<text transform="matrix(1 0 0 1 9237.2539 435.7368)" style="&st7;"><tspan x="0" y="0" style="&st24; &st15;">8</tspan></text>
<text transform="matrix(1 0 0 1 9245.7949 435.7368)" style="&st7;"><tspan x="0" y="0" style="&st24; &st15;">A</tspan></text>
<text transform="matrix(1 0 0 1 9186.3027 392.6763)" style="&st7;"><tspan x="0" y="0" style="&st24; &st15;">B</tspan></text>
<text transform="matrix(1 0 0 1 9177.7637 392.6763)" style="&st7;"><tspan x="0" y="0" style="&st24; &st15;">4</tspan></text>
<text ewd:textID="59" transform="matrix(0 -1 1 0 9271.3438 431.7563)" style="&st7; &st24; &st15;">Junction Connector</text>
<text transform="matrix(0 -1 1 0 9264.2324 431.7563)" style="&st7;"><tspan x="0" y="0" style="&st24; &st15;">H24(A),H25(B)</tspan></text>
</g>
<text transform="matrix(1 0 0 1 9146.4824 487.856)" style="&st7;"><tspan x="0" y="0" style="&st24; &st15;">(*34)</tspan></text>
<text transform="matrix(1 0 0 1 9146.9434 476.5259)" style="&st7;"><tspan x="0" y="0" style="&st24; &st15;">W-B</tspan></text>
<text ewd:textID="22" transform="matrix(1 0 0 1 9016.1426 57.2666)" style="&st7; &st24; &st15;">*30 :w/ Cool Box</text>
<text ewd:textID="24" transform="matrix(1 0 0 1 9016.1426 74.2568)" style="&st7; &st24; &st15;">*33 :6 Speaker w/o Navigation System</text>
<text ewd:textID="23" transform="matrix(1 0 0 1 9016.1426 65.7568)" style="&st7; &st24; &st15;">*32 :w/ Center Differential Lock</text>
<text ewd:textID="14" transform="matrix(1 0 0 1 9016.1426 48.7666)" style="&st7; &st24; &st15;">*21 :w/ Navigation System</text>
<text transform="matrix(0 -1 1 0 9244.4336 547.4165)" style="&st7;"><tspan x="0" y="0" style="&st24; &st15;">W-B</tspan></text>
<text transform="matrix(0 -1 1 0 9184.9434 377.436)" style="&st7;"><tspan x="0" y="0" style="&st24; &st15;">W-B</tspan></text>
<text transform="matrix(0 -1 1 0 9244.4336 479.4263)" style="&st7;"><tspan x="0" y="0" style="&st24; &st15;">W-B</tspan></text>
<text transform="matrix(0 -1 1 0 9196.2734 377.5063)" style="&st7;"><tspan x="0" y="0" style="&st24; &st15;">(*21)</tspan></text>
<text transform="matrix(1 0 0 1 9016.1426 40.2666)" style="&st7;"><tspan x="0" y="0" style="&st24; &st15;">* 3 :1KD-FTV</tspan></text>
<text transform="matrix(0 -1 1 0 9128.2832 275.5264)" style="&st7;"><tspan x="0" y="0" style="&st24; &st15;">(*21)</tspan></text>
<text transform="matrix(0 -1 1 0 9116.9551 270.5166)" style="&st7;"><tspan x="0" y="0" style="&st24; &st15;">G</tspan></text>
<text transform="matrix(0 -1 1 0 9128.2832 547.4868)" style="&st7;"><tspan x="0" y="0" style="&st24; &st15;">(*21)</tspan></text>
<text transform="matrix(0 -1 1 0 9116.9551 541.686)" style="&st7;"><tspan x="0" y="0" style="&st24; &st15;">L</tspan></text>
<text transform="matrix(0 -1 1 0 9128.2832 377.5161)" style="&st7;"><tspan x="0" y="0" style="&st24; &st15;">(*21)</tspan></text>
<text transform="matrix(0 -1 1 0 9116.9551 371.7173)" style="&st7;"><tspan x="0" y="0" style="&st24; &st15;">L</tspan></text>
<text transform="matrix(0 -1 1 0 9034.8027 420.0063)" style="&st7;"><tspan x="0" y="0" style="&st24; &st15;">(*21)</tspan></text>
<text transform="matrix(0 -1 1 0 9023.4746 419.936)" style="&st7;"><tspan x="0" y="0" style="&st24; &st15;">W-B</tspan></text>
<text transform="matrix(0 -1 1 0 9023.4746 270.5166)" style="&st7;"><tspan x="0" y="0" style="&st24; &st15;">G</tspan></text>
<text transform="matrix(0 -1 1 0 9034.8027 275.5264)" style="&st7;"><tspan x="0" y="0" style="&st24; &st15;">(*21)</tspan></text>
<text ewd:textID="25" transform="matrix(1 0 0 1 9016.1426 82.7568)" style="&st7; &st24; &st15;">*34 :9 Speaker w/o Navigation System</text>
</svg>
