﻿<?xml version="1.0" encoding="UTF-8"?>
<!DOCTYPE svg PUBLIC "-//W3C//DTD SVG 1.0//EN" "http://www.w3.org/TR/2001/REC-SVG-20010904/DTD/svg10.dtd"[
<!ENTITY ns_flows "http://ns.adobe.com/Flows/1.0/">
<!ENTITY ns_svg "http://www.w3.org/2000/svg">
<!ENTITY ns_xlink "http://www.w3.org/1999/xlink">
	<!ENTITY st0 "fill:none;stroke:#FB0F0C;stroke-width:5.1;stroke-linejoin:round;">
		<!ENTITY st1 "fill:none;stroke:#000000;stroke-width:0.85;stroke-linecap:round;stroke-linejoin:round;stroke-dasharray:3 1.5;enable-background:new    ;">
	<!ENTITY st2 "fill:none;stroke:#000000;stroke-width:5.1;stroke-linejoin:round;">
	<!ENTITY st3 "fill:none;stroke:#000000;stroke-linecap:round;stroke-linejoin:round;">
	<!ENTITY st4 "stroke:#000000;stroke-width:0.28;stroke-linecap:round;stroke-linejoin:round;enable-background:new    ;">
	<!ENTITY st5 "enable-background:new    ;">
		<!ENTITY st6 "fill:none;stroke:#000000;stroke-width:1.42;stroke-linecap:round;stroke-linejoin:round;enable-background:new    ;">
	<!ENTITY st7 "fill:none;stroke:#199DBF;stroke-width:5.1;stroke-linejoin:round;">
	<!ENTITY st8 "opacity:0.5;fill:none;stroke:#34ACCE;stroke-linejoin:round;stroke-dasharray:6;">
	<!ENTITY st9 "fill:none;stroke:#FFFFFF;stroke-width:4.53;stroke-linejoin:round;">
		<!ENTITY st10 "fill:none;stroke:#000000;stroke-width:0.85;stroke-linecap:round;stroke-linejoin:round;enable-background:new    ;">
	<!ENTITY st11 "fill:none;stroke:#56107C;stroke-width:5.1;stroke-linejoin:round;">
	<!ENTITY st12 "font-size:6px;">
	<!ENTITY st13 "fill:none;stroke:#000000;stroke-width:1.13;stroke-linejoin:round;">
	<!ENTITY st14 "fill:#FFFFFF;stroke:#000000;stroke-width:1.41;stroke-linecap:round;stroke-linejoin:round;">
	<!ENTITY st15 "fill:none;">
	<!ENTITY st16 "fill:none;stroke:#3E65AC;stroke-width:3;">
	<!ENTITY st17 "fill:#CCCCCC;stroke:#CCCCCC;stroke-width:0.1;stroke-linecap:round;stroke-linejoin:round;">
	<!ENTITY st18 "font-family:'ArialMT';">
	<!ENTITY st19 "font-size:5.8392px;">
	<!ENTITY st20 "letter-spacing:0.05;">
	<!ENTITY st21 "opacity:0.5;fill:none;stroke:#34ACCE;stroke-linejoin:round;">
	<!ENTITY st22 "fill:#CFE6E7;stroke:#000000;stroke-width:1.133;stroke-linecap:round;stroke-linejoin:round;">
	<!ENTITY st23 "fill:none;stroke:#7EC57E;stroke-width:5.1;stroke-linejoin:round;">
<!ATTLIST svg
xmlns:ewd CDATA #FIXED "http://shcl.co.jp/ewd"
xmlns:a CDATA #FIXED "http://ns.adobe.com/AdobeSVGViewerExtensions/3.0/"
ewd:ver CDATA #IMPLIED
>
<!ATTLIST a
ewd:lineID CDATA #IMPLIED
ewd:groupID CDATA #IMPLIED
ewd:figtype CDATA #IMPLIED
ewd:code CDATA #IMPLIED
ewd:figID CDATA #IMPLIED
ewd:pinNo CDATA #IMPLIED
ewd:comment CDATA #IMPLIED >
<!ATTLIST g
ewd:lineID CDATA #IMPLIED
ewd:groupID CDATA #IMPLIED
ewd:figtype CDATA #IMPLIED
ewd:code CDATA #IMPLIED
ewd:figID CDATA #IMPLIED
ewd:pinNo CDATA #IMPLIED
ewd:comment CDATA #IMPLIED >
<!ATTLIST text
ewd:textID CDATA #IMPLIED >
<!ATTLIST title
ewd:textID CDATA #IMPLIED >
]>
<svg 
viewBox='0 0 1558.23 729.44'
height='729.44'
width='1558.23'
xml:space="preserve"
xmlns="&ns_svg;"
xmlns:ewd="http://shcl.co.jp/ewd"
xmlns:xlink="&ns_xlink;" ewd:ver="L2.1">
<g ewd:code="GA1" ewd:figID="612" ewd:figtype="w2w" ewd:pinNo="47">
<path style="&st6;" d="M1229.02,464.82l-4.25,4.25l-4.25-4.25"/>
<path style="&st6;" d="M1220.52,461.42l4.25,4.25l4.25-4.25"/>
<text transform="matrix(1 0 0 1 1234.6816 476.6851)" style="&st5;"><tspan x="0" y="0" style="&st18; &st12;">(LHD)</tspan></text>
<text transform="matrix(1 0 0 1 1206.5977 476.6851)" style="&st5;"><tspan x="0" y="0" style="&st18; &st12;">47</tspan></text>
</g>
<g ewd:code="GA6" ewd:figID="613" ewd:figtype="w2w" ewd:pinNo="57">
<text transform="matrix(1 0 0 1 1234.6816 485.1851)" style="&st5;"><tspan x="0" y="0" style="&st18; &st12;">(RHD)</tspan></text>
<text transform="matrix(1 0 0 1 1206.5977 485.1851)" style="&st5;"><tspan x="0" y="0" style="&st18; &st12;">57</tspan></text>
</g>
<g ewd:code="3JB" ewd:figID="301" ewd:figtype="jb">
<path style="&st6;" d="M1226.9,599.94h-4.25"/>
<path style="&st6;" d="M1226.9,591.44h-4.25"/>
<path style="&st6;" d="M1226.9,557.45h-4.25"/>
<path style="&st6;" d="M1226.9,548.95h-4.25"/>
<path style="&st10;" d="M1224.77,591.44v-33.99"/>
<path style="&st4;" d="M1224.77,586.55l-2.83-2.84v4.25l2.83,2.84l2.83-2.84v-4.25L1224.77,586.55"/>
<path style="&st4;" d="M1224.77,562.34l2.83,2.84v-4.25l-2.83-2.84l-2.83,2.84v4.25L1224.77,562.34"/>
<path style="&st6;" d="M1231.15,595.69c0-2.35-1.91-4.25-4.25-4.25"/>
<path style="&st6;" d="M1226.9,599.94c2.34,0,4.25-1.9,4.25-4.25"/>
<path style="&st6;" d="M1218.4,595.69c0,2.35,1.9,4.25,4.25,4.25"/>
<path style="&st6;" d="M1222.65,591.44c-2.35,0-4.25,1.9-4.25,4.25"/>
<path style="&st6;" d="M1231.15,553.2c0-2.35-1.91-4.25-4.25-4.25"/>
<path style="&st6;" d="M1226.9,557.45c2.34,0,4.25-1.9,4.25-4.25"/>
<path style="&st6;" d="M1218.4,553.2c0,2.35,1.9,4.25,4.25,4.25"/>
<path style="&st6;" d="M1222.65,548.95c-2.35,0-4.25,1.9-4.25,4.25"/>
<text transform="matrix(1 0 0 1 1208.1309 597.6616)" style="&st5;"><tspan x="0" y="0" style="&st18; &st12;">96</tspan></text>
<text transform="matrix(1 0 0 1 1220.4609 597.6616)" style="&st5;"><tspan x="0" y="0" style="&st18; &st12;">3A</tspan></text>
<text transform="matrix(1 0 0 1 1208.9004 555.1714)" style="&st5;"><tspan x="0" y="0" style="&st18; &st12;">47</tspan></text>
<text transform="matrix(1 0 0 1 1220.4609 555.1714)" style="&st5;"><tspan x="0" y="0" style="&st18; &st12;">3A</tspan></text>
</g>
<g ewd:code="G3" ewd:figID="204" ewd:figtype="gp">
<path style="&st10;" d="M1220.52,708.1h8.5"/>
<path style="&st10;" d="M1224.77,701.02v4.25"/>
<path style="&st10;" d="M1216.27,705.27h16.99"/>
<path style="&st10;" d="M1221.93,710.94h5.67"/>
<path style="&st10;" d="M1223.35,713.77h2.83"/>
</g>
<g ewd:code="G104" ewd:figID="17" ewd:figtype="conn">
<path style="&st10;" d="M1224.77,659.94v25.49"/>
<path style="&st6;" d="M1216.27,659.94v16.99h16.99v-16.99H1216.27"/>
<text transform="matrix(1 0 0 1 1217.9717 656.2554)" style="&st5;"><tspan x="0" y="0" style="&st18; &st12;">3</tspan></text>
<text transform="matrix(1 0 0 1 1236.4121 663.3042)" style="&st5;"><tspan x="0" y="0" style="&st18; &st12;">G104</tspan></text>
<text ewd:textID="10" transform="matrix(1 0 0 1 1236.4121 670.4038)" style="&st5; &st18; &st12;">Junction <tspan x="0" y="7">Connector</tspan></text>
</g>
<g ewd:code="A85" ewd:figID="18" ewd:figtype="conn">
<path style="&st6;" d="M1078.81,430.48v86.72h114.08v-86.72H1078.81"/>
<path style="&st10;" d="M1103.97,450.31v7.09"/>
<path style="&st10;" d="M1092.87,452.85l-0.28,0.47l-0.09,0.54l0.09,0.53l0.28,0.47l0.41,0.34l0.51,0.19h0.54l0.51-0.19l0.41-0.34l0.27-0.47l0.1-0.53l-0.1-0.54l-0.27-0.47l-0.41-0.34l-0.51-0.19h-0.54l-0.51,0.19L1092.87,452.85l0.39,0.71v0.59l0.37,0.44l0.58,0.1l0.5-0.29l0.2-0.54l-0.2-0.55l-0.5-0.29l-0.58,0.1l0.43,0.74"/>
<path style="&st10;" d="M1118.71,430.48v41.78"/>
<path style="&st10;" d="M1109.64,450.31v7.09"/>
<path style="&st10;" d="M1127.78,450.31v7.09"/>
<path style="&st10;" d="M1133.45,450.31v7.09"/>
<path style="&st6;" d="M1103.97,472.25h29.48v11.35h-29.48V472.25z"/>
<path style="&st10;" d="M1127.78,453.86h-18.14"/>
<path style="&st10;" d="M1143.36,450.31v7.09"/>
<path style="&st10;" d="M1133.45,453.86h9.91"/>
<path style="&st10;" d="M1149.03,450.31v7.09"/>
<path style="&st10;" d="M1094.06,430.48v47.45h9.91"/>
<path style="&st10;" d="M1178.03,472.25h-8.5"/>
<path style="&st4;" d="M1173.78,472.25l-5.67,8.5h11.34L1173.78,472.25"/>
<path style="&st10;" d="M1149.03,453.86h9.91v51.99h14.84v-43.3l-2.83-1.41l5.66-2.84l-5.66-2.83l5.66-2.83l-5.66-2.84l5.66-2.83l-2.83-1.41v-15.08"/>
<path style="&st10;" d="M1094.06,453.86h9.91"/>
<text transform="matrix(1 0 0 1 1086.7852 438.6772)" style="&st5;"><tspan x="0" y="0" style="&st18; &st12;">L</tspan></text>
<text transform="matrix(1 0 0 1 1087.0518 426.7866)" style="&st5;"><tspan x="0" y="0" style="&st18; &st12;">2</tspan></text>
<text transform="matrix(1 0 0 1.1364 1090.0322 524.8052)" style="&st5;"><tspan x="0" y="0" style="&st18; &st19; &st20;">A85</tspan></text>
<text transform="matrix(1 0 0 1 1176.0049 438.6772)" style="&st5;"><tspan x="0" y="0" style="&st18; &st12;">GND</tspan></text>
<text transform="matrix(1 0 0 1 1111.4365 438.6772)" style="&st5;"><tspan x="0" y="0" style="&st18; &st12;">B</tspan></text>
<text transform="matrix(1 0 0 1 1111.7031 426.7866)" style="&st5;"><tspan x="0" y="0" style="&st18; &st12;">1</tspan></text>
<text transform="matrix(1 0 0 1 1166.7715 426.7866)" style="&st5;"><tspan x="0" y="0" style="&st18; &st12;">3</tspan></text>
<text ewd:textID="14" transform="matrix(1 0 0 1 1090.0322 531.9165)" style="&st5; &st18; &st12;">Stop Light Switch Assembly</text>
</g>
<path style="&st1;" d="M725.38,163.63h21.25"/>
<path style="&st1;" d="M725.38,154.56h17"/>
<path style="&st1;" d="M810.36,154.56h21.25"/>
<path style="&st1;" d="M767.87,154.56h17"/>
<path style="&st15;" d="M493.94,44.35h1"/>
<text transform="matrix(1 0 0 1 1012.5098 341.4966)" style="&st5;"><tspan x="0" y="0" style="&st18; &st12;">V</tspan></text>
<text transform="matrix(1 0 0 1 1010.5098 354.4966)" style="&st5;"><tspan x="0" y="0" style="&st18; &st12;">(*8)</tspan></text>
<text transform="matrix(1 0 0 1 1063.6553 341.4966)" style="&st5;"><tspan x="0" y="0" style="&st18; &st12;">V</tspan></text>
<text transform="matrix(1 0 0 1 1061.6553 354.4966)" style="&st5;"><tspan x="0" y="0" style="&st18; &st12;">(*8)</tspan></text>
<text transform="matrix(1 0 0 1 1012.5098 210.6333)" style="&st5;"><tspan x="0" y="0" style="&st18; &st12;">R</tspan></text>
<text transform="matrix(1 0 0 1 1010.5098 223.6333)" style="&st5;"><tspan x="0" y="0" style="&st18; &st12;">(*8)</tspan></text>
<text transform="matrix(1 0 0 1 1063.6553 210.6333)" style="&st5;"><tspan x="0" y="0" style="&st18; &st12;">R</tspan></text>
<text transform="matrix(1 0 0 1 1061.6553 223.6333)" style="&st5;"><tspan x="0" y="0" style="&st18; &st12;">(*8)</tspan></text>
<text transform="matrix(0 -1 1 0 1221.0811 436.9487)" style="&st5;"><tspan x="0" y="0" style="&st18; &st12;">W-B</tspan></text>
<text transform="matrix(0 -1 1 0 1232.4111 437.4282)" style="&st5;"><tspan x="0" y="0" style="&st18; &st12;">(*8)</tspan></text>
<text transform="matrix(0 -1 1 0 1221.0811 522.9487)" style="&st5;"><tspan x="0" y="0" style="&st18; &st12;">W-B</tspan></text>
<text transform="matrix(0 -1 1 0 1232.4111 523.4282)" style="&st5;"><tspan x="0" y="0" style="&st18; &st12;">(*8)</tspan></text>
<text transform="matrix(0 -1 1 0 1221.0811 633.9487)" style="&st5;"><tspan x="0" y="0" style="&st18; &st12;">W-B</tspan></text>
<text transform="matrix(0 -1 1 0 1232.4111 634.4282)" style="&st5;"><tspan x="0" y="0" style="&st18; &st12;">(*8)</tspan></text>
<text ewd:textID="6" transform="matrix(1 0 0 1 1092.3701 678.894)" style="&st5; &st18; &st12;">* 8 :From Aug. 2013 Production</text>
</svg>
