﻿<?xml version="1.0" encoding="UTF-8"?>
<!DOCTYPE svg PUBLIC "-//W3C//DTD SVG 1.0//EN" "http://www.w3.org/TR/2001/REC-SVG-20010904/DTD/svg10.dtd"[
<!ENTITY ns_flows "http://ns.adobe.com/Flows/1.0/">
<!ENTITY ns_svg "http://www.w3.org/2000/svg">
<!ENTITY ns_xlink "http://www.w3.org/1999/xlink">
	<!ENTITY st0 "fill:none;stroke:#F8E616;stroke-width:5.1;stroke-linejoin:round;">
	<!ENTITY st1 "fill:none;stroke:#FB0F0C;stroke-width:5.1;stroke-linejoin:round;">
	<!ENTITY st2 "fill:none;stroke:#9A9999;stroke-width:5.1;stroke-linejoin:round;">
	<!ENTITY st3 "fill:none;stroke:#99280B;stroke-width:5.1;stroke-linejoin:round;">
		<!ENTITY st4 "fill:none;stroke:#000000;stroke-width:0.85;stroke-linecap:round;stroke-linejoin:round;stroke-dasharray:3 1.5;enable-background:new    ;">
	<!ENTITY st5 "fill:none;stroke:#000000;stroke-width:5.1;stroke-linejoin:round;">
	<!ENTITY st6 "fill:none;stroke:#199DBF;stroke-width:1.13;stroke-linejoin:round;">
	<!ENTITY st7 "fill:none;stroke:#000000;stroke-linecap:round;stroke-linejoin:round;">
	<!ENTITY st8 "stroke:#000000;stroke-width:0.28;stroke-linecap:round;stroke-linejoin:round;enable-background:new    ;">
	<!ENTITY st9 "enable-background:new    ;">
		<!ENTITY st10 "fill:none;stroke:#000000;stroke-width:1.42;stroke-linecap:round;stroke-linejoin:round;enable-background:new    ;">
	<!ENTITY st11 "fill:none;stroke:#EE67AA;stroke-width:5.1;stroke-linejoin:round;">
	<!ENTITY st12 "fill:none;stroke:#199DBF;stroke-width:5.1;stroke-linejoin:round;">
	<!ENTITY st13 "opacity:0.5;fill:none;stroke:#34ACCE;stroke-linejoin:round;stroke-dasharray:6;">
	<!ENTITY st14 "fill:none;stroke:#FFFFFF;stroke-width:4.53;stroke-linejoin:round;">
		<!ENTITY st15 "fill:none;stroke:#000000;stroke-width:0.85;stroke-linecap:round;stroke-linejoin:round;enable-background:new    ;">
	<!ENTITY st16 "fill:none;stroke:#56107C;stroke-width:5.1;stroke-linejoin:round;">
	<!ENTITY st17 "font-size:6px;">
	<!ENTITY st18 "fill:none;stroke:#FFFFFF;stroke-width:2.27;stroke-linejoin:round;">
	<!ENTITY st19 "fill:none;stroke:#FB0F0C;stroke-width:1.13;stroke-linejoin:round;">
	<!ENTITY st20 "fill:none;stroke:#168638;stroke-width:5.1;stroke-linejoin:round;">
	<!ENTITY st21 "fill:none;stroke:#000000;stroke-width:1.13;stroke-linejoin:round;">
		<!ENTITY st22 "fill:none;stroke:#000000;stroke-width:1.13;stroke-linecap:round;stroke-linejoin:round;stroke-dasharray:3 1.5;enable-background:new    ;">
	<!ENTITY st23 "fill:#FFFFFF;stroke:#000000;stroke-width:1.41;stroke-linecap:round;stroke-linejoin:round;">
	<!ENTITY st24 "fill:none;stroke:#3E65AC;stroke-width:3;">
	<!ENTITY st25 "fill:#CCCCCC;stroke:#CCCCCC;stroke-width:0.1;stroke-linecap:round;stroke-linejoin:round;">
	<!ENTITY st26 "fill:none;stroke:#000000;stroke-width:5.1;stroke-linejoin:round;enable-background:new    ;">
	<!ENTITY st27 "font-family:'ArialMT';">
	<!ENTITY st28 "opacity:0.5;fill:none;stroke:#34ACCE;stroke-linejoin:round;">
	<!ENTITY st29 "fill:#CFE6E7;stroke:#000000;stroke-width:1.133;stroke-linecap:round;stroke-linejoin:round;">
	<!ENTITY st30 "fill:none;stroke:#99D5E0;stroke-width:5.1;stroke-linejoin:round;">
	<!ENTITY st31 "fill:none;stroke:#FFFFFF;stroke-width:1.13;stroke-linejoin:round;enable-background:new    ;">
	<!ENTITY st32 "fill:none;stroke:#7EC57E;stroke-width:5.1;stroke-linejoin:round;">
<!ATTLIST svg
xmlns:ewd CDATA #FIXED "http://shcl.co.jp/ewd"
xmlns:a CDATA #FIXED "http://ns.adobe.com/AdobeSVGViewerExtensions/3.0/"
ewd:ver CDATA #IMPLIED
>
<!ATTLIST a
ewd:lineID CDATA #IMPLIED
ewd:groupID CDATA #IMPLIED
ewd:figtype CDATA #IMPLIED
ewd:code CDATA #IMPLIED
ewd:figID CDATA #IMPLIED
ewd:pinNo CDATA #IMPLIED
ewd:comment CDATA #IMPLIED >
<!ATTLIST g
ewd:lineID CDATA #IMPLIED
ewd:groupID CDATA #IMPLIED
ewd:figtype CDATA #IMPLIED
ewd:code CDATA #IMPLIED
ewd:figID CDATA #IMPLIED
ewd:pinNo CDATA #IMPLIED
ewd:comment CDATA #IMPLIED >
<!ATTLIST text
ewd:textID CDATA #IMPLIED >
<!ATTLIST title
ewd:textID CDATA #IMPLIED >
]>
<svg 
viewBox='0 0 6223.92 729.44'
height='729.44'
width='6223.92'
xml:space="preserve"
xmlns="&ns_svg;"
xmlns:ewd="http://shcl.co.jp/ewd"
xmlns:xlink="&ns_xlink;" ewd:ver="L2.1">
<g ewd:code="CG2" ewd:figID="633" ewd:figtype="w2w" ewd:pinNo="20">
<path style="&st10;" d="M2477.26,464.48h8.5"/>
<path style="&st10;" d="M2481.51,455.41l4.24,4.25l4.25-4.25"/>
<path style="&st10;" d="M2490,458.81l-4.25,4.25l-4.24-4.25"/>
<text transform="matrix(1 0 0 1 2467.5894 470.6958)" style="&st9;"><tspan x="0" y="0" style="&st27; &st17;">20</tspan></text>
</g>
<g ewd:code="GA2" ewd:figID="632" ewd:figtype="w2w" ewd:pinNo="18">
<path style="&st10;" d="M2307.29,481.48h-8.5"/>
<path style="&st10;" d="M2303.03,487.14l-4.24-4.25l-4.25,4.25"/>
<path style="&st10;" d="M2303.03,490.54l-4.24-4.25l-4.25,4.25"/>
<text transform="matrix(1 0 0 1 2280.6196 479.1958)" style="&st9;"><tspan x="0" y="0" style="&st27; &st17;">18</tspan></text>
</g>
<g ewd:code="GA2" ewd:figID="631" ewd:figtype="w2w" ewd:pinNo="19">
<path style="&st10;" d="M2239.3,481.48h-8.5"/>
<path style="&st10;" d="M2235.05,487.14l-4.25-4.25l-4.25,4.25"/>
<path style="&st10;" d="M2235.05,490.54l-4.25-4.25l-4.25,4.25"/>
<text transform="matrix(1 0 0 1 2212.6294 479.1958)" style="&st9;"><tspan x="0" y="0" style="&st27; &st17;">19</tspan></text>
</g>
<g ewd:code="CG1" ewd:figID="630" ewd:figtype="w2w" ewd:pinNo="6">
<path style="&st10;" d="M2154.31,472.98h8.5"/>
<path style="&st10;" d="M2158.56,463.91l4.25,4.25l4.25-4.25"/>
<path style="&st10;" d="M2167.06,467.31l-4.25,4.25l-4.25-4.25"/>
<text transform="matrix(1 0 0 1 2147.9761 479.1958)" style="&st9;"><tspan x="0" y="0" style="&st27; &st17;">6</tspan></text>
</g>
<g ewd:code="GQ1" ewd:figID="629" ewd:figtype="w2w" ewd:pinNo="1">
<path style="&st10;" d="M2128.82,583.46h-8.5"/>
<path style="&st10;" d="M2124.56,592.52l-4.24-4.25l-4.25,4.25"/>
<path style="&st10;" d="M2124.56,589.12l-4.24-4.25l-4.25,4.25"/>
<text transform="matrix(1 0 0 1 2105.4868 581.1763)" style="&st9;"><tspan x="0" y="0" style="&st27; &st17;">1</tspan></text>
</g>
<g ewd:code="tR1" ewd:figID="628" ewd:figtype="w2w" ewd:pinNo="2">
<path style="&st10;" d="M2009.83,532.47h8.5"/>
<path style="&st10;" d="M2014.08,523.4l4.25,4.25l4.25-4.25"/>
<path style="&st10;" d="M2022.58,526.8l-4.25,4.25l-4.25-4.25"/>
<text transform="matrix(1 0 0 1 2003.4966 538.686)" style="&st9;"><tspan x="0" y="0" style="&st27; &st17;">2</tspan></text>
</g>
<g ewd:code="255002" ewd:figID="502" ewd:figtype="sp">
<path style="&st10;" d="M2307.29,605.43l-4.98-4.97"/>
<path style="&st10;" d="M2290.29,612.48l4.97,4.97"/>
<path style="&st10;" d="M2302.31,617.45l4.98-4.97"/>
<path style="&st10;" d="M2295.26,600.46l-4.97,4.97"/>
</g>
<g ewd:code="4JB" ewd:figID="316" ewd:figtype="jb">
<path style="&st10;" d="M2122.44,472.98h-4.25"/>
<path style="&st10;" d="M2122.44,481.48h-4.25"/>
<path style="&st10;" d="M2122.44,515.47h-4.25"/>
<path style="&st10;" d="M2122.44,523.97h-4.25"/>
<path style="&st8;" d="M2120.32,486.37l2.83,2.83v-4.25l-2.83-2.83l-2.84,2.83v4.25L2120.32,486.37"/>
<path style="&st8;" d="M2120.32,510.57l-2.84-2.83v4.25l2.84,2.83l2.83-2.83v-4.25L2120.32,510.57"/>
<path style="&st15;" d="M2120.32,515.47v-33.99"/>
<path style="&st10;" d="M2118.19,472.98c-2.35,0-4.25,1.9-4.25,4.25"/>
<path style="&st10;" d="M2113.94,477.23c0,2.34,1.9,4.25,4.25,4.25"/>
<path style="&st10;" d="M2122.44,481.48c2.35,0,4.25-1.91,4.25-4.25"/>
<path style="&st10;" d="M2126.69,477.23c0-2.35-1.9-4.25-4.25-4.25"/>
<path style="&st10;" d="M2118.19,515.47c-2.35,0-4.25,1.9-4.25,4.25"/>
<path style="&st10;" d="M2113.94,519.72c0,2.35,1.9,4.25,4.25,4.25"/>
<path style="&st10;" d="M2122.44,523.97c2.35,0,4.25-1.9,4.25-4.25"/>
<path style="&st10;" d="M2126.69,519.72c0-2.35-1.9-4.25-4.25-4.25"/>
<text transform="matrix(1 0 0 1 2116.0132 479.1958)" style="&st9;"><tspan x="0" y="0" style="&st27; &st17;">4A</tspan></text>
<text transform="matrix(1 0 0 1 2103.6733 479.1958)" style="&st9;"><tspan x="0" y="0" style="&st27; &st17;">39</tspan></text>
<text transform="matrix(1 0 0 1 2116.0132 521.686)" style="&st9;"><tspan x="0" y="0" style="&st27; &st17;">4A</tspan></text>
<text transform="matrix(1 0 0 1 2103.6733 521.686)" style="&st9;"><tspan x="0" y="0" style="&st27; &st17;">27</tspan></text>
</g>
<g ewd:code="3JB" ewd:figID="318" ewd:figtype="jb">
<path style="&st10;" d="M2394.4,532.47h-4.25"/>
<path style="&st10;" d="M2394.4,540.97h-4.25"/>
<path style="&st10;" d="M2394.4,566.46h-4.25"/>
<path style="&st10;" d="M2394.4,574.96h-4.25"/>
<path style="&st8;" d="M2392.27,545.86l2.83,2.83v-4.25l-2.83-2.83l-2.83,2.83v4.25L2392.27,545.86"/>
<path style="&st8;" d="M2392.27,561.57l-2.83-2.84v4.25l2.83,2.84l2.83-2.84v-4.25L2392.27,561.57"/>
<path style="&st15;" d="M2392.27,566.46v-25.49"/>
<path style="&st10;" d="M2390.15,532.47c-2.35,0-4.25,1.9-4.25,4.25"/>
<path style="&st10;" d="M2385.9,536.72c0,2.34,1.9,4.25,4.25,4.25"/>
<path style="&st10;" d="M2394.4,540.97c2.34,0,4.24-1.91,4.24-4.25"/>
<path style="&st10;" d="M2398.64,536.72c0-2.35-1.9-4.25-4.24-4.25"/>
<path style="&st10;" d="M2390.15,566.46c-2.35,0-4.25,1.9-4.25,4.25"/>
<path style="&st10;" d="M2385.9,570.71c0,2.35,1.9,4.25,4.25,4.25"/>
<path style="&st10;" d="M2394.4,574.96c2.34,0,4.24-1.9,4.24-4.25"/>
<path style="&st10;" d="M2398.64,570.71c0-2.35-1.9-4.25-4.24-4.25"/>
<text transform="matrix(1 0 0 1 2387.9634 538.686)" style="&st9;"><tspan x="0" y="0" style="&st27; &st17;">3A</tspan></text>
<text transform="matrix(1 0 0 1 2375.6333 538.686)" style="&st9;"><tspan x="0" y="0" style="&st27; &st17;">76</tspan></text>
<text transform="matrix(1 0 0 1 2387.9634 572.6763)" style="&st9;"><tspan x="0" y="0" style="&st27; &st17;">3A</tspan></text>
<text transform="matrix(1 0 0 1 2375.6333 572.6763)" style="&st9;"><tspan x="0" y="0" style="&st27; &st17;">74</tspan></text>
</g>
<g ewd:code="4JB" ewd:figID="319" ewd:figtype="jb">
<path style="&st10;" d="M2394.4,600.46h-4.25"/>
<path style="&st10;" d="M2394.4,608.95h-4.25"/>
<path style="&st10;" d="M2394.4,634.45h-4.25"/>
<path style="&st10;" d="M2394.4,642.95h-4.25"/>
<path style="&st8;" d="M2392.27,613.85l2.83,2.83v-4.25l-2.83-2.83l-2.83,2.83v4.25L2392.27,613.85"/>
<path style="&st8;" d="M2392.27,629.55l-2.83-2.83v4.25l2.83,2.83l2.83-2.83v-4.25L2392.27,629.55"/>
<path style="&st15;" d="M2392.27,634.45v-25.5"/>
<path style="&st10;" d="M2390.15,600.46c-2.35,0-4.25,1.9-4.25,4.24"/>
<path style="&st10;" d="M2385.9,604.7c0,2.35,1.9,4.25,4.25,4.25"/>
<path style="&st10;" d="M2394.4,608.95c2.34,0,4.24-1.9,4.24-4.25"/>
<path style="&st10;" d="M2398.64,604.7c0-2.34-1.9-4.24-4.24-4.24"/>
<path style="&st10;" d="M2390.15,634.45c-2.35,0-4.25,1.9-4.25,4.25"/>
<path style="&st10;" d="M2385.9,638.7c0,2.35,1.9,4.25,4.25,4.25"/>
<path style="&st10;" d="M2394.4,642.95c2.34,0,4.24-1.9,4.24-4.25"/>
<path style="&st10;" d="M2398.64,638.7c0-2.35-1.9-4.25-4.24-4.25"/>
<text transform="matrix(1 0 0 1 2387.9634 606.6665)" style="&st9;"><tspan x="0" y="0" style="&st27; &st17;">4A</tspan></text>
<text transform="matrix(1 0 0 1 2375.6333 606.6665)" style="&st9;"><tspan x="0" y="0" style="&st27; &st17;">55</tspan></text>
<text transform="matrix(1 0 0 1 2387.9634 640.6665)" style="&st9;"><tspan x="0" y="0" style="&st27; &st17;">4B</tspan></text>
<text transform="matrix(1 0 0 1 2379.5835 640.6665)" style="&st9;"><tspan x="0" y="0" style="&st27; &st17;">8</tspan></text>
</g>
<g ewd:code="2" ewd:figID="317" ewd:figtype="jb">
<path style="&st7;" d="M2379.52,447.48v42.49h25.5v-42.49H2379.52"/>
<path style="&st15;" d="M2392.27,481.48v25.49"/>
<path style="&st10;" d="M2394.4,506.97h-4.25"/>
<path style="&st10;" d="M2394.4,515.47h-4.25"/>
<path style="&st8;" d="M2392.27,502.08l-2.83-2.84v4.25l2.83,2.84l2.83-2.84v-4.25L2392.27,502.08"/>
<path style="&st10;" d="M2379.52,447.48v42.49h25.5v-42.49H2379.52"/>
<path style="&st10;" d="M2392.27,458.81c-2.74,1.62-3.65,5.14-2.04,7.88"/>
<path style="&st10;" d="M2390.23,466.69c0.52,0.88,1.16,1.52,2.04,2.04"/>
<path style="&st10;" d="M2392.27,478.64c2.74-1.61,3.65-5.14,2.04-7.88"/>
<path style="&st10;" d="M2394.31,470.76c-0.52-0.88-1.16-1.51-2.04-2.03"/>
<path style="&st15;" d="M2393.69,457.4c0-0.79-0.64-1.42-1.42-1.42"/>
<path style="&st15;" d="M2392.27,455.98c-0.78,0-1.42,0.63-1.42,1.42"/>
<path style="&st15;" d="M2390.85,457.4c0,0.78,0.64,1.41,1.42,1.41"/>
<path style="&st15;" d="M2392.27,458.81c0.78,0,1.42-0.63,1.42-1.41"/>
<path style="&st15;" d="M2393.69,480.06c0-0.78-0.64-1.42-1.42-1.42"/>
<path style="&st15;" d="M2392.27,478.64c-0.78,0-1.42,0.64-1.42,1.42"/>
<path style="&st15;" d="M2390.85,480.06c0,0.78,0.64,1.42,1.42,1.42"/>
<path style="&st15;" d="M2392.27,481.48c0.78,0,1.42-0.64,1.42-1.42"/>
<path style="&st10;" d="M2390.15,506.97c-2.35,0-4.25,1.9-4.25,4.25"/>
<path style="&st10;" d="M2385.9,511.22c0,2.35,1.9,4.25,4.25,4.25"/>
<path style="&st10;" d="M2394.4,515.47c2.34,0,4.24-1.9,4.24-4.25"/>
<path style="&st10;" d="M2398.64,511.22c0-2.35-1.9-4.25-4.24-4.25"/>
<text transform="matrix(1 0 0 1 2409.5835 465.0474)" style="&st9;"><tspan x="0" y="0" style="&st27; &st17;">10A</tspan></text>
<text transform="matrix(1 0 0 1 2409.5835 471.0474)" style="&st9;"><tspan x="0" y="0" style="&st27; &st17;">ECU-IG</tspan></text>
<text transform="matrix(1 0 0 1 2409.5835 477.0474)" style="&st9;"><tspan x="0" y="0" style="&st27; &st17;">NO.1</tspan></text>
<text transform="matrix(1 0 0 1 2387.9634 513.186)" style="&st9;"><tspan x="0" y="0" style="&st27; &st17;">2A</tspan></text>
<text transform="matrix(1 0 0 1 2376.4038 513.186)" style="&st9;"><tspan x="0" y="0" style="&st27; &st17;">31</tspan></text>
</g>
<g ewd:code="A2" ewd:figID="210" ewd:figtype="gp">
<path style="&st15;" d="M2298.79,701.02v4.25"/>
<path style="&st15;" d="M2290.29,705.27h16.99"/>
<path style="&st15;" d="M2294.54,708.1h8.49"/>
<path style="&st15;" d="M2295.95,710.94h5.67"/>
<path style="&st15;" d="M2297.37,713.77h2.83"/>
</g>
<g ewd:code="C5" ewd:figID="209" ewd:figtype="gp">
<path style="&st15;" d="M2196.8,701.02v4.25"/>
<path style="&st15;" d="M2188.3,705.27h17"/>
<path style="&st15;" d="M2192.55,708.1h8.5"/>
<path style="&st15;" d="M2193.97,710.94h5.67"/>
<path style="&st15;" d="M2195.39,713.77h2.83"/>
</g>
<g ewd:code="C1" ewd:figID="208" ewd:figtype="gp">
<path style="&st15;" d="M2162.81,701.02v4.25"/>
<path style="&st15;" d="M2154.31,705.27h17"/>
<path style="&st15;" d="M2158.56,708.1h8.5"/>
<path style="&st15;" d="M2159.98,710.94h5.66"/>
<path style="&st15;" d="M2161.39,713.77h2.83"/>
</g>
<g ewd:code="Q1" ewd:figID="207" ewd:figtype="gp">
<path style="&st15;" d="M2120.32,701.02v4.25"/>
<path style="&st15;" d="M2111.82,705.27h16.99"/>
<path style="&st15;" d="M2116.07,708.1h8.49"/>
<path style="&st15;" d="M2117.48,710.94h5.67"/>
<path style="&st15;" d="M2118.9,713.77h2.83"/>
</g>
<g ewd:code="C46" ewd:figID="48" ewd:figtype="conn">
<path style="&st10;" d="M2145.81,557.96h34v-33.99h-34V557.96"/>
<text transform="matrix(0 -1 1 0 2187.4233 560.4868)" style="&st9;"><tspan x="0" y="0" style="&st27; &st17;">C46</tspan></text>
<text ewd:textID="56" transform="matrix(0 -1 1 0 2194.5229 560.4868)" style="&st9; &st27; &st17;">Engine Oil Level Sensor</text>
<text transform="matrix(1 0 0 1 2156.8032 520.2759)" style="&st9;"><tspan x="0" y="0" style="&st27; &st17;">1</tspan></text>
<text transform="matrix(1 0 0 1 2156.5229 531.5962)" style="&st9;"><tspan x="0" y="0" style="&st27; &st17;">LVL</tspan></text>
<text transform="matrix(1 0 0 1 2160.4839 554.2661)" style="&st9;"><tspan x="0" y="0" style="&st27; &st17;">E</tspan></text>
<text transform="matrix(1 0 0 1 2156.0229 566.1567)" style="&st9;"><tspan x="0" y="0" style="&st27; &st17;">2</tspan></text>
</g>
<g ewd:code="A76" ewd:figID="49" ewd:figtype="conn">
<path style="&st10;" d="M2213.8,557.96h33.99v-33.99h-33.99V557.96"/>
<text transform="matrix(0 -1 1 0 2255.4136 560.4868)" style="&st9;"><tspan x="0" y="0" style="&st27; &st17;">A76</tspan></text>
<text ewd:textID="72" transform="matrix(0 -1 1 0 2262.5132 560.4868)" style="&st9; &st27; &st17;">Level Warning Switch <tspan x="0" y="7">(Fuel Filter Assembly)</tspan></text>
<text transform="matrix(1 0 0 1 2224.7935 520.2759)" style="&st9;"><tspan x="0" y="0" style="&st27; &st17;">1</tspan></text>
<text transform="matrix(1 0 0 1 2221.4038 531.5962)" style="&st9;"><tspan x="0" y="0" style="&st27; &st17;">FCHK</tspan></text>
<text transform="matrix(1 0 0 1 2224.0132 566.1567)" style="&st9;"><tspan x="0" y="0" style="&st27; &st17;">2</tspan></text>
<text transform="matrix(1 0 0 1 2228.4731 554.2661)" style="&st9;"><tspan x="0" y="0" style="&st27; &st17;">E</tspan></text>
</g>
<g ewd:code="A75" ewd:figID="50" ewd:figtype="conn">
<path style="&st10;" d="M2281.79,557.96h33.99v-33.99h-33.99V557.96"/>
<text transform="matrix(0 -1 1 0 2323.3931 560.4868)" style="&st9;"><tspan x="0" y="0" style="&st27; &st17;">A75</tspan></text>
<text ewd:textID="64" transform="matrix(0 -1 1 0 2330.5034 560.4868)" style="&st9; &st27; &st17;">Fuel Filter Warning Switch</text>
<text transform="matrix(1 0 0 1 2292.7729 520.2759)" style="&st9;"><tspan x="0" y="0" style="&st27; &st17;">1</tspan></text>
<text transform="matrix(1 0 0 1 2296.7729 531.5962)" style="&st9;"><tspan x="0" y="0" style="&st27; &st17;">+</tspan></text>
<text transform="matrix(1 0 0 1 2296.4634 554.2661)" style="&st9;"><tspan x="0" y="0" style="&st27; &st17;">E</tspan></text>
<text transform="matrix(1 0 0 1 2292.0034 566.1567)" style="&st9;"><tspan x="0" y="0" style="&st27; &st17;">2</tspan></text>
</g>
<g ewd:code="C41" ewd:figID="52" ewd:figtype="conn">
<path style="&st10;" d="M2485.76,533.88l5.66-22.66"/>
<path style="&st15;" d="M2485.76,540.97v-4.25"/>
<path style="&st15;" d="M2485.76,511.22v-4.25"/>
<path style="&st10;" d="M2494.25,540.97v-34h-16.99v34H2494.25"/>
<path style="&st15;" d="M2487.17,535.3c0-0.78-0.63-1.42-1.41-1.42"/>
<path style="&st15;" d="M2485.76,533.88c-0.79,0-1.42,0.64-1.42,1.42"/>
<path style="&st15;" d="M2484.34,535.3c0,0.78,0.63,1.42,1.42,1.42"/>
<path style="&st15;" d="M2485.76,536.72c0.78,0,1.41-0.64,1.41-1.42"/>
<path style="&st15;" d="M2487.17,512.64c0-0.79-0.63-1.42-1.41-1.42"/>
<path style="&st15;" d="M2485.76,511.22c-0.79,0-1.42,0.63-1.42,1.42"/>
<path style="&st15;" d="M2484.34,512.64c0,0.78,0.63,1.41,1.42,1.41"/>
<path style="&st15;" d="M2485.76,514.05c0.78,0,1.41-0.63,1.41-1.41"/>
<text transform="matrix(1 0 0 1 2479.7437 549.1567)" style="&st9;"><tspan x="0" y="0" style="&st27; &st17;">1</tspan></text>
<text transform="matrix(1 0 0 1 2478.9731 503.2759)" style="&st9;"><tspan x="0" y="0" style="&st27; &st17;">2</tspan></text>
<text ewd:textID="27" transform="matrix(0 -1 1 0 2508.9731 543.4868)" style="&st9; &st27; &st17;">Back-Up Light <tspan x="0" y="7">Switch Assembly</tspan></text>
<text transform="matrix(0 -1 1 0 2501.8735 543.4868)" style="&st9;"><tspan x="0" y="0" style="&st27; &st17;">C41</tspan></text>
</g>
<g ewd:code="C49,G107" ewd:figID="51" ewd:figtype="conn">
<path style="&st10;" d="M2477.26,600.46v25.49h16.99v-25.49H2477.26"/>
<path style="&st22;" d="M2477.26,608.95h16.99"/>
<path style="&st22;" d="M2477.26,617.45h16.99"/>
<path style="&st15;" d="M2485.75,600.46v25.49"/>
<path style="&st10;" d="M2490.29,595.92c0-2.5-2.03-4.53-4.53-4.53"/>
<path style="&st10;" d="M2485.76,591.39c-2.51,0-4.54,2.03-4.54,4.53"/>
<path style="&st10;" d="M2481.22,595.92c0,2.51,2.03,4.54,4.54,4.54"/>
<path style="&st10;" d="M2485.76,600.46c2.5,0,4.53-2.03,4.53-4.54"/>
<path style="&st10;" d="M2490.29,630.48c0-2.5-2.03-4.53-4.53-4.53"/>
<path style="&st10;" d="M2485.76,625.95c-2.51,0-4.54,2.03-4.54,4.53"/>
<path style="&st10;" d="M2481.22,630.48c0,2.51,2.03,4.54,4.54,4.54"/>
<path style="&st10;" d="M2485.76,635.02c2.5,0,4.53-2.03,4.53-4.54"/>
<text transform="matrix(1 0 0 1 2483.4233 597.8872)" style="&st9;"><tspan x="0" y="0" style="&st27; &st17;">A</tspan></text>
<text transform="matrix(1 0 0 1 2474.8833 597.8872)" style="&st9;"><tspan x="0" y="0" style="&st27; &st17;">3</tspan></text>
<text transform="matrix(1 0 0 1 2483.4233 632.4458)" style="&st9;"><tspan x="0" y="0" style="&st27; &st17;">B</tspan></text>
<text transform="matrix(1 0 0 1 2474.8833 632.4458)" style="&st9;"><tspan x="0" y="0" style="&st27; &st17;">8</tspan></text>
<text ewd:textID="71" transform="matrix(0 -1 1 0 2508.9731 628.4771)" style="&st9; &st27; &st17;">Junction <tspan x="0" y="7">Connector</tspan></text>
<text transform="matrix(0 -1 1 0 2501.8735 628.4771)" style="&st9;"><tspan x="0" y="0" style="&st27; &st17;">C49(A),G107(B)</tspan></text>
</g>
<text transform="matrix(0 -1 1 0 2170.4536 517.6372)" style="&st9;"><tspan x="0" y="0" style="&st27; &st17;">(*1,*3)</tspan></text>
<text transform="matrix(0 -1 1 0 2159.1128 509.7271)" style="&st9;"><tspan x="0" y="0" style="&st27; &st17;">G</tspan></text>
<text transform="matrix(0 -1 1 0 2170.4536 458.147)" style="&st9;"><tspan x="0" y="0" style="&st27; &st17;">(*1,*3)</tspan></text>
<text transform="matrix(0 -1 1 0 2159.1128 450.2368)" style="&st9;"><tspan x="0" y="0" style="&st27; &st17;">G</tspan></text>
<text transform="matrix(1 0 0 1 2134.7935 67.0068)" style="&st9;"><tspan x="0" y="0" style="&st27; &st17;">* 1 :1GR-FE</tspan></text>
<text transform="matrix(1 0 0 1 2134.7935 75.5068)" style="&st9;"><tspan x="0" y="0" style="&st27; &st17;">* 2 :2TR-FE</tspan></text>
<text transform="matrix(1 0 0 1 2134.7935 84.0068)" style="&st9;"><tspan x="0" y="0" style="&st27; &st17;">* 3 :1KD-FTV</tspan></text>
<text transform="matrix(1 0 0 1 2134.7935 92.5068)" style="&st9;"><tspan x="0" y="0" style="&st27; &st17;">* 4 :5L-E</tspan></text>
<text ewd:textID="10" transform="matrix(1 0 0 1 2134.7935 109.5068)" style="&st9; &st27; &st17;">*13 :Diesel</text>
<text ewd:textID="11" transform="matrix(1 0 0 1 2134.7935 118.0068)" style="&st9; &st27; &st17;">*14 :Except Optitron Meter</text>
<text transform="matrix(0 -1 1 0 2014.6431 560.7173)" style="&st9;"><tspan x="0" y="0" style="&st27; &st17;">G</tspan></text>
<text transform="matrix(0 -1 1 0 2014.6431 509.7271)" style="&st9;"><tspan x="0" y="0" style="&st27; &st17;">G</tspan></text>
<text transform="matrix(0 -1 1 0 2014.6431 450.2368)" style="&st9;"><tspan x="0" y="0" style="&st27; &st17;">G</tspan></text>
<text transform="matrix(0 -1 1 0 2238.4331 513.147)" style="&st9;"><tspan x="0" y="0" style="&st27; &st17;">(*3)</tspan></text>
<text transform="matrix(0 -1 1 0 2227.103 509.2974)" style="&st9;"><tspan x="0" y="0" style="&st27; &st17;">V</tspan></text>
<text transform="matrix(0 -1 1 0 2238.4331 453.6567)" style="&st9;"><tspan x="0" y="0" style="&st27; &st17;">(*3)</tspan></text>
<text transform="matrix(0 -1 1 0 2227.103 449.8071)" style="&st9;"><tspan x="0" y="0" style="&st27; &st17;">V</tspan></text>
<text transform="matrix(0 -1 1 0 2306.4233 514.7368)" style="&st9;"><tspan x="0" y="0" style="&st27; &st17;">(*13)</tspan></text>
<text transform="matrix(0 -1 1 0 2295.0933 509.436)" style="&st9;"><tspan x="0" y="0" style="&st27; &st17;">R</tspan></text>
<text transform="matrix(0 -1 1 0 2306.4233 455.2466)" style="&st9;"><tspan x="0" y="0" style="&st27; &st17;">(*13)</tspan></text>
<text transform="matrix(0 -1 1 0 2295.0933 449.9458)" style="&st9;"><tspan x="0" y="0" style="&st27; &st17;">R</tspan></text>
<text transform="matrix(0 -1 1 0 2354.5835 449.4575)" style="&st9;"><tspan x="0" y="0" style="&st27; &st17;">L</tspan></text>
<text transform="matrix(0 -1 1 0 2360.2534 509.4575)" style="&st9;"><tspan x="0" y="0" style="&st27; &st17;">ECM</tspan></text>
<text transform="matrix(0 -1 1 0 2365.9136 453.6567)" style="&st9;"><tspan x="0" y="0" style="&st27; &st17;">(*4)</tspan></text>
<text transform="matrix(0 -1 1 0 2227.103 586.9067)" style="&st9;"><tspan x="0" y="0" style="&st27; &st17;">W-B</tspan></text>
<text transform="matrix(0 -1 1 0 2238.4331 585.3872)" style="&st9;"><tspan x="0" y="0" style="&st27; &st17;">(*3)</tspan></text>
<text transform="matrix(0 -1 1 0 2295.0933 671.8872)" style="&st9;"><tspan x="0" y="0" style="&st27; &st17;">W-B</tspan></text>
<text transform="matrix(0 -1 1 0 2306.4233 676.8364)" style="&st9;"><tspan x="0" y="0" style="&st27; &st17;">(*3,*13)</tspan></text>
<text transform="matrix(0 -1 1 0 2193.1128 671.8872)" style="&st9;"><tspan x="0" y="0" style="&st27; &st17;">W-B</tspan></text>
<text transform="matrix(0 -1 1 0 2204.4429 670.3774)" style="&st9;"><tspan x="0" y="0" style="&st27; &st17;">(*3)</tspan></text>
<text transform="matrix(0 -1 1 0 2159.1128 671.8872)" style="&st9;"><tspan x="0" y="0" style="&st27; &st17;">W-B</tspan></text>
<text transform="matrix(0 -1 1 0 2170.4536 669.9868)" style="&st9;"><tspan x="0" y="0" style="&st27; &st17;">(*1)</tspan></text>
<text transform="matrix(0 -1 1 0 2116.6235 671.8872)" style="&st9;"><tspan x="0" y="0" style="&st27; &st17;">W-B</tspan></text>
<text transform="matrix(0 -1 1 0 2295.0933 586.9067)" style="&st9;"><tspan x="0" y="0" style="&st27; &st17;">W-B</tspan></text>
<text transform="matrix(0 -1 1 0 2306.4233 586.9771)" style="&st9;"><tspan x="0" y="0" style="&st27; &st17;">(*13)</tspan></text>
<text transform="matrix(0 -1 1 0 2116.6235 557.1567)" style="&st9;"><tspan x="0" y="0" style="&st27; &st17;">W-B</tspan></text>
<text transform="matrix(0 -1 1 0 2116.6235 455.1763)" style="&st9;"><tspan x="0" y="0" style="&st27; &st17;">W-B</tspan></text>
<text transform="matrix(0 -1 1 0 2025.9731 455.2466)" style="&st9;"><tspan x="0" y="0" style="&st27; &st17;">(*15)</tspan></text>
<text transform="matrix(0 -1 1 0 2025.9731 514.7368)" style="&st9;"><tspan x="0" y="0" style="&st27; &st17;">(*15)</tspan></text>
<text transform="matrix(0 -1 1 0 2025.9731 565.7271)" style="&st9;"><tspan x="0" y="0" style="&st27; &st17;">(*15)</tspan></text>
<text ewd:textID="15" transform="matrix(1 0 0 1 2134.7935 134.9966)" style="&st9; &st27; &st17;">*19 :From Oct. 2010 Production</text>
<text ewd:textID="14" transform="matrix(1 0 0 1 2134.7935 126.4966)" style="&st9; &st27; &st17;">*18 :Before Oct. 2010 Production</text>
<text ewd:textID="18" transform="matrix(1 0 0 1 2134.7935 143.4966)" style="&st9; &st27; &st17;">*22 :For production through approximately Jan. 2011</text>
<text ewd:textID="19" transform="matrix(1 0 0 1 2134.7935 151.9966)" style="&st9; &st27; &st17;">*23 :For production from approximately Jan. 2011</text>
<text transform="matrix(0 -1 1 0 2388.5835 526.7173)" style="&st9;"><tspan x="0" y="0" style="&st27; &st17;">G</tspan></text>
<text transform="matrix(0 -1 1 0 2388.5835 594.7075)" style="&st9;"><tspan x="0" y="0" style="&st27; &st17;">G</tspan></text>
<text transform="matrix(0 -1 1 0 2388.5835 665.1665)" style="&st9;"><tspan x="0" y="0" style="&st27; &st17;">GR</tspan></text>
<text transform="matrix(0 -1 1 0 2399.9136 668.3169)" style="&st9;"><tspan x="0" y="0" style="&st27; &st17;">(M/T)</tspan></text>
<text transform="matrix(0 -1 1 0 2482.063 568.9263)" style="&st9;"><tspan x="0" y="0" style="&st27; &st17;">R</tspan></text>
<text transform="matrix(0 -1 1 0 2493.3931 574.8267)" style="&st9;"><tspan x="0" y="0" style="&st27; &st17;">(M/T)</tspan></text>
<text transform="matrix(0 -1 1 0 2482.063 495.1958)" style="&st9;"><tspan x="0" y="0" style="&st27; &st17;">GR</tspan></text>
<text transform="matrix(0 -1 1 0 2493.3931 498.3462)" style="&st9;"><tspan x="0" y="0" style="&st27; &st17;">(M/T)</tspan></text>
<text transform="matrix(1 0 0 1 2049.8628 18.8564)" style="&st9;"><tspan x="0" y="0" style="&st27; &st17;">R</tspan></text>
<text transform="matrix(1 0 0 1 2100.853 18.8564)" style="&st9;"><tspan x="0" y="0" style="&st27; &st17;">R</tspan></text>
<text ewd:textID="7" transform="matrix(1 0 0 1 2134.7935 101.0068)" style="&st9; &st27; &st17;">*10 :3-Door</text>
<text transform="matrix(0 -1 1 0 2127.9536 455.2466)" style="&st9;"><tspan x="0" y="0" style="&st27; &st17;">(*10)</tspan></text>
<text transform="matrix(0 -1 1 0 2127.9536 557.2271)" style="&st9;"><tspan x="0" y="0" style="&st27; &st17;">(*10)</tspan></text>
<text transform="matrix(0 -1 1 0 2127.9536 671.9673)" style="&st9;"><tspan x="0" y="0" style="&st27; &st17;">(*10)</tspan></text>
<text ewd:textID="21" transform="matrix(1 0 0 1 2134.7935 160.4966)" style="&st9; &st27; &st17;">*25 :From Oct. 2011 Production</text>
</svg>
