﻿<?xml version="1.0" encoding="UTF-8"?>
<!DOCTYPE svg PUBLIC "-//W3C//DTD SVG 1.0//EN" "http://www.w3.org/TR/2001/REC-SVG-20010904/DTD/svg10.dtd"[
<!ENTITY ns_flows "http://ns.adobe.com/Flows/1.0/">
<!ENTITY ns_svg "http://www.w3.org/2000/svg">
<!ENTITY ns_xlink "http://www.w3.org/1999/xlink">
	<!ENTITY st0 "fill:none;stroke:#F8E616;stroke-width:5.1;stroke-linejoin:round;">
	<!ENTITY st1 "fill:none;stroke:#FB0F0C;stroke-width:5.1;stroke-linejoin:round;">
	<!ENTITY st2 "fill:none;stroke:#9A9999;stroke-width:5.1;stroke-linejoin:round;">
	<!ENTITY st3 "fill:none;stroke:#99280B;stroke-width:5.1;stroke-linejoin:round;">
		<!ENTITY st4 "fill:none;stroke:#000000;stroke-width:0.85;stroke-linecap:round;stroke-linejoin:round;stroke-dasharray:3 1.5;enable-background:new    ;">
	<!ENTITY st5 "fill:none;stroke:#000000;stroke-width:5.1;stroke-linejoin:round;">
	<!ENTITY st6 "fill:none;stroke:#199DBF;stroke-width:1.13;stroke-linejoin:round;">
	<!ENTITY st7 "fill:none;stroke:#000000;stroke-linecap:round;stroke-linejoin:round;">
	<!ENTITY st8 "fill:#1D63A2;">
	<!ENTITY st9 "stroke:#000000;stroke-width:0.28;stroke-linecap:round;stroke-linejoin:round;enable-background:new    ;">
	<!ENTITY st10 "enable-background:new    ;">
		<!ENTITY st11 "fill:none;stroke:#000000;stroke-width:1.42;stroke-linecap:round;stroke-linejoin:round;enable-background:new    ;">
	<!ENTITY st12 "fill:none;stroke:#EE67AA;stroke-width:5.1;stroke-linejoin:round;">
	<!ENTITY st13 "fill:none;stroke:#199DBF;stroke-width:5.1;stroke-linejoin:round;">
	<!ENTITY st14 "opacity:0.5;fill:none;stroke:#34ACCE;stroke-linejoin:round;stroke-dasharray:6;">
	<!ENTITY st15 "fill:none;stroke:#FFFFFF;stroke-width:4.53;stroke-linejoin:round;">
	<!ENTITY st16 "fill:#F6140D;">
		<!ENTITY st17 "fill:none;stroke:#000000;stroke-width:0.85;stroke-linecap:round;stroke-linejoin:round;enable-background:new    ;">
	<!ENTITY st18 "fill:none;stroke:#56107C;stroke-width:5.1;stroke-linejoin:round;">
	<!ENTITY st19 "font-size:6px;">
	<!ENTITY st20 "fill:none;stroke:#FFFFFF;stroke-width:2.27;stroke-linejoin:round;">
	<!ENTITY st21 "fill:none;stroke:#FB0F0C;stroke-width:1.13;stroke-linejoin:round;">
	<!ENTITY st22 "fill:none;stroke:#168638;stroke-width:5.1;stroke-linejoin:round;">
	<!ENTITY st23 "fill:none;stroke:#000000;stroke-width:1.13;stroke-linejoin:round;">
		<!ENTITY st24 "fill:none;stroke:#000000;stroke-width:1.13;stroke-linecap:round;stroke-linejoin:round;stroke-dasharray:3 1.5;enable-background:new    ;">
	<!ENTITY st25 "fill:#FFFFFF;stroke:#000000;stroke-width:1.41;stroke-linecap:round;stroke-linejoin:round;">
	<!ENTITY st26 "fill:none;stroke:#3E65AC;stroke-width:3;">
	<!ENTITY st27 "fill:#CCCCCC;stroke:#CCCCCC;stroke-width:0.1;stroke-linecap:round;stroke-linejoin:round;">
	<!ENTITY st28 "stroke:#FFFFFF;stroke-width:2;">
	<!ENTITY st29 "fill:none;stroke:#000000;stroke-width:5.1;stroke-linejoin:round;enable-background:new    ;">
	<!ENTITY st30 "font-family:'ArialMT';">
	<!ENTITY st31 "opacity:0.5;fill:none;stroke:#34ACCE;stroke-linejoin:round;">
	<!ENTITY st32 "fill:#CFE6E7;stroke:#000000;stroke-width:1.133;stroke-linecap:round;stroke-linejoin:round;">
	<!ENTITY st33 "font-size:12px;">
	<!ENTITY st34 "fill:none;stroke:#99D5E0;stroke-width:5.1;stroke-linejoin:round;">
	<!ENTITY st35 "fill:none;stroke:#FFFFFF;stroke-width:1.13;stroke-linejoin:round;enable-background:new    ;">
	<!ENTITY st36 "fill:none;stroke:#7EC57E;stroke-width:5.1;stroke-linejoin:round;">
<!ATTLIST svg
xmlns:ewd CDATA #FIXED "http://shcl.co.jp/ewd"
xmlns:a CDATA #FIXED "http://ns.adobe.com/AdobeSVGViewerExtensions/3.0/"
ewd:ver CDATA #IMPLIED
>
<!ATTLIST a
ewd:lineID CDATA #IMPLIED
ewd:groupID CDATA #IMPLIED
ewd:figtype CDATA #IMPLIED
ewd:code CDATA #IMPLIED
ewd:figID CDATA #IMPLIED
ewd:pinNo CDATA #IMPLIED
ewd:comment CDATA #IMPLIED >
<!ATTLIST g
ewd:lineID CDATA #IMPLIED
ewd:groupID CDATA #IMPLIED
ewd:figtype CDATA #IMPLIED
ewd:code CDATA #IMPLIED
ewd:figID CDATA #IMPLIED
ewd:pinNo CDATA #IMPLIED
ewd:comment CDATA #IMPLIED >
<!ATTLIST text
ewd:textID CDATA #IMPLIED >
<!ATTLIST title
ewd:textID CDATA #IMPLIED >
]>
<svg 
viewBox='0 0 6237.63 729.44'
height='729.44'
width='6237.63'
xml:space="preserve"
xmlns="&ns_svg;"
xmlns:ewd="http://shcl.co.jp/ewd"
xmlns:xlink="&ns_xlink;" ewd:ver="L2.1">
<g ewd:code="GR1" ewd:figID="6021" ewd:figtype="w2w" ewd:pinNo="16">
<path style="&st11;" d="M654.59,472.98h-8.5"/>
<path style="&st11;" d="M650.34,478.64l-4.25-4.25l-4.24,4.25"/>
<path style="&st11;" d="M650.34,482.04l-4.25-4.25l-4.24,4.25"/>
<text transform="matrix(1 0 0 1 627.9272 470.6958)" style="&st10;"><tspan x="0" y="0" style="&st30; &st19;">16</tspan></text>
</g>
<g ewd:code="SR2" ewd:figID="6022" ewd:figtype="w2w" ewd:pinNo="2">
<path style="&st11;" d="M637.6,540.97h8.49"/>
<path style="&st11;" d="M650.34,535.3l-4.25,4.25l-4.24-4.25"/>
<path style="&st11;" d="M641.85,531.9l4.24,4.25l4.25-4.25"/>
<text transform="matrix(1 0 0 1 631.2642 547.1763)" style="&st10;"><tspan x="0" y="0" style="&st30; &st19;">2</tspan></text>
</g>
<g ewd:code="SR2" ewd:figID="6024" ewd:figtype="w2w" ewd:pinNo="1">
<path style="&st11;" d="M807.57,540.97h8.5"/>
<path style="&st11;" d="M820.32,535.3l-4.25,4.25l-4.25-4.25"/>
<path style="&st11;" d="M811.82,531.9l4.25,4.25l4.25-4.25"/>
<text transform="matrix(1 0 0 1 801.2339 547.1763)" style="&st10;"><tspan x="0" y="0" style="&st30; &st19;">1</tspan></text>
</g>
<g ewd:code="GR1" ewd:figID="6023" ewd:figtype="w2w" ewd:pinNo="17">
<path style="&st11;" d="M824.57,472.98h-8.5"/>
<path style="&st11;" d="M820.32,478.64l-4.25-4.25l-4.25,4.25"/>
<path style="&st11;" d="M820.32,482.04l-4.25-4.25l-4.25,4.25"/>
<text transform="matrix(1 0 0 1 797.897 470.6958)" style="&st10;"><tspan x="0" y="0" style="&st30; &st19;">17</tspan></text>
</g>
<g ewd:code="RQ1" ewd:figID="6020" ewd:figtype="w2w" ewd:pinNo="7">
<path style="&st11;" d="M598.48,531.91l4.24,4.25l4.25-4.25"/>
<path style="&st11;" d="M606.97,535.31l-4.25,4.25l-4.24-4.25"/>
<text transform="matrix(1 0 0 1 612.627 547.188)" style="&st10;"><tspan x="0" y="0" style="&st30; &st19;">(*12)</tspan></text>
<text transform="matrix(1 0 0 1 587.8799 547.188)" style="&st10;"><tspan x="0" y="0" style="&st30; &st19;">7</tspan></text>
</g>
<g ewd:code="RQ1" ewd:figID="6018" ewd:figtype="w2w" ewd:pinNo="10">
<text transform="matrix(1 0 0 1 612.627 555.688)" style="&st10;"><tspan x="0" y="0" style="&st30; &st19;">(*11)</tspan></text>
<text transform="matrix(1 0 0 1 584.543 555.688)" style="&st10;"><tspan x="0" y="0" style="&st30; &st19;">10</tspan></text>
</g>
<g ewd:code="RQ1" ewd:figID="6016" ewd:figtype="w2w" ewd:pinNo="12">
<path style="&st11;" d="M556.21,531.91l4.24,4.25l4.25-4.25"/>
<path style="&st11;" d="M564.7,535.31l-4.25,4.25l-4.24-4.25"/>
<text transform="matrix(1 0 0 1 542.2764 547.188)" style="&st10;"><tspan x="0" y="0" style="&st30; &st19;">12</tspan></text>
</g>
<g ewd:code="GQ1" ewd:figID="6019" ewd:figtype="w2w" ewd:pinNo="58">
<path style="&st11;" d="M606.97,482.04l-4.25-4.25l-4.25,4.25"/>
<path style="&st11;" d="M606.97,478.64l-4.25-4.25l-4.25,4.25"/>
<text transform="matrix(1 0 0 1 584.543 470.6978)" style="&st10;"><tspan x="0" y="0" style="&st30; &st19;">58</tspan></text>
</g>
<g ewd:code="GQ1" ewd:figID="6017" ewd:figtype="w2w" ewd:pinNo="59">
<path style="&st11;" d="M564.7,482.04l-4.25-4.25l-4.25,4.25"/>
<path style="&st11;" d="M564.7,478.64l-4.25-4.25l-4.25,4.25"/>
<text transform="matrix(1 0 0 1 542.2764 470.6978)" style="&st10;"><tspan x="0" y="0" style="&st30; &st19;">59</tspan></text>
</g>
<g ewd:code="FUSE10" ewd:figID="4001" ewd:figtype="rb">
<path style="&st7;" d="M706.41,39.55v42.49h25.49V39.55H706.41"/>
<path style="&st17;" d="M719.15,73.54v25.5"/>
<path style="&st11;" d="M721.28,99.04h-4.25"/>
<path style="&st11;" d="M721.28,107.54h-4.25"/>
<path style="&st11;" d="M706.41,39.55v42.49h25.49V39.55H706.41"/>
<path style="&st9;" d="M719.15,94.14l-2.83-2.83v4.25l2.83,2.83l2.84-2.83v-4.25L719.15,94.14"/>
<path style="&st11;" d="M719.15,50.88c-2.73,1.61-3.65,5.14-2.03,7.88"/>
<path style="&st11;" d="M717.12,58.76c0.52,0.88,1.15,1.52,2.03,2.04"/>
<path style="&st11;" d="M719.15,70.71c2.74-1.61,3.65-5.14,2.04-7.88"/>
<path style="&st11;" d="M721.19,62.83c-0.52-0.88-1.15-1.51-2.04-2.03"/>
<path style="&st17;" d="M720.57,49.46c0-0.78-0.63-1.41-1.42-1.41"/>
<path style="&st17;" d="M719.15,48.05c-0.78,0-1.41,0.63-1.41,1.41"/>
<path style="&st17;" d="M717.74,49.46c0,0.79,0.63,1.42,1.41,1.42"/>
<path style="&st17;" d="M719.15,50.88c0.79,0,1.42-0.63,1.42-1.42"/>
<path style="&st17;" d="M720.57,72.13c0-0.79-0.63-1.42-1.42-1.42"/>
<path style="&st17;" d="M719.15,70.71c-0.78,0-1.41,0.63-1.41,1.42"/>
<path style="&st17;" d="M717.74,72.13c0,0.78,0.63,1.41,1.41,1.41"/>
<path style="&st17;" d="M719.15,73.54c0.79,0,1.42-0.63,1.42-1.41"/>
<path style="&st11;" d="M717.03,99.04c-2.35,0-4.25,1.9-4.25,4.25"/>
<path style="&st11;" d="M712.78,103.29c0,2.35,1.9,4.25,4.25,4.25"/>
<path style="&st11;" d="M721.28,107.54c2.34,0,4.25-1.9,4.25-4.25"/>
<path style="&st11;" d="M725.53,103.29c0-2.35-1.91-4.25-4.25-4.25"/>
<text transform="matrix(1 0 0 1 736.46 59.9365)" style="&st10;"><tspan x="0" y="0" style="&st30; &st19;">10A</tspan></text>
<text transform="matrix(1 0 0 1 736.46 65.9365)" style="&st10;"><tspan x="0" y="0" style="&st30; &st19;">ECU-B</tspan></text>
<text transform="matrix(1 0 0 1 717.5596 105.2568)" style="&st10;"><tspan x="0" y="0" style="&st30; &st19;">1</tspan></text>
<text transform="matrix(1 0 0 1 712.3594 90.2363)" style="&st10;"><tspan x="0" y="0" style="&st30; &st19;">2</tspan></text>
<text transform="matrix(1 0 0 1 710.0391 35.8467)" style="&st10;"><tspan x="0" y="0" style="&st30; &st19;">(BAT)</tspan></text>
</g>
<g ewd:code="3JB" ewd:figID="3002" ewd:figtype="jb">
<path style="&st11;" d="M678.79,141.53h-4.25"/>
<path style="&st11;" d="M678.79,150.03h-4.25"/>
<path style="&st11;" d="M678.79,184.03h-4.25"/>
<path style="&st11;" d="M678.79,192.52h-4.25"/>
<path style="&st17;" d="M676.66,184.03v-34"/>
<path style="&st9;" d="M676.66,179.13l-2.83-2.83v4.25l2.83,2.83l2.83-2.83v-4.25L676.66,179.13"/>
<path style="&st9;" d="M676.66,154.93l2.83,2.83v-4.25l-2.83-2.83l-2.83,2.83v4.25L676.66,154.93"/>
<path style="&st11;" d="M674.54,141.53c-2.35,0-4.25,1.9-4.25,4.25"/>
<path style="&st11;" d="M670.29,145.78c0,2.35,1.9,4.25,4.25,4.25"/>
<path style="&st11;" d="M678.79,150.03c2.34,0,4.24-1.9,4.24-4.25"/>
<path style="&st11;" d="M683.03,145.78c0-2.35-1.9-4.25-4.24-4.25"/>
<path style="&st11;" d="M674.54,184.03c-2.35,0-4.25,1.9-4.25,4.24"/>
<path style="&st11;" d="M670.29,188.27c0,2.35,1.9,4.25,4.25,4.25"/>
<path style="&st11;" d="M678.79,192.52c2.34,0,4.24-1.9,4.24-4.25"/>
<path style="&st11;" d="M683.03,188.27c0-2.34-1.9-4.24-4.24-4.24"/>
<text transform="matrix(1 0 0 1 672.3496 147.7466)" style="&st10;"><tspan x="0" y="0" style="&st30; &st19;">3A</tspan></text>
<text transform="matrix(1 0 0 1 664.0098 147.7466)" style="&st10;"><tspan x="0" y="0" style="&st30; &st19;">2</tspan></text>
<text transform="matrix(1 0 0 1 672.3496 190.2363)" style="&st10;"><tspan x="0" y="0" style="&st30; &st19;">3B</tspan></text>
<text transform="matrix(1 0 0 1 660.0098 190.2363)" style="&st10;"><tspan x="0" y="0" style="&st30; &st19;">30</tspan></text>
</g>
<g ewd:code="2" ewd:figID="3003" ewd:figtype="jb">
<path style="&st11;" d="M721.28,141.53h-4.25"/>
<path style="&st11;" d="M721.28,150.03h-4.25"/>
<path style="&st11;" d="M721.28,184.03h-4.25"/>
<path style="&st11;" d="M721.28,192.52h-4.25"/>
<path style="&st17;" d="M719.15,184.03v-34"/>
<path style="&st9;" d="M719.15,179.13l-2.83-2.83v4.25l2.83,2.83l2.84-2.83v-4.25L719.15,179.13"/>
<path style="&st9;" d="M719.15,154.93l2.84,2.83v-4.25l-2.84-2.83l-2.83,2.83v4.25L719.15,154.93"/>
<path style="&st11;" d="M717.03,141.53c-2.35,0-4.25,1.9-4.25,4.25"/>
<path style="&st11;" d="M712.78,145.78c0,2.35,1.9,4.25,4.25,4.25"/>
<path style="&st11;" d="M721.28,150.03c2.34,0,4.25-1.9,4.25-4.25"/>
<path style="&st11;" d="M725.53,145.78c0-2.35-1.91-4.25-4.25-4.25"/>
<path style="&st11;" d="M717.03,184.03c-2.35,0-4.25,1.9-4.25,4.24"/>
<path style="&st11;" d="M712.78,188.27c0,2.35,1.9,4.25,4.25,4.25"/>
<path style="&st11;" d="M721.28,192.52c2.34,0,4.25-1.9,4.25-4.25"/>
<path style="&st11;" d="M725.53,188.27c0-2.34-1.91-4.24-4.25-4.24"/>
<text transform="matrix(1 0 0 1 715.0596 147.7466)" style="&st10;"><tspan x="0" y="0" style="&st30; &st19;">2F</tspan></text>
<text transform="matrix(1 0 0 1 702.5098 147.7466)" style="&st10;"><tspan x="0" y="0" style="&st30; &st19;">39</tspan></text>
<text transform="matrix(1 0 0 1 714.6992 190.2363)" style="&st10;"><tspan x="0" y="0" style="&st30; &st19;">2D</tspan></text>
<text transform="matrix(1 0 0 1 703.2793 190.2363)" style="&st10;"><tspan x="0" y="0" style="&st30; &st19;">14</tspan></text>
</g>
<g ewd:code="2" ewd:figID="3001" ewd:figtype="jb">
<path style="&st7;" d="M587.43,39.55v42.49h25.49V39.55H587.43"/>
<path style="&st17;" d="M600.17,73.54v25.5"/>
<path style="&st11;" d="M602.3,99.04h-4.25"/>
<path style="&st11;" d="M602.3,107.54h-4.25"/>
<path style="&st11;" d="M587.43,39.55v42.49h25.49V39.55H587.43"/>
<path style="&st9;" d="M600.17,94.14l-2.83-2.83v4.25l2.83,2.83l2.84-2.83v-4.25L600.17,94.14"/>
<path style="&st11;" d="M600.17,50.88c-2.73,1.61-3.65,5.14-2.03,7.88"/>
<path style="&st11;" d="M598.14,58.76c0.52,0.88,1.15,1.52,2.03,2.04"/>
<path style="&st11;" d="M600.17,70.71c2.74-1.61,3.65-5.14,2.04-7.88"/>
<path style="&st11;" d="M602.21,62.83c-0.52-0.88-1.15-1.51-2.04-2.03"/>
<path style="&st17;" d="M601.59,49.46c0-0.78-0.63-1.41-1.42-1.41"/>
<path style="&st17;" d="M600.17,48.05c-0.78,0-1.41,0.63-1.41,1.41"/>
<path style="&st17;" d="M598.76,49.46c0,0.79,0.63,1.42,1.41,1.42"/>
<path style="&st17;" d="M600.17,50.88c0.79,0,1.42-0.63,1.42-1.42"/>
<path style="&st17;" d="M601.59,72.13c0-0.79-0.63-1.42-1.42-1.42"/>
<path style="&st17;" d="M600.17,70.71c-0.78,0-1.41,0.63-1.41,1.42"/>
<path style="&st17;" d="M598.76,72.13c0,0.78,0.63,1.41,1.41,1.41"/>
<path style="&st17;" d="M600.17,73.54c0.79,0,1.42-0.63,1.42-1.41"/>
<path style="&st11;" d="M598.05,99.04c-2.35,0-4.25,1.9-4.25,4.25"/>
<path style="&st11;" d="M593.8,103.29c0,2.35,1.9,4.25,4.25,4.25"/>
<path style="&st11;" d="M602.3,107.54c2.34,0,4.25-1.9,4.25-4.25"/>
<path style="&st11;" d="M606.55,103.29c0-2.35-1.91-4.25-4.25-4.25"/>
<text transform="matrix(1 0 0 1 617.4795 59.9365)" style="&st10;"><tspan x="0" y="0" style="&st30; &st19;">7.5A</tspan></text>
<text transform="matrix(1 0 0 1 617.4795 65.9365)" style="&st10;"><tspan x="0" y="0" style="&st30; &st19;">GAUGE</tspan></text>
<text transform="matrix(1 0 0 1 595.8594 105.2568)" style="&st10;"><tspan x="0" y="0" style="&st30; &st19;">2A</tspan></text>
<text transform="matrix(1 0 0 1 583.5293 105.2568)" style="&st10;"><tspan x="0" y="0" style="&st30; &st19;">55</tspan></text>
<text transform="matrix(1 0 0 1 594.0996 35.8467)" style="&st10;"><tspan x="0" y="0" style="&st30; &st19;">(IG)</tspan></text>
</g>
<g ewd:code="R40" ewd:figID="37" ewd:figtype="conn">
<path style="&st17;" d="M742.12,555.84l-22.08-12.75"/>
<path style="&st17;" d="M705.58,549.46h17l1.42-2.83l2.83,5.67l2.83-5.67l2.84,5.67l2.83-5.67l2.83,5.67l1.42-2.84h17"/>
<path style="&st11;" d="M756.58,532.47v42.49h-51v-42.49H756.58"/>
<path style="&st17;" d="M720.04,543.09l2.33,3.04l1.47-2.54L720.04,543.09l1.28,0.74l0.99,1.28l0.61-1.07l-1.6-0.21l0.64,0.37l0.31,0.41l0.2-0.34l-0.51-0.07"/>
<text transform="matrix(1 0 0 1 759.4106 545.7661)" style="&st10;"><tspan x="0" y="0" style="&st30; &st19;">1</tspan></text>
<text transform="matrix(1 0 0 1 698.7905 545.7661)" style="&st10;"><tspan x="0" y="0" style="&st30; &st19;">3</tspan></text>
<text transform="matrix(1 0 0 1 711.561 515.7075)" style="&st10;"><tspan x="0" y="0" style="&st30; &st19;">R40</tspan></text>
<text ewd:textID="63" transform="matrix(1 0 0 1 711.561 522.8169)" style="&st10; &st30; &st19;">Fuel Sender <tspan x="0" y="7">Gauge Assembly</tspan></text>
<text ewd:textID="65" transform="matrix(1 0 0 1 720.4106 559.9263)" style="&st10; &st30; &st19;">Gauge</text>
</g>
<g ewd:code="S5" ewd:figID="36" ewd:figtype="conn">
<path style="&st17;" d="M742.12,623.83l-22.08-12.75"/>
<path style="&st17;" d="M705.58,617.45h17l1.42-2.83l2.83,5.67l2.83-5.67l2.84,5.67l2.83-5.67l2.83,5.67l1.42-2.84h17"/>
<path style="&st11;" d="M756.58,600.46v42.49h-51v-42.49H756.58"/>
<path style="&st17;" d="M720.04,611.08l2.33,3.04l1.47-2.54L720.04,611.08l1.28,0.74l0.99,1.28l0.61-1.07l-1.6-0.21l0.64,0.37l0.31,0.4l0.2-0.34l-0.51-0.06"/>
<text transform="matrix(1 0 0 1 698.7905 613.7563)" style="&st10;"><tspan x="0" y="0" style="&st30; &st19;">2</tspan></text>
<text transform="matrix(1 0 0 1 759.4106 613.7563)" style="&st10;"><tspan x="0" y="0" style="&st30; &st19;">3</tspan></text>
<text ewd:textID="65" transform="matrix(1 0 0 1 720.4106 627.9165)" style="&st10; &st30; &st19;">Gauge</text>
<text ewd:textID="63" transform="matrix(1 0 0 1 703.061 657.6665)" style="&st10; &st30; &st19;">Fuel Sender <tspan x="0" y="7">Gauge Assembly</tspan></text>
<text transform="matrix(1 0 0 1 703.061 650.5571)" style="&st10;"><tspan x="0" y="0" style="&st30; &st19;">S5</tspan></text>
</g>
<g ewd:code="G16" ewd:figID="38" ewd:figtype="conn">
<path style="&st17;" d="M850.56,523.97h21.25"/>
<path style="&st11;" d="M874.64,523.97l22.66-5.67"/>
<path style="&st17;" d="M897.3,523.97h21.25"/>
<path style="&st11;" d="M1020.53,550.88l5.67-22.66"/>
<path style="&st17;" d="M1020.53,557.96v-4.25"/>
<path style="&st17;" d="M1020.53,528.22v-4.25"/>
<path style="&st17;" d="M917.36,522.97l-0.28,0.47l-0.09,0.53l0.09,0.53l0.28,0.47l0.41,0.35l0.51,0.18h0.54l0.51-0.18l0.41-0.35l0.27-0.47l0.1-0.53l-0.1-0.53l-0.27-0.47l-0.41-0.35l-0.51-0.19h-0.54l-0.51,0.19L917.36,522.97l0.39,0.71v0.58l0.37,0.45l0.57,0.09l0.51-0.28l0.2-0.55l-0.2-0.55l-0.51-0.29l-0.57,0.1l0.43,0.74"/>
<path style="&st17;" d="M985.34,573.96l-0.27,0.47l-0.09,0.53l0.09,0.53l0.27,0.47l0.42,0.35l0.5,0.19h0.55l0.51-0.19l0.41-0.35l0.27-0.47l0.09-0.53l-0.09-0.53l-0.27-0.47l-0.41-0.35l-0.51-0.19h-0.55l-0.5,0.19L985.34,573.96l0.4,0.71v0.58l0.37,0.45l0.57,0.1l0.51-0.29l0.2-0.55l-0.2-0.55l-0.51-0.29l-0.57,0.1l0.43,0.74"/>
<path style="&st17;" d="M918.55,557.96v17h67.99v-76.49"/>
<path style="&st17;" d="M1020.53,557.96v17h-33.99"/>
<path style="&st17;" d="M952.54,498.47v25.5"/>
<path style="&st17;" d="M1020.53,498.47v25.5"/>
<path style="&st17;" d="M918.55,498.47v25.5"/>
<path style="&st17;" d="M850.56,498.47v25.5"/>
<path style="&st11;" d="M842.06,583.46h203.97v-84.99H842.06V583.46"/>
<path style="&st17;" d="M921.38,539.55l3.54,1.47v-2.94L921.38,539.55h1.48l1.5,0.62v-1.24l-1.5,0.62h0.74l0.47,0.19v-0.39l-0.47,0.2"/>
<path style="&st17;" d="M921.38,539.55h31.16v-15.58"/>
<path style="&st17;" d="M918.55,557.96v-8.5l-2.84-1.41l5.67-2.84l-5.67-2.83l5.67-2.83l-5.67-2.83l5.67-2.84l-2.83-1.41v-8.5"/>
<path style="&st17;" d="M874.64,523.97c0-0.78-0.64-1.42-1.42-1.42"/>
<path style="&st17;" d="M873.22,522.55c-0.78,0-1.41,0.64-1.41,1.42"/>
<path style="&st17;" d="M871.81,523.97c0,0.78,0.63,1.41,1.41,1.41"/>
<path style="&st17;" d="M873.22,525.38c0.78,0,1.42-0.63,1.42-1.41"/>
<path style="&st17;" d="M897.3,523.97c0-0.78-0.63-1.42-1.41-1.42"/>
<path style="&st17;" d="M895.89,522.55c-0.79,0-1.42,0.64-1.42,1.42"/>
<path style="&st17;" d="M894.47,523.97c0,0.78,0.63,1.41,1.42,1.41"/>
<path style="&st17;" d="M895.89,525.38c0.78,0,1.41-0.63,1.41-1.41"/>
<path style="&st17;" d="M1021.95,552.3c0-0.79-0.64-1.42-1.42-1.42"/>
<path style="&st17;" d="M1020.53,550.88c-0.78,0-1.42,0.63-1.42,1.42"/>
<path style="&st17;" d="M1019.11,552.3c0,0.78,0.64,1.41,1.42,1.41"/>
<path style="&st17;" d="M1020.53,553.71c0.78,0,1.42-0.63,1.42-1.41"/>
<path style="&st17;" d="M1021.95,529.63c0-0.78-0.64-1.41-1.42-1.41"/>
<path style="&st17;" d="M1020.53,528.22c-0.78,0-1.42,0.63-1.42,1.41"/>
<path style="&st17;" d="M1019.11,529.63c0,0.79,0.64,1.42,1.42,1.42"/>
<path style="&st17;" d="M1020.53,531.05c0.78,0,1.42-0.63,1.42-1.42"/>
<text transform="matrix(0 -1 1 0 1016.8413 557.8774)" style="&st10;"><tspan x="0" y="0" style="&st30; &st19;">ODO/TRIP</tspan></text>
<text ewd:textID="107" transform="matrix(1 0 0 1 866.9312 531.5962)" style="&st10; &st30; &st19;">Tail Cancel <tspan x="0" y="7">Switch</tspan></text>
<text transform="matrix(1 0 0 1 853.3911 506.6665)" style="&st10;"><tspan x="0" y="0" style="&st30; &st19;">TC</tspan></text>
<text transform="matrix(1 0 0 1 921.3813 506.6665)" style="&st10;"><tspan x="0" y="0" style="&st30; &st19;">T</tspan></text>
<text transform="matrix(1 0 0 1 955.3813 506.6665)" style="&st10;"><tspan x="0" y="0" style="&st30; &st19;">RV</tspan></text>
<text transform="matrix(1 0 0 1 989.3706 506.6665)" style="&st10;"><tspan x="0" y="0" style="&st30; &st19;">E</tspan></text>
<text transform="matrix(1 0 0 1 1023.3608 506.6665)" style="&st10;"><tspan x="0" y="0" style="&st30; &st19;">A/B</tspan></text>
<text transform="matrix(1 0 0 1 843.771 494.7759)" style="&st10;"><tspan x="0" y="0" style="&st30; &st19;">7</tspan></text>
<text transform="matrix(1 0 0 1 911.7612 494.7759)" style="&st10;"><tspan x="0" y="0" style="&st30; &st19;">8</tspan></text>
<text transform="matrix(1 0 0 1 848.0308 591.0669)" style="&st10;"><tspan x="0" y="0" style="&st30; &st19;">G16</tspan></text>
<text ewd:textID="112" transform="matrix(1 0 0 1 848.0308 598.1763)" style="&st10; &st30; &st19;">Trip Switch</text>
<text transform="matrix(1 0 0 1 945.7505 494.7759)" style="&st10;"><tspan x="0" y="0" style="&st30; &st19;">6</tspan></text>
<text transform="matrix(1 0 0 1 979.7505 494.7759)" style="&st10;"><tspan x="0" y="0" style="&st30; &st19;">4</tspan></text>
<text transform="matrix(1 0 0 1 1014.521 494.7759)" style="&st10;"><tspan x="0" y="0" style="&st30; &st19;">1</tspan></text>
<text transform="matrix(1 0 0 1 857.1313 520.2661)" style="&st10;"><tspan x="0" y="0" style="&st30; &st19;">(*8)</tspan></text>
<text transform="matrix(1 0 0 1 899.6206 520.2661)" style="&st10;"><tspan x="0" y="0" style="&st30; &st19;">(*8)</tspan></text>
</g>
<g ewd:code="R41" ewd:figID="35" ewd:figtype="conn">
<path style="&st11;" d="M543.93,644.68v34h76.48v-34H543.93"/>
<text transform="matrix(1 0 0 1 555.334 652.3198)" style="&st10;"><tspan x="0" y="0" style="&st30; &st19;">IND</tspan></text>
<text transform="matrix(1 0 0 1 597.4941 652.3198)" style="&st10;"><tspan x="0" y="0" style="&st30; &st19;">GND3</tspan></text>
<text transform="matrix(1 0 0 1 543.8677 685.9087)" style="&st10;"><tspan x="0" y="0" style="&st30; &st19;">R41</tspan></text>
<text transform="matrix(1 0 0 1 552.1138 642.9409)" style="&st10;"><tspan x="0" y="0" style="&st30; &st19;">5</tspan></text>
<text transform="matrix(1 0 0 1 593.6138 642.9409)" style="&st10;"><tspan x="0" y="0" style="&st30; &st19;">9</tspan></text>
<text ewd:textID="110" transform="matrix(1 0 0 1 543.6953 692.6802)" style="&st10; &st30; &st19;">Tire Pressure Warning <tspan x="0" y="7">ECU and Receiver</tspan></text>
</g>
<text transform="matrix(0 -1 1 0 715.46 126.5068)" style="&st10;"><tspan x="0" y="0" style="&st30; &st19;">L</tspan></text>
<text transform="matrix(1 0 0 1 695.9297 205.8164)" style="&st10;"><tspan x="0" y="0" style="&st30; &st19;">L</tspan></text>
<text transform="matrix(1 0 0 1 657.6895 120.8364)" style="&st10;"><tspan x="0" y="0" style="&st30; &st19;">L</tspan></text>
<text transform="matrix(0 -1 1 0 638.9697 194.4966)" style="&st10;"><tspan x="0" y="0" style="&st30; &st19;">L</tspan></text>
<text transform="matrix(0 -1 1 0 596.4795 127.0068)" style="&st10;"><tspan x="0" y="0" style="&st30; &st19;">R</tspan></text>
<text transform="matrix(0 -1 1 0 642.4009 449.8071)" style="&st10;"><tspan x="0" y="0" style="&st30; &st19;">B</tspan></text>
<text transform="matrix(0 -1 1 0 812.3706 450.8364)" style="&st10;"><tspan x="0" y="0" style="&st30; &st19;">W</tspan></text>
<text transform="matrix(0 -1 1 0 642.4009 510.3267)" style="&st10;"><tspan x="0" y="0" style="&st30; &st19;">W</tspan></text>
<text transform="matrix(0 -1 1 0 812.3706 509.2974)" style="&st10;"><tspan x="0" y="0" style="&st30; &st19;">B</tspan></text>
<text transform="matrix(0 -1 1 0 642.4009 578.3169)" style="&st10;"><tspan x="0" y="0" style="&st30; &st19;">W</tspan></text>
<text transform="matrix(0 -1 1 0 812.3706 577.2856)" style="&st10;"><tspan x="0" y="0" style="&st30; &st19;">B</tspan></text>
<text transform="matrix(0 -1 1 0 846.8608 450.8364)" style="&st10;"><tspan x="0" y="0" style="&st30; &st19;">W</tspan></text>
<text transform="matrix(0 -1 1 0 914.8511 449.8071)" style="&st10;"><tspan x="0" y="0" style="&st30; &st19;">B</tspan></text>
<text transform="matrix(0 -1 1 0 948.8511 452.7075)" style="&st10;"><tspan x="0" y="0" style="&st30; &st19;">GR</tspan></text>
<text transform="matrix(0 -1 1 0 982.8413 452.2075)" style="&st10;"><tspan x="0" y="0" style="&st30; &st19;">LG</tspan></text>
<text transform="matrix(1 0 0 1 504.9302 18.8564)" style="&st10;"><tspan x="0" y="0" style="&st30; &st19;">R</tspan></text>
<text transform="matrix(1 0 0 1 556.6206 18.8564)" style="&st10;"><tspan x="0" y="0" style="&st30; &st19;">R</tspan></text>
<text transform="matrix(0 -1 1 0 653.731 514.3462)" style="&st10;"><tspan x="0" y="0" style="&st30; &st19;">(*11)</tspan></text>
<text transform="matrix(0 -1 1 0 823.7007 582.3364)" style="&st10;"><tspan x="0" y="0" style="&st30; &st19;">(*11)</tspan></text>
<text transform="matrix(0 -1 1 0 653.731 582.3364)" style="&st10;"><tspan x="0" y="0" style="&st30; &st19;">(*11)</tspan></text>
<text transform="matrix(0 -1 1 0 502.9893 452.2759)" style="&st10;"><tspan x="0" y="0" style="&st30; &st19;">BR</tspan></text>
<text transform="matrix(0 -1 1 0 823.7007 514.3462)" style="&st10;"><tspan x="0" y="0" style="&st30; &st19;">(*11)</tspan></text>
<text transform="matrix(0 -1 1 0 786.8706 509.2974)" style="&st10;"><tspan x="0" y="0" style="&st30; &st19;">B</tspan></text>
<text transform="matrix(0 -1 1 0 798.2104 514.7368)" style="&st10;"><tspan x="0" y="0" style="&st30; &st19;">(*12)</tspan></text>
<text transform="matrix(0 -1 1 0 667.8911 510.3267)" style="&st10;"><tspan x="0" y="0" style="&st30; &st19;">W</tspan></text>
<text transform="matrix(0 -1 1 0 679.231 514.7368)" style="&st10;"><tspan x="0" y="0" style="&st30; &st19;">(*12)</tspan></text>
<text transform="matrix(0 -1 1 0 858.2007 453.6567)" style="&st10;"><tspan x="0" y="0" style="&st30; &st19;">(*8)</tspan></text>
<text ewd:textID="115" transform="matrix(0 -1 1 0 786.2891 142.6367)" style="&st10; &st30; &st19;">Turn Signal <tspan x="0" y="7">Flasher Assembly</tspan></text>
<text transform="matrix(0 -1 1 0 766.4492 194.8467)" style="&st10;"><tspan x="0" y="0" style="&st30; &st19;">Y</tspan></text>
<text transform="matrix(0 -1 1 0 800.4395 195.2764)" style="&st10;"><tspan x="0" y="0" style="&st30; &st19;">G</tspan></text>
<text transform="matrix(0 -1 1 0 556.0156 449.0942)" style="&st10;"><tspan x="0" y="0" style="&st30; &st19;">Y</tspan></text>
<text transform="matrix(0 -1 1 0 556.0156 592.1108)" style="&st10;"><tspan x="0" y="0" style="&st30; &st19;">Y</tspan></text>
<text transform="matrix(0 -1 1 0 598.5156 451.2603)" style="&st10;"><tspan x="0" y="0" style="&st30; &st19;">BR</tspan></text>
<text transform="matrix(0 -1 1 0 556.0156 510.3931)" style="&st10;"><tspan x="0" y="0" style="&st30; &st19;">Y</tspan></text>
<text transform="matrix(0 -1 1 0 598.5156 512.5601)" style="&st10;"><tspan x="0" y="0" style="&st30; &st19;">BR</tspan></text>
<text transform="matrix(0 -1 1 0 598.5156 594.2769)" style="&st10;"><tspan x="0" y="0" style="&st30; &st19;">BR</tspan></text>
<text transform="matrix(0 -1 1 0 568.0898 453.5952)" style="&st10;"><tspan x="0" y="0" style="&st30; &st19;">(*31)</tspan></text>
<text transform="matrix(0 -1 1 0 568.0898 514.895)" style="&st10;"><tspan x="0" y="0" style="&st30; &st19;">(*31)</tspan></text>
<text transform="matrix(0 -1 1 0 568.0898 596.6118)" style="&st10;"><tspan x="0" y="0" style="&st30; &st19;">(*31)</tspan></text>
<text transform="matrix(0 -1 1 0 610.3564 596.6118)" style="&st10;"><tspan x="0" y="0" style="&st30; &st19;">(*31)</tspan></text>
<text transform="matrix(0 -1 1 0 610.3564 514.895)" style="&st10;"><tspan x="0" y="0" style="&st30; &st19;">(*31)</tspan></text>
<text transform="matrix(0 -1 1 0 610.3564 453.5952)" style="&st10;"><tspan x="0" y="0" style="&st30; &st19;">(*31)</tspan></text>
</svg>
