﻿<?xml version="1.0" encoding="UTF-8"?>
<!DOCTYPE svg PUBLIC "-//W3C//DTD SVG 1.0//EN" "http://www.w3.org/TR/2001/REC-SVG-20010904/DTD/svg10.dtd"[
<!ENTITY ns_flows "http://ns.adobe.com/Flows/1.0/">
<!ENTITY ns_svg "http://www.w3.org/2000/svg">
<!ENTITY ns_xlink "http://www.w3.org/1999/xlink">
	<!ENTITY st0 "fill:none;stroke:#FB0F0C;stroke-width:5.1;stroke-linejoin:round;">
	<!ENTITY st1 "fill:none;stroke:#9A9999;stroke-width:5.1;stroke-linejoin:round;">
	<!ENTITY st2 "fill:none;stroke:#000000;stroke-width:5.1;stroke-linejoin:round;">
	<!ENTITY st3 "fill:none;stroke:#000000;stroke-linecap:round;stroke-linejoin:round;">
	<!ENTITY st4 "stroke:#000000;stroke-width:0.28;stroke-linecap:round;stroke-linejoin:round;enable-background:new    ;">
	<!ENTITY st5 "enable-background:new    ;">
		<!ENTITY st6 "fill:none;stroke:#000000;stroke-width:1.42;stroke-linecap:round;stroke-linejoin:round;enable-background:new    ;">
	<!ENTITY st7 "fill:none;stroke:#EE67AA;stroke-width:5.1;stroke-linejoin:round;">
	<!ENTITY st8 "fill:none;stroke:#199DBF;stroke-width:5.1;stroke-linejoin:round;">
	<!ENTITY st9 "opacity:0.5;fill:none;stroke:#34ACCE;stroke-linejoin:round;stroke-dasharray:6;">
	<!ENTITY st10 "fill:none;stroke:#FFFFFF;stroke-width:4.53;stroke-linejoin:round;">
		<!ENTITY st11 "fill:none;stroke:#000000;stroke-width:0.85;stroke-linecap:round;stroke-linejoin:round;enable-background:new    ;">
	<!ENTITY st12 "font-size:6px;">
	<!ENTITY st13 "fill:none;stroke:#168638;stroke-width:5.1;stroke-linejoin:round;">
	<!ENTITY st14 "fill:none;stroke:#000000;stroke-width:1.13;stroke-linejoin:round;">
	<!ENTITY st15 "fill:#FFFFFF;stroke:#000000;stroke-width:1.41;stroke-linecap:round;stroke-linejoin:round;">
	<!ENTITY st16 "fill:none;stroke:#550E7B;stroke-width:5.1;stroke-linejoin:round;">
	<!ENTITY st17 "fill:none;stroke:#3E65AC;stroke-width:3;">
	<!ENTITY st18 "fill:#CCCCCC;stroke:#CCCCCC;stroke-width:0.1;stroke-linecap:round;stroke-linejoin:round;">
	<!ENTITY st19 "font-family:'ArialMT';">
	<!ENTITY st20 "opacity:0.5;fill:none;stroke:#34ACCE;stroke-linejoin:round;">
	<!ENTITY st21 "fill:#CFE6E7;stroke:#000000;stroke-width:1.133;stroke-linecap:round;stroke-linejoin:round;">
	<!ENTITY st22 "fill:none;stroke:#000000;stroke-width:0.85;stroke-linecap:round;stroke-linejoin:round;stroke-dasharray:3 1.5;">
	<!ENTITY st23 "fill:none;stroke:#000000;stroke-width:0.85;stroke-linecap:round;stroke-linejoin:round;">
	<!ENTITY st24 "fill:none;stroke:#7EC57E;stroke-width:5.1;stroke-linejoin:round;">
<!ATTLIST svg
xmlns:ewd CDATA #FIXED "http://shcl.co.jp/ewd"
xmlns:a CDATA #FIXED "http://ns.adobe.com/AdobeSVGViewerExtensions/3.0/"
ewd:ver CDATA #IMPLIED
>
<!ATTLIST a
ewd:lineID CDATA #IMPLIED
ewd:groupID CDATA #IMPLIED
ewd:figtype CDATA #IMPLIED
ewd:code CDATA #IMPLIED
ewd:figID CDATA #IMPLIED
ewd:pinNo CDATA #IMPLIED
ewd:comment CDATA #IMPLIED >
<!ATTLIST g
ewd:lineID CDATA #IMPLIED
ewd:groupID CDATA #IMPLIED
ewd:figtype CDATA #IMPLIED
ewd:code CDATA #IMPLIED
ewd:figID CDATA #IMPLIED
ewd:pinNo CDATA #IMPLIED
ewd:comment CDATA #IMPLIED >
<!ATTLIST text
ewd:textID CDATA #IMPLIED >
<!ATTLIST title
ewd:textID CDATA #IMPLIED >
]>
<svg 
viewBox='0 0 1558.23 729.44'
height='729.44'
width='1558.23'
xml:space="preserve"
xmlns="&ns_svg;"
xmlns:ewd="http://shcl.co.jp/ewd"
xmlns:xlink="&ns_xlink;" ewd:ver="L2.1">
<g ewd:code="Gi1" ewd:figID="6001" ewd:figtype="w2w" ewd:pinNo="24">
<path style="&st6;" d="M100.61,185.91l4.24,4.25l4.25-4.25"/>
<path style="&st6;" d="M109.1,189.31l-4.25,4.25l-4.24-4.25"/>
<text transform="matrix(1 0 0 1 86.6729 201.1919)" style="&st5;"><tspan x="0" y="0" style="&st19; &st12;">24</tspan></text>
</g>
<g ewd:code="Gi1" ewd:figID="6002" ewd:figtype="w2w" ewd:pinNo="16">
<path style="&st6;" d="M190.51,185.91l4.24,4.25l4.25-4.25"/>
<path style="&st6;" d="M199,189.31l-4.25,4.25l-4.24-4.25"/>
<text transform="matrix(1 0 0 1 176.5781 201.1919)" style="&st5;"><tspan x="0" y="0" style="&st19; &st12;">16</tspan></text>
</g>
<g ewd:code="Gi1" ewd:figID="6003" ewd:figtype="w2w" ewd:pinNo="25">
<path style="&st6;" d="M280.48,185.91l4.24,4.25l4.25-4.25"/>
<path style="&st6;" d="M288.97,189.31l-4.25,4.25l-4.24-4.25"/>
<text transform="matrix(1 0 0 1 266.5469 201.1919)" style="&st5;"><tspan x="0" y="0" style="&st19; &st12;">25</tspan></text>
</g>
<g ewd:code="Gi1" ewd:figID="6016" ewd:figtype="w2w" ewd:pinNo="15">
<path style="&st6;" d="M386.28,558.97l4.24,4.25l4.25-4.25"/>
<path style="&st6;" d="M394.76,562.37l-4.25,4.25l-4.24-4.25"/>
<text transform="matrix(1 0 0 1 372.3408 574.2534)" style="&st5;"><tspan x="0" y="0" style="&st19; &st12;">15</tspan></text>
</g>
<g ewd:code="Gi1" ewd:figID="6004" ewd:figtype="w2w" ewd:pinNo="12">
<path style="&st6;" d="M394.76,276.54l-4.25-4.25l-4.25,4.25"/>
<path style="&st6;" d="M394.76,273.14l-4.25-4.25l-4.25,4.25"/>
<text transform="matrix(1 0 0 1 372.3389 265.1978)" style="&st5;"><tspan x="0" y="0" style="&st19; &st12;">12</tspan></text>
</g>
<g ewd:code="4JB" ewd:figID="3003" ewd:figtype="jb">
<path style="&st6;" d="M669.65,203.89h-4.25"/>
<path style="&st6;" d="M669.65,195.39h-4.25"/>
<path style="&st6;" d="M392.64,203.89h-4.25"/>
<path style="&st6;" d="M392.64,195.39h-4.25"/>
<path style="&st6;" d="M392.64,161.39h-4.25"/>
<path style="&st6;" d="M392.64,152.89h-4.25"/>
<path style="&st11;" d="M390.51,178.39h277.01v17"/>
<path style="&st11;" d="M389.33,177.39l-0.27,0.47l-0.09,0.53l0.09,0.53l0.27,0.47l0.42,0.35l0.5,0.19h0.55l0.5-0.19l0.42-0.35l0.27-0.47l0.09-0.53l-0.09-0.53l-0.27-0.47l-0.42-0.35l-0.5-0.19h-0.55l-0.5,0.19L389.33,177.39l0.4,0.71v0.58l0.37,0.45l0.57,0.1l0.51-0.29l0.19-0.55l-0.19-0.55l-0.51-0.29l-0.57,0.1l0.42,0.74"/>
<path style="&st4;" d="M667.52,190.49l2.84-2.83v4.25l-2.84,2.83l-2.83-2.83v-4.25L667.52,190.49"/>
<path style="&st11;" d="M390.51,195.39v-34"/>
<path style="&st4;" d="M390.51,190.49l-2.83-2.83v4.25l2.83,2.83l2.84-2.83v-4.25L390.51,190.49"/>
<path style="&st4;" d="M390.51,166.29l2.84,2.83v-4.25l-2.84-2.83l-2.83,2.83v4.25L390.51,166.29"/>
<path style="&st6;" d="M673.9,199.64c0-2.34-1.9-4.25-4.25-4.25"/>
<path style="&st6;" d="M669.65,203.89c2.35,0,4.25-1.9,4.25-4.25"/>
<path style="&st6;" d="M661.15,199.64c0,2.35,1.9,4.25,4.25,4.25"/>
<path style="&st6;" d="M665.4,195.39c-2.35,0-4.25,1.91-4.25,4.25"/>
<path style="&st6;" d="M396.89,199.64c0-2.35-1.9-4.25-4.25-4.25"/>
<path style="&st6;" d="M392.64,203.89c2.35,0,4.25-1.91,4.25-4.25"/>
<path style="&st6;" d="M384.14,199.64c0,2.34,1.9,4.25,4.25,4.25"/>
<path style="&st6;" d="M388.39,195.39c-2.35,0-4.25,1.9-4.25,4.25"/>
<path style="&st6;" d="M396.89,157.14c0-2.34-1.9-4.25-4.25-4.25"/>
<path style="&st6;" d="M392.64,161.39c2.35,0,4.25-1.9,4.25-4.25"/>
<path style="&st6;" d="M384.14,157.14c0,2.35,1.9,4.25,4.25,4.25"/>
<path style="&st6;" d="M388.39,152.89c-2.35,0-4.25,1.91-4.25,4.25"/>
<text transform="matrix(1 0 0 1 651.8076 201.606)" style="&st5;"><tspan x="0" y="0" style="&st19; &st12;">38</tspan></text>
<text transform="matrix(1 0 0 1 663.0713 201.606)" style="&st5;"><tspan x="0" y="0" style="&st19; &st12;">4C</tspan></text>
<text transform="matrix(1 0 0 1 374.7998 201.606)" style="&st5;"><tspan x="0" y="0" style="&st19; &st12;">37</tspan></text>
<text transform="matrix(1 0 0 1 386.2139 201.606)" style="&st5;"><tspan x="0" y="0" style="&st19; &st12;">4C</tspan></text>
<text transform="matrix(1 0 0 1 374.7998 159.106)" style="&st5;"><tspan x="0" y="0" style="&st19; &st12;">14</tspan></text>
<text transform="matrix(1 0 0 1 386.2139 159.106)" style="&st5;"><tspan x="0" y="0" style="&st19; &st12;">4A</tspan></text>
</g>
<g ewd:code="2" ewd:figID="3001" ewd:figtype="jb">
<path style="&st3;" d="M41.74,82.04V39.55h-25.5v42.49H41.74"/>
<path style="&st11;" d="M28.99,73.54v25.5"/>
<path style="&st6;" d="M31.12,99.04h-4.25"/>
<path style="&st6;" d="M31.12,107.54h-4.25"/>
<path style="&st6;" d="M41.74,82.04V39.55h-25.5v42.49H41.74"/>
<path style="&st4;" d="M28.99,94.14l-2.83-2.83v4.25l2.83,2.83l2.83-2.83v-4.25L28.99,94.14"/>
<path style="&st6;" d="M28.99,50.88c-2.74,1.61-3.65,5.14-2.04,7.88"/>
<path style="&st6;" d="M26.95,58.76c0.52,0.88,1.16,1.51,2.04,2.03"/>
<path style="&st6;" d="M28.99,70.71c2.74-1.62,3.65-5.14,2.04-7.88"/>
<path style="&st6;" d="M31.03,62.83c-0.52-0.88-1.16-1.52-2.04-2.04"/>
<path style="&st11;" d="M30.41,49.46c0-0.78-0.64-1.41-1.42-1.41"/>
<path style="&st11;" d="M28.99,48.05c-0.78,0-1.41,0.63-1.41,1.41"/>
<path style="&st11;" d="M27.58,49.46c0,0.78,0.63,1.42,1.41,1.42"/>
<path style="&st11;" d="M28.99,50.88c0.78,0,1.42-0.64,1.42-1.42"/>
<path style="&st11;" d="M30.41,72.12c0-0.78-0.64-1.41-1.42-1.41"/>
<path style="&st11;" d="M28.99,70.71c-0.78,0-1.41,0.63-1.41,1.41"/>
<path style="&st11;" d="M27.58,72.12c0,0.79,0.63,1.42,1.41,1.42"/>
<path style="&st11;" d="M28.99,73.54c0.78,0,1.42-0.63,1.42-1.42"/>
<path style="&st6;" d="M26.87,99.04c-2.35,0-4.25,1.9-4.25,4.25"/>
<path style="&st6;" d="M22.62,103.29c0,2.34,1.9,4.25,4.25,4.25"/>
<path style="&st6;" d="M31.12,107.54c2.34,0,4.25-1.91,4.25-4.25"/>
<path style="&st6;" d="M35.37,103.29c0-2.35-1.91-4.25-4.25-4.25"/>
<text transform="matrix(1 0 0 1 46.3003 59.9365)" style="&st5;"><tspan x="0" y="0" style="&st19; &st12;">10A</tspan></text>
<text transform="matrix(1 0 0 1 46.3003 65.9365)" style="&st5;"><tspan x="0" y="0" style="&st19; &st12;">ECU-IG</tspan><tspan x="0" y="7" style="&st19; &st12;">NO. 2</tspan></text>
<text transform="matrix(1 0 0 1 24.9878 105.2568)" style="&st5;"><tspan x="0" y="0" style="&st19; &st12;">2D</tspan></text>
<text transform="matrix(1 0 0 1 22.9214 35.8467)" style="&st5;"><tspan x="0" y="0" style="&st19; &st12;">(IG)</tspan></text>
<text transform="matrix(1 0 0 1 13.2769 105.2568)" style="&st5;"><tspan x="0" y="0" style="&st19; &st12;">39</tspan></text>
</g>
<g ewd:code="3JB" ewd:figID="3002" ewd:figtype="jb">
<path style="&st6;" d="M31.21,254.73h-4.25"/>
<path style="&st6;" d="M31.21,246.23h-4.25"/>
<path style="&st6;" d="M31.21,212.24h-4.25"/>
<path style="&st6;" d="M31.21,203.74h-4.25"/>
<path style="&st11;" d="M29.08,246.23v-33.99"/>
<path style="&st4;" d="M29.08,241.34l-2.83-2.84v4.25l2.83,2.84l2.83-2.84v-4.25L29.08,241.34"/>
<path style="&st4;" d="M29.08,217.13l2.83,2.83v-4.24l-2.83-2.84l-2.83,2.84v4.24L29.08,217.13"/>
<path style="&st6;" d="M26.96,203.74c-2.35,0-4.25,1.9-4.25,4.25"/>
<path style="&st6;" d="M22.71,207.99c0,2.34,1.9,4.25,4.25,4.25"/>
<path style="&st6;" d="M31.21,212.24c2.34,0,4.25-1.91,4.25-4.25"/>
<path style="&st6;" d="M35.46,207.99c0-2.35-1.91-4.25-4.25-4.25"/>
<path style="&st6;" d="M26.96,246.23c-2.35,0-4.25,1.9-4.25,4.25"/>
<path style="&st6;" d="M22.71,250.48c0,2.35,1.9,4.25,4.25,4.25"/>
<path style="&st6;" d="M31.21,254.73c2.34,0,4.25-1.9,4.25-4.25"/>
<path style="&st6;" d="M35.46,250.48c0-2.35-1.91-4.25-4.25-4.25"/>
<text transform="matrix(1 0 0 1 24.626 209.9561)" style="&st5;"><tspan x="0" y="0" style="&st19; &st12;">3B</tspan></text>
<text transform="matrix(1 0 0 1 24.7646 252.4463)" style="&st5;"><tspan x="0" y="0" style="&st19; &st12;">3A</tspan></text>
<text transform="matrix(1 0 0 1 12.4482 209.9561)" style="&st5;"><tspan x="0" y="0" style="&st19; &st12;">36</tspan></text>
<text transform="matrix(1 0 0 1 12.4482 252.4463)" style="&st5;"><tspan x="0" y="0" style="&st19; &st12;">18</tspan></text>
</g>
<g ewd:code="4JB" ewd:figID="3005" ewd:figtype="jb">
<path style="&st6;" d="M669.65,639.47h-4.25"/>
<path style="&st6;" d="M669.65,630.97h-4.25"/>
<path style="&st6;" d="M392.64,681.97h-4.25"/>
<path style="&st6;" d="M392.64,673.47h-4.25"/>
<path style="&st6;" d="M392.64,639.47h-4.25"/>
<path style="&st6;" d="M392.64,630.97h-4.25"/>
<path style="&st11;" d="M390.51,656.47h277.01v-17"/>
<path style="&st11;" d="M389.33,655.47l-0.27,0.47l-0.09,0.53l0.09,0.53l0.27,0.47l0.42,0.35l0.5,0.19h0.55l0.5-0.19l0.42-0.35l0.27-0.47l0.09-0.53l-0.09-0.53l-0.27-0.47l-0.42-0.35l-0.5-0.19h-0.55l-0.5,0.19L389.33,655.47l0.4,0.71v0.58l0.37,0.45l0.57,0.1l0.51-0.29l0.19-0.55l-0.19-0.55l-0.51-0.29l-0.57,0.1l0.42,0.74"/>
<path style="&st4;" d="M667.52,644.37l2.84,2.83v-4.25l-2.84-2.83l-2.83,2.83v4.25L667.52,644.37"/>
<path style="&st11;" d="M390.51,673.47v-34"/>
<path style="&st4;" d="M390.51,668.57l-2.83-2.83v4.25l2.83,2.83l2.84-2.83v-4.25L390.51,668.57"/>
<path style="&st4;" d="M390.51,644.37l2.84,2.83v-4.25l-2.84-2.83l-2.83,2.83v4.25L390.51,644.37"/>
<path style="&st6;" d="M673.9,635.22c0-2.34-1.9-4.25-4.25-4.25"/>
<path style="&st6;" d="M669.65,639.47c2.35,0,4.25-1.9,4.25-4.25"/>
<path style="&st6;" d="M661.15,635.22c0,2.35,1.9,4.25,4.25,4.25"/>
<path style="&st6;" d="M665.4,630.97c-2.35,0-4.25,1.91-4.25,4.25"/>
<path style="&st6;" d="M396.89,677.72c0-2.35-1.9-4.25-4.25-4.25"/>
<path style="&st6;" d="M392.64,681.97c2.35,0,4.25-1.91,4.25-4.25"/>
<path style="&st6;" d="M384.14,677.72c0,2.34,1.9,4.25,4.25,4.25"/>
<path style="&st6;" d="M388.39,673.47c-2.35,0-4.25,1.9-4.25,4.25"/>
<path style="&st6;" d="M396.89,635.22c0-2.34-1.9-4.25-4.25-4.25"/>
<path style="&st6;" d="M392.64,639.47c2.35,0,4.25-1.9,4.25-4.25"/>
<path style="&st6;" d="M384.14,635.22c0,2.35,1.9,4.25,4.25,4.25"/>
<path style="&st6;" d="M388.39,630.97c-2.35,0-4.25,1.91-4.25,4.25"/>
<text transform="matrix(1 0 0 1 651.8076 637.187)" style="&st5;"><tspan x="0" y="0" style="&st19; &st12;">48</tspan></text>
<text transform="matrix(1 0 0 1 663.0713 637.187)" style="&st5;"><tspan x="0" y="0" style="&st19; &st12;">4C</tspan></text>
<text transform="matrix(1 0 0 1 374.7998 679.687)" style="&st5;"><tspan x="0" y="0" style="&st19; &st12;">68</tspan></text>
<text transform="matrix(1 0 0 1 386.2139 679.687)" style="&st5;"><tspan x="0" y="0" style="&st19; &st12;">4A</tspan></text>
<text transform="matrix(1 0 0 1 374.7998 637.187)" style="&st5;"><tspan x="0" y="0" style="&st19; &st12;">47</tspan></text>
<text transform="matrix(1 0 0 1 386.2139 637.187)" style="&st5;"><tspan x="0" y="0" style="&st19; &st12;">4C</tspan></text>
</g>
<g ewd:code="G5" ewd:figID="2001" ewd:figtype="gp">
<path style="&st11;" d="M301.17,713.77H304"/>
<path style="&st11;" d="M299.75,710.94h5.67"/>
<path style="&st11;" d="M298.34,708.1h8.49"/>
<path style="&st11;" d="M294.09,705.27h16.99"/>
<path style="&st11;" d="M302.58,701.02v4.25"/>
</g>
<g ewd:code="i6,G157" ewd:figID="1" ewd:figtype="conn">
<path style="&st6;" d="M79.77,343.37v148h346.95v-148H79.77"/>
<path style="&st23;" d="M390.51,401.2l6.06-24.24"/>
<path style="&st23;" d="M390.51,376.96v-33.59"/>
<path style="&st23;" d="M392.03,378.48c0-0.84-0.68-1.51-1.52-1.51c-0.84,0-1.51,0.68-1.51,1.51c0,0.84,0.68,1.52,1.51,1.52C391.35,379.99,392.03,379.31,392.03,378.48"/>
<path style="&st23;" d="M392.03,402.72c0-0.84-0.68-1.52-1.52-1.52c-0.84,0-1.51,0.68-1.51,1.52c0,0.84,0.68,1.51,1.51,1.51C391.35,404.23,392.03,403.55,392.03,402.72"/>
<path style="&st23;" d="M194.75,383.89l1.57-3.79h-3.14L194.75,383.89v-1.58l0.66-1.6h-1.32l0.66,1.6v-0.79l0.21-0.5h-0.42l0.21,0.5"/>
<path style="&st23;" d="M104.94,343.37v43.55h82.23l1.52-3.03l3.03,6.06l3.03-6.06l3.03,6.06l3.03-6.06l3.03,6.06l1.51-3.03h79.2v-43.55"/>
<path style="&st23;" d="M194.75,343.37v40.52"/>
<path style="&st23;" d="M390.51,460.07v-6.76l-3.03-1.52l6.06-3.03l-6.06-3.03l6.06-3.03l-6.06-3.03l6.06-3.03l-3.03-1.51v-30.89"/>
<path style="&st23;" d="M390.51,460.07h-32.18v-6.76l-3.03-1.52l6.06-3.03l-6.06-3.03l6.06-3.03l-6.06-3.03l6.06-3.03l-3.03-1.51v-7.87h32.18"/>
<path style="&st23;" d="M390.51,491.67v-31.6"/>
<path style="&st22;" d="M284.56,388.08v5.81h100.89"/>
<path style="&st23;" d="M383.07,393.89l-0.51-0.21v0.42L383.07,393.89h0.79l-1.6-0.66v1.32l1.6-0.66h1.58l-3.79-1.57v3.14l3.79-1.57"/>
<path style="&st23;" d="M389.24,426.19l-0.29,0.5l-0.1,0.57l0.1,0.57l0.29,0.51l0.44,0.37l0.54,0.2h0.58l0.54-0.2l0.44-0.37l0.29-0.51l0.1-0.57l-0.1-0.57l-0.29-0.5l-0.44-0.37l-0.54-0.2h-0.58l-0.54,0.2L389.24,426.19l0.42,0.76v0.62l0.4,0.48l0.62,0.11l0.54-0.31l0.21-0.58l-0.21-0.58l-0.54-0.31l-0.62,0.11l0.46,0.79"/>
<path style="&st23;" d="M389.24,458.99l-0.29,0.5l-0.1,0.57l0.1,0.57l0.29,0.5l0.44,0.37l0.54,0.2h0.58l0.54-0.2l0.44-0.37l0.29-0.5l0.1-0.57l-0.1-0.57l-0.29-0.5l-0.44-0.37l-0.54-0.2h-0.58l-0.54,0.2L389.24,458.99l0.42,0.76v0.62l0.4,0.48l0.62,0.11l0.54-0.31l0.21-0.58l-0.21-0.58l-0.54-0.31l-0.62,0.11l0.46,0.79"/>
<path style="&st11;" d="M403.25,412.34l-7.36,4.25"/>
<path style="&st11;" d="M397.9,420.06l7.36-4.25"/>
<path style="&st11;" d="M394.76,422.01h-8.5"/>
<path style="&st4;" d="M390.51,422.01l-5.67-8.5h11.33L390.51,422.01"/>
<path style="&st11;" d="M405.25,415.81l-2.33,3.04l-1.47-2.54L405.25,415.81l-1.28,0.74l-0.98,1.28l-0.62-1.07l1.6-0.21l-0.64,0.37l-0.31,0.41l-0.2-0.34l0.51-0.07"/>
<path style="&st11;" d="M403.25,412.34l-2.33,3.04l-1.47-2.54L403.25,412.34l-1.28,0.74l-0.99,1.29l-0.62-1.08l1.61-0.21l-0.64,0.37l-0.31,0.41l-0.2-0.34l0.51-0.07"/>
<path style="&st11;" d="M394.76,478.56h-8.5"/>
<path style="&st4;" d="M390.51,478.56l-5.67-8.5h11.33L390.51,478.56"/>
<path style="&st11;" d="M368.92,431.51v-8.5"/>
<path style="&st4;" d="M368.92,427.26l8.5-5.67v11.33L368.92,427.26"/>
<path style="&st6;" d="M109.48,329.77c0-2.51-2.03-4.54-4.54-4.54"/>
<path style="&st6;" d="M104.94,325.23c-2.5,0-4.53,2.03-4.53,4.54"/>
<path style="&st6;" d="M100.41,329.77c0,2.5,2.03,4.53,4.53,4.53"/>
<path style="&st6;" d="M104.94,334.3c2.51,0,4.54-2.03,4.54-4.53"/>
<path style="&st6;" d="M109.48,338.83c0-2.5-2.03-4.53-4.54-4.53"/>
<path style="&st6;" d="M104.94,334.3c-2.5,0-4.53,2.03-4.53,4.53"/>
<path style="&st6;" d="M100.41,338.83c0,2.51,2.03,4.54,4.53,4.54"/>
<path style="&st6;" d="M104.94,343.37c2.51,0,4.54-2.03,4.54-4.54"/>
<path style="&st6;" d="M199.29,329.77c0-2.51-2.03-4.54-4.54-4.54"/>
<path style="&st6;" d="M194.75,325.23c-2.5,0-4.53,2.03-4.53,4.54"/>
<path style="&st6;" d="M190.22,329.77c0,2.5,2.03,4.53,4.53,4.53"/>
<path style="&st6;" d="M194.75,334.3c2.51,0,4.54-2.03,4.54-4.53"/>
<path style="&st6;" d="M199.29,338.83c0-2.5-2.03-4.53-4.54-4.53"/>
<path style="&st6;" d="M194.75,334.3c-2.5,0-4.53,2.03-4.53,4.53"/>
<path style="&st6;" d="M190.22,338.83c0,2.51,2.03,4.54,4.53,4.54"/>
<path style="&st6;" d="M194.75,343.37c2.51,0,4.54-2.03,4.54-4.54"/>
<path style="&st6;" d="M289.09,329.77c0-2.51-2.03-4.54-4.54-4.54"/>
<path style="&st6;" d="M284.56,325.23c-2.5,0-4.53,2.03-4.53,4.54"/>
<path style="&st6;" d="M280.02,329.77c0,2.5,2.03,4.53,4.53,4.53"/>
<path style="&st6;" d="M284.56,334.3c2.51,0,4.54-2.03,4.54-4.53"/>
<path style="&st6;" d="M289.09,338.83c0-2.5-2.03-4.53-4.54-4.53"/>
<path style="&st6;" d="M284.56,334.3c-2.5,0-4.53,2.03-4.53,4.53"/>
<path style="&st6;" d="M280.02,338.83c0,2.51,2.03,4.54,4.53,4.54"/>
<path style="&st6;" d="M284.56,343.37c2.51,0,4.54-2.03,4.54-4.54"/>
<path style="&st6;" d="M395.05,329.77c0-2.51-2.03-4.54-4.54-4.54"/>
<path style="&st6;" d="M390.51,325.23c-2.5,0-4.53,2.03-4.53,4.54"/>
<path style="&st6;" d="M385.98,329.77c0,2.5,2.03,4.53,4.53,4.53"/>
<path style="&st6;" d="M390.51,334.3c2.51,0,4.54-2.03,4.54-4.53"/>
<path style="&st6;" d="M395.05,338.83c0-2.5-2.03-4.53-4.54-4.53"/>
<path style="&st6;" d="M390.51,334.3c-2.5,0-4.53,2.03-4.53,4.53"/>
<path style="&st6;" d="M385.98,338.83c0,2.51,2.03,4.54,4.53,4.54"/>
<path style="&st6;" d="M390.51,343.37c2.51,0,4.54-2.03,4.54-4.54"/>
<path style="&st6;" d="M395.05,496.21c0-2.51-2.03-4.54-4.54-4.54"/>
<path style="&st6;" d="M390.51,491.67c-2.5,0-4.53,2.03-4.53,4.54"/>
<path style="&st6;" d="M385.98,496.21c0,2.5,2.03,4.53,4.53,4.53"/>
<path style="&st6;" d="M390.51,500.74c2.51,0,4.54-2.03,4.54-4.53"/>
<path style="&st6;" d="M395.05,505.27c0-2.5-2.03-4.53-4.54-4.53"/>
<path style="&st6;" d="M390.51,500.74c-2.5,0-4.53,2.03-4.53,4.53"/>
<path style="&st6;" d="M385.98,505.27c0,2.51,2.03,4.54,4.53,4.54"/>
<path style="&st6;" d="M390.51,509.81c2.51,0,4.54-2.03,4.54-4.54"/>
<path style="&st22;" d="M113.87,328.83h67.04"/>
<path style="&st22;" d="M113.87,338.38h67.04"/>
<path style="&st22;" d="M206.34,328.83h67.04"/>
<path style="&st22;" d="M206.34,338.38h67.04"/>
<path style="&st22;" d="M295.06,328.83h82.72"/>
<path style="&st22;" d="M295.06,338.38h82.72"/>
<text transform="matrix(1 0 0 1 79.7681 499.1187)" style="&st5;"><tspan x="0" y="0" style="&st19; &st12;">i6(A),G157(B)</tspan></text>
<text ewd:textID="3" transform="matrix(1 0 0 1 79.7681 506.228)" style="&st5; &st19; &st12;">Refreshing Seat Switch LH</text>
<text transform="matrix(1 0 0 1 91.2651 340.8022)" style="&st5;"><tspan x="0" y="0" style="&st19; &st12;">11</tspan></text>
<text transform="matrix(1 0 0 1 102.8237 331.7427)" style="&st5;"><tspan x="0" y="0" style="&st19; &st12;">B</tspan></text>
<text transform="matrix(1 0 0 1 91.2651 331.7427)" style="&st5;"><tspan x="0" y="0" style="&st19; &st12;">11</tspan></text>
<text transform="matrix(1 0 0 1 102.4741 340.8022)" style="&st5;"><tspan x="0" y="0" style="&st19; &st12;">A</tspan></text>
<text transform="matrix(1 0 0 1 183.9614 340.8022)" style="&st5;"><tspan x="0" y="0" style="&st19; &st12;">9</tspan></text>
<text transform="matrix(1 0 0 1 192.6284 331.7427)" style="&st5;"><tspan x="0" y="0" style="&st19; &st12;">B</tspan></text>
<text transform="matrix(1 0 0 1 183.9614 331.7427)" style="&st5;"><tspan x="0" y="0" style="&st19; &st12;">9</tspan></text>
<text transform="matrix(1 0 0 1 192.2788 340.8022)" style="&st5;"><tspan x="0" y="0" style="&st19; &st12;">A</tspan></text>
<text transform="matrix(1 0 0 1 273.7676 340.8022)" style="&st5;"><tspan x="0" y="0" style="&st19; &st12;">2</tspan></text>
<text transform="matrix(1 0 0 1 282.4346 331.7427)" style="&st5;"><tspan x="0" y="0" style="&st19; &st12;">B</tspan></text>
<text transform="matrix(1 0 0 1 273.7676 331.7427)" style="&st5;"><tspan x="0" y="0" style="&st19; &st12;">2</tspan></text>
<text transform="matrix(1 0 0 1 282.085 340.8022)" style="&st5;"><tspan x="0" y="0" style="&st19; &st12;">A</tspan></text>
<text transform="matrix(1 0 0 1 379.7266 340.8022)" style="&st5;"><tspan x="0" y="0" style="&st19; &st12;">8</tspan></text>
<text transform="matrix(1 0 0 1 388.3936 331.7427)" style="&st5;"><tspan x="0" y="0" style="&st19; &st12;">B</tspan></text>
<text transform="matrix(1 0 0 1 379.7266 331.7427)" style="&st5;"><tspan x="0" y="0" style="&st19; &st12;">8</tspan></text>
<text transform="matrix(1 0 0 1 398.0635 340.9688)" style="&st5;"><tspan x="0" y="0" style="&st19; &st12;">(A/T)</tspan></text>
<text transform="matrix(1 0 0 1 398.0635 331.9092)" style="&st5;"><tspan x="0" y="0" style="&st19; &st12;">(M/T)</tspan></text>
<text transform="matrix(1 0 0 1 398.0635 498.3022)" style="&st5;"><tspan x="0" y="0" style="&st19; &st12;">(A/T)</tspan></text>
<text transform="matrix(1 0 0 1 398.0635 507.0767)" style="&st5;"><tspan x="0" y="0" style="&st19; &st12;">(M/T)</tspan></text>
<text transform="matrix(1 0 0 1 388.0439 340.8022)" style="&st5;"><tspan x="0" y="0" style="&st19; &st12;">A</tspan></text>
<text transform="matrix(1 0 0 1 376.3896 507.2358)" style="&st5;"><tspan x="0" y="0" style="&st19; &st12;">10</tspan></text>
<text transform="matrix(1 0 0 1 388.3936 498.1763)" style="&st5;"><tspan x="0" y="0" style="&st19; &st12;">A</tspan></text>
<text transform="matrix(1 0 0 1 376.3896 498.1763)" style="&st5;"><tspan x="0" y="0" style="&st19; &st12;">10</tspan></text>
<text transform="matrix(1 0 0 1 388.0439 507.2358)" style="&st5;"><tspan x="0" y="0" style="&st19; &st12;">B</tspan></text>
<text transform="matrix(1 0 0 1 107.2729 350.7808)" style="&st5;"><tspan x="0" y="0" style="&st19; &st12;">SW-</tspan></text>
<text transform="matrix(1 0 0 1 197.3105 350.7808)" style="&st5;"><tspan x="0" y="0" style="&st19; &st12;">BLLH</tspan></text>
<text transform="matrix(1 0 0 1 287.9775 350.7808)" style="&st5;"><tspan x="0" y="0" style="&st19; &st12;">SW+</tspan></text>
<text transform="matrix(1 0 0 1 393.4775 350.7808)" style="&st5;"><tspan x="0" y="0" style="&st19; &st12;">IG</tspan></text>
<text transform="matrix(1 0 0 1 392.8105 488.1128)" style="&st5;"><tspan x="0" y="0" style="&st19; &st12;">E</tspan></text>
</g>
<g ewd:code="G106" ewd:figID="6" ewd:figtype="conn">
<path style="&st6;" d="M294.09,659.94h16.99v16.99h-16.99V659.94"/>
<path style="&st11;" d="M302.58,659.94v25.49"/>
<text transform="matrix(1 0 0 1 314.9932 661.9116)" style="&st5;"><tspan x="0" y="0" style="&st19; &st12;">G106</tspan></text>
<text ewd:textID="2" transform="matrix(1 0 0 1 314.9932 669.021)" style="&st5; &st19; &st12;">Junction <tspan x="0" y="7">Connector</tspan></text>
<text transform="matrix(1 0 0 1 295.542 656.2554)" style="&st5;"><tspan x="0" y="0" style="&st19; &st12;">3</tspan></text>
</g>
<g ewd:code="G24-A,G25-B" ewd:figID="2" ewd:figtype="conn">
<path style="&st6;" d="M84.56,47.22v45.45h1277.01V47.22H84.56"/>
<path style="&st6;" d="M109.38,97.21c0-2.51-2.03-4.54-4.54-4.54"/>
<path style="&st6;" d="M104.85,92.67c-2.5,0-4.53,2.03-4.53,4.54"/>
<path style="&st6;" d="M100.31,97.21c0,2.5,2.03,4.53,4.53,4.53"/>
<path style="&st6;" d="M104.85,101.74c2.51,0,4.54-2.03,4.54-4.53"/>
<path style="&st6;" d="M199.29,97.21c0-2.51-2.03-4.54-4.54-4.54"/>
<path style="&st6;" d="M194.75,92.67c-2.5,0-4.53,2.03-4.53,4.54"/>
<path style="&st6;" d="M190.22,97.21c0,2.5,2.03,4.53,4.53,4.53"/>
<path style="&st6;" d="M194.75,101.74c2.51,0,4.54-2.03,4.54-4.53"/>
<path style="&st6;" d="M289.26,97.21c0-2.51-2.03-4.54-4.54-4.54"/>
<path style="&st6;" d="M284.72,92.67c-2.5,0-4.53,2.03-4.53,4.54"/>
<path style="&st6;" d="M280.19,97.21c0,2.5,2.03,4.53,4.53,4.53"/>
<path style="&st6;" d="M284.72,101.74c2.51,0,4.54-2.03,4.54-4.53"/>
<path style="&st6;" d="M716.19,97.21c0-2.51-2.03-4.54-4.54-4.54"/>
<path style="&st6;" d="M711.66,92.67c-2.5,0-4.53,2.03-4.53,4.54"/>
<path style="&st6;" d="M707.12,97.21c0,2.5,2.03,4.53,4.53,4.53"/>
<path style="&st6;" d="M711.66,101.74c2.51,0,4.54-2.03,4.54-4.53"/>
<path style="&st6;" d="M806.1,97.21c0-2.51-2.03-4.54-4.54-4.54"/>
<path style="&st6;" d="M801.56,92.67c-2.5,0-4.53,2.03-4.53,4.54"/>
<path style="&st6;" d="M797.03,97.21c0,2.5,2.03,4.53,4.53,4.53"/>
<path style="&st6;" d="M801.56,101.74c2.51,0,4.54-2.03,4.54-4.53"/>
<path style="&st6;" d="M896.68,97.21c0-2.51-2.03-4.54-4.54-4.54"/>
<path style="&st6;" d="M892.14,92.67c-2.5,0-4.53,2.03-4.53,4.54"/>
<path style="&st6;" d="M887.61,97.21c0,2.5,2.03,4.53,4.53,4.53"/>
<path style="&st6;" d="M892.14,101.74c2.51,0,4.54-2.03,4.54-4.53"/>
<path style="&st6;" d="M1098.98,97.21c0-2.51-2.03-4.54-4.54-4.54"/>
<path style="&st6;" d="M1094.44,92.67c-2.5,0-4.53,2.03-4.53,4.54"/>
<path style="&st6;" d="M1089.91,97.21c0,2.5,2.03,4.53,4.53,4.53"/>
<path style="&st6;" d="M1094.44,101.74c2.51,0,4.54-2.03,4.54-4.53"/>
<path style="&st6;" d="M1323.22,97.21c0-2.51-2.03-4.54-4.54-4.54"/>
<path style="&st6;" d="M1318.68,92.67c-2.5,0-4.53,2.03-4.53,4.54"/>
<path style="&st6;" d="M1314.15,97.21c0,2.5,2.03,4.53,4.53,4.53"/>
<path style="&st6;" d="M1318.68,101.74c2.51,0,4.54-2.03,4.54-4.53"/>
<text transform="matrix(1 0 0 1 85.0645 36.9375)" style="&st5;"><tspan x="0" y="0" style="&st19; &st12;">G24(A),G25(B)</tspan></text>
<text ewd:textID="1" transform="matrix(1 0 0 1 85.0645 44.0469)" style="&st5; &st19; &st12;">A/C Amplifier Assembly</text>
<text transform="matrix(1 0 0 1 102.7241 99.1768)" style="&st5;"><tspan x="0" y="0" style="&st19; &st12;">A</tspan></text>
<text transform="matrix(1 0 0 1 94.0571 99.1768)" style="&st5;"><tspan x="0" y="0" style="&st19; &st12;">6</tspan></text>
<text transform="matrix(1 0 0 1 192.6294 99.1768)" style="&st5;"><tspan x="0" y="0" style="&st19; &st12;">A</tspan></text>
<text transform="matrix(1 0 0 1 180.6255 99.1768)" style="&st5;"><tspan x="0" y="0" style="&st19; &st12;">16</tspan></text>
<text transform="matrix(1 0 0 1 282.5996 99.1768)" style="&st5;"><tspan x="0" y="0" style="&st19; &st12;">A</tspan></text>
<text transform="matrix(1 0 0 1 273.9326 99.1768)" style="&st5;"><tspan x="0" y="0" style="&st19; &st12;">8</tspan></text>
<text transform="matrix(1 0 0 1 97.7017 88.0337)" style="&st5;"><tspan x="0" y="0" style="&st19; &st12;">SG-5</tspan></text>
<text transform="matrix(1 0 0 1 188.916 88.0337)" style="&st5;"><tspan x="0" y="0" style="&st19; &st12;">SW4</tspan></text>
<text transform="matrix(1 0 0 1 278.3047 88.0337)" style="&st5;"><tspan x="0" y="0" style="&st19; &st12;">S5-2</tspan></text>
<text transform="matrix(1 0 0 1 545.0645 36.9375)" style="&st5;"><tspan x="0" y="0" style="&st19; &st12;">G24(A),G25(B)</tspan></text>
<text ewd:textID="1" transform="matrix(1 0 0 1 545.0645 44.0469)" style="&st5; &st19; &st12;">A/C Amplifier Assembly</text>
<text transform="matrix(1 0 0 1 703.9727 88.0337)" style="&st5;"><tspan x="0" y="0" style="&st19; &st12;">S5-4</tspan></text>
<text transform="matrix(1 0 0 1 795.1396 88.0337)" style="&st5;"><tspan x="0" y="0" style="&st19; &st12;">SW5</tspan></text>
<text transform="matrix(1 0 0 1 885.1396 88.0337)" style="&st5;"><tspan x="0" y="0" style="&st19; &st12;">SG-4</tspan></text>
<text transform="matrix(1 0 0 1 709.5342 99.1768)" style="&st5;"><tspan x="0" y="0" style="&st19; &st12;">B</tspan></text>
<text transform="matrix(1 0 0 1 697.5303 99.1768)" style="&st5;"><tspan x="0" y="0" style="&st19; &st12;">31</tspan></text>
<text transform="matrix(1 0 0 1 799.4385 99.1768)" style="&st5;"><tspan x="0" y="0" style="&st19; &st12;">A</tspan></text>
<text transform="matrix(1 0 0 1 787.4346 99.1768)" style="&st5;"><tspan x="0" y="0" style="&st19; &st12;">15</tspan></text>
<text transform="matrix(1 0 0 1 890.0205 99.1768)" style="&st5;"><tspan x="0" y="0" style="&st19; &st12;">B</tspan></text>
<text transform="matrix(1 0 0 1 878.0166 99.1768)" style="&st5;"><tspan x="0" y="0" style="&st19; &st12;">35</tspan></text>
<text transform="matrix(1 0 0 1 1065.5752 36.9375)" style="&st5;"><tspan x="0" y="0" style="&st19; &st12;">G24(A),G25(B)</tspan></text>
<text ewd:textID="1" transform="matrix(1 0 0 1 1065.5752 44.0469)" style="&st5; &st19; &st12;">A/C Amplifier Assembly</text>
<text transform="matrix(1 0 0 1 1086.3545 88.0337)" style="&st5;"><tspan x="0" y="0" style="&st19; &st12;">LOUT</tspan></text>
<text transform="matrix(1 0 0 1 1311.9229 88.0337)" style="&st5;"><tspan x="0" y="0" style="&st19; &st12;">ROUT</tspan></text>
<text transform="matrix(1 0 0 1 1092.3232 99.1768)" style="&st5;"><tspan x="0" y="0" style="&st19; &st12;">A</tspan></text>
<text transform="matrix(1 0 0 1 1080.3193 99.1768)" style="&st5;"><tspan x="0" y="0" style="&st19; &st12;">10</tspan></text>
<text transform="matrix(1 0 0 1 1316.5557 99.1768)" style="&st5;"><tspan x="0" y="0" style="&st19; &st12;">A</tspan></text>
<text transform="matrix(1 0 0 1 1307.8887 99.1768)" style="&st5;"><tspan x="0" y="0" style="&st19; &st12;">9</tspan></text>
</g>
<text transform="matrix(0 -1 1 0 101.3013 158.9023)" style="&st5;"><tspan x="0" y="0" style="&st19; &st12;">R</tspan></text>
<text transform="matrix(0 -1 1 0 113.5435 163.4009)" style="&st5;"><tspan x="0" y="0" style="&st19; &st12;">(A/T)</tspan></text>
<text transform="matrix(0 -1 1 0 138.0239 200.7173)" style="&st5;"><tspan x="0" y="0" style="&st19; &st12;">R</tspan></text>
<text transform="matrix(0 -1 1 0 150.6709 205.7139)" style="&st5;"><tspan x="0" y="0" style="&st19; &st12;">(M/T)</tspan></text>
<text transform="matrix(0 -1 1 0 228.0093 203.0508)" style="&st5;"><tspan x="0" y="0" style="&st19; &st12;">GR</tspan></text>
<text transform="matrix(0 -1 1 0 240.4316 205.7139)" style="&st5;"><tspan x="0" y="0" style="&st19; &st12;">(M/T)</tspan></text>
<text transform="matrix(0 -1 1 0 101.3013 247.8325)" style="&st5;"><tspan x="0" y="0" style="&st19; &st12;">R</tspan></text>
<text transform="matrix(0 -1 1 0 113.5435 252.3311)" style="&st5;"><tspan x="0" y="0" style="&st19; &st12;">(A/T)</tspan></text>
<text transform="matrix(0 -1 1 0 191.439 161.2358)" style="&st5;"><tspan x="0" y="0" style="&st19; &st12;">GR</tspan></text>
<text transform="matrix(0 -1 1 0 202.4482 163.4009)" style="&st5;"><tspan x="0" y="0" style="&st19; &st12;">(A/T)</tspan></text>
<text transform="matrix(0 -1 1 0 191.3682 250.166)" style="&st5;"><tspan x="0" y="0" style="&st19; &st12;">GR</tspan></text>
<text transform="matrix(0 -1 1 0 202.9971 252.3311)" style="&st5;"><tspan x="0" y="0" style="&st19; &st12;">(A/T)</tspan></text>
<text transform="matrix(0 -1 1 0 318.1777 200.2192)" style="&st5;"><tspan x="0" y="0" style="&st19; &st12;">L</tspan></text>
<text transform="matrix(0 -1 1 0 330.4971 205.7139)" style="&st5;"><tspan x="0" y="0" style="&st19; &st12;">(M/T)</tspan></text>
<text transform="matrix(0 -1 1 0 398.6992 242.6318)" style="&st5;"><tspan x="0" y="0" style="&st19; &st12;">(A/T)</tspan></text>
<text transform="matrix(0 -1 1 0 398.9727 301.6514)" style="&st5;"><tspan x="0" y="0" style="&st19; &st12;">(A/T)</tspan></text>
<text transform="matrix(0 -1 1 0 280.7109 158.4043)" style="&st5;"><tspan x="0" y="0" style="&st19; &st12;">L</tspan></text>
<text transform="matrix(0 -1 1 0 293.0293 163.4009)" style="&st5;"><tspan x="0" y="0" style="&st19; &st12;">(A/T)</tspan></text>
<text transform="matrix(0 -1 1 0 279.8525 247.3345)" style="&st5;"><tspan x="0" y="0" style="&st19; &st12;">L</tspan></text>
<text transform="matrix(0 -1 1 0 293.6494 252.3311)" style="&st5;"><tspan x="0" y="0" style="&st19; &st12;">(A/T)</tspan></text>
<text transform="matrix(0 -1 1 0 24.8652 158.4043)" style="&st5;"><tspan x="0" y="0" style="&st19; &st12;">L</tspan></text>
<text transform="matrix(0 -1 1 0 386.4102 143.7246)" style="&st5;"><tspan x="0" y="0" style="&st19; &st12;">L</tspan></text>
<text transform="matrix(0 -1 1 0 386.4102 237.3257)" style="&st5;"><tspan x="0" y="0" style="&st19; &st12;">L</tspan></text>
<text transform="matrix(0 -1 1 0 436.2861 270.2378)" style="&st5;"><tspan x="0" y="0" style="&st19; &st12;">(M/T)</tspan></text>
<text transform="matrix(0 -1 1 0 424.4102 264.4844)" style="&st5;"><tspan x="0" y="0" style="&st19; &st12;">L</tspan></text>
<text transform="matrix(0 -1 1 0 386.4102 297.0068)" style="&st5;"><tspan x="0" y="0" style="&st19; &st12;">L</tspan></text>
<text transform="matrix(0 -1 1 0 24.8652 267.9653)" style="&st5;"><tspan x="0" y="0" style="&st19; &st12;">L</tspan></text>
<text transform="matrix(0 -1 1 0 398.9727 546.9272)" style="&st5;"><tspan x="0" y="0" style="&st19; &st12;">(A/T)</tspan></text>
<text transform="matrix(0 -1 1 0 386.4102 546.0396)" style="&st5;"><tspan x="0" y="0" style="&st19; &st12;">W-B</tspan></text>
<text transform="matrix(0 -1 1 0 398.9727 606.5552)" style="&st5;"><tspan x="0" y="0" style="&st19; &st12;">(A/T)</tspan></text>
<text transform="matrix(0 -1 1 0 386.4102 605.5269)" style="&st5;"><tspan x="0" y="0" style="&st19; &st12;">W-B</tspan></text>
<text transform="matrix(0 -1 1 0 436.2676 575.187)" style="&st5;"><tspan x="0" y="0" style="&st19; &st12;">(M/T)</tspan></text>
<text transform="matrix(0 -1 1 0 423.7051 574.1587)" style="&st5;"><tspan x="0" y="0" style="&st19; &st12;">W-B</tspan></text>
<text transform="matrix(0 -1 1 0 386.9717 699.8081)" style="&st5;"><tspan x="0" y="0" style="&st19; &st12;">W-B</tspan></text>
<text transform="matrix(0 -1 1 0 298.4717 647.0044)" style="&st5;"><tspan x="0" y="0" style="&st19; &st12;">W-B</tspan></text>
</svg>
