﻿<?xml version="1.0" encoding="UTF-8"?>
<!DOCTYPE svg PUBLIC "-//W3C//DTD SVG 1.0//EN" "http://www.w3.org/TR/2001/REC-SVG-20010904/DTD/svg10.dtd"[
<!ENTITY ns_flows "http://ns.adobe.com/Flows/1.0/">
<!ENTITY ns_svg "http://www.w3.org/2000/svg">
<!ENTITY ns_xlink "http://www.w3.org/1999/xlink">
	<!ENTITY st0 "fill:none;stroke:#F8E616;stroke-width:5.1;stroke-linejoin:round;">
	<!ENTITY st1 "fill:none;stroke:#FB0F0C;stroke-width:5.1;stroke-linejoin:round;">
	<!ENTITY st2 "fill:none;stroke:#9A9999;stroke-width:5.1;stroke-linejoin:round;">
	<!ENTITY st3 "fill:none;stroke:#99280B;stroke-width:5.1;stroke-linejoin:round;">
		<!ENTITY st4 "fill:none;stroke:#000000;stroke-width:0.85;stroke-linecap:round;stroke-linejoin:round;stroke-dasharray:3 1.5;enable-background:new    ;">
	<!ENTITY st5 "fill:none;stroke:#000000;stroke-width:5.1;stroke-linejoin:round;">
	<!ENTITY st6 "fill:none;stroke:#199DBF;stroke-width:1.13;stroke-linejoin:round;">
	<!ENTITY st7 "fill:none;stroke:#000000;stroke-linecap:round;stroke-linejoin:round;">
	<!ENTITY st8 "stroke:#000000;stroke-width:0.28;stroke-linecap:round;stroke-linejoin:round;enable-background:new    ;">
	<!ENTITY st9 "enable-background:new    ;">
		<!ENTITY st10 "fill:none;stroke:#000000;stroke-width:1.42;stroke-linecap:round;stroke-linejoin:round;enable-background:new    ;">
	<!ENTITY st11 "fill:none;stroke:#EE67AA;stroke-width:5.1;stroke-linejoin:round;">
	<!ENTITY st12 "fill:none;stroke:#199DBF;stroke-width:5.1;stroke-linejoin:round;">
	<!ENTITY st13 "opacity:0.5;fill:none;stroke:#34ACCE;stroke-linejoin:round;stroke-dasharray:6;">
	<!ENTITY st14 "fill:none;stroke:#FFFFFF;stroke-width:4.53;stroke-linejoin:round;">
		<!ENTITY st15 "fill:none;stroke:#000000;stroke-width:0.85;stroke-linecap:round;stroke-linejoin:round;enable-background:new    ;">
	<!ENTITY st16 "fill:none;stroke:#56107C;stroke-width:5.1;stroke-linejoin:round;">
	<!ENTITY st17 "font-size:6px;">
	<!ENTITY st18 "fill:none;stroke:#FFFFFF;stroke-width:2.27;stroke-linejoin:round;">
	<!ENTITY st19 "fill:none;stroke:#FB0F0C;stroke-width:1.13;stroke-linejoin:round;">
	<!ENTITY st20 "fill:none;stroke:#168638;stroke-width:5.1;stroke-linejoin:round;">
	<!ENTITY st21 "fill:none;stroke:#000000;stroke-width:1.13;stroke-linejoin:round;">
		<!ENTITY st22 "fill:none;stroke:#000000;stroke-width:1.13;stroke-linecap:round;stroke-linejoin:round;stroke-dasharray:3 1.5;enable-background:new    ;">
	<!ENTITY st23 "fill:#FFFFFF;stroke:#000000;stroke-width:1.41;stroke-linecap:round;stroke-linejoin:round;">
	<!ENTITY st24 "fill:none;stroke:#3E65AC;stroke-width:3;">
	<!ENTITY st25 "fill:#CCCCCC;stroke:#CCCCCC;stroke-width:0.1;stroke-linecap:round;stroke-linejoin:round;">
	<!ENTITY st26 "fill:none;stroke:#000000;stroke-width:5.1;stroke-linejoin:round;enable-background:new    ;">
	<!ENTITY st27 "font-family:'ArialMT';">
	<!ENTITY st28 "opacity:0.5;fill:none;stroke:#34ACCE;stroke-linejoin:round;">
	<!ENTITY st29 "fill:#CFE6E7;stroke:#000000;stroke-width:1.133;stroke-linecap:round;stroke-linejoin:round;">
	<!ENTITY st30 "fill:none;stroke:#99D5E0;stroke-width:5.1;stroke-linejoin:round;">
	<!ENTITY st31 "fill:none;stroke:#FFFFFF;stroke-width:1.13;stroke-linejoin:round;enable-background:new    ;">
	<!ENTITY st32 "fill:none;stroke:#7EC57E;stroke-width:5.1;stroke-linejoin:round;">
<!ATTLIST svg
xmlns:ewd CDATA #FIXED "http://shcl.co.jp/ewd"
xmlns:a CDATA #FIXED "http://ns.adobe.com/AdobeSVGViewerExtensions/3.0/"
ewd:ver CDATA #IMPLIED
>
<!ATTLIST a
ewd:lineID CDATA #IMPLIED
ewd:groupID CDATA #IMPLIED
ewd:figtype CDATA #IMPLIED
ewd:code CDATA #IMPLIED
ewd:figID CDATA #IMPLIED
ewd:pinNo CDATA #IMPLIED
ewd:comment CDATA #IMPLIED >
<!ATTLIST g
ewd:lineID CDATA #IMPLIED
ewd:groupID CDATA #IMPLIED
ewd:figtype CDATA #IMPLIED
ewd:code CDATA #IMPLIED
ewd:figID CDATA #IMPLIED
ewd:pinNo CDATA #IMPLIED
ewd:comment CDATA #IMPLIED >
<!ATTLIST text
ewd:textID CDATA #IMPLIED >
<!ATTLIST title
ewd:textID CDATA #IMPLIED >
]>
<svg 
viewBox='0 0 6223.92 729.44'
height='729.44'
width='6223.92'
xml:space="preserve"
xmlns="&ns_svg;"
xmlns:ewd="http://shcl.co.jp/ewd"
xmlns:xlink="&ns_xlink;" ewd:ver="L2.1">
<g ewd:code="GR1" ewd:figID="611" ewd:figtype="w2w" ewd:pinNo="35">
<path style="&st10;" d="M6106.15,192.52h-8.5"/>
<path style="&st10;" d="M6101.9,198.19l-4.25-4.25l-4.25,4.25"/>
<path style="&st10;" d="M6101.9,201.59l-4.25-4.25l-4.25,4.25"/>
<text transform="matrix(1 0 0 1 6079.48 190.2363)" style="&st9;"><tspan x="0" y="0" style="&st27; &st17;">35</tspan></text>
</g>
<g ewd:code="GQ1" ewd:figID="610" ewd:figtype="w2w" ewd:pinNo="25">
<path style="&st10;" d="M6038.16,192.52h-8.5"/>
<path style="&st10;" d="M6033.91,201.59l-4.25-4.25l-4.25,4.25"/>
<path style="&st10;" d="M6033.91,198.19l-4.25-4.25l-4.25,4.25"/>
<text transform="matrix(1 0 0 1 6011.4897 190.2363)" style="&st9;"><tspan x="0" y="0" style="&st27; &st17;">25</tspan></text>
</g>
<g ewd:code="2" ewd:figID="311" ewd:figtype="jb">
<path style="&st10;" d="M6159.27,107.54h-4.25"/>
<path style="&st10;" d="M6159.27,116.04h-4.25"/>
<path style="&st8;" d="M6157.14,102.64l-2.83-2.83v4.25l2.83,2.83l2.83-2.83v-4.25L6157.14,102.64"/>
<path style="&st15;" d="M6157.14,82.04v25.5"/>
<path style="&st10;" d="M6155.02,107.54c-2.35,0-4.25,1.9-4.25,4.25"/>
<path style="&st10;" d="M6150.77,111.79c0,2.34,1.9,4.25,4.25,4.25"/>
<path style="&st10;" d="M6159.27,116.04c2.34,0,4.25-1.91,4.25-4.25"/>
<path style="&st10;" d="M6163.52,111.79c0-2.35-1.91-4.25-4.25-4.25"/>
<text transform="matrix(1 0 0 1 6152.6929 113.7568)" style="&st9;"><tspan x="0" y="0" style="&st27; &st17;">2D</tspan></text>
<text transform="matrix(1 0 0 1 6140.5034 113.7568)" style="&st9;"><tspan x="0" y="0" style="&st27; &st17;">23</tspan></text>
</g>
<g ewd:code="Q9" ewd:figID="79" ewd:figtype="conn">
<path style="&st10;" d="M6029.66,448.9l5.67-22.67"/>
<path style="&st15;" d="M6029.66,455.98v-4.25"/>
<path style="&st15;" d="M6029.66,426.23v-4.24"/>
<path style="&st15;" d="M6028.24,472.98h2.84"/>
<path style="&st15;" d="M6026.83,470.14h5.66"/>
<path style="&st15;" d="M6025.41,467.31h8.5"/>
<path style="&st15;" d="M6021.16,464.48h17"/>
<path style="&st15;" d="M6029.66,455.98v8.5"/>
<path style="&st10;" d="M6038.16,455.98v-33.99h-17v33.99H6038.16"/>
<path style="&st15;" d="M6031.08,450.31c0-0.78-0.63-1.41-1.42-1.41"/>
<path style="&st15;" d="M6029.66,448.9c-0.78,0-1.41,0.63-1.41,1.41"/>
<path style="&st15;" d="M6028.25,450.31c0,0.79,0.63,1.42,1.41,1.42"/>
<path style="&st15;" d="M6029.66,451.73c0.79,0,1.42-0.63,1.42-1.42"/>
<path style="&st15;" d="M6031.08,427.65c0-0.78-0.63-1.42-1.42-1.42"/>
<path style="&st15;" d="M6029.66,426.23c-0.78,0-1.41,0.64-1.41,1.42"/>
<path style="&st15;" d="M6028.25,427.65c0,0.78,0.63,1.42,1.41,1.42"/>
<path style="&st15;" d="M6029.66,429.07c0.79,0,1.42-0.64,1.42-1.42"/>
<text ewd:textID="89" transform="matrix(0 -1 1 0 6052.8833 458.4966)" style="&st9; &st27; &st17;">Rear Door Courtesy <tspan x="0" y="7">Light Switch Assembly RH</tspan></text>
<text transform="matrix(0 -1 1 0 6045.7729 458.4966)" style="&st9;"><tspan x="0" y="0" style="&st27; &st17;">Q9</tspan></text>
<text transform="matrix(1 0 0 1 6023.6538 418.2964)" style="&st9;"><tspan x="0" y="0" style="&st27; &st17;">1</tspan></text>
</g>
<g ewd:code="R9" ewd:figID="25" ewd:figtype="conn">
<path style="&st15;" d="M6097.65,426.23v-4.24"/>
<path style="&st10;" d="M6097.65,448.9l5.67-22.67"/>
<path style="&st15;" d="M6097.65,455.98v-4.25"/>
<path style="&st10;" d="M6106.15,455.98v-33.99h-17v33.99H6106.15"/>
<path style="&st15;" d="M6097.65,455.98v8.5"/>
<path style="&st15;" d="M6089.15,464.48h17"/>
<path style="&st15;" d="M6093.4,467.31h8.5"/>
<path style="&st15;" d="M6094.82,470.14h5.66"/>
<path style="&st15;" d="M6096.23,472.98h2.84"/>
<path style="&st15;" d="M6099.07,450.31c0-0.78-0.64-1.41-1.42-1.41"/>
<path style="&st15;" d="M6097.65,448.9c-0.78,0-1.41,0.63-1.41,1.41"/>
<path style="&st15;" d="M6096.24,450.31c0,0.79,0.63,1.42,1.41,1.42"/>
<path style="&st15;" d="M6097.65,451.73c0.78,0,1.42-0.63,1.42-1.42"/>
<path style="&st15;" d="M6099.07,427.65c0-0.78-0.64-1.42-1.42-1.42"/>
<path style="&st15;" d="M6097.65,426.23c-0.78,0-1.41,0.64-1.41,1.42"/>
<path style="&st15;" d="M6096.24,427.65c0,0.78,0.63,1.42,1.41,1.42"/>
<path style="&st15;" d="M6097.65,429.07c0.78,0,1.42-0.64,1.42-1.42"/>
<text transform="matrix(1 0 0 1 6091.644 418.2964)" style="&st9;"><tspan x="0" y="0" style="&st27; &st17;">1</tspan></text>
<text transform="matrix(0 -1 1 0 6113.7632 458.4966)" style="&st9;"><tspan x="0" y="0" style="&st27; &st17;">R9</tspan></text>
<text ewd:textID="26" transform="matrix(0 -1 1 0 6120.8735 458.4966)" style="&st9; &st27; &st17;">Back Door Courtesy Light Switch Assembly</text>
</g>
<g ewd:code="G77" ewd:figID="26" ewd:figtype="conn">
<path style="&st15;" d="M6157.14,201.02v-4.25"/>
<path style="&st15;" d="M6157.14,171.28v-4.25"/>
<path style="&st10;" d="M6157.14,193.94l-1.69-24.12"/>
<path style="&st10;" d="M6165.64,201.02v-33.99h-17v33.99H6165.64"/>
<path style="&st15;" d="M6157.14,201.02v8.5"/>
<path style="&st15;" d="M6148.64,209.52h17"/>
<path style="&st15;" d="M6152.89,212.35h8.5"/>
<path style="&st15;" d="M6154.31,215.19h5.66"/>
<path style="&st15;" d="M6155.72,218.02h2.84"/>
<path style="&st15;" d="M6158.56,195.36c0-0.79-0.64-1.42-1.42-1.42"/>
<path style="&st15;" d="M6157.14,193.94c-0.78,0-1.41,0.63-1.41,1.42"/>
<path style="&st15;" d="M6155.73,195.36c0,0.78,0.63,1.41,1.41,1.41"/>
<path style="&st15;" d="M6157.14,196.77c0.78,0,1.42-0.63,1.42-1.41"/>
<path style="&st15;" d="M6158.56,172.69c0-0.78-0.64-1.41-1.42-1.41"/>
<path style="&st15;" d="M6157.14,171.28c-0.78,0-1.41,0.63-1.41,1.41"/>
<path style="&st15;" d="M6155.73,172.69c0,0.79,0.63,1.42,1.41,1.42"/>
<path style="&st15;" d="M6157.14,174.11c0.78,0,1.42-0.63,1.42-1.42"/>
<text transform="matrix(1 0 0 1 6151.1333 163.3364)" style="&st9;"><tspan x="0" y="0" style="&st27; &st17;">1</tspan></text>
<text ewd:textID="82" transform="matrix(0 -1 1 0 6180.3628 203.5469)" style="&st9; &st27; &st17;">Parking Brake <tspan x="0" y="7">Switch Assembly</tspan></text>
<text transform="matrix(0 -1 1 0 6173.2534 203.5469)" style="&st9;"><tspan x="0" y="0" style="&st27; &st17;">G77</tspan></text>
</g>
<text transform="matrix(0 -1 1 0 6025.9731 135.5068)" style="&st9;"><tspan x="0" y="0" style="&st27; &st17;">R</tspan></text>
<text transform="matrix(0 -1 1 0 6025.9731 228.9863)" style="&st9;"><tspan x="0" y="0" style="&st27; &st17;">R</tspan></text>
<text transform="matrix(0 -1 1 0 6093.9634 229.2666)" style="&st9;"><tspan x="0" y="0" style="&st27; &st17;">G</tspan></text>
<text transform="matrix(0 -1 1 0 6093.9634 135.7866)" style="&st9;"><tspan x="0" y="0" style="&st27; &st17;">G</tspan></text>
<text transform="matrix(0 -1 1 0 6037.3032 139.2065)" style="&st9;"><tspan x="0" y="0" style="&st27; &st17;">(*9)</tspan></text>
<text transform="matrix(0 -1 1 0 6037.3032 232.6968)" style="&st9;"><tspan x="0" y="0" style="&st27; &st17;">(*9)</tspan></text>
<text transform="matrix(0 -1 1 0 6153.4526 146.2666)" style="&st9;"><tspan x="0" y="0" style="&st27; &st17;">LG</tspan></text>
</svg>
