﻿<?xml version="1.0" encoding="UTF-8"?>
<!DOCTYPE svg PUBLIC "-//W3C//DTD SVG 1.0//EN" "http://www.w3.org/TR/2001/REC-SVG-20010904/DTD/svg10.dtd"[
<!ENTITY ns_flows "http://ns.adobe.com/Flows/1.0/">
<!ENTITY ns_svg "http://www.w3.org/2000/svg">
<!ENTITY ns_xlink "http://www.w3.org/1999/xlink">
	<!ENTITY st0 "fill:none;stroke:#F8E616;stroke-width:5.1;stroke-linejoin:round;">
	<!ENTITY st1 "fill:none;stroke:#FB0F0C;stroke-width:5.1;stroke-linejoin:round;">
	<!ENTITY st2 "fill:none;stroke:#9A9999;stroke-width:5.1;stroke-linejoin:round;">
	<!ENTITY st3 "fill:none;stroke:#99280B;stroke-width:5.1;stroke-linejoin:round;">
		<!ENTITY st4 "fill:none;stroke:#000000;stroke-width:0.85;stroke-linecap:round;stroke-linejoin:round;stroke-dasharray:3 1.5;enable-background:new    ;">
	<!ENTITY st5 "fill:none;stroke:#000000;stroke-width:5.1;stroke-linejoin:round;">
	<!ENTITY st6 "fill:none;stroke:#199DBF;stroke-width:1.13;stroke-linejoin:round;">
	<!ENTITY st7 "fill:none;stroke:#000000;stroke-linecap:round;stroke-linejoin:round;">
	<!ENTITY st8 "fill:#1D63A2;">
	<!ENTITY st9 "stroke:#000000;stroke-width:0.28;stroke-linecap:round;stroke-linejoin:round;enable-background:new    ;">
	<!ENTITY st10 "enable-background:new    ;">
		<!ENTITY st11 "fill:none;stroke:#000000;stroke-width:1.42;stroke-linecap:round;stroke-linejoin:round;enable-background:new    ;">
	<!ENTITY st12 "fill:none;stroke:#EE67AA;stroke-width:5.1;stroke-linejoin:round;">
	<!ENTITY st13 "fill:none;stroke:#199DBF;stroke-width:5.1;stroke-linejoin:round;">
	<!ENTITY st14 "opacity:0.5;fill:none;stroke:#34ACCE;stroke-linejoin:round;stroke-dasharray:6;">
	<!ENTITY st15 "fill:none;stroke:#FFFFFF;stroke-width:4.53;stroke-linejoin:round;">
	<!ENTITY st16 "fill:#F6140D;">
		<!ENTITY st17 "fill:none;stroke:#000000;stroke-width:0.85;stroke-linecap:round;stroke-linejoin:round;enable-background:new    ;">
	<!ENTITY st18 "fill:none;stroke:#56107C;stroke-width:5.1;stroke-linejoin:round;">
	<!ENTITY st19 "font-size:6px;">
	<!ENTITY st20 "fill:none;stroke:#FFFFFF;stroke-width:2.27;stroke-linejoin:round;">
	<!ENTITY st21 "fill:none;stroke:#FB0F0C;stroke-width:1.13;stroke-linejoin:round;">
	<!ENTITY st22 "fill:none;stroke:#168638;stroke-width:5.1;stroke-linejoin:round;">
	<!ENTITY st23 "fill:none;stroke:#000000;stroke-width:1.13;stroke-linejoin:round;">
		<!ENTITY st24 "fill:none;stroke:#000000;stroke-width:1.13;stroke-linecap:round;stroke-linejoin:round;stroke-dasharray:3 1.5;enable-background:new    ;">
	<!ENTITY st25 "fill:#FFFFFF;stroke:#000000;stroke-width:1.41;stroke-linecap:round;stroke-linejoin:round;">
	<!ENTITY st26 "fill:none;stroke:#3E65AC;stroke-width:3;">
	<!ENTITY st27 "display:inline;">
	<!ENTITY st28 "fill:#CCCCCC;stroke:#CCCCCC;stroke-width:0.1;stroke-linecap:round;stroke-linejoin:round;">
	<!ENTITY st29 "stroke:#FFFFFF;stroke-width:2;">
	<!ENTITY st30 "fill:none;stroke:#000000;stroke-width:5.1;stroke-linejoin:round;enable-background:new    ;">
	<!ENTITY st31 "font-family:'ArialMT';">
	<!ENTITY st32 "opacity:0.5;fill:none;stroke:#34ACCE;stroke-linejoin:round;">
	<!ENTITY st33 "fill:#CFE6E7;stroke:#000000;stroke-width:1.133;stroke-linecap:round;stroke-linejoin:round;">
	<!ENTITY st34 "font-size:12px;">
	<!ENTITY st35 "fill:none;stroke:#99D5E0;stroke-width:5.1;stroke-linejoin:round;">
	<!ENTITY st36 "display:none;">
	<!ENTITY st37 "fill:none;stroke:#FFFFFF;stroke-width:1.13;stroke-linejoin:round;enable-background:new    ;">
	<!ENTITY st38 "fill:none;stroke:#7EC57E;stroke-width:5.1;stroke-linejoin:round;">
<!ATTLIST svg
xmlns:ewd CDATA #FIXED "http://shcl.co.jp/ewd"
xmlns:a CDATA #FIXED "http://ns.adobe.com/AdobeSVGViewerExtensions/3.0/"
ewd:ver CDATA #IMPLIED
>
<!ATTLIST a
ewd:lineID CDATA #IMPLIED
ewd:groupID CDATA #IMPLIED
ewd:figtype CDATA #IMPLIED
ewd:code CDATA #IMPLIED
ewd:figID CDATA #IMPLIED
ewd:pinNo CDATA #IMPLIED
ewd:comment CDATA #IMPLIED >
<!ATTLIST g
ewd:lineID CDATA #IMPLIED
ewd:groupID CDATA #IMPLIED
ewd:figtype CDATA #IMPLIED
ewd:code CDATA #IMPLIED
ewd:figID CDATA #IMPLIED
ewd:pinNo CDATA #IMPLIED
ewd:comment CDATA #IMPLIED >
<!ATTLIST text
ewd:textID CDATA #IMPLIED >
<!ATTLIST title
ewd:textID CDATA #IMPLIED >
]>
<svg 
viewBox='0 0 6236.63 729.44'
height='729.44'
width='6236.63'
xml:space="preserve"
xmlns="&ns_svg;"
xmlns:ewd="http://shcl.co.jp/ewd"
xmlns:xlink="&ns_xlink;" ewd:ver="L2.1">
<g ewd:code="G135" ewd:figID="72" ewd:figtype="conn">
<path style="&st11;" d="M5412.87,446.81v17h50.99v-17H5412.87"/>
<path style="&st17;" d="M5421.36,446.81v17"/>
<path style="&st17;" d="M5455.36,446.81v17"/>
<text transform="matrix(1 0 0 1 5414.5801 472.0005)" style="&st10;"><tspan x="0" y="0" style="&st31; &st19;">4</tspan></text>
<text ewd:textID="74" transform="matrix(0 -1 1 0 5478.5801 466.3306)" style="&st10; &st31; &st19;">Junction Connector</text>
<text transform="matrix(0 -1 1 0 5471.4697 466.3306)" style="&st10;"><tspan x="0" y="0" style="&st31; &st19;">G135</tspan></text>
<text transform="matrix(1 0 0 1 5445.3896 443.1196)" style="&st10;"><tspan x="0" y="0" style="&st31; &st19;">13</tspan></text>
<text transform="matrix(1 0 0 1 5414.5801 443.1196)" style="&st10;"><tspan x="0" y="0" style="&st31; &st19;">2</tspan></text>
<text transform="matrix(1 0 0 1 5445.3896 472.0005)" style="&st10;"><tspan x="0" y="0" style="&st31; &st19;">15</tspan></text>
</g>
<g ewd:code="G76" ewd:figID="19" ewd:figtype="conn">
<path style="&st11;" d="M5404.37,319.33v34h67.99v-34H5404.37"/>
<text ewd:textID="55" transform="matrix(0 -1 1 0 5394.7197 355.8501)" style="&st10; &st31; &st19;">Driving Support <tspan x="0" y="7">Switch Control ECU</tspan></text>
<text transform="matrix(0 -1 1 0 5387.6191 355.8501)" style="&st10;"><tspan x="0" y="0" style="&st31; &st19;">G76</tspan></text>
<text transform="matrix(1 0 0 1 5448.5693 315.6401)" style="&st10;"><tspan x="0" y="0" style="&st31; &st19;">3</tspan></text>
<text transform="matrix(1 0 0 1 5414.5801 315.6401)" style="&st10;"><tspan x="0" y="0" style="&st31; &st19;">4</tspan></text>
<text transform="matrix(1 0 0 1 5412.709 326.9702)" style="&st10;"><tspan x="0" y="0" style="&st31; &st19;">SWI2</tspan></text>
<text transform="matrix(1 0 0 1 5447.0996 326.9702)" style="&st10;"><tspan x="0" y="0" style="&st31; &st19;">SWI1</tspan></text>
<text transform="matrix(1 0 0 1 5445.3896 361.5195)" style="&st10;"><tspan x="0" y="0" style="&st31; &st19;">10</tspan></text>
<text transform="matrix(1 0 0 1 5414.5801 361.5195)" style="&st10;"><tspan x="0" y="0" style="&st31; &st19;">9</tspan></text>
<text transform="matrix(1 0 0 1 5411.7598 349.6299)" style="&st10;"><tspan x="0" y="0" style="&st31; &st19;">CANP</tspan></text>
<text transform="matrix(1 0 0 1 5445.6094 349.6299)" style="&st10;"><tspan x="0" y="0" style="&st31; &st19;">CANN</tspan></text>
</g>
<g ewd:code="z8" ewd:figID="78" ewd:figtype="conn">
<path style="&st30;" d="M5259.89,379.49V354"/>
<path style="&st37;" d="M5259.89,379.49V354"/>
<path style="&st30;" d="M5336.38,379.49V354"/>
<path style="&st17;" d="M5281.14,515.47h-12.75"/>
<path style="&st11;" d="M5303.8,515.47l-22.66-5.67"/>
<path style="&st17;" d="M5281.14,481.48h-12.75"/>
<path style="&st17;" d="M5310.89,515.47h-4.25"/>
<path style="&st17;" d="M5310.89,481.48h-4.25"/>
<path style="&st17;" d="M5289.64,396.49l1.42-2.83"/>
<path style="&st17;" d="M5310.89,413.49h-4.25"/>
<path style="&st11;" d="M5303.8,447.48l-22.66-5.66"/>
<path style="&st17;" d="M5310.89,447.48h-4.25"/>
<path style="&st17;" d="M5293.89,399.32l2.83-5.66"/>
<path style="&st17;" d="M5310.89,396.49h-4.25"/>
<path style="&st17;" d="M5305.22,399.32l1.42-2.83"/>
<path style="&st17;" d="M5281.14,447.48h-12.75"/>
<path style="&st11;" d="M5303.8,481.48l-22.66-5.67"/>
<path style="&st17;" d="M5299.55,399.32l2.84-5.66"/>
<path style="&st17;" d="M5291.06,393.66l2.83,5.66"/>
<path style="&st11;" d="M5303.8,413.49l-22.66-5.67"/>
<path style="&st17;" d="M5281.14,413.49h-12.75"/>
<path style="&st17;" d="M5289.64,396.49h-21.25"/>
<path style="&st17;" d="M5296.72,393.66l2.83,5.66"/>
<path style="&st17;" d="M5302.39,393.66l2.83,5.66"/>
<path style="&st11;" d="M5242.89,379.49v152.98h110.49V379.49H5242.89"/>
<path style="&st11;" d="M5234.4,540.97h135.97V354H5234.4V540.97"/>
<path style="&st17;" d="M5259.89,447.48v-8.5l-2.83-1.41l5.66-2.84l-5.66-2.83l5.66-2.83l-5.66-2.84l5.66-2.83l-2.83-1.41v-8.5"/>
<path style="&st17;" d="M5259.89,481.48v-8.5l-2.83-1.42l5.66-2.83l-5.66-2.84l5.66-2.83l-5.66-2.83l5.66-2.83l-2.83-1.42v-8.5"/>
<path style="&st17;" d="M5259.89,481.48v8.49l2.83,1.42l-5.66,2.83l5.66,2.84l-5.66,2.83l5.66,2.83l-5.66,2.83l2.83,1.42v8.5h8.5"/>
<path style="&st17;" d="M5259.89,481.48h8.5"/>
<path style="&st17;" d="M5259.89,447.48h8.5"/>
<path style="&st17;" d="M5259.89,413.49h8.5"/>
<path style="&st17;" d="M5310.88,413.49h25.5"/>
<path style="&st17;" d="M5310.88,396.49h25.5"/>
<path style="&st17;" d="M5268.39,396.49h-8.5"/>
<path style="&st17;" d="M5310.88,447.48h25.5"/>
<path style="&st17;" d="M5310.88,481.48h25.5"/>
<path style="&st17;" d="M5335.19,395.49l-0.28,0.47l-0.09,0.53l0.09,0.53l0.28,0.47l0.41,0.35l0.51,0.19h0.54l0.51-0.19l0.41-0.35l0.27-0.47l0.1-0.53l-0.1-0.53l-0.27-0.47l-0.41-0.35l-0.51-0.19h-0.54l-0.51,0.19L5335.19,395.49l0.39,0.71v0.58l0.37,0.45l0.58,0.1l0.5-0.29l0.2-0.55l-0.2-0.55l-0.5-0.29l-0.58,0.1l0.43,0.74"/>
<path style="&st17;" d="M5258.7,395.49l-0.27,0.47l-0.1,0.53l0.1,0.53l0.27,0.47l0.41,0.35l0.51,0.19h0.54l0.51-0.19l0.41-0.35l0.28-0.47l0.09-0.53l-0.09-0.53l-0.28-0.47l-0.41-0.35l-0.51-0.19h-0.54l-0.51,0.19L5258.7,395.49l0.39,0.71v0.58l0.38,0.45l0.57,0.1l0.5-0.29l0.2-0.55l-0.2-0.55l-0.5-0.29l-0.57,0.1l0.42,0.74"/>
<path style="&st17;" d="M5258.7,412.48l-0.27,0.47l-0.1,0.54l0.1,0.53l0.27,0.47l0.41,0.35l0.51,0.18h0.54l0.51-0.18l0.41-0.35l0.28-0.47l0.09-0.53l-0.09-0.54l-0.28-0.47l-0.41-0.34l-0.51-0.19h-0.54l-0.51,0.19L5258.7,412.48l0.39,0.72v0.58l0.38,0.44l0.57,0.1l0.5-0.29l0.2-0.54l-0.2-0.55l-0.5-0.29l-0.57,0.1l0.42,0.74"/>
<path style="&st17;" d="M5335.19,412.48l-0.28,0.47l-0.09,0.54l0.09,0.53l0.28,0.47l0.41,0.35l0.51,0.18h0.54l0.51-0.18l0.41-0.35l0.27-0.47l0.1-0.53l-0.1-0.54l-0.27-0.47l-0.41-0.34l-0.51-0.19h-0.54l-0.51,0.19L5335.19,412.48l0.39,0.72v0.58l0.37,0.44l0.58,0.1l0.5-0.29l0.2-0.54l-0.2-0.55l-0.5-0.29l-0.58,0.1l0.43,0.74"/>
<path style="&st17;" d="M5258.7,446.48l-0.27,0.47l-0.1,0.53l0.1,0.53l0.27,0.47l0.41,0.35l0.51,0.19h0.54l0.51-0.19l0.41-0.35l0.28-0.47l0.09-0.53l-0.09-0.53l-0.28-0.47l-0.41-0.35l-0.51-0.18h-0.54l-0.51,0.18L5258.7,446.48l0.39,0.71v0.58l0.38,0.45l0.57,0.1l0.5-0.29l0.2-0.55l-0.2-0.55l-0.5-0.28l-0.57,0.09l0.42,0.74"/>
<path style="&st17;" d="M5335.19,446.48l-0.28,0.47l-0.09,0.53l0.09,0.53l0.28,0.47l0.41,0.35l0.51,0.19h0.54l0.51-0.19l0.41-0.35l0.27-0.47l0.1-0.53l-0.1-0.53l-0.27-0.47l-0.41-0.35l-0.51-0.18h-0.54l-0.51,0.18L5335.19,446.48l0.39,0.71v0.58l0.37,0.45l0.58,0.1l0.5-0.29l0.2-0.55l-0.2-0.55l-0.5-0.28l-0.58,0.09l0.43,0.74"/>
<path style="&st17;" d="M5258.7,480.47l-0.27,0.47l-0.1,0.54l0.1,0.53l0.27,0.47l0.41,0.34l0.51,0.19h0.54l0.51-0.19l0.41-0.34l0.28-0.47l0.09-0.53l-0.09-0.54l-0.28-0.47l-0.41-0.34l-0.51-0.19h-0.54l-0.51,0.19L5258.7,480.47l0.39,0.71v0.59l0.38,0.44l0.57,0.1l0.5-0.29l0.2-0.54l-0.2-0.55l-0.5-0.29l-0.57,0.1l0.42,0.74"/>
<path style="&st17;" d="M5335.19,480.47l-0.28,0.47l-0.09,0.54l0.09,0.53l0.28,0.47l0.41,0.34l0.51,0.19h0.54l0.51-0.19l0.41-0.34l0.27-0.47l0.1-0.53l-0.1-0.54l-0.27-0.47l-0.41-0.34l-0.51-0.19h-0.54l-0.51,0.19L5335.19,480.47l0.39,0.71v0.59l0.37,0.44l0.58,0.1l0.5-0.29l0.2-0.54l-0.2-0.55l-0.5-0.29l-0.58,0.1l0.43,0.74"/>
<path style="&st17;" d="M5259.89,379.49v34"/>
<path style="&st17;" d="M5336.38,379.49v135.98h-25.5"/>
<path style="&st17;" d="M5283.97,515.47c0-0.78-0.63-1.42-1.41-1.42"/>
<path style="&st17;" d="M5282.56,514.05c-0.79,0-1.42,0.64-1.42,1.42"/>
<path style="&st17;" d="M5281.14,515.47c0,0.78,0.63,1.42,1.42,1.42"/>
<path style="&st17;" d="M5282.56,516.89c0.78,0,1.41-0.64,1.41-1.42"/>
<path style="&st17;" d="M5306.64,515.47c0-0.78-0.64-1.42-1.42-1.42"/>
<path style="&st17;" d="M5305.22,514.05c-0.78,0-1.42,0.64-1.42,1.42"/>
<path style="&st17;" d="M5303.8,515.47c0,0.78,0.64,1.42,1.42,1.42"/>
<path style="&st17;" d="M5305.22,516.89c0.78,0,1.42-0.64,1.42-1.42"/>
<path style="&st17;" d="M5283.97,481.48c0-0.79-0.63-1.42-1.41-1.42"/>
<path style="&st17;" d="M5282.56,480.06c-0.79,0-1.42,0.63-1.42,1.42"/>
<path style="&st17;" d="M5281.14,481.48c0,0.78,0.63,1.41,1.42,1.41"/>
<path style="&st17;" d="M5282.56,482.89c0.78,0,1.41-0.63,1.41-1.41"/>
<path style="&st17;" d="M5306.64,481.48c0-0.79-0.64-1.42-1.42-1.42"/>
<path style="&st17;" d="M5305.22,480.06c-0.78,0-1.42,0.63-1.42,1.42"/>
<path style="&st17;" d="M5303.8,481.48c0,0.78,0.64,1.41,1.42,1.41"/>
<path style="&st17;" d="M5305.22,482.89c0.78,0,1.42-0.63,1.42-1.41"/>
<path style="&st17;" d="M5283.97,447.48c0-0.78-0.63-1.42-1.41-1.42"/>
<path style="&st17;" d="M5282.56,446.06c-0.79,0-1.42,0.64-1.42,1.42"/>
<path style="&st17;" d="M5281.14,447.48c0,0.78,0.63,1.42,1.42,1.42"/>
<path style="&st17;" d="M5282.56,448.9c0.78,0,1.41-0.64,1.41-1.42"/>
<path style="&st17;" d="M5306.64,447.48c0-0.78-0.64-1.42-1.42-1.42"/>
<path style="&st17;" d="M5305.22,446.06c-0.78,0-1.42,0.64-1.42,1.42"/>
<path style="&st17;" d="M5303.8,447.48c0,0.78,0.64,1.42,1.42,1.42"/>
<path style="&st17;" d="M5305.22,448.9c0.78,0,1.42-0.64,1.42-1.42"/>
<path style="&st17;" d="M5283.97,413.49c0-0.79-0.63-1.42-1.41-1.42"/>
<path style="&st17;" d="M5282.56,412.07c-0.79,0-1.42,0.63-1.42,1.42"/>
<path style="&st17;" d="M5281.14,413.49c0,0.78,0.63,1.41,1.42,1.41"/>
<path style="&st17;" d="M5282.56,414.9c0.78,0,1.41-0.63,1.41-1.41"/>
<path style="&st17;" d="M5306.64,413.49c0-0.79-0.64-1.42-1.42-1.42"/>
<path style="&st17;" d="M5305.22,412.07c-0.78,0-1.42,0.63-1.42,1.42"/>
<path style="&st17;" d="M5303.8,413.49c0,0.78,0.64,1.41,1.42,1.41"/>
<path style="&st17;" d="M5305.22,414.9c0.78,0,1.42-0.63,1.42-1.41"/>
<text transform="matrix(1 0 0 1 5289.4395 523.0962)" style="&st10;"><tspan x="0" y="0" style="&st31; &st19;">Up</tspan></text>
<text ewd:textID="52" transform="matrix(1 0 0 1 5284.9199 489.106)" style="&st10; &st31; &st19;">Down</text>
<text transform="matrix(1 0 0 1 5282.1602 455.1157)" style="&st10;"><tspan x="0" y="0" style="&st31; &st19;">ENTER</tspan></text>
<text ewd:textID="78" transform="matrix(1 0 0 1 5285.0596 421.1177)" style="&st10; &st31; &st19;">Menu</text>
<text transform="matrix(0 -1 1 0 5256.1992 374.436)" style="&st10;"><tspan x="0" y="0" style="&st31; &st19;">B-W</tspan></text>
<text transform="matrix(0 -1 1 0 5332.6895 369.0767)" style="&st10;"><tspan x="0" y="0" style="&st31; &st19;">B</tspan></text>
<text ewd:textID="103" transform="matrix(0 -1 1 0 5230.6992 543.4868)" style="&st10; &st31; &st19;">Steering Pad Switch Assembly</text>
<text transform="matrix(0 -1 1 0 5223.5996 543.4868)" style="&st10;"><tspan x="0" y="0" style="&st31; &st19;">z8(D)</tspan></text>
<text ewd:textID="104" transform="matrix(0 -1 1 0 5361.0195 494.2661)" style="&st10; &st31; &st19;">Steering Pad Switch RH</text>
</g>
<g ewd:code="G40,z8" ewd:figID="18" ewd:figtype="conn">
<path style="&st17;" d="M5336.38,320v24.93"/>
<path style="&st17;" d="M5259.89,320v24.93"/>
<path style="&st11;" d="M5234.4,320v24.93h135.97V320H5234.4"/>
<path style="&st11;" d="M5264.43,349.46c0-2.5-2.03-4.53-4.54-4.53"/>
<path style="&st11;" d="M5259.89,344.93c-2.5,0-4.53,2.03-4.53,4.53"/>
<path style="&st11;" d="M5255.36,349.46c0,2.51,2.03,4.54,4.53,4.54"/>
<path style="&st11;" d="M5259.89,354c2.51,0,4.54-2.03,4.54-4.54"/>
<path style="&st11;" d="M5340.91,349.46c0-2.5-2.03-4.53-4.53-4.53"/>
<path style="&st11;" d="M5336.38,344.93c-2.5,0-4.53,2.03-4.53,4.53"/>
<path style="&st11;" d="M5331.85,349.46c0,2.51,2.03,4.54,4.53,4.54"/>
<path style="&st11;" d="M5336.38,354c2.5,0,4.53-2.03,4.53-4.54"/>
<path style="&st11;" d="M5264.43,315.47c0-2.5-2.03-4.53-4.54-4.53"/>
<path style="&st11;" d="M5259.89,310.94c-2.5,0-4.53,2.03-4.53,4.53"/>
<path style="&st11;" d="M5255.36,315.47c0,2.5,2.03,4.53,4.53,4.53"/>
<path style="&st11;" d="M5259.89,320c2.51,0,4.54-2.03,4.54-4.53"/>
<path style="&st11;" d="M5340.91,315.47c0-2.5-2.03-4.53-4.53-4.53"/>
<path style="&st11;" d="M5336.38,310.94c-2.5,0-4.53,2.03-4.53,4.53"/>
<path style="&st11;" d="M5331.85,315.47c0,2.5,2.03,4.53,4.53,4.53"/>
<path style="&st11;" d="M5336.38,320c2.5,0,4.53-2.03,4.53-4.53"/>
<text transform="matrix(1 0 0 1 5339.209 328.1968)" style="&st10;"><tspan x="0" y="0" style="&st31; &st19;">GND1</tspan></text>
<text transform="matrix(1 0 0 1 5262.7295 328.1968)" style="&st10;"><tspan x="0" y="0" style="&st31; &st19;">DISP</tspan></text>
<text transform="matrix(1 0 0 1 5334.0488 317.4365)" style="&st10;"><tspan x="0" y="0" style="&st31; &st19;">A</tspan></text>
<text transform="matrix(1 0 0 1 5322.3301 317.4365)" style="&st10;"><tspan x="0" y="0" style="&st31; &st19;">10</tspan></text>
<text transform="matrix(1 0 0 1 5257.5596 317.4365)" style="&st10;"><tspan x="0" y="0" style="&st31; &st19;">A</tspan></text>
<text transform="matrix(1 0 0 1 5249.0195 317.4365)" style="&st10;"><tspan x="0" y="0" style="&st31; &st19;">9</tspan></text>
<text transform="matrix(1 0 0 1 5333.9102 351.4268)" style="&st10;"><tspan x="0" y="0" style="&st31; &st19;">D</tspan></text>
<text transform="matrix(1 0 0 1 5325.5 351.4268)" style="&st10;"><tspan x="0" y="0" style="&st31; &st19;">3</tspan></text>
<text transform="matrix(1 0 0 1 5257.4199 351.4268)" style="&st10;"><tspan x="0" y="0" style="&st31; &st19;">D</tspan></text>
<text transform="matrix(1 0 0 1 5249.0195 351.4268)" style="&st10;"><tspan x="0" y="0" style="&st31; &st19;">2</tspan></text>
<text ewd:textID="100" transform="matrix(0 -1 1 0 5230.6992 348.0166)" style="&st10; &st31; &st19;">Spiral Cable Sub-Assembly</text>
<text ewd:textID="70" transform="matrix(0 -1 1 0 5223.5996 348.0166)" style="&st10; &st31; &st19;">G40(A),z8(D)</text>
</g>
<text transform="matrix(0 -1 1 0 5256.1992 299.1665)" style="&st10;"><tspan x="0" y="0" style="&st31; &st19;">SB</tspan></text>
<text transform="matrix(0 -1 1 0 5417.6699 296.8364)" style="&st10;"><tspan x="0" y="0" style="&st31; &st19;">P</tspan></text>
<text transform="matrix(0 -1 1 0 5332.6895 296.8364)" style="&st10;"><tspan x="0" y="0" style="&st31; &st19;">P</tspan></text>
<text transform="matrix(0 -1 1 0 5451.6699 299.1665)" style="&st10;"><tspan x="0" y="0" style="&st31; &st19;">SB</tspan></text>
<text transform="matrix(0 -1 1 0 5451.6699 510.3267)" style="&st10;"><tspan x="0" y="0" style="&st31; &st19;">W</tspan></text>
<text transform="matrix(0 -1 1 0 5417.6699 509.2974)" style="&st10;"><tspan x="0" y="0" style="&st31; &st19;">V</tspan></text>
<text transform="matrix(0 -1 1 0 5417.6699 407.4565)" style="&st10;"><tspan x="0" y="0" style="&st31; &st19;">R</tspan></text>
<text transform="matrix(0 -1 1 0 5451.6699 408.3364)" style="&st10;"><tspan x="0" y="0" style="&st31; &st19;">W</tspan></text>
<text transform="matrix(0 -1 1 0 5128.7197 118.0068)" style="&st10;"><tspan x="0" y="0" style="&st31; &st19;">L</tspan></text>
<text transform="matrix(0 -1 1 0 5162.709 119.3867)" style="&st10;"><tspan x="0" y="0" style="&st31; &st19;">W</tspan></text>
<text transform="matrix(0 -1 1 0 5463 413.147)" style="&st10;"><tspan x="0" y="0" style="&st31; &st19;">(*25)</tspan></text>
<text transform="matrix(0 -1 1 0 5429 413.147)" style="&st10;"><tspan x="0" y="0" style="&st31; &st19;">(*25)</tspan></text>
<text transform="matrix(0 -1 1 0 5429 515.1274)" style="&st10;"><tspan x="0" y="0" style="&st31; &st19;">(*25)</tspan></text>
<text transform="matrix(0 -1 1 0 5463 515.1274)" style="&st10;"><tspan x="0" y="0" style="&st31; &st19;">(*25)</tspan></text>
<text transform="matrix(0 -1 1 0 5494.1602 408.3364)" style="&st10;"><tspan x="0" y="0" style="&st31; &st19;">W</tspan></text>
<text transform="matrix(0 -1 1 0 5392.1797 407.4565)" style="&st10;"><tspan x="0" y="0" style="&st31; &st19;">R</tspan></text>
<text transform="matrix(0 -1 1 0 5403.5098 413.147)" style="&st10;"><tspan x="0" y="0" style="&st31; &st19;">(*26)</tspan></text>
</svg>
