﻿<?xml version="1.0" encoding="UTF-8"?>
<!DOCTYPE svg PUBLIC "-//W3C//DTD SVG 1.0//EN" "http://www.w3.org/TR/2001/REC-SVG-20010904/DTD/svg10.dtd"[
<!ENTITY ns_flows "http://ns.adobe.com/Flows/1.0/">
<!ENTITY ns_svg "http://www.w3.org/2000/svg">
<!ENTITY ns_xlink "http://www.w3.org/1999/xlink">
	<!ENTITY st0 "fill:none;stroke:#FB0F0C;stroke-width:5.1;stroke-linejoin:round;">
	<!ENTITY st1 "fill:none;stroke:#9A9999;stroke-width:5.1;stroke-linejoin:round;">
		<!ENTITY st2 "fill:none;stroke:#000000;stroke-width:0.85;stroke-linecap:round;stroke-linejoin:round;stroke-dasharray:3 1.5;enable-background:new    ;">
	<!ENTITY st3 "fill:none;stroke:#000000;stroke-width:5.1;stroke-linejoin:round;">
	<!ENTITY st4 "fill:none;stroke:#000000;stroke-linecap:round;stroke-linejoin:round;">
	<!ENTITY st5 "stroke:#000000;stroke-width:0.28;stroke-linecap:round;stroke-linejoin:round;enable-background:new    ;">
	<!ENTITY st6 "enable-background:new    ;">
		<!ENTITY st7 "fill:none;stroke:#000000;stroke-width:1.42;stroke-linecap:round;stroke-linejoin:round;enable-background:new    ;">
	<!ENTITY st8 "fill:none;stroke:#EE67AA;stroke-width:5.1;stroke-linejoin:round;">
	<!ENTITY st9 "fill:none;stroke:#199DBF;stroke-width:5.1;stroke-linejoin:round;">
	<!ENTITY st10 "opacity:0.5;fill:none;stroke:#34ACCE;stroke-linejoin:round;stroke-dasharray:6;">
	<!ENTITY st11 "fill:none;stroke:#FFFFFF;stroke-width:4.53;stroke-linejoin:round;">
		<!ENTITY st12 "fill:none;stroke:#000000;stroke-width:0.85;stroke-linecap:round;stroke-linejoin:round;enable-background:new    ;">
	<!ENTITY st13 "fill:none;stroke:#56107C;stroke-width:5.1;stroke-linejoin:round;">
	<!ENTITY st14 "font-size:6px;">
	<!ENTITY st15 "fill:none;stroke:#168638;stroke-width:5.1;stroke-linejoin:round;">
	<!ENTITY st16 "fill:none;stroke:#000000;stroke-width:1.13;stroke-linejoin:round;">
		<!ENTITY st17 "fill:none;stroke:#000000;stroke-width:1.13;stroke-linecap:round;stroke-linejoin:round;stroke-dasharray:3 1.5;enable-background:new    ;">
	<!ENTITY st18 "fill:#FFFFFF;stroke:#000000;stroke-width:1.41;stroke-linecap:round;stroke-linejoin:round;">
	<!ENTITY st19 "fill:none;stroke:#3E65AC;stroke-width:3;">
	<!ENTITY st20 "fill:#CCCCCC;stroke:#CCCCCC;stroke-width:0.1;stroke-linecap:round;stroke-linejoin:round;">
	<!ENTITY st21 "font-family:'ArialMT';">
	<!ENTITY st22 "opacity:0.5;fill:none;stroke:#34ACCE;stroke-linejoin:round;">
	<!ENTITY st23 "fill:#CFE6E7;stroke:#000000;stroke-width:1.133;stroke-linecap:round;stroke-linejoin:round;">
	<!ENTITY st24 "fill:none;stroke:#99D5E0;stroke-width:5.1;stroke-linejoin:round;">
	<!ENTITY st25 "fill:none;stroke:#7EC57E;stroke-width:5.1;stroke-linejoin:round;">
<!ATTLIST svg
xmlns:ewd CDATA #FIXED "http://shcl.co.jp/ewd"
xmlns:a CDATA #FIXED "http://ns.adobe.com/AdobeSVGViewerExtensions/3.0/"
ewd:ver CDATA #IMPLIED
>
<!ATTLIST a
ewd:lineID CDATA #IMPLIED
ewd:groupID CDATA #IMPLIED
ewd:figtype CDATA #IMPLIED
ewd:code CDATA #IMPLIED
ewd:figID CDATA #IMPLIED
ewd:pinNo CDATA #IMPLIED
ewd:comment CDATA #IMPLIED >
<!ATTLIST g
ewd:lineID CDATA #IMPLIED
ewd:groupID CDATA #IMPLIED
ewd:figtype CDATA #IMPLIED
ewd:code CDATA #IMPLIED
ewd:figID CDATA #IMPLIED
ewd:pinNo CDATA #IMPLIED
ewd:comment CDATA #IMPLIED >
<!ATTLIST text
ewd:textID CDATA #IMPLIED >
<!ATTLIST title
ewd:textID CDATA #IMPLIED >
]>
<svg 
viewBox='0 0 3631.87 729.44'
height='729.44'
width='3631.87'
xml:space="preserve"
xmlns="&ns_svg;"
xmlns:ewd="http://shcl.co.jp/ewd"
xmlns:xlink="&ns_xlink;" ewd:ver="L2.1">
<g ewd:code="GQ1" ewd:figID="607" ewd:figtype="w2w" ewd:pinNo="10">
<path style="&st7;" d="M423.68,286.01h-8.5"/>
<path style="&st7;" d="M419.43,291.67l-4.25-4.25l-4.25,4.25"/>
<path style="&st7;" d="M419.43,295.07l-4.25-4.25l-4.25,4.25"/>
<text transform="matrix(1 0 0 1 397.0059 283.7266)" style="&st6;"><tspan x="0" y="0" style="&st21; &st14;">10</tspan></text>
</g>
<g ewd:code="GQ1" ewd:figID="605" ewd:figtype="w2w" ewd:pinNo="9">
<path style="&st7;" d="M381.19,286.01h-8.5"/>
<path style="&st7;" d="M376.94,295.07l-4.25-4.25l-4.25,4.25"/>
<path style="&st7;" d="M376.94,291.67l-4.25-4.25l-4.25,4.25"/>
<text transform="matrix(1 0 0 1 357.8535 283.7266)" style="&st6;"><tspan x="0" y="0" style="&st21; &st14;">9</tspan></text>
</g>
<g ewd:code="LQ1" ewd:figID="606" ewd:figtype="w2w" ewd:pinNo="19">
<path style="&st7;" d="M406.68,337h8.5"/>
<path style="&st7;" d="M410.93,327.93l4.25,4.25l4.25-4.25"/>
<path style="&st7;" d="M419.43,331.33l-4.25,4.25l-4.25-4.25"/>
<text transform="matrix(1 0 0 1 397.0059 343.2168)" style="&st6;"><tspan x="0" y="0" style="&st21; &st14;">19</tspan></text>
</g>
<g ewd:code="LQ1" ewd:figID="604" ewd:figtype="w2w" ewd:pinNo="20">
<path style="&st7;" d="M364.19,337h8.5"/>
<path style="&st7;" d="M376.94,331.33l-4.25,4.25l-4.25-4.25"/>
<path style="&st7;" d="M368.44,327.93l4.25,4.25l4.25-4.25"/>
<text transform="matrix(1 0 0 1 354.5166 343.2168)" style="&st6;"><tspan x="0" y="0" style="&st21; &st14;">20</tspan></text>
</g>
<g ewd:code="GQ1" ewd:figID="602" ewd:figtype="w2w" ewd:pinNo="19">
<path style="&st7;" d="M279.2,286.01h-8.5"/>
<path style="&st7;" d="M274.95,291.67l-4.25-4.25l-4.24,4.25"/>
<path style="&st7;" d="M274.95,295.07l-4.25-4.25l-4.24,4.25"/>
<text transform="matrix(1 0 0 1 252.5361 283.7266)" style="&st6;"><tspan x="0" y="0" style="&st21; &st14;">19</tspan></text>
</g>
<g ewd:code="LQ1" ewd:figID="603" ewd:figtype="w2w" ewd:pinNo="11">
<path style="&st7;" d="M262.21,337h8.49"/>
<path style="&st7;" d="M274.95,331.33l-4.25,4.25l-4.24-4.25"/>
<path style="&st7;" d="M266.46,327.93l4.24,4.25l4.25-4.25"/>
<text transform="matrix(1 0 0 1 252.9814 343.2168)" style="&st6;"><tspan x="0" y="0" style="&st21; &st14;">11</tspan></text>
</g>
<g ewd:code="LQ1" ewd:figID="628" ewd:figtype="w2w" ewd:pinNo="13">
<path style="&st7;" d="M347.19,523.97h-8.5"/>
<path style="&st7;" d="M342.94,533.03l-4.25-4.25l-4.25,4.25"/>
<path style="&st7;" d="M342.94,529.63l-4.25-4.25l-4.25,4.25"/>
<text transform="matrix(1 0 0 1 320.5166 521.6865)" style="&st6;"><tspan x="0" y="0" style="&st21; &st14;">13</tspan></text>
</g>
<g ewd:code="GQ1" ewd:figID="627" ewd:figtype="w2w" ewd:pinNo="47">
<path style="&st7;" d="M330.19,574.96h8.5"/>
<path style="&st7;" d="M342.94,569.29l-4.25,4.25l-4.25-4.25"/>
<path style="&st7;" d="M334.44,565.89l4.25,4.25l4.25-4.25"/>
<text transform="matrix(1 0 0 1 320.5166 581.1768)" style="&st6;"><tspan x="0" y="0" style="&st21; &st14;">47</tspan></text>
</g>
<g ewd:code="LQ1" ewd:figID="626" ewd:figtype="w2w" ewd:pinNo="12">
<path style="&st7;" d="M279.2,583.46h-8.5"/>
<path style="&st7;" d="M274.95,589.12l-4.25-4.25l-4.24,4.25"/>
<path style="&st7;" d="M274.95,592.52l-4.25-4.25l-4.24,4.25"/>
<text transform="matrix(1 0 0 1 252.5361 581.1768)" style="&st6;"><tspan x="0" y="0" style="&st21; &st14;">12</tspan></text>
</g>
<g ewd:code="GA6" ewd:figID="601" ewd:figtype="w2w" ewd:pinNo="55">
<path style="&st7;" d="M15.75,158.53h8.5"/>
<path style="&st7;" d="M28.5,152.86l-4.25,4.25L20,152.86"/>
<path style="&st7;" d="M20,149.46l4.25,4.25l4.25-4.25"/>
<text transform="matrix(1 0 0 1 6.0762 164.7461)" style="&st6;"><tspan x="0" y="0" style="&st21; &st14;">55</tspan></text>
</g>
<g ewd:code="263001" ewd:figID="501" ewd:figtype="sp">
<path style="&st7;" d="M279.2,520.44l-4.97-4.97"/>
<path style="&st7;" d="M262.21,527.5l4.96,4.97"/>
<path style="&st7;" d="M274.23,532.47l4.97-4.97"/>
<path style="&st7;" d="M267.17,515.47l-4.96,4.97"/>
</g>
<g ewd:code="FUSE17" ewd:figID="401" ewd:figtype="rb">
<path style="&st4;" d="M11.5,39.55v42.49h25.49V39.55H11.5"/>
<path style="&st12;" d="M24.25,73.54v25.5"/>
<path style="&st7;" d="M26.37,99.04h-4.25"/>
<path style="&st7;" d="M26.37,107.54h-4.25"/>
<path style="&st5;" d="M24.25,94.14l-2.84-2.83v4.25l2.84,2.83l2.83-2.83v-4.25L24.25,94.14"/>
<path style="&st7;" d="M11.5,39.55v42.49h25.49V39.55H11.5"/>
<path style="&st7;" d="M24.25,50.88c-2.74,1.61-3.65,5.14-2.04,7.88"/>
<path style="&st7;" d="M22.21,58.76c0.52,0.88,1.15,1.52,2.04,2.04"/>
<path style="&st7;" d="M24.25,70.71c2.73-1.61,3.65-5.14,2.03-7.88"/>
<path style="&st7;" d="M26.28,62.83c-0.52-0.88-1.15-1.51-2.03-2.03"/>
<path style="&st12;" d="M25.66,49.46c0-0.78-0.63-1.41-1.41-1.41"/>
<path style="&st12;" d="M24.25,48.05c-0.79,0-1.42,0.63-1.42,1.41"/>
<path style="&st12;" d="M22.83,49.46c0,0.79,0.63,1.42,1.42,1.42"/>
<path style="&st12;" d="M24.25,50.88c0.78,0,1.41-0.63,1.41-1.42"/>
<path style="&st12;" d="M25.66,72.13c0-0.79-0.63-1.42-1.41-1.42"/>
<path style="&st12;" d="M24.25,70.71c-0.79,0-1.42,0.63-1.42,1.42"/>
<path style="&st12;" d="M22.83,72.13c0,0.78,0.63,1.41,1.42,1.41"/>
<path style="&st12;" d="M24.25,73.54c0.78,0,1.41-0.63,1.41-1.41"/>
<path style="&st7;" d="M22.12,99.04c-2.35,0-4.25,1.9-4.25,4.25"/>
<path style="&st7;" d="M17.87,103.29c0,2.35,1.9,4.25,4.25,4.25"/>
<path style="&st7;" d="M26.37,107.54c2.35,0,4.25-1.9,4.25-4.25"/>
<path style="&st7;" d="M30.62,103.29c0-2.35-1.9-4.25-4.25-4.25"/>
<text transform="matrix(1 0 0 1 41.5498 59.9365)" style="&st6;"><tspan x="0" y="0" style="&st21; &st14;">10A</tspan></text>
<text transform="matrix(1 0 0 1 41.5498 65.9365)" style="&st6;"><tspan x="0" y="0" style="&st21; &st14;">SECURITY</tspan></text>
<text transform="matrix(1 0 0 1 22.6602 105.2568)" style="&st6;"><tspan x="0" y="0" style="&st21; &st14;">1</tspan></text>
<text transform="matrix(1 0 0 1 15.1299 35.8467)" style="&st6;"><tspan x="0" y="0" style="&st21; &st14;">(BAT)</tspan></text>
<text transform="matrix(1 0 0 1 17.46 90.2363)" style="&st6;"><tspan x="0" y="0" style="&st21; &st14;">2</tspan></text>
</g>
<g ewd:code="2" ewd:figID="301" ewd:figtype="jb">
<path style="&st4;" d="M87.99,39.55v42.49h25.49V39.55H87.99"/>
<path style="&st12;" d="M100.73,73.54v25.5"/>
<path style="&st7;" d="M102.86,99.04h-4.25"/>
<path style="&st7;" d="M102.86,107.54h-4.25"/>
<path style="&st5;" d="M100.73,94.14l-2.83-2.83v4.25l2.83,2.83l2.84-2.83v-4.25L100.73,94.14"/>
<path style="&st7;" d="M87.99,39.55v42.49h25.49V39.55H87.99"/>
<path style="&st7;" d="M100.73,50.88c-2.73,1.61-3.65,5.14-2.03,7.88"/>
<path style="&st7;" d="M98.7,58.76c0.52,0.88,1.15,1.52,2.03,2.04"/>
<path style="&st7;" d="M100.73,70.71c2.74-1.61,3.65-5.14,2.04-7.88"/>
<path style="&st7;" d="M102.77,62.83c-0.52-0.88-1.16-1.51-2.04-2.03"/>
<path style="&st12;" d="M102.15,49.46c0-0.78-0.63-1.41-1.42-1.41"/>
<path style="&st12;" d="M100.73,48.05c-0.78,0-1.41,0.63-1.41,1.41"/>
<path style="&st12;" d="M99.32,49.46c0,0.79,0.63,1.42,1.41,1.42"/>
<path style="&st12;" d="M100.73,50.88c0.79,0,1.42-0.63,1.42-1.42"/>
<path style="&st12;" d="M102.15,72.13c0-0.79-0.63-1.42-1.42-1.42"/>
<path style="&st12;" d="M100.73,70.71c-0.78,0-1.41,0.63-1.41,1.42"/>
<path style="&st12;" d="M99.32,72.13c0,0.78,0.63,1.41,1.41,1.41"/>
<path style="&st12;" d="M100.73,73.54c0.79,0,1.42-0.63,1.42-1.41"/>
<path style="&st7;" d="M98.61,99.04c-2.35,0-4.25,1.9-4.25,4.25"/>
<path style="&st7;" d="M94.36,103.29c0,2.35,1.9,4.25,4.25,4.25"/>
<path style="&st7;" d="M102.86,107.54c2.34,0,4.25-1.9,4.25-4.25"/>
<path style="&st7;" d="M107.11,103.29c0-2.35-1.91-4.25-4.25-4.25"/>
<text transform="matrix(1 0 0 1 118.04 57.1064)" style="&st6;"><tspan x="0" y="0" style="&st21; &st14;">25A</tspan></text>
<text transform="matrix(1 0 0 1 118.04 63.1064)" style="&st6;"><tspan x="0" y="0" style="&st21; &st14;">D/L</tspan></text>
<text transform="matrix(1 0 0 1 118.04 69.1064)" style="&st6;"><tspan x="0" y="0" style="&st21; &st14;">NO.2</tspan></text>
<text transform="matrix(1 0 0 1 96.2793 105.2568)" style="&st6;"><tspan x="0" y="0" style="&st21; &st14;">2D</tspan></text>
<text transform="matrix(1 0 0 1 88.04 105.2568)" style="&st6;"><tspan x="0" y="0" style="&st21; &st14;">6</tspan></text>
<text transform="matrix(1 0 0 1 91.6201 35.8467)" style="&st6;"><tspan x="0" y="0" style="&st21; &st14;">(BAT)</tspan></text>
</g>
<g ewd:code="Q1" ewd:figID="201" ewd:figtype="gp">
<path style="&st12;" d="M270.7,701.02v4.25"/>
<path style="&st12;" d="M262.21,705.27h16.99"/>
<path style="&st12;" d="M266.46,708.1h8.49"/>
<path style="&st12;" d="M267.87,710.94h5.67"/>
<path style="&st12;" d="M269.29,713.77h2.83"/>
</g>
<g ewd:code="G93,G144" ewd:figID="2" ewd:figtype="conn">
<path style="&st12;" d="M236.71,141.53v17"/>
<path style="&st7;" d="M228.21,141.53h17v17h-17V141.53"/>
<path style="&st7;" d="M241.24,163.06c0-2.5-2.03-4.53-4.53-4.53"/>
<path style="&st7;" d="M236.71,158.53c-2.5,0-4.53,2.03-4.53,4.53"/>
<path style="&st7;" d="M232.18,163.06c0,2.51,2.03,4.53,4.53,4.53"/>
<path style="&st7;" d="M236.71,167.59c2.5,0,4.53-2.02,4.53-4.53"/>
<path style="&st7;" d="M241.24,127.93c0-2.5-2.03-4.53-4.53-4.53"/>
<path style="&st7;" d="M236.71,123.4c-2.5,0-4.53,2.03-4.53,4.53"/>
<path style="&st7;" d="M232.18,127.93c0,2.51,2.03,4.54,4.53,4.54"/>
<path style="&st7;" d="M236.71,132.47c2.5,0,4.53-2.03,4.53-4.54"/>
<path style="&st7;" d="M241.24,172.13c0-2.51-2.03-4.54-4.53-4.54"/>
<path style="&st7;" d="M236.71,167.59c-2.5,0-4.53,2.03-4.53,4.54"/>
<path style="&st7;" d="M232.18,172.13c0,2.5,2.03,4.53,4.53,4.53"/>
<path style="&st7;" d="M236.71,176.66c2.5,0,4.53-2.03,4.53-4.53"/>
<path style="&st7;" d="M241.24,137c0-2.5-2.03-4.53-4.53-4.53"/>
<path style="&st7;" d="M236.71,132.47c-2.5,0-4.53,2.03-4.53,4.53"/>
<path style="&st7;" d="M232.18,137c0,2.5,2.03,4.53,4.53,4.53"/>
<path style="&st7;" d="M236.71,141.53c2.5,0,4.53-2.03,4.53-4.53"/>
<text transform="matrix(1 0 0 1 222.6494 138.9668)" style="&st6;"><tspan x="0" y="0" style="&st21; &st14;">21</tspan></text>
<text transform="matrix(1 0 0 1 234.3799 138.9668)" style="&st6;"><tspan x="0" y="0" style="&st21; &st14;">B</tspan></text>
<text transform="matrix(1 0 0 1 222.6494 129.8965)" style="&st6;"><tspan x="0" y="0" style="&st21; &st14;">21</tspan></text>
<text transform="matrix(1 0 0 1 234.3799 129.8965)" style="&st6;"><tspan x="0" y="0" style="&st21; &st14;">A</tspan></text>
<text transform="matrix(1 0 0 1 221.8799 174.0967)" style="&st6;"><tspan x="0" y="0" style="&st21; &st14;">22</tspan></text>
<text transform="matrix(1 0 0 1 234.3799 174.0967)" style="&st6;"><tspan x="0" y="0" style="&st21; &st14;">B</tspan></text>
<text transform="matrix(1 0 0 1 221.8799 165.0264)" style="&st6;"><tspan x="0" y="0" style="&st21; &st14;">22</tspan></text>
<text transform="matrix(1 0 0 1 234.3799 165.0264)" style="&st6;"><tspan x="0" y="0" style="&st21; &st14;">A</tspan></text>
<text ewd:textID="17" transform="matrix(0 -1 1 0 214.3193 161.0469)" style="&st6; &st21; &st14;">Junction <tspan x="0" y="7">Connector</tspan></text>
<text transform="matrix(0 -1 1 0 207.21 161.0469)" style="&st6;"><tspan x="0" y="0" style="&st21; &st14;">G93(A),G144(B)</tspan></text>
</g>
<g ewd:code="L5" ewd:figID="17" ewd:figtype="conn">
<path style="&st12;" d="M270.7,417.74v-29.75"/>
<path style="&st12;" d="M270.7,472.98v-29.75"/>
<path style="&st7;" d="M270.7,440.4l5.67-22.66"/>
<path style="&st7;" d="M376.94,419.15v3.97"/>
<path style="&st7;" d="M368.44,423.12v-3.97"/>
<path style="&st7;" d="M368.44,419.15h8.5"/>
<path style="&st7;" d="M376.94,441.82v-3.97"/>
<path style="&st7;" d="M368.44,437.85v3.97"/>
<path style="&st7;" d="M368.44,441.82h8.5"/>
<path style="&st12;" d="M338.69,417.74v-12.75"/>
<path style="&st12;" d="M338.69,472.98v-29.75"/>
<path style="&st7;" d="M338.69,440.4l5.67-22.66"/>
<path style="&st7;" d="M245.21,387.99v84.99h178.47v-84.99H245.21"/>
<path style="&st12;" d="M372.69,387.99v31.16"/>
<path style="&st12;" d="M372.69,441.82v22.66h42.49v-76.49"/>
<path style="&st12;" d="M338.69,404.99H304.7v67.99"/>
<path style="&st12;" d="M272.12,419.15c0-0.78-0.63-1.41-1.42-1.41"/>
<path style="&st12;" d="M270.7,417.74c-0.78,0-1.41,0.63-1.41,1.41"/>
<path style="&st12;" d="M269.29,419.15c0,0.78,0.63,1.42,1.41,1.42"/>
<path style="&st12;" d="M270.7,420.57c0.79,0,1.42-0.64,1.42-1.42"/>
<path style="&st12;" d="M272.12,441.82c0-0.79-0.63-1.42-1.42-1.42"/>
<path style="&st12;" d="M270.7,440.4c-0.78,0-1.41,0.63-1.41,1.42"/>
<path style="&st12;" d="M269.29,441.82c0,0.78,0.63,1.41,1.41,1.41"/>
<path style="&st12;" d="M270.7,443.23c0.79,0,1.42-0.63,1.42-1.41"/>
<path style="&st7;" d="M381.19,430.48c0-4.69-3.81-8.49-8.5-8.49"/>
<path style="&st7;" d="M372.69,421.99c-4.7,0-8.5,3.8-8.5,8.49"/>
<path style="&st7;" d="M364.19,430.48c0,4.7,3.8,8.5,8.5,8.5"/>
<path style="&st7;" d="M372.69,438.98c4.69,0,8.5-3.8,8.5-8.5"/>
<path style="&st12;" d="M340.11,419.15c0-0.78-0.63-1.41-1.42-1.41"/>
<path style="&st12;" d="M338.69,417.74c-0.78,0-1.41,0.63-1.41,1.41"/>
<path style="&st12;" d="M337.28,419.15c0,0.78,0.63,1.42,1.41,1.42"/>
<path style="&st12;" d="M338.69,420.57c0.79,0,1.42-0.64,1.42-1.42"/>
<path style="&st12;" d="M340.11,441.82c0-0.79-0.63-1.42-1.42-1.42"/>
<path style="&st12;" d="M338.69,440.4c-0.78,0-1.41,0.63-1.41,1.42"/>
<path style="&st12;" d="M337.28,441.82c0,0.78,0.63,1.41,1.41,1.41"/>
<path style="&st12;" d="M338.69,443.23c0.79,0,1.42-0.63,1.42-1.41"/>
<text transform="matrix(1 0 0 1 331.9004 481.167)" style="&st6;"><tspan x="0" y="0" style="&st21; &st14;">9</tspan></text>
<text transform="matrix(1 0 0 1 317.6299 469.2861)" style="&st6;"><tspan x="0" y="0" style="&st21; &st14;">LSSR</tspan></text>
<text ewd:textID="24" transform="matrix(0 -1 1 0 325.9502 445.3867)" style="&st6; &st21; &st14;">Unlock <tspan x="0" y="7">Detection</tspan></text>
<text ewd:textID="22" transform="matrix(0 -1 1 0 438.4004 475.4971)" style="&st6; &st21; &st14;">Rear Door Lock Assembly RH</text>
<text transform="matrix(0 -1 1 0 431.29 475.4971)" style="&st6;"><tspan x="0" y="0" style="&st21; &st14;">L5</tspan></text>
<text transform="matrix(1 0 0 1 263.9199 384.2959)" style="&st6;"><tspan x="0" y="0" style="&st21; &st14;">5</tspan></text>
<text transform="matrix(1 0 0 1 409.1699 384.2959)" style="&st6;"><tspan x="0" y="0" style="&st21; &st14;">1</tspan></text>
<text transform="matrix(1 0 0 1 365.9004 384.2959)" style="&st6;"><tspan x="0" y="0" style="&st21; &st14;">2</tspan></text>
<text transform="matrix(1 0 0 1 263.9199 481.167)" style="&st6;"><tspan x="0" y="0" style="&st21; &st14;">6</tspan></text>
<text transform="matrix(1 0 0 1 360.9502 396.1768)" style="&st6;"><tspan x="0" y="0" style="&st21; &st14;">DL</tspan></text>
<text transform="matrix(1 0 0 1 393.5596 396.1768)" style="&st6;"><tspan x="0" y="0" style="&st21; &st14;">UNDL</tspan></text>
<text transform="matrix(1 0 0 1 249.3594 396.1768)" style="&st6;"><tspan x="0" y="0" style="&st21; &st14;">DLSR</tspan></text>
<text transform="matrix(1 0 0 1 263.21 469.2861)" style="&st6;"><tspan x="0" y="0" style="&st21; &st14;">E</tspan></text>
<text transform="matrix(1 0 0 1 369.79 432.4463)" style="&st6;"><tspan x="0" y="0" style="&st21; &st14;">M</tspan></text>
<text ewd:textID="12" transform="matrix(0 -1 1 0 257.96 450.2666)" style="&st6; &st21; &st14;">Double Lock <tspan x="0" y="7">Position</tspan></text>
<text transform="matrix(1 0 0 1 294.7295 481.167)" style="&st6;"><tspan x="0" y="0" style="&st21; &st14;">10</tspan></text>
<text transform="matrix(1 0 0 1 297.2002 469.2861)" style="&st6;"><tspan x="0" y="0" style="&st21; &st14;">E</tspan></text>
</g>
<g ewd:code="G130,G131-D,G169,G167" ewd:figID="3" ewd:figtype="conn">
<path style="&st12;" d="M415.18,209.52h33.99v17"/>
<path style="&st12;" d="M372.69,201.02h101.98v25.5"/>
<path style="&st7;" d="M364.19,184.03v42.49h118.98v-42.49H364.19"/>
<path style="&st12;" d="M372.69,184.03v42.49"/>
<path style="&st12;" d="M415.18,184.03v42.49"/>
<path style="&st17;" d="M364.19,192.52h118.98"/>
<path style="&st17;" d="M364.19,218.02h118.98"/>
<path style="&st12;" d="M413.99,208.52l-0.27,0.47l-0.1,0.53l0.1,0.53l0.27,0.47l0.41,0.35l0.51,0.19h0.54l0.51-0.19l0.41-0.35l0.27-0.47l0.1-0.53l-0.1-0.53l-0.27-0.47l-0.41-0.35l-0.51-0.18h-0.54l-0.51,0.18L413.99,208.52l0.39,0.71v0.58l0.38,0.45l0.57,0.1l0.5-0.29l0.2-0.55l-0.2-0.55l-0.5-0.28l-0.57,0.09l0.42,0.74"/>
<path style="&st12;" d="M371.49,200.02l-0.27,0.47l-0.09,0.53l0.09,0.54l0.27,0.47l0.42,0.34l0.51,0.19h0.54l0.51-0.19l0.41-0.34l0.27-0.47l0.1-0.54l-0.1-0.53l-0.27-0.47l-0.41-0.35l-0.51-0.18h-0.54l-0.51,0.18L371.49,200.02l0.4,0.71v0.58l0.37,0.45l0.57,0.1l0.51-0.29l0.2-0.55l-0.2-0.54l-0.51-0.29l-0.57,0.1l0.43,0.73"/>
<path style="&st7;" d="M479.2,231.05c0-2.5-2.03-4.53-4.53-4.53"/>
<path style="&st7;" d="M474.67,226.52c-2.5,0-4.53,2.03-4.53,4.53"/>
<path style="&st7;" d="M470.14,231.05c0,2.5,2.03,4.53,4.53,4.53"/>
<path style="&st7;" d="M474.67,235.58c2.5,0,4.53-2.03,4.53-4.53"/>
<path style="&st7;" d="M453.71,231.05c0-2.5-2.03-4.53-4.54-4.53"/>
<path style="&st7;" d="M449.17,226.52c-2.5,0-4.53,2.03-4.53,4.53"/>
<path style="&st7;" d="M444.64,231.05c0,2.5,2.03,4.53,4.53,4.53"/>
<path style="&st7;" d="M449.17,235.58c2.51,0,4.54-2.03,4.54-4.53"/>
<path style="&st7;" d="M377.22,231.05c0-2.5-2.03-4.53-4.53-4.53"/>
<path style="&st7;" d="M372.69,226.52c-2.51,0-4.54,2.03-4.54,4.53"/>
<path style="&st7;" d="M368.15,231.05c0,2.5,2.03,4.53,4.54,4.53"/>
<path style="&st7;" d="M372.69,235.58c2.5,0,4.53-2.03,4.53-4.53"/>
<path style="&st7;" d="M419.71,231.05c0-2.5-2.03-4.53-4.53-4.53"/>
<path style="&st7;" d="M415.18,226.52c-2.5,0-4.53,2.03-4.53,4.53"/>
<path style="&st7;" d="M410.65,231.05c0,2.5,2.03,4.53,4.53,4.53"/>
<path style="&st7;" d="M415.18,235.58c2.5,0,4.53-2.03,4.53-4.53"/>
<path style="&st7;" d="M377.22,179.49c0-2.5-2.03-4.53-4.53-4.53"/>
<path style="&st7;" d="M372.69,174.96c-2.51,0-4.54,2.03-4.54,4.53"/>
<path style="&st7;" d="M368.15,179.49c0,2.51,2.03,4.54,4.54,4.54"/>
<path style="&st7;" d="M372.69,184.03c2.5,0,4.53-2.03,4.53-4.54"/>
<path style="&st7;" d="M419.71,179.49c0-2.5-2.03-4.53-4.53-4.53"/>
<path style="&st7;" d="M415.18,174.96c-2.5,0-4.53,2.03-4.53,4.53"/>
<path style="&st7;" d="M410.65,179.49c0,2.51,2.03,4.54,4.53,4.54"/>
<path style="&st7;" d="M415.18,184.03c2.5,0,4.53-2.03,4.53-4.54"/>
<path style="&st7;" d="M479.2,240.11c0-2.5-2.03-4.53-4.53-4.53"/>
<path style="&st7;" d="M474.67,235.58c-2.5,0-4.53,2.03-4.53,4.53"/>
<path style="&st7;" d="M470.14,240.11c0,2.5,2.03,4.53,4.53,4.53"/>
<path style="&st7;" d="M474.67,244.64c2.5,0,4.53-2.03,4.53-4.53"/>
<path style="&st7;" d="M453.71,240.11c0-2.5-2.03-4.53-4.54-4.53"/>
<path style="&st7;" d="M449.17,235.58c-2.5,0-4.53,2.03-4.53,4.53"/>
<path style="&st7;" d="M444.64,240.11c0,2.5,2.03,4.53,4.53,4.53"/>
<path style="&st7;" d="M449.17,244.64c2.51,0,4.54-2.03,4.54-4.53"/>
<path style="&st7;" d="M377.22,240.11c0-2.5-2.03-4.53-4.53-4.53"/>
<path style="&st7;" d="M372.69,235.58c-2.51,0-4.54,2.03-4.54,4.53"/>
<path style="&st7;" d="M368.15,240.11c0,2.5,2.03,4.53,4.54,4.53"/>
<path style="&st7;" d="M372.69,244.64c2.5,0,4.53-2.03,4.53-4.53"/>
<path style="&st7;" d="M419.71,240.11c0-2.5-2.03-4.53-4.53-4.53"/>
<path style="&st7;" d="M415.18,235.58c-2.5,0-4.53,2.03-4.53,4.53"/>
<path style="&st7;" d="M410.65,240.11c0,2.5,2.03,4.53,4.53,4.53"/>
<path style="&st7;" d="M415.18,244.64c2.5,0,4.53-2.03,4.53-4.53"/>
<path style="&st7;" d="M377.22,170.42c0-2.5-2.03-4.53-4.53-4.53"/>
<path style="&st7;" d="M372.69,165.89c-2.51,0-4.54,2.03-4.54,4.53"/>
<path style="&st7;" d="M368.15,170.42c0,2.51,2.03,4.54,4.54,4.54"/>
<path style="&st7;" d="M372.69,174.96c2.5,0,4.53-2.03,4.53-4.54"/>
<path style="&st7;" d="M419.71,170.42c0-2.5-2.03-4.53-4.53-4.53"/>
<path style="&st7;" d="M415.18,165.89c-2.5,0-4.53,2.03-4.53,4.53"/>
<path style="&st7;" d="M410.65,170.42c0,2.51,2.03,4.54,4.53,4.54"/>
<path style="&st7;" d="M415.18,174.96c2.5,0,4.53-2.03,4.53-4.54"/>
<text transform="matrix(1 0 0 1 463.79 233.0166)" style="&st6;"><tspan x="0" y="0" style="&st21; &st14;">6</tspan></text>
<text transform="matrix(1 0 0 1 472.2002 233.0166)" style="&st6;"><tspan x="0" y="0" style="&st21; &st14;">D</tspan></text>
<text transform="matrix(1 0 0 1 438.2998 233.0166)" style="&st6;"><tspan x="0" y="0" style="&st21; &st14;">4</tspan></text>
<text transform="matrix(1 0 0 1 446.7002 233.0166)" style="&st6;"><tspan x="0" y="0" style="&st21; &st14;">D</tspan></text>
<text transform="matrix(1 0 0 1 370.21 233.0166)" style="&st6;"><tspan x="0" y="0" style="&st21; &st14;">D</tspan></text>
<text transform="matrix(1 0 0 1 361.8096 233.0166)" style="&st6;"><tspan x="0" y="0" style="&st21; &st14;">5</tspan></text>
<text transform="matrix(1 0 0 1 412.71 233.0166)" style="&st6;"><tspan x="0" y="0" style="&st21; &st14;">D</tspan></text>
<text transform="matrix(1 0 0 1 404.2998 233.0166)" style="&st6;"><tspan x="0" y="0" style="&st21; &st14;">3</tspan></text>
<text transform="matrix(1 0 0 1 463.79 242.0762)" style="&st6;"><tspan x="0" y="0" style="&st21; &st14;">6</tspan></text>
<text transform="matrix(1 0 0 1 472.2002 242.0762)" style="&st6;"><tspan x="0" y="0" style="&st21; &st14;">E</tspan></text>
<text transform="matrix(1 0 0 1 438.2998 242.0762)" style="&st6;"><tspan x="0" y="0" style="&st21; &st14;">4</tspan></text>
<text transform="matrix(1 0 0 1 446.7002 242.0762)" style="&st6;"><tspan x="0" y="0" style="&st21; &st14;">E</tspan></text>
<text transform="matrix(1 0 0 1 370.21 242.0762)" style="&st6;"><tspan x="0" y="0" style="&st21; &st14;">E</tspan></text>
<text transform="matrix(1 0 0 1 361.8096 242.0762)" style="&st6;"><tspan x="0" y="0" style="&st21; &st14;">5</tspan></text>
<text transform="matrix(1 0 0 1 412.71 242.0762)" style="&st6;"><tspan x="0" y="0" style="&st21; &st14;">E</tspan></text>
<text transform="matrix(1 0 0 1 404.2998 242.0762)" style="&st6;"><tspan x="0" y="0" style="&st21; &st14;">3</tspan></text>
<text transform="matrix(1 0 0 1 370.21 181.4561)" style="&st6;"><tspan x="0" y="0" style="&st21; &st14;">C</tspan></text>
<text transform="matrix(1 0 0 1 362.5898 181.4561)" style="&st6;"><tspan x="0" y="0" style="&st21; &st14;">1</tspan></text>
<text transform="matrix(1 0 0 1 412.71 181.4561)" style="&st6;"><tspan x="0" y="0" style="&st21; &st14;">C</tspan></text>
<text transform="matrix(1 0 0 1 404.2998 181.4561)" style="&st6;"><tspan x="0" y="0" style="&st21; &st14;">3</tspan></text>
<text transform="matrix(1 0 0 1 370.21 172.3857)" style="&st6;"><tspan x="0" y="0" style="&st21; &st14;">F</tspan></text>
<text transform="matrix(1 0 0 1 362.5898 172.3857)" style="&st6;"><tspan x="0" y="0" style="&st21; &st14;">1</tspan></text>
<text transform="matrix(1 0 0 1 412.71 172.3857)" style="&st6;"><tspan x="0" y="0" style="&st21; &st14;">F</tspan></text>
<text transform="matrix(1 0 0 1 404.2998 172.3857)" style="&st6;"><tspan x="0" y="0" style="&st21; &st14;">3</tspan></text>
<text ewd:textID="17" transform="matrix(1 0 0 1 449.6504 174.376)" style="&st6; &st21; &st14;">Junction <tspan x="0" y="7">Connector</tspan></text>
<text transform="matrix(1 0 0 1 449.6504 167.2666)" style="&st6;"><tspan x="0" y="0" style="&st21; &st14;">G169(E),G167(F)</tspan></text>
<text transform="matrix(1 0 0 1 449.6504 160.1572)" style="&st6;"><tspan x="0" y="0" style="&st21; &st14;">G130(C),G131(D), </tspan></text>
</g>
<g ewd:code="G49" ewd:figID="1" ewd:figtype="conn">
<path style="&st7;" d="M160.22,39.55v42.49H1486V39.55H160.22"/>
<text ewd:textID="11" transform="matrix(1 0 0 1 684.6104 35.8467)" style="&st6; &st21; &st14;">Double Lock Door Control Relay Assembly</text>
<text transform="matrix(1 0 0 1 684.6104 28.7461)" style="&st6;"><tspan x="0" y="0" style="&st21; &st14;">G49</tspan></text>
<text transform="matrix(1 0 0 1 1203.0195 28.7461)" style="&st6;"><tspan x="0" y="0" style="&st21; &st14;">G49</tspan></text>
<text ewd:textID="11" transform="matrix(1 0 0 1 1203.0195 35.8467)" style="&st6; &st21; &st14;">Double Lock Door Control Relay Assembly</text>
<text transform="matrix(1 0 0 1 1170.9395 78.3467)" style="&st6;"><tspan x="0" y="0" style="&st21; &st14;">DLPP</tspan></text>
<text ewd:textID="11" transform="matrix(1 0 0 1 166.2002 35.8467)" style="&st6; &st21; &st14;">Double Lock Door Control Relay Assembly</text>
<text transform="matrix(1 0 0 1 166.2002 28.7461)" style="&st6;"><tspan x="0" y="0" style="&st21; &st14;">G49</tspan></text>
<text transform="matrix(1 0 0 1 1173.2598 90.2363)" style="&st6;"><tspan x="0" y="0" style="&st21; &st14;">6</tspan></text>
<text transform="matrix(1 0 0 1 975.8301 78.3467)" style="&st6;"><tspan x="0" y="0" style="&st21; &st14;">DLPL</tspan></text>
<text transform="matrix(1 0 0 1 856.3496 78.3467)" style="&st6;"><tspan x="0" y="0" style="&st21; &st14;">ACTS</tspan></text>
<text transform="matrix(1 0 0 1 813.7197 78.3467)" style="&st6;"><tspan x="0" y="0" style="&st21; &st14;">ACTR</tspan></text>
<text transform="matrix(1 0 0 1 626.8896 78.3467)" style="&st6;"><tspan x="0" y="0" style="&st21; &st14;">DLPD</tspan></text>
<text transform="matrix(1 0 0 1 261.4502 78.3467)" style="&st6;"><tspan x="0" y="0" style="&st21; &st14;">DLPR</tspan></text>
<text transform="matrix(1 0 0 1 1459.8604 78.3467)" style="&st6;"><tspan x="0" y="0" style="&st21; &st14;">MPX1</tspan></text>
<text transform="matrix(1 0 0 1 1367.8203 78.3467)" style="&st6;"><tspan x="0" y="0" style="&st21; &st14;">GND</tspan></text>
<text transform="matrix(1 0 0 1 227.0996 78.3467)" style="&st6;"><tspan x="0" y="0" style="&st21; &st14;">CPUB</tspan></text>
<text transform="matrix(1 0 0 1 172.8799 78.3467)" style="&st6;"><tspan x="0" y="0" style="&st21; &st14;">+B</tspan></text>
<text transform="matrix(1 0 0 1 974.6201 90.2363)" style="&st6;"><tspan x="0" y="0" style="&st21; &st14;">12</tspan></text>
<text transform="matrix(1 0 0 1 858.8203 90.2363)" style="&st6;"><tspan x="0" y="0" style="&st21; &st14;">3</tspan></text>
<text transform="matrix(1 0 0 1 816.3203 90.2363)" style="&st6;"><tspan x="0" y="0" style="&st21; &st14;">4</tspan></text>
<text transform="matrix(1 0 0 1 629.3496 90.2363)" style="&st6;"><tspan x="0" y="0" style="&st21; &st14;">5</tspan></text>
<text transform="matrix(1 0 0 1 261.5098 90.2363)" style="&st6;"><tspan x="0" y="0" style="&st21; &st14;">11</tspan></text>
<text transform="matrix(1 0 0 1 1462.2197 90.2363)" style="&st6;"><tspan x="0" y="0" style="&st21; &st14;">9</tspan></text>
<text transform="matrix(1 0 0 1 1365.5498 90.2363)" style="&st6;"><tspan x="0" y="0" style="&st21; &st14;">14</tspan></text>
<text transform="matrix(1 0 0 1 229.9199 90.2363)" style="&st6;"><tspan x="0" y="0" style="&st21; &st14;">7</tspan></text>
<text transform="matrix(1 0 0 1 171.21 90.2363)" style="&st6;"><tspan x="0" y="0" style="&st21; &st14;">1</tspan></text>
</g>
<path style="&st2;" d="M380.22,240.12h21.5"/>
<path style="&st2;" d="M380.22,231.05h21.5"/>
<path style="&st2;" d="M422.71,240.12h12.5"/>
<path style="&st2;" d="M422.71,231.05h12.5"/>
<path style="&st2;" d="M456.71,240.12h5.5"/>
<path style="&st2;" d="M456.71,231.05h5.5"/>
<path style="&st2;" d="M380.22,179.49h21.5"/>
<path style="&st2;" d="M380.22,170.42h21.5"/>
<text transform="matrix(0 -1 1 0 278.3398 614.7471)" style="&st6;"><tspan x="0" y="0" style="&st21; &st14;">(*1)</tspan></text>
<text transform="matrix(1 0 0 1 489.6904 273.8066)" style="&st6;"><tspan x="0" y="0" style="&st21; &st14;">L</tspan></text>
<text transform="matrix(0 -1 1 0 335 500.9365)" style="&st6;"><tspan x="0" y="0" style="&st21; &st14;">R</tspan></text>
<text transform="matrix(0 -1 1 0 346.3301 504.2666)" style="&st6;"><tspan x="0" y="0" style="&st21; &st14;">(*1)</tspan></text>
<text transform="matrix(0 -1 1 0 335 551.7861)" style="&st6;"><tspan x="0" y="0" style="&st21; &st14;">V</tspan></text>
<text transform="matrix(0 -1 1 0 346.3301 555.2568)" style="&st6;"><tspan x="0" y="0" style="&st21; &st14;">(*1)</tspan></text>
<text transform="matrix(0 -1 1 0 335 602.7861)" style="&st6;"><tspan x="0" y="0" style="&st21; &st14;">V</tspan></text>
<text transform="matrix(0 -1 1 0 346.3301 606.2471)" style="&st6;"><tspan x="0" y="0" style="&st21; &st14;">(*1)</tspan></text>
<text transform="matrix(1 0 0 1 489.3398 630.7471)" style="&st6;"><tspan x="0" y="0" style="&st21; &st14;">V</tspan></text>
<text transform="matrix(1 0 0 1 485.8701 642.0762)" style="&st6;"><tspan x="0" y="0" style="&st21; &st14;">(*1)</tspan></text>
<text transform="matrix(1 0 0 1 488.3096 290.8066)" style="&st6;"><tspan x="0" y="0" style="&st21; &st14;">W</tspan></text>
<text transform="matrix(1 0 0 1 488.3096 137.8359)" style="&st6;"><tspan x="0" y="0" style="&st21; &st14;">W</tspan></text>
<text transform="matrix(1 0 0 1 489.6904 120.8359)" style="&st6;"><tspan x="0" y="0" style="&st21; &st14;">L</tspan></text>
<text transform="matrix(0 -1 1 0 380.3203 368.2861)" style="&st6;"><tspan x="0" y="0" style="&st21; &st14;">(*1)</tspan></text>
<text transform="matrix(0 -1 1 0 278.3398 368.2861)" style="&st6;"><tspan x="0" y="0" style="&st21; &st14;">(*1)</tspan></text>
<text transform="matrix(0 -1 1 0 267.0098 364.9668)" style="&st6;"><tspan x="0" y="0" style="&st21; &st14;">R</tspan></text>
<text transform="matrix(0 -1 1 0 411.4805 365.8467)" style="&st6;"><tspan x="0" y="0" style="&st21; &st14;">W</tspan></text>
<text transform="matrix(0 -1 1 0 368.9902 364.4668)" style="&st6;"><tspan x="0" y="0" style="&st21; &st14;">L</tspan></text>
<text transform="matrix(0 -1 1 0 267.0098 506.167)" style="&st6;"><tspan x="0" y="0" style="&st21; &st14;">W-B</tspan></text>
<text transform="matrix(0 -1 1 0 267.0098 110.0068)" style="&st6;"><tspan x="0" y="0" style="&st21; &st14;">R</tspan></text>
<text transform="matrix(0 -1 1 0 173.5195 110.0068)" style="&st6;"><tspan x="0" y="0" style="&st21; &st14;">R</tspan></text>
<text transform="matrix(0 -1 1 0 233.0098 109.8662)" style="&st6;"><tspan x="0" y="0" style="&st21; &st14;">P</tspan></text>
<text transform="matrix(0 -1 1 0 20.5498 126.8662)" style="&st6;"><tspan x="0" y="0" style="&st21; &st14;">P</tspan></text>
<text transform="matrix(0 -1 1 0 411.4805 258.3662)" style="&st6;"><tspan x="0" y="0" style="&st21; &st14;">W</tspan></text>
<text transform="matrix(0 -1 1 0 368.9902 256.9863)" style="&st6;"><tspan x="0" y="0" style="&st21; &st14;">L</tspan></text>
<text transform="matrix(0 -1 1 0 267.0098 616.6465)" style="&st6;"><tspan x="0" y="0" style="&st21; &st14;">W-B</tspan></text>
<text transform="matrix(0 -1 1 0 233.0098 194.8467)" style="&st6;"><tspan x="0" y="0" style="&st21; &st14;">P</tspan></text>
<text transform="matrix(0 -1 1 0 20.5498 194.8467)" style="&st6;"><tspan x="0" y="0" style="&st21; &st14;">P</tspan></text>
<text transform="matrix(0 -1 1 0 368.9902 313.4766)" style="&st6;"><tspan x="0" y="0" style="&st21; &st14;">L</tspan></text>
<text transform="matrix(0 -1 1 0 411.4805 314.8564)" style="&st6;"><tspan x="0" y="0" style="&st21; &st14;">W</tspan></text>
<text transform="matrix(0 -1 1 0 267.0098 313.9766)" style="&st6;"><tspan x="0" y="0" style="&st21; &st14;">R</tspan></text>
<text transform="matrix(0 -1 1 0 422.8203 368.2861)" style="&st6;"><tspan x="0" y="0" style="&st21; &st14;">(*1)</tspan></text>
<text ewd:textID="1" transform="matrix(1 0 0 1 55.7197 304.9668)" style="&st6; &st21; &st14;">* 1 :5-Door</text>
<text transform="matrix(0 -1 1 0 278.3398 317.2969)" style="&st6;"><tspan x="0" y="0" style="&st21; &st14;">(*1)</tspan></text>
<text transform="matrix(0 -1 1 0 380.3203 317.2969)" style="&st6;"><tspan x="0" y="0" style="&st21; &st14;">(*1)</tspan></text>
<text transform="matrix(0 -1 1 0 422.8203 317.2969)" style="&st6;"><tspan x="0" y="0" style="&st21; &st14;">(*1)</tspan></text>
<text transform="matrix(0 -1 1 0 380.3203 260.8066)" style="&st6;"><tspan x="0" y="0" style="&st21; &st14;">(*1)</tspan></text>
<text transform="matrix(0 -1 1 0 422.8203 260.8066)" style="&st6;"><tspan x="0" y="0" style="&st21; &st14;">(*1)</tspan></text>
<text transform="matrix(0 -1 1 0 278.3398 113.3262)" style="&st6;"><tspan x="0" y="0" style="&st21; &st14;">(*1)</tspan></text>
<text transform="matrix(0 -1 1 0 278.3398 504.2666)" style="&st6;"><tspan x="0" y="0" style="&st21; &st14;">(*1)</tspan></text>
<text transform="matrix(0 -1 1 0 411.4805 161.876)" style="&st6;"><tspan x="0" y="0" style="&st21; &st14;">W</tspan></text>
<text transform="matrix(0 -1 1 0 368.9902 160.5068)" style="&st6;"><tspan x="0" y="0" style="&st21; &st14;">L</tspan></text>
<text transform="matrix(0 -1 1 0 267.0098 557.1563)" style="&st6;"><tspan x="0" y="0" style="&st21; &st14;">W-B</tspan></text>
<text transform="matrix(0 -1 1 0 278.3398 555.2568)" style="&st6;"><tspan x="0" y="0" style="&st21; &st14;">(*1)</tspan></text>
<text transform="matrix(0 -1 1 0 301 506.167)" style="&st6;"><tspan x="0" y="0" style="&st21; &st14;">W-B</tspan></text>
<text transform="matrix(0 -1 1 0 312.3398 504.2666)" style="&st6;"><tspan x="0" y="0" style="&st21; &st14;">(*1)</tspan></text>
<text ewd:textID="4" transform="matrix(1 0 0 1 55.7197 313.4668)" style="&st6; &st21; &st14;">* 4 :Before Oct. 2010 Production</text>
<text ewd:textID="5" transform="matrix(1 0 0 1 55.7197 321.9668)" style="&st6; &st21; &st14;">* 5 :From Oct. 2010 Production</text>
<text transform="matrix(1 0 0 1 242.6797 138.9668)" style="&st6;"><tspan x="0" y="0" style="&st21; &st14;">(*5)</tspan></text>
<text transform="matrix(1 0 0 1 242.6797 129.8965)" style="&st6;"><tspan x="0" y="0" style="&st21; &st14;">(*4)</tspan></text>
<text transform="matrix(1 0 0 1 242.6797 174.0967)" style="&st6;"><tspan x="0" y="0" style="&st21; &st14;">(*5)</tspan></text>
<text transform="matrix(1 0 0 1 242.6797 165.0264)" style="&st6;"><tspan x="0" y="0" style="&st21; &st14;">(*4)</tspan></text>
<text ewd:textID="7" transform="matrix(1 0 0 1 55.7197 338.957)" style="&st6; &st21; &st14;">* 7 :From Aug. 2013 Production</text>
<text ewd:textID="6" transform="matrix(1 0 0 1 55.7197 330.457)" style="&st6; &st21; &st14;">* 6 :Before Aug. 2013 Production</text>
<text transform="matrix(1 0 0 1 421.1494 181.4561)" style="&st6;"><tspan x="0" y="0" style="&st21; &st14;">(*6)</tspan></text>
<text transform="matrix(1 0 0 1 421.1494 172.3857)" style="&st6;"><tspan x="0" y="0" style="&st21; &st14;">(*7)</tspan></text>
<text transform="matrix(1 0 0 1 480.6396 242.0869)" style="&st6;"><tspan x="0" y="0" style="&st21; &st14;">(*7)</tspan></text>
<text transform="matrix(1 0 0 1 480.6396 233.0166)" style="&st6;"><tspan x="0" y="0" style="&st21; &st14;">(*6)</tspan></text>
</svg>
