﻿<?xml version="1.0" encoding="UTF-8"?>
<!DOCTYPE svg PUBLIC "-//W3C//DTD SVG 1.0//EN" "http://www.w3.org/TR/2001/REC-SVG-20010904/DTD/svg10.dtd"[
<!ENTITY ns_flows "http://ns.adobe.com/Flows/1.0/">
<!ENTITY ns_svg "http://www.w3.org/2000/svg">
<!ENTITY ns_xlink "http://www.w3.org/1999/xlink">
	<!ENTITY st0 "fill:none;stroke:#FB0F0C;stroke-width:5.1;stroke-linejoin:round;">
	<!ENTITY st1 "fill:none;stroke:#99280B;stroke-width:5.1;stroke-linejoin:round;">
		<!ENTITY st2 "fill:none;stroke:#000000;stroke-width:0.85;stroke-linecap:round;stroke-linejoin:round;stroke-dasharray:3 1.5;enable-background:new    ;">
	<!ENTITY st3 "fill:none;stroke:#000000;stroke-width:5.1;stroke-linejoin:round;">
	<!ENTITY st4 "fill:none;stroke:#000000;stroke-linecap:round;stroke-linejoin:round;">
	<!ENTITY st5 "stroke:#000000;stroke-width:0.28;stroke-linecap:round;stroke-linejoin:round;enable-background:new    ;">
	<!ENTITY st6 "enable-background:new    ;">
		<!ENTITY st7 "fill:none;stroke:#000000;stroke-width:1.42;stroke-linecap:round;stroke-linejoin:round;enable-background:new    ;">
	<!ENTITY st8 "fill:none;stroke:#EE67AA;stroke-width:5.1;stroke-linejoin:round;">
	<!ENTITY st9 "fill:none;stroke:#199DBF;stroke-width:5.1;stroke-linejoin:round;">
	<!ENTITY st10 "opacity:0.5;fill:none;stroke:#34ACCE;stroke-linejoin:round;stroke-dasharray:6;">
	<!ENTITY st11 "fill:none;stroke:#FFFFFF;stroke-width:4.53;stroke-linejoin:round;">
		<!ENTITY st12 "fill:none;stroke:#000000;stroke-width:0.85;stroke-linecap:round;stroke-linejoin:round;enable-background:new    ;">
	<!ENTITY st13 "font-size:6px;">
	<!ENTITY st14 "fill:none;stroke:#168638;stroke-width:5.1;stroke-linejoin:round;">
	<!ENTITY st15 "fill:none;stroke:#000000;stroke-width:1.13;stroke-linejoin:round;">
		<!ENTITY st16 "fill:none;stroke:#000000;stroke-width:1.13;stroke-linecap:round;stroke-linejoin:round;stroke-dasharray:3 1.5;enable-background:new    ;">
	<!ENTITY st17 "fill:#FFFFFF;stroke:#000000;stroke-width:1.41;stroke-linecap:round;stroke-linejoin:round;">
	<!ENTITY st18 "fill:none;stroke:#3E65AC;stroke-width:3;">
	<!ENTITY st19 "fill:#CCCCCC;stroke:#CCCCCC;stroke-width:0.1;stroke-linecap:round;stroke-linejoin:round;">
	<!ENTITY st20 "font-family:'ArialMT';">
	<!ENTITY st21 "opacity:0.5;fill:none;stroke:#34ACCE;stroke-linejoin:round;">
	<!ENTITY st22 "fill:#CFE6E7;stroke:#000000;stroke-width:1.133;stroke-linecap:round;stroke-linejoin:round;">
	<!ENTITY st23 "fill:none;stroke:#99D5E0;stroke-width:5.1;stroke-linejoin:round;">
	<!ENTITY st24 "fill:none;stroke:#7EC57E;stroke-width:5.1;stroke-linejoin:round;">
<!ATTLIST svg
xmlns:ewd CDATA #FIXED "http://shcl.co.jp/ewd"
xmlns:a CDATA #FIXED "http://ns.adobe.com/AdobeSVGViewerExtensions/3.0/"
ewd:ver CDATA #IMPLIED
>
<!ATTLIST a
ewd:lineID CDATA #IMPLIED
ewd:groupID CDATA #IMPLIED
ewd:figtype CDATA #IMPLIED
ewd:code CDATA #IMPLIED
ewd:figID CDATA #IMPLIED
ewd:pinNo CDATA #IMPLIED
ewd:comment CDATA #IMPLIED >
<!ATTLIST g
ewd:lineID CDATA #IMPLIED
ewd:groupID CDATA #IMPLIED
ewd:figtype CDATA #IMPLIED
ewd:code CDATA #IMPLIED
ewd:figID CDATA #IMPLIED
ewd:pinNo CDATA #IMPLIED
ewd:comment CDATA #IMPLIED >
<!ATTLIST text
ewd:textID CDATA #IMPLIED >
<!ATTLIST title
ewd:textID CDATA #IMPLIED >
]>
<svg 
viewBox='0 0 521.41 729.44'
height='729.44'
width='521.41'
xml:space="preserve"
xmlns="&ns_svg;"
xmlns:ewd="http://shcl.co.jp/ewd"
xmlns:xlink="&ns_xlink;" ewd:ver="L2.1">
<g ewd:code="GA2" ewd:figID="601" ewd:figtype="w2w" ewd:pinNo="24">
<path style="&st7;" d="M24.17,145.03h8.5"/>
<path style="&st7;" d="M28.42,135.97l4.25,4.25l4.25-4.25"/>
<path style="&st7;" d="M36.92,139.37l-4.25,4.24l-4.25-4.24"/>
<text transform="matrix(1 0 0 1 14.4995 151.2466)" style="&st6;"><tspan x="0" y="0" style="&st20; &st13;">24</tspan></text>
</g>
<g ewd:code="GH1" ewd:figID="602" ewd:figtype="w2w" ewd:pinNo="20">
<path style="&st7;" d="M338.61,455.98h-8.49"/>
<path style="&st7;" d="M334.37,465.04l-4.25-4.24l-4.25,4.24"/>
<path style="&st7;" d="M334.37,461.65l-4.25-4.25l-4.25,4.25"/>
<text transform="matrix(1 0 0 1 311.9497 453.6958)" style="&st6;"><tspan x="0" y="0" style="&st20; &st13;">20</tspan></text>
</g>
<g ewd:code="GA6" ewd:figID="603" ewd:figtype="w2w" ewd:pinNo="55">
<path style="&st7;" d="M24.17,153.53h8.5"/>
<text transform="matrix(1 0 0 1 14.4995 159.7466)" style="&st6;"><tspan x="0" y="0" style="&st20; &st13;">55</tspan></text>
</g>
<g ewd:code="FUSE17" ewd:figID="401" ewd:figtype="rb">
<path style="&st4;" d="M19.92,39.55v42.49h25.49V39.55H19.92"/>
<path style="&st12;" d="M32.67,73.54v8.5"/>
<path style="&st7;" d="M34.79,116.04h-4.25"/>
<path style="&st7;" d="M34.79,107.54h-4.25"/>
<path style="&st12;" d="M32.67,73.54v34"/>
<path style="&st7;" d="M19.92,39.55v42.49h25.49V39.55H19.92"/>
<path style="&st5;" d="M32.67,102.64l-2.84-2.83v4.25l2.84,2.83l2.83-2.83v-4.25L32.67,102.64"/>
<path style="&st7;" d="M30.54,107.54c-2.35,0-4.25,1.9-4.25,4.25"/>
<path style="&st7;" d="M32.67,50.88c-2.74,1.61-3.65,5.14-2.04,7.88"/>
<path style="&st7;" d="M30.63,58.76c0.52,0.88,1.15,1.52,2.04,2.04"/>
<path style="&st7;" d="M32.67,70.71c2.73-1.61,3.65-5.14,2.03-7.88"/>
<path style="&st7;" d="M34.7,62.83c-0.52-0.88-1.15-1.51-2.03-2.03"/>
<path style="&st12;" d="M34.08,49.46c0-0.78-0.63-1.41-1.41-1.41"/>
<path style="&st12;" d="M32.67,48.05c-0.79,0-1.42,0.63-1.42,1.41"/>
<path style="&st12;" d="M31.25,49.46c0,0.79,0.63,1.42,1.42,1.42"/>
<path style="&st12;" d="M32.67,50.88c0.78,0,1.41-0.63,1.41-1.42"/>
<path style="&st12;" d="M34.08,72.13c0-0.79-0.63-1.42-1.41-1.42"/>
<path style="&st12;" d="M32.67,70.71c-0.79,0-1.42,0.63-1.42,1.42"/>
<path style="&st12;" d="M31.25,72.13c0,0.78,0.63,1.41,1.42,1.41"/>
<path style="&st12;" d="M32.67,73.54c0.78,0,1.41-0.63,1.41-1.41"/>
<path style="&st7;" d="M26.29,111.79c0,2.34,1.9,4.25,4.25,4.25"/>
<path style="&st7;" d="M34.79,116.04c2.35,0,4.25-1.91,4.25-4.25"/>
<path style="&st7;" d="M39.04,111.79c0-2.35-1.9-4.25-4.25-4.25"/>
<text transform="matrix(1 0 0 1 49.9731 59.9365)" style="&st6;"><tspan x="0" y="0" style="&st20; &st13;">10A</tspan></text>
<text transform="matrix(1 0 0 1 49.9731 65.9365)" style="&st6;"><tspan x="0" y="0" style="&st20; &st13;">SECURITY</tspan></text>
<text transform="matrix(1 0 0 1 25.8833 90.2363)" style="&st6;"><tspan x="0" y="0" style="&st20; &st13;">2</tspan></text>
<text transform="matrix(1 0 0 1 31.0835 113.7568)" style="&st6;"><tspan x="0" y="0" style="&st20; &st13;">1</tspan></text>
<text transform="matrix(1 0 0 1 23.5532 35.8467)" style="&st6;"><tspan x="0" y="0" style="&st20; &st13;">(BAT)</tspan></text>
</g>
<g ewd:code="3JB" ewd:figID="302" ewd:figtype="jb">
<path style="&st7;" d="M136.77,158.53h-4.25"/>
<path style="&st7;" d="M136.77,167.03h-4.25"/>
<path style="&st7;" d="M136.77,201.02h-4.25"/>
<path style="&st7;" d="M136.77,209.52h-4.25"/>
<path style="&st5;" d="M134.65,171.92l2.83,2.84v-4.25l-2.83-2.84l-2.83,2.84v4.25L134.65,171.92"/>
<path style="&st5;" d="M134.65,196.13l-2.83-2.84v4.25l2.83,2.84l2.83-2.84v-4.25L134.65,196.13"/>
<path style="&st12;" d="M134.65,201.02v-33.99"/>
<path style="&st7;" d="M132.52,158.53c-2.34,0-4.25,1.9-4.25,4.25"/>
<path style="&st7;" d="M128.27,162.78c0,2.35,1.91,4.25,4.25,4.25"/>
<path style="&st7;" d="M136.77,167.03c2.35,0,4.25-1.9,4.25-4.25"/>
<path style="&st7;" d="M141.02,162.78c0-2.35-1.9-4.25-4.25-4.25"/>
<path style="&st7;" d="M132.52,201.02c-2.34,0-4.25,1.9-4.25,4.25"/>
<path style="&st7;" d="M128.27,205.27c0,2.35,1.91,4.25,4.25,4.25"/>
<path style="&st7;" d="M136.77,209.52c2.35,0,4.25-1.9,4.25-4.25"/>
<path style="&st7;" d="M141.02,205.27c0-2.35-1.9-4.25-4.25-4.25"/>
<text transform="matrix(1 0 0 1 130.3433 164.7466)" style="&st6;"><tspan x="0" y="0" style="&st20; &st13;">3A</tspan></text>
<text transform="matrix(1 0 0 1 118.0034 164.7466)" style="&st6;"><tspan x="0" y="0" style="&st20; &st13;">78</tspan></text>
<text transform="matrix(1 0 0 1 130.2026 207.2363)" style="&st6;"><tspan x="0" y="0" style="&st20; &st13;">3C</tspan></text>
<text transform="matrix(1 0 0 1 118.0034 207.2363)" style="&st6;"><tspan x="0" y="0" style="&st20; &st13;">45</tspan></text>
</g>
<g ewd:code="2" ewd:figID="303" ewd:figtype="jb">
<path style="&st7;" d="M213.26,455.98h-4.25"/>
<path style="&st7;" d="M213.26,464.48h-4.25"/>
<path style="&st7;" d="M264.25,455.98H260"/>
<path style="&st7;" d="M264.25,464.48H260"/>
<path style="&st7;" d="M264.25,413.49H260"/>
<path style="&st7;" d="M264.25,421.99H260"/>
<path style="&st7;" d="M213.26,413.49h-4.25"/>
<path style="&st7;" d="M213.26,421.99h-4.25"/>
<path style="&st5;" d="M211.14,426.88l2.83,2.83v-4.25l-2.83-2.83l-2.84,2.83v4.25L211.14,426.88"/>
<path style="&st5;" d="M262.13,451.08l-2.84-2.83v4.25l2.84,2.83l2.83-2.83v-4.25L262.13,451.08"/>
<path style="&st12;" d="M211.14,421.99v33.99"/>
<path style="&st5;" d="M211.14,451.08l-2.84-2.83v4.25l2.84,2.83l2.83-2.83v-4.25L211.14,451.08"/>
<path style="&st12;" d="M262.13,455.98v-33.99"/>
<path style="&st5;" d="M262.13,426.88l2.83,2.83v-4.25l-2.83-2.83l-2.84,2.83v4.25L262.13,426.88"/>
<path style="&st7;" d="M209.01,455.98c-2.35,0-4.25,1.9-4.25,4.25"/>
<path style="&st7;" d="M204.76,460.23c0,2.35,1.9,4.25,4.25,4.25"/>
<path style="&st7;" d="M213.26,464.48c2.35,0,4.25-1.9,4.25-4.25"/>
<path style="&st7;" d="M217.51,460.23c0-2.35-1.9-4.25-4.25-4.25"/>
<path style="&st7;" d="M260,455.98c-2.34,0-4.25,1.9-4.25,4.25"/>
<path style="&st7;" d="M255.75,460.23c0,2.35,1.91,4.25,4.25,4.25"/>
<path style="&st7;" d="M264.25,464.48c2.35,0,4.25-1.9,4.25-4.25"/>
<path style="&st7;" d="M268.5,460.23c0-2.35-1.9-4.25-4.25-4.25"/>
<path style="&st7;" d="M260,413.49c-2.34,0-4.25,1.9-4.25,4.25"/>
<path style="&st7;" d="M255.75,417.74c0,2.34,1.91,4.25,4.25,4.25"/>
<path style="&st7;" d="M264.25,421.99c2.35,0,4.25-1.91,4.25-4.25"/>
<path style="&st7;" d="M268.5,417.74c0-2.35-1.9-4.25-4.25-4.25"/>
<path style="&st7;" d="M209.01,413.49c-2.35,0-4.25,1.9-4.25,4.25"/>
<path style="&st7;" d="M204.76,417.74c0,2.34,1.9,4.25,4.25,4.25"/>
<path style="&st7;" d="M213.26,421.99c2.35,0,4.25-1.91,4.25-4.25"/>
<path style="&st7;" d="M217.51,417.74c0-2.35-1.9-4.25-4.25-4.25"/>
<text transform="matrix(1 0 0 1 208.1733 462.1958)" style="&st6;"><tspan x="0" y="0" style="&st20; &st13;">2I</tspan></text>
<text transform="matrix(1 0 0 1 194.4927 462.1958)" style="&st6;"><tspan x="0" y="0" style="&st20; &st13;">27</tspan></text>
<text transform="matrix(1 0 0 1 257.6831 462.1958)" style="&st6;"><tspan x="0" y="0" style="&st20; &st13;">2H</tspan></text>
<text transform="matrix(1 0 0 1 245.4829 462.1958)" style="&st6;"><tspan x="0" y="0" style="&st20; &st13;">26</tspan></text>
<text transform="matrix(1 0 0 1 257.6831 419.7065)" style="&st6;"><tspan x="0" y="0" style="&st20; &st13;">2D</tspan></text>
<text transform="matrix(1 0 0 1 246.2632 419.7065)" style="&st6;"><tspan x="0" y="0" style="&st20; &st13;">15</tspan></text>
<text transform="matrix(1 0 0 1 206.6929 419.7065)" style="&st6;"><tspan x="0" y="0" style="&st20; &st13;">2D</tspan></text>
<text transform="matrix(1 0 0 1 195.2729 419.7065)" style="&st6;"><tspan x="0" y="0" style="&st20; &st13;">31</tspan></text>
</g>
<g ewd:code="2" ewd:figID="304" ewd:figtype="jb">
<path style="&st7;" d="M332.24,421.99h-4.25"/>
<path style="&st7;" d="M332.24,413.49h-4.25"/>
<path style="&st7;" d="M332.24,379.49h-4.25"/>
<path style="&st7;" d="M332.24,370.99h-4.25"/>
<path style="&st5;" d="M330.12,384.39l2.83,2.83v-4.25l-2.83-2.83l-2.84,2.83v4.25L330.12,384.39"/>
<path style="&st12;" d="M330.12,413.49v-34"/>
<path style="&st5;" d="M330.12,408.59l-2.84-2.83v4.25l2.84,2.83l2.83-2.83v-4.25L330.12,408.59"/>
<path style="&st7;" d="M336.49,417.74c0-2.35-1.9-4.25-4.25-4.25"/>
<path style="&st7;" d="M332.24,421.99c2.35,0,4.25-1.91,4.25-4.25"/>
<path style="&st7;" d="M323.74,417.74c0,2.34,1.9,4.25,4.25,4.25"/>
<path style="&st7;" d="M327.99,413.49c-2.35,0-4.25,1.9-4.25,4.25"/>
<path style="&st7;" d="M336.49,375.24c0-2.34-1.9-4.25-4.25-4.25"/>
<path style="&st7;" d="M332.24,379.49c2.35,0,4.25-1.9,4.25-4.25"/>
<path style="&st7;" d="M323.74,375.24c0,2.35,1.9,4.25,4.25,4.25"/>
<path style="&st7;" d="M327.99,370.99c-2.35,0-4.25,1.91-4.25,4.25"/>
<text transform="matrix(1 0 0 1 325.6733 377.2065)" style="&st6;"><tspan x="0" y="0" style="&st20; &st13;">2D</tspan></text>
<text transform="matrix(1 0 0 1 314.2534 377.2065)" style="&st6;"><tspan x="0" y="0" style="&st20; &st13;">19</tspan></text>
<text transform="matrix(1 0 0 1 325.6733 419.7065)" style="&st6;"><tspan x="0" y="0" style="&st20; &st13;">2D</tspan></text>
<text transform="matrix(1 0 0 1 313.4731 419.7065)" style="&st6;"><tspan x="0" y="0" style="&st20; &st13;">34</tspan></text>
</g>
<g ewd:code="3JB" ewd:figID="305" ewd:figtype="jb">
<path style="&st7;" d="M408.73,370.99h-4.25"/>
<path style="&st7;" d="M408.73,379.49h-4.25"/>
<path style="&st7;" d="M408.73,413.49h-4.25"/>
<path style="&st7;" d="M408.73,421.99h-4.25"/>
<path style="&st12;" d="M406.6,413.49v-34"/>
<path style="&st5;" d="M406.6,408.59l-2.83-2.83v4.25l2.83,2.83l2.84-2.83v-4.25L406.6,408.59"/>
<path style="&st5;" d="M406.6,384.39l2.84,2.83v-4.25l-2.84-2.83l-2.83,2.83v4.25L406.6,384.39"/>
<path style="&st7;" d="M404.48,370.99c-2.35,0-4.25,1.91-4.25,4.25"/>
<path style="&st7;" d="M400.23,375.24c0,2.35,1.9,4.25,4.25,4.25"/>
<path style="&st7;" d="M408.73,379.49c2.34,0,4.25-1.9,4.25-4.25"/>
<path style="&st7;" d="M412.98,375.24c0-2.34-1.91-4.25-4.25-4.25"/>
<path style="&st7;" d="M404.48,413.49c-2.35,0-4.25,1.9-4.25,4.25"/>
<path style="&st7;" d="M400.23,417.74c0,2.34,1.9,4.25,4.25,4.25"/>
<path style="&st7;" d="M408.73,421.99c2.34,0,4.25-1.91,4.25-4.25"/>
<path style="&st7;" d="M412.98,417.74c0-2.35-1.91-4.25-4.25-4.25"/>
<text transform="matrix(1 0 0 1 402.1538 377.2065)" style="&st6;"><tspan x="0" y="0" style="&st20; &st13;">3C</tspan></text>
<text transform="matrix(1 0 0 1 390.7329 377.2065)" style="&st6;"><tspan x="0" y="0" style="&st20; &st13;">41</tspan></text>
<text transform="matrix(1 0 0 1 402.1538 419.7065)" style="&st6;"><tspan x="0" y="0" style="&st20; &st13;">3C</tspan></text>
<text transform="matrix(1 0 0 1 390.7329 419.7065)" style="&st6;"><tspan x="0" y="0" style="&st20; &st13;">17</tspan></text>
</g>
<g ewd:code="3JB" ewd:figID="306" ewd:figtype="jb">
<path style="&st7;" d="M459.72,608.96h-4.25"/>
<path style="&st7;" d="M459.72,600.46h-4.25"/>
<path style="&st7;" d="M463.97,604.71c0-2.35-1.9-4.25-4.25-4.25"/>
<path style="&st7;" d="M459.72,608.96c2.35,0,4.25-1.91,4.25-4.25"/>
<path style="&st7;" d="M451.22,604.71c0,2.34,1.9,4.25,4.25,4.25"/>
<path style="&st7;" d="M455.47,600.46c-2.35,0-4.25,1.9-4.25,4.25"/>
<path style="&st7;" d="M459.72,600.46h-4.25"/>
<path style="&st7;" d="M459.72,591.96h-4.25"/>
<path style="&st7;" d="M459.72,557.96h-4.25"/>
<path style="&st7;" d="M459.72,549.46h-4.25"/>
<path style="&st7;" d="M408.73,549.46h-4.25"/>
<path style="&st7;" d="M408.73,557.96h-4.25"/>
<path style="&st5;" d="M457.59,562.86l2.84,2.83v-4.25l-2.84-2.83l-2.83,2.83v4.25L457.59,562.86"/>
<path style="&st12;" d="M457.59,591.96v-34"/>
<path style="&st5;" d="M457.59,587.06l-2.83-2.83v4.25l2.83,2.83l2.84-2.83v-4.25L457.59,587.06"/>
<path style="&st12;" d="M456.4,573.96l-0.27,0.47l-0.09,0.53l0.09,0.53l0.27,0.47l0.42,0.35l0.5,0.19h0.55l0.5-0.19l0.42-0.35l0.27-0.47l0.09-0.53l-0.09-0.53l-0.27-0.47l-0.42-0.35l-0.5-0.19h-0.55l-0.5,0.19L456.4,573.96l0.4,0.71v0.58l0.37,0.45l0.57,0.1l0.51-0.29l0.19-0.55l-0.19-0.55l-0.51-0.29l-0.57,0.1l0.42,0.74"/>
<path style="&st12;" d="M406.6,557.96v17h50.99"/>
<path style="&st5;" d="M406.6,562.86l2.84,2.83v-4.25l-2.84-2.83l-2.83,2.83v4.25L406.6,562.86"/>
<path style="&st7;" d="M463.97,596.21c0-2.35-1.9-4.25-4.25-4.25"/>
<path style="&st7;" d="M459.72,600.46c2.35,0,4.25-1.91,4.25-4.25"/>
<path style="&st7;" d="M451.22,596.21c0,2.34,1.9,4.25,4.25,4.25"/>
<path style="&st7;" d="M455.47,591.96c-2.35,0-4.25,1.9-4.25,4.25"/>
<path style="&st7;" d="M463.97,553.71c0-2.34-1.9-4.25-4.25-4.25"/>
<path style="&st7;" d="M459.72,557.96c2.35,0,4.25-1.9,4.25-4.25"/>
<path style="&st7;" d="M451.22,553.71c0,2.35,1.9,4.25,4.25,4.25"/>
<path style="&st7;" d="M455.47,549.46c-2.35,0-4.25,1.91-4.25,4.25"/>
<path style="&st7;" d="M404.48,549.46c-2.35,0-4.25,1.91-4.25,4.25"/>
<path style="&st7;" d="M400.23,553.71c0,2.35,1.9,4.25,4.25,4.25"/>
<path style="&st7;" d="M408.73,557.96c2.34,0,4.25-1.9,4.25-4.25"/>
<path style="&st7;" d="M412.98,553.71c0-2.34-1.91-4.25-4.25-4.25"/>
<text transform="matrix(1 0 0 1 453.2935 606.6763)" style="&st6;"><tspan x="0" y="0" style="&st20; &st13;">3A</tspan></text>
<text transform="matrix(1 0 0 1 441.7329 606.6763)" style="&st6;"><tspan x="0" y="0" style="&st20; &st13;">96</tspan></text>
<text transform="matrix(1 0 0 1 453.1431 555.6763)" style="&st6;"><tspan x="0" y="0" style="&st20; &st13;">3C</tspan></text>
<text transform="matrix(1 0 0 1 440.9536 555.6763)" style="&st6;"><tspan x="0" y="0" style="&st20; &st13;">44</tspan></text>
<text transform="matrix(1 0 0 1 453.2935 598.1763)" style="&st6;"><tspan x="0" y="0" style="&st20; &st13;">3A</tspan></text>
<text transform="matrix(1 0 0 1 441.7329 598.1763)" style="&st6;"><tspan x="0" y="0" style="&st20; &st13;">71</tspan></text>
<text transform="matrix(1 0 0 1 402.1538 555.6763)" style="&st6;"><tspan x="0" y="0" style="&st20; &st13;">3C</tspan></text>
<text transform="matrix(1 0 0 1 390.7329 555.6763)" style="&st6;"><tspan x="0" y="0" style="&st20; &st13;">19</tspan></text>
<text transform="matrix(1 0 0 1 466.2935 606.6763)" style="&st6;"><tspan x="0" y="0" style="&st20; &st13;">(*11)</tspan></text>
<text transform="matrix(1 0 0 1 466.2935 597.6069)" style="&st6;"><tspan x="0" y="0" style="&st20; &st13;">(*10)</tspan></text>
</g>
<g ewd:code="2" ewd:figID="301" ewd:figtype="jb">
<path style="&st4;" d="M121.9,39.55v42.49h25.5V39.55H121.9"/>
<path style="&st12;" d="M134.65,73.54v8.5"/>
<path style="&st12;" d="M134.65,73.54v34"/>
<path style="&st7;" d="M136.77,116.04h-4.25"/>
<path style="&st7;" d="M136.77,107.54h-4.25"/>
<path style="&st7;" d="M121.9,39.55v42.49h25.5V39.55H121.9"/>
<path style="&st5;" d="M134.65,102.64l-2.83-2.83v4.25l2.83,2.83l2.83-2.83v-4.25L134.65,102.64"/>
<path style="&st7;" d="M134.65,50.88c-2.74,1.61-3.65,5.14-2.04,7.88"/>
<path style="&st7;" d="M132.61,58.76c0.52,0.88,1.16,1.52,2.04,2.04"/>
<path style="&st7;" d="M134.65,70.71c2.74-1.61,3.65-5.14,2.04-7.88"/>
<path style="&st7;" d="M136.69,62.83c-0.52-0.88-1.16-1.51-2.04-2.03"/>
<path style="&st12;" d="M136.07,49.46c0-0.78-0.64-1.41-1.42-1.41"/>
<path style="&st12;" d="M134.65,48.05c-0.78,0-1.42,0.63-1.42,1.41"/>
<path style="&st12;" d="M133.23,49.46c0,0.79,0.64,1.42,1.42,1.42"/>
<path style="&st12;" d="M134.65,50.88c0.78,0,1.42-0.63,1.42-1.42"/>
<path style="&st12;" d="M136.07,72.13c0-0.79-0.64-1.42-1.42-1.42"/>
<path style="&st12;" d="M134.65,70.71c-0.78,0-1.42,0.63-1.42,1.42"/>
<path style="&st12;" d="M133.23,72.13c0,0.78,0.64,1.41,1.42,1.41"/>
<path style="&st12;" d="M134.65,73.54c0.78,0,1.42-0.63,1.42-1.41"/>
<path style="&st7;" d="M141.02,111.79c0-2.35-1.9-4.25-4.25-4.25"/>
<path style="&st7;" d="M136.77,116.04c2.35,0,4.25-1.91,4.25-4.25"/>
<path style="&st7;" d="M128.27,111.79c0,2.34,1.91,4.25,4.25,4.25"/>
<path style="&st7;" d="M132.52,107.54c-2.34,0-4.25,1.9-4.25,4.25"/>
<text transform="matrix(1 0 0 1 151.9526 59.9365)" style="&st6;"><tspan x="0" y="0" style="&st20; &st13;">10A</tspan></text>
<text transform="matrix(1 0 0 1 151.9526 65.9365)" style="&st6;"><tspan x="0" y="0" style="&st20; &st13;">IGN</tspan></text>
<text transform="matrix(1 0 0 1 128.5728 35.8467)" style="&st6;"><tspan x="0" y="0" style="&st20; &st13;">(IG)</tspan></text>
<text transform="matrix(1 0 0 1 118.7827 113.7568)" style="&st6;"><tspan x="0" y="0" style="&st20; &st13;">51</tspan></text>
<text transform="matrix(1 0 0 1 130.3433 113.7568)" style="&st6;"><tspan x="0" y="0" style="&st20; &st13;">2A</tspan></text>
</g>
<g ewd:code="H1" ewd:figID="201" ewd:figtype="gp">
<path style="&st12;" d="M330.12,701.02v4.25"/>
<path style="&st12;" d="M321.62,705.27h16.99"/>
<path style="&st12;" d="M325.87,708.1h8.5"/>
<path style="&st12;" d="M327.28,710.94h5.67"/>
<path style="&st12;" d="M328.7,713.77h2.83"/>
</g>
<g ewd:code="G3" ewd:figID="202" ewd:figtype="gp">
<path style="&st12;" d="M457.59,701.02v4.25"/>
<path style="&st12;" d="M449.1,705.27h16.99"/>
<path style="&st12;" d="M453.35,708.1h8.49"/>
<path style="&st12;" d="M454.76,710.94h5.67"/>
<path style="&st12;" d="M456.18,713.77h2.83"/>
</g>
<g ewd:code="G48" ewd:figID="4" ewd:figtype="conn">
<path style="&st7;" d="M330.12,141.53v-33.99h33.99v33.99H330.12"/>
<text transform="matrix(1 0 0 1 327.5933 103.8364)" style="&st6;"><tspan x="0" y="0" style="&st20; &st13;">DLC3</tspan></text>
<text transform="matrix(1 0 0 1 327.5933 96.7266)" style="&st6;"><tspan x="0" y="0" style="&st20; &st13;">G48</tspan></text>
<text transform="matrix(1 0 0 1 341.813 137.8364)" style="&st6;"><tspan x="0" y="0" style="&st20; &st13;">SIL</tspan></text>
<text transform="matrix(1 0 0 1 340.3237 149.7266)" style="&st6;"><tspan x="0" y="0" style="&st20; &st13;">7</tspan></text>
</g>
<g ewd:code="G91,G142" ewd:figID="5" ewd:figtype="conn">
<path style="&st7;" d="M338.61,192.52h17v17h-17V192.52"/>
<path style="&st12;" d="M347.11,192.52v17"/>
<path style="&st7;" d="M351.65,214.05c0-2.5-2.03-4.53-4.54-4.53"/>
<path style="&st7;" d="M347.11,209.52c-2.5,0-4.53,2.03-4.53,4.53"/>
<path style="&st7;" d="M342.58,214.05c0,2.51,2.03,4.54,4.53,4.54"/>
<path style="&st7;" d="M347.11,218.59c2.51,0,4.54-2.03,4.54-4.54"/>
<path style="&st7;" d="M351.65,187.99c0-2.5-2.03-4.53-4.54-4.53"/>
<path style="&st7;" d="M347.11,183.46c-2.5,0-4.53,2.03-4.53,4.53"/>
<path style="&st7;" d="M342.58,187.99c0,2.5,2.03,4.53,4.53,4.53"/>
<path style="&st7;" d="M347.11,192.52c2.51,0,4.54-2.03,4.54-4.53"/>
<path style="&st7;" d="M351.65,178.93c0-2.51-2.03-4.54-4.54-4.54"/>
<path style="&st7;" d="M347.11,174.39c-2.5,0-4.53,2.03-4.53,4.54"/>
<path style="&st7;" d="M342.58,178.93c0,2.5,2.03,4.53,4.53,4.53"/>
<path style="&st7;" d="M347.11,183.46c2.51,0,4.54-2.03,4.54-4.53"/>
<path style="&st7;" d="M351.65,223.12c0-2.5-2.03-4.53-4.54-4.53"/>
<path style="&st7;" d="M347.11,218.59c-2.5,0-4.53,2.03-4.53,4.53"/>
<path style="&st7;" d="M342.58,223.12c0,2.5,2.03,4.53,4.53,4.53"/>
<path style="&st7;" d="M347.11,227.65c2.51,0,4.54-2.03,4.54-4.53"/>
<text transform="matrix(1 0 0 1 336.2437 225.0864)" style="&st6;"><tspan x="0" y="0" style="&st20; &st13;">9</tspan></text>
<text transform="matrix(1 0 0 1 344.7837 216.0166)" style="&st6;"><tspan x="0" y="0" style="&st20; &st13;">A</tspan></text>
<text transform="matrix(1 0 0 1 336.2437 216.0166)" style="&st6;"><tspan x="0" y="0" style="&st20; &st13;">9</tspan></text>
<text transform="matrix(1 0 0 1 344.7837 225.0864)" style="&st6;"><tspan x="0" y="0" style="&st20; &st13;">B</tspan></text>
<text transform="matrix(1 0 0 1 333.8335 189.9565)" style="&st6;"><tspan x="0" y="0" style="&st20; &st13;">11</tspan></text>
<text transform="matrix(1 0 0 1 344.7837 189.9565)" style="&st6;"><tspan x="0" y="0" style="&st20; &st13;">B</tspan></text>
<text transform="matrix(1 0 0 1 333.8335 180.8965)" style="&st6;"><tspan x="0" y="0" style="&st20; &st13;">11</tspan></text>
<text transform="matrix(1 0 0 1 344.7837 180.8965)" style="&st6;"><tspan x="0" y="0" style="&st20; &st13;">A</tspan></text>
<text ewd:textID="10" transform="matrix(1 0 0 1 358.7534 205.8164)" style="&st6; &st20; &st13;">Junction Connector</text>
<text transform="matrix(1 0 0 1 358.7534 198.7168)" style="&st6;"><tspan x="0" y="0" style="&st20; &st13;">G91(A),G142(B)</tspan></text>
</g>
<g ewd:code="G60-L,G56-F,G58-R,G61-U" ewd:figID="3" ewd:figtype="conn">
<path style="&st7;" d="M202.64,107.54v42.49h67.99v-42.49H202.64"/>
<path style="&st7;" d="M224.17,154.56c0-2.5-2.03-4.53-4.54-4.53"/>
<path style="&st7;" d="M219.63,150.03c-2.5,0-4.53,2.03-4.53,4.53"/>
<path style="&st7;" d="M215.1,154.56c0,2.51,2.03,4.54,4.53,4.54"/>
<path style="&st7;" d="M219.63,159.1c2.51,0,4.54-2.03,4.54-4.54"/>
<path style="&st7;" d="M224.17,163.63c0-2.5-2.03-4.53-4.54-4.53"/>
<path style="&st7;" d="M219.63,159.1c-2.5,0-4.53,2.03-4.53,4.53"/>
<path style="&st7;" d="M215.1,163.63c0,2.5,2.03,4.53,4.53,4.53"/>
<path style="&st7;" d="M219.63,168.16c2.51,0,4.54-2.03,4.54-4.53"/>
<path style="&st7;" d="M258.16,154.56c0-2.5-2.03-4.53-4.53-4.53"/>
<path style="&st7;" d="M253.63,150.03c-2.5,0-4.53,2.03-4.53,4.53"/>
<path style="&st7;" d="M249.1,154.56c0,2.51,2.03,4.54,4.53,4.54"/>
<path style="&st7;" d="M253.63,159.1c2.5,0,4.53-2.03,4.53-4.54"/>
<path style="&st7;" d="M258.16,163.63c0-2.5-2.03-4.53-4.53-4.53"/>
<path style="&st7;" d="M253.63,159.1c-2.5,0-4.53,2.03-4.53,4.53"/>
<path style="&st7;" d="M249.1,163.63c0,2.5,2.03,4.53,4.53,4.53"/>
<path style="&st7;" d="M253.63,168.16c2.5,0,4.53-2.03,4.53-4.53"/>
<path style="&st7;" d="M224.17,181.76c0-2.5-2.03-4.53-4.54-4.53"/>
<path style="&st7;" d="M219.63,177.23c-2.5,0-4.53,2.03-4.53,4.53"/>
<path style="&st7;" d="M215.1,181.76c0,2.5,2.03,4.53,4.53,4.53"/>
<path style="&st7;" d="M219.63,186.29c2.51,0,4.54-2.03,4.54-4.53"/>
<path style="&st7;" d="M224.17,172.69c0-2.5-2.03-4.53-4.54-4.53"/>
<path style="&st7;" d="M219.63,168.16c-2.5,0-4.53,2.03-4.53,4.53"/>
<path style="&st7;" d="M215.1,172.69c0,2.51,2.03,4.54,4.53,4.54"/>
<path style="&st7;" d="M219.63,177.23c2.51,0,4.54-2.03,4.54-4.54"/>
<path style="&st7;" d="M258.16,181.76c0-2.5-2.03-4.53-4.53-4.53"/>
<path style="&st7;" d="M253.63,177.23c-2.5,0-4.53,2.03-4.53,4.53"/>
<path style="&st7;" d="M249.1,181.76c0,2.5,2.03,4.53,4.53,4.53"/>
<path style="&st7;" d="M253.63,186.29c2.5,0,4.53-2.03,4.53-4.53"/>
<path style="&st7;" d="M258.16,172.69c0-2.5-2.03-4.53-4.53-4.53"/>
<path style="&st7;" d="M253.63,168.16c-2.5,0-4.53,2.03-4.53,4.53"/>
<path style="&st7;" d="M249.1,172.69c0,2.51,2.03,4.54,4.53,4.54"/>
<path style="&st7;" d="M253.63,177.23c2.5,0,4.53-2.03,4.53-4.54"/>
<text transform="matrix(1 0 0 1 217.1636 183.7266)" style="&st6;"><tspan x="0" y="0" style="&st20; &st13;">R</tspan></text>
<text transform="matrix(1 0 0 1 204.8032 183.7266)" style="&st6;"><tspan x="0" y="0" style="&st20; &st13;">29</tspan></text>
<text transform="matrix(1 0 0 1 217.5229 174.6567)" style="&st6;"><tspan x="0" y="0" style="&st20; &st13;">F</tspan></text>
<text transform="matrix(1 0 0 1 204.8032 174.6567)" style="&st6;"><tspan x="0" y="0" style="&st20; &st13;">20</tspan></text>
<text transform="matrix(1 0 0 1 251.1636 183.7266)" style="&st6;"><tspan x="0" y="0" style="&st20; &st13;">R</tspan></text>
<text transform="matrix(1 0 0 1 238.8032 183.7266)" style="&st6;"><tspan x="0" y="0" style="&st20; &st13;">28</tspan></text>
<text transform="matrix(1 0 0 1 251.5132 174.6567)" style="&st6;"><tspan x="0" y="0" style="&st20; &st13;">F</tspan></text>
<text transform="matrix(1 0 0 1 239.5728 174.6567)" style="&st6;"><tspan x="0" y="0" style="&st20; &st13;">14</tspan></text>
<text transform="matrix(1 0 0 1 208.7632 156.5264)" style="&st6;"><tspan x="0" y="0" style="&st20; &st13;">6</tspan></text>
<text transform="matrix(1 0 0 1 217.1636 156.5264)" style="&st6;"><tspan x="0" y="0" style="&st20; &st13;">U</tspan></text>
<text transform="matrix(1 0 0 1 204.8032 165.5967)" style="&st6;"><tspan x="0" y="0" style="&st20; &st13;">32</tspan></text>
<text transform="matrix(1 0 0 1 217.6636 165.5967)" style="&st6;"><tspan x="0" y="0" style="&st20; &st13;">L</tspan></text>
<text transform="matrix(1 0 0 1 239.5728 156.5264)" style="&st6;"><tspan x="0" y="0" style="&st20; &st13;">17</tspan></text>
<text transform="matrix(1 0 0 1 251.1636 156.5264)" style="&st6;"><tspan x="0" y="0" style="&st20; &st13;">U</tspan></text>
<text transform="matrix(1 0 0 1 239.5728 165.5967)" style="&st6;"><tspan x="0" y="0" style="&st20; &st13;">31</tspan></text>
<text transform="matrix(1 0 0 1 251.6528 165.5967)" style="&st6;"><tspan x="0" y="0" style="&st20; &st13;">L</tspan></text>
<text transform="matrix(1 0 0 1 200.1128 103.8364)" style="&st6;"><tspan x="0" y="0" style="&st20; &st13;">ECM</tspan></text>
<text transform="matrix(1 0 0 1 200.1128 96.7266)" style="&st6;"><tspan x="0" y="0" style="&st20; &st13;">G60(L),G56(F),G58(R),G61(U)</tspan></text>
<text transform="matrix(1 0 0 1 212.9927 146.3267)" style="&st6;"><tspan x="0" y="0" style="&st20; &st13;">IMO</tspan></text>
<text transform="matrix(1 0 0 1 248.7534 146.3267)" style="&st6;"><tspan x="0" y="0" style="&st20; &st13;">IMI</tspan></text>
</g>
<g ewd:code="G93,G144" ewd:figID="2" ewd:figtype="conn">
<path style="&st12;" d="M32.67,201.02v17"/>
<path style="&st7;" d="M24.17,201.02h16.99v17H24.17V201.02"/>
<path style="&st7;" d="M37.2,222.55c0-2.5-2.03-4.53-4.53-4.53"/>
<path style="&st7;" d="M32.67,218.02c-2.51,0-4.54,2.03-4.54,4.53"/>
<path style="&st7;" d="M28.13,222.55c0,2.51,2.03,4.53,4.54,4.53"/>
<path style="&st7;" d="M32.67,227.08c2.5,0,4.53-2.02,4.53-4.53"/>
<path style="&st7;" d="M37.2,196.49c0-2.5-2.03-4.53-4.53-4.53"/>
<path style="&st7;" d="M32.67,191.96c-2.51,0-4.54,2.03-4.54,4.53"/>
<path style="&st7;" d="M28.13,196.49c0,2.5,2.03,4.53,4.54,4.53"/>
<path style="&st7;" d="M32.67,201.02c2.5,0,4.53-2.03,4.53-4.53"/>
<path style="&st7;" d="M37.2,187.42c0-2.5-2.03-4.53-4.53-4.53"/>
<path style="&st7;" d="M32.67,182.89c-2.51,0-4.54,2.03-4.54,4.53"/>
<path style="&st7;" d="M28.13,187.42c0,2.51,2.03,4.54,4.54,4.54"/>
<path style="&st7;" d="M32.67,191.96c2.5,0,4.53-2.03,4.53-4.54"/>
<path style="&st7;" d="M37.2,231.62c0-2.51-2.03-4.54-4.53-4.54"/>
<path style="&st7;" d="M32.67,227.08c-2.51,0-4.54,2.03-4.54,4.54"/>
<path style="&st7;" d="M28.13,231.62c0,2.5,2.03,4.53,4.54,4.53"/>
<path style="&st7;" d="M32.67,236.15c2.5,0,4.53-2.03,4.53-4.53"/>
<text ewd:textID="10" transform="matrix(1 0 0 1 44.313 214.3164)" style="&st6; &st20; &st13;">Junction Connector</text>
<text transform="matrix(1 0 0 1 44.313 207.2168)" style="&st6;"><tspan x="0" y="0" style="&st20; &st13;">G93(A),G144(B)</tspan></text>
<text transform="matrix(1 0 0 1 18.6128 233.5864)" style="&st6;"><tspan x="0" y="0" style="&st20; &st13;">19</tspan></text>
<text transform="matrix(1 0 0 1 30.3335 224.5166)" style="&st6;"><tspan x="0" y="0" style="&st20; &st13;">A</tspan></text>
<text transform="matrix(1 0 0 1 18.6128 224.5166)" style="&st6;"><tspan x="0" y="0" style="&st20; &st13;">19</tspan></text>
<text transform="matrix(1 0 0 1 30.3335 233.5864)" style="&st6;"><tspan x="0" y="0" style="&st20; &st13;">B</tspan></text>
<text transform="matrix(1 0 0 1 17.8335 198.4565)" style="&st6;"><tspan x="0" y="0" style="&st20; &st13;">22</tspan></text>
<text transform="matrix(1 0 0 1 30.3335 198.4565)" style="&st6;"><tspan x="0" y="0" style="&st20; &st13;">B</tspan></text>
<text transform="matrix(1 0 0 1 17.8335 189.3867)" style="&st6;"><tspan x="0" y="0" style="&st20; &st13;">22</tspan></text>
<text transform="matrix(1 0 0 1 30.3335 189.3867)" style="&st6;"><tspan x="0" y="0" style="&st20; &st13;">A</tspan></text>
</g>
<g ewd:code="G75" ewd:figID="6" ewd:figtype="conn">
<path style="&st12;" d="M49.66,506.97h8.5"/>
<path style="&st12;" d="M75.16,506.97h8.5"/>
<path style="&st7;" d="M15.67,421.99h161.47v50.99h-59.49v67.99H15.67V421.99"/>
<path style="&st7;" d="M117.65,472.98H15.67"/>
<path style="&st7;" d="M49.66,515.47h34v-17h-34V515.47"/>
<path style="&st12;" d="M49.66,506.97H32.67v-33.99"/>
<path style="&st12;" d="M83.66,506.97h16.99v-33.99"/>
<path style="&st12;" d="M64.18,509.5c1.4-1.37,1.42-3.61,0.05-5.01"/>
<path style="&st12;" d="M64.23,504.49c-1.37-1.39-3.61-1.42-5.01-0.05"/>
<path style="&st12;" d="M59.22,504.44c-0.7,0.69-1.06,1.54-1.06,2.53"/>
<path style="&st12;" d="M69.14,509.5c1.4-1.37,1.42-3.61,0.05-5.01"/>
<path style="&st12;" d="M69.19,504.49c-1.37-1.39-3.61-1.42-5.01-0.05"/>
<path style="&st12;" d="M64.18,504.44c-1.4,1.37-1.42,3.61-0.05,5.01"/>
<path style="&st12;" d="M64.13,509.45c0.02,0.02,0.03,0.03,0.05,0.05"/>
<path style="&st12;" d="M75.16,506.97c0-1.95-1.59-3.54-3.54-3.54"/>
<path style="&st12;" d="M71.62,503.43c-1.96,0-3.54,1.59-3.54,3.54"/>
<path style="&st12;" d="M68.08,506.97c0,0.99,0.35,1.84,1.06,2.53"/>
<text ewd:textID="14" transform="matrix(1 0 0 1 32.2231 523.0962)" style="&st6; &st20; &st13;">Transponder Key Coil</text>
<text transform="matrix(1 0 0 1 91.7534 469.2759)" style="&st6;"><tspan x="0" y="0" style="&st20; &st13;">ANT2</tspan></text>
<text transform="matrix(1 0 0 1 24.1528 469.2759)" style="&st6;"><tspan x="0" y="0" style="&st20; &st13;">ANT1</tspan></text>
<text transform="matrix(1 0 0 1 25.8833 418.2964)" style="&st6;"><tspan x="0" y="0" style="&st20; &st13;">5</tspan></text>
<text transform="matrix(1 0 0 1 68.3833 429.6157)" style="&st6;"><tspan x="0" y="0" style="&st20; &st13;">VC5</tspan></text>
<text transform="matrix(1 0 0 1 21.6431 548.5767)" style="&st6;"><tspan x="0" y="0" style="&st20; &st13;">G75</tspan></text>
<text ewd:textID="13" transform="matrix(1 0 0 1 21.6431 555.6763)" style="&st6; &st20; &st13;">Transponder Key Amplifier</text>
<text transform="matrix(1 0 0 1 23.6235 429.6157)" style="&st6;"><tspan x="0" y="0" style="&st20; &st13;">TXCT</tspan></text>
<text transform="matrix(1 0 0 1 69.1528 418.2964)" style="&st6;"><tspan x="0" y="0" style="&st20; &st13;">1</tspan></text>
<text transform="matrix(1 0 0 1 107.6235 429.6157)" style="&st6;"><tspan x="0" y="0" style="&st20; &st13;">CODE</tspan></text>
<text transform="matrix(1 0 0 1 110.8628 418.2964)" style="&st6;"><tspan x="0" y="0" style="&st20; &st13;">4</tspan></text>
<text transform="matrix(1 0 0 1 150.1128 429.6157)" style="&st6;"><tspan x="0" y="0" style="&st20; &st13;">AGND</tspan></text>
<text transform="matrix(1 0 0 1 153.3628 418.2964)" style="&st6;"><tspan x="0" y="0" style="&st20; &st13;">7</tspan></text>
</g>
<g ewd:code="R29,R30" ewd:figID="7" ewd:figtype="conn">
<path style="&st7;" d="M177.14,515.47v33.99h42.49v-33.99H177.14"/>
<path style="&st16;" d="M177.14,540.97h42.49"/>
<path style="&st12;" d="M211.14,515.47v33.99"/>
<path style="&st16;" d="M177.14,523.97h42.49"/>
<path style="&st12;" d="M211.14,532.47h-25.5v-17"/>
<path style="&st12;" d="M209.94,531.46l-0.27,0.47l-0.09,0.54l0.09,0.53l0.27,0.47l0.42,0.35l0.5,0.18h0.55l0.5-0.18l0.42-0.35l0.27-0.47l0.09-0.53l-0.09-0.54l-0.27-0.47l-0.42-0.34l-0.5-0.19h-0.55l-0.5,0.19L209.94,531.46l0.4,0.72v0.58l0.37,0.44l0.57,0.1l0.51-0.29l0.2-0.54l-0.2-0.55l-0.51-0.29l-0.57,0.1l0.43,0.74"/>
<path style="&st7;" d="M215.67,554c0-2.51-2.03-4.54-4.53-4.54"/>
<path style="&st7;" d="M211.14,549.46c-2.51,0-4.54,2.03-4.54,4.54"/>
<path style="&st7;" d="M206.6,554c0,2.5,2.03,4.53,4.54,4.53"/>
<path style="&st7;" d="M211.14,558.53c2.5,0,4.53-2.03,4.53-4.53"/>
<path style="&st7;" d="M190.17,510.94c0-2.51-2.03-4.54-4.53-4.54"/>
<path style="&st7;" d="M185.64,506.4c-2.5,0-4.53,2.03-4.53,4.54"/>
<path style="&st7;" d="M181.11,510.94c0,2.5,2.03,4.53,4.53,4.53"/>
<path style="&st7;" d="M185.64,515.47c2.5,0,4.53-2.03,4.53-4.53"/>
<path style="&st7;" d="M215.67,510.94c0-2.51-2.03-4.54-4.53-4.54"/>
<path style="&st7;" d="M211.14,506.4c-2.51,0-4.54,2.03-4.54,4.54"/>
<path style="&st7;" d="M206.6,510.94c0,2.5,2.03,4.53,4.54,4.53"/>
<path style="&st7;" d="M211.14,515.47c2.5,0,4.53-2.03,4.53-4.53"/>
<text transform="matrix(0 -1 1 0 227.2534 551.9868)" style="&st6;"><tspan x="0" y="0" style="&st20; &st13;">R29(A),R30(B)</tspan></text>
<text ewd:textID="10" transform="matrix(0 -1 1 0 234.353 551.9868)" style="&st6; &st20; &st13;">Junction <tspan x="0" y="7">Connector</tspan></text>
<text transform="matrix(1 0 0 1 208.8032 555.9673)" style="&st6;"><tspan x="0" y="0" style="&st20; &st13;">B</tspan></text>
<text transform="matrix(1 0 0 1 200.2632 555.9673)" style="&st6;"><tspan x="0" y="0" style="&st20; &st13;">3</tspan></text>
<text transform="matrix(1 0 0 1 183.313 512.9067)" style="&st6;"><tspan x="0" y="0" style="&st20; &st13;">A</tspan></text>
<text transform="matrix(1 0 0 1 174.7632 512.9067)" style="&st6;"><tspan x="0" y="0" style="&st20; &st13;">9</tspan></text>
<text transform="matrix(1 0 0 1 208.8032 512.9067)" style="&st6;"><tspan x="0" y="0" style="&st20; &st13;">A</tspan></text>
<text transform="matrix(1 0 0 1 200.2632 512.9067)" style="&st6;"><tspan x="0" y="0" style="&st20; &st13;">8</tspan></text>
</g>
<g ewd:code="Q23" ewd:figID="9" ewd:figtype="conn">
<path style="&st7;" d="M253.63,523.97h17v17h-17V523.97"/>
<path style="&st12;" d="M262.13,523.97v17"/>
<path style="&st7;" d="M266.66,519.44c0-2.51-2.03-4.54-4.53-4.54"/>
<path style="&st7;" d="M262.13,514.9c-2.51,0-4.54,2.03-4.54,4.54"/>
<path style="&st7;" d="M257.59,519.44c0,2.5,2.03,4.53,4.54,4.53"/>
<path style="&st7;" d="M262.13,523.97c2.5,0,4.53-2.03,4.53-4.53"/>
<path style="&st7;" d="M266.66,545.5c0-2.51-2.03-4.53-4.53-4.53"/>
<path style="&st7;" d="M262.13,540.97c-2.51,0-4.54,2.02-4.54,4.53"/>
<path style="&st7;" d="M257.59,545.5c0,2.5,2.03,4.53,4.54,4.53"/>
<path style="&st7;" d="M262.13,550.03c2.5,0,4.53-2.03,4.53-4.53"/>
<text ewd:textID="10" transform="matrix(0 -1 1 0 285.3433 543.4868)" style="&st6; &st20; &st13;">Junction Connector</text>
<text transform="matrix(0 -1 1 0 278.2427 543.4868)" style="&st6;"><tspan x="0" y="0" style="&st20; &st13;">Q23(A)</tspan></text>
<text transform="matrix(1 0 0 1 251.2534 521.4067)" style="&st6;"><tspan x="0" y="0" style="&st20; &st13;">8</tspan></text>
<text transform="matrix(1 0 0 1 259.8032 521.4067)" style="&st6;"><tspan x="0" y="0" style="&st20; &st13;">A</tspan></text>
<text transform="matrix(1 0 0 1 251.2534 547.4673)" style="&st6;"><tspan x="0" y="0" style="&st20; &st13;">7</tspan></text>
<text transform="matrix(1 0 0 1 259.8032 547.4673)" style="&st6;"><tspan x="0" y="0" style="&st20; &st13;">A</tspan></text>
</g>
<g ewd:code="R7" ewd:figID="8" ewd:figtype="conn">
<path style="&st12;" d="M211.14,647.2v-4.25"/>
<path style="&st12;" d="M211.14,676.94v-4.25"/>
<path style="&st7;" d="M211.14,669.86l5.66-22.66"/>
<path style="&st7;" d="M219.63,676.94v-33.99h-16.99v33.99H219.63"/>
<path style="&st12;" d="M211.14,676.94v8.5"/>
<path style="&st12;" d="M202.64,685.44h16.99"/>
<path style="&st12;" d="M206.89,688.27h8.5"/>
<path style="&st12;" d="M208.3,691.11h5.67"/>
<path style="&st12;" d="M209.72,693.94h2.83"/>
<path style="&st12;" d="M212.55,648.61c0-0.78-0.63-1.41-1.41-1.41"/>
<path style="&st12;" d="M211.14,647.2c-0.79,0-1.42,0.63-1.42,1.41"/>
<path style="&st12;" d="M209.72,648.61c0,0.79,0.63,1.42,1.42,1.42"/>
<path style="&st12;" d="M211.14,650.03c0.78,0,1.41-0.63,1.41-1.42"/>
<path style="&st12;" d="M212.55,671.28c0-0.79-0.63-1.42-1.41-1.42"/>
<path style="&st12;" d="M211.14,669.86c-0.79,0-1.42,0.63-1.42,1.42"/>
<path style="&st12;" d="M209.72,671.28c0,0.78,0.63,1.41,1.42,1.41"/>
<path style="&st12;" d="M211.14,672.69c0.78,0,1.41-0.63,1.41-1.41"/>
<text transform="matrix(1 0 0 1 205.1235 639.2563)" style="&st6;"><tspan x="0" y="0" style="&st20; &st13;">1</tspan></text>
<text ewd:textID="8" transform="matrix(0 -1 1 0 234.353 679.4673)" style="&st6; &st20; &st13;">Front Door <tspan x="0" y="7">Courtesy Light </tspan><tspan x="0" y="14">Switch Assembly LH</tspan></text>
<text transform="matrix(0 -1 1 0 227.2534 679.4673)" style="&st6;"><tspan x="0" y="0" style="&st20; &st13;">R7</tspan></text>
</g>
<g ewd:code="Q8" ewd:figID="10" ewd:figtype="conn">
<path style="&st12;" d="M262.13,647.2v-4.25"/>
<path style="&st12;" d="M262.13,676.94v-4.25"/>
<path style="&st7;" d="M262.13,669.86l5.66-22.66"/>
<path style="&st7;" d="M270.63,676.94v-33.99h-17v33.99H270.63"/>
<path style="&st12;" d="M262.13,676.94v8.5"/>
<path style="&st12;" d="M253.63,685.44h17"/>
<path style="&st12;" d="M257.88,688.27h8.5"/>
<path style="&st12;" d="M259.29,691.11h5.67"/>
<path style="&st12;" d="M260.71,693.94h2.83"/>
<path style="&st12;" d="M263.54,648.61c0-0.78-0.63-1.41-1.41-1.41"/>
<path style="&st12;" d="M262.13,647.2c-0.78,0-1.42,0.63-1.42,1.41"/>
<path style="&st12;" d="M260.71,648.61c0,0.79,0.64,1.42,1.42,1.42"/>
<path style="&st12;" d="M262.13,650.03c0.78,0,1.41-0.63,1.41-1.42"/>
<path style="&st12;" d="M263.54,671.28c0-0.79-0.63-1.42-1.41-1.42"/>
<path style="&st12;" d="M262.13,669.86c-0.78,0-1.42,0.63-1.42,1.42"/>
<path style="&st12;" d="M260.71,671.28c0,0.78,0.64,1.41,1.42,1.41"/>
<path style="&st12;" d="M262.13,672.69c0.78,0,1.41-0.63,1.41-1.41"/>
<text transform="matrix(1 0 0 1 256.1235 639.2563)" style="&st6;"><tspan x="0" y="0" style="&st20; &st13;">1</tspan></text>
<text ewd:textID="9" transform="matrix(0 -1 1 0 285.3433 679.4673)" style="&st6; &st20; &st13;">Front Door <tspan x="0" y="7">Courtesy Light </tspan><tspan x="0" y="14">Switch Assembly RH</tspan></text>
<text transform="matrix(0 -1 1 0 278.2427 679.4673)" style="&st6;"><tspan x="0" y="0" style="&st20; &st13;">Q8</tspan></text>
</g>
<g ewd:code="H26" ewd:figID="13" ewd:figtype="conn">
<path style="&st12;" d="M330.12,659.95v25.49"/>
<path style="&st7;" d="M321.62,659.95v16.99h16.99v-16.99H321.62"/>
<text transform="matrix(1 0 0 1 323.3237 656.2563)" style="&st6;"><tspan x="0" y="0" style="&st20; &st13;">5</tspan></text>
<text transform="matrix(1 0 0 1 341.7632 663.3071)" style="&st6;"><tspan x="0" y="0" style="&st20; &st13;">H26</tspan></text>
<text ewd:textID="10" transform="matrix(1 0 0 1 341.7632 670.4067)" style="&st6; &st20; &st13;">Junction <tspan x="0" y="7">Connector</tspan></text>
</g>
<g ewd:code="H24" ewd:figID="12" ewd:figtype="conn">
<path style="&st7;" d="M321.62,583.46h16.99v17h-16.99V583.46"/>
<path style="&st12;" d="M330.12,583.46v17"/>
<text transform="matrix(1 0 0 1 319.3735 608.647)" style="&st6;"><tspan x="0" y="0" style="&st20; &st13;">20</tspan></text>
<text transform="matrix(1 0 0 1 319.3735 579.7661)" style="&st6;"><tspan x="0" y="0" style="&st20; &st13;">22</tspan></text>
<text ewd:textID="10" transform="matrix(1 0 0 1 341.7632 592.5063)" style="&st6; &st20; &st13;">Junction <tspan x="0" y="7">Connector</tspan></text>
<text transform="matrix(1 0 0 1 341.7632 585.397)" style="&st6;"><tspan x="0" y="0" style="&st20; &st13;">H24</tspan></text>
</g>
<g ewd:code="H23" ewd:figID="11" ewd:figtype="conn">
<path style="&st12;" d="M334.37,515.47h-8.5"/>
<path style="&st12;" d="M342.85,505.81l-7.36,4.25"/>
<path style="&st12;" d="M337.49,513.52l7.36-4.25"/>
<path style="&st7;" d="M313.12,489.97v42.5h33.99v-42.5H313.12"/>
<path style="&st12;" d="M330.12,489.97v42.5"/>
<path style="&st5;" d="M330.12,515.47l-5.67-8.5h11.33L330.12,515.47"/>
<path style="&st12;" d="M342.85,505.81l-2.33,3.04l-1.47-2.54L342.85,505.81l-1.28,0.74l-0.99,1.28l-0.62-1.07l1.61-0.21l-0.64,0.37l-0.32,0.4l-0.19-0.34l0.51-0.06"/>
<path style="&st12;" d="M344.85,509.27l-2.33,3.05l-1.47-2.54L344.85,509.27l-1.28,0.75l-0.98,1.28l-0.62-1.07l1.6-0.21l-0.64,0.36l-0.31,0.41l-0.2-0.34l0.51-0.07"/>
<text transform="matrix(1 0 0 1 323.3335 540.6567)" style="&st6;"><tspan x="0" y="0" style="&st20; &st13;">5</tspan></text>
<text transform="matrix(1 0 0 1 323.3335 486.2759)" style="&st6;"><tspan x="0" y="0" style="&st20; &st13;">2</tspan></text>
<text ewd:textID="11" transform="matrix(0 -1 1 0 322.1733 524.0063)" style="&st6; &st20; &st13;">Security</text>
<text transform="matrix(1 0 0 1 332.9536 528.7759)" style="&st6;"><tspan x="0" y="0" style="&st20; &st13;">E</tspan></text>
<text transform="matrix(1 0 0 1 332.9536 498.1665)" style="&st6;"><tspan x="0" y="0" style="&st20; &st13;">LP</tspan></text>
<text ewd:textID="12" transform="matrix(0 -1 1 0 361.8335 534.9868)" style="&st6; &st20; &st13;">Theft Warning <tspan x="0" y="7">Indicator Light Assembly</tspan></text>
<text transform="matrix(0 -1 1 0 354.7231 534.9868)" style="&st6;"><tspan x="0" y="0" style="&st20; &st13;">H23</tspan></text>
</g>
<g ewd:code="G3" ewd:figID="14" ewd:figtype="conn">
<path style="&st7;" d="M406.6,499.89l5.67-22.66"/>
<path style="&st12;" d="M406.6,506.97v-4.25"/>
<path style="&st12;" d="M406.6,477.23v-4.25"/>
<path style="&st7;" d="M398.1,472.98v33.99h17v-33.99H398.1"/>
<path style="&st12;" d="M408.02,501.31c0-0.79-0.63-1.42-1.42-1.42"/>
<path style="&st12;" d="M406.6,499.89c-0.78,0-1.41,0.63-1.41,1.42"/>
<path style="&st12;" d="M405.19,501.31c0,0.78,0.63,1.41,1.41,1.41"/>
<path style="&st12;" d="M406.6,502.72c0.79,0,1.42-0.63,1.42-1.41"/>
<path style="&st12;" d="M408.02,478.64c0-0.78-0.63-1.41-1.42-1.41"/>
<path style="&st12;" d="M406.6,477.23c-0.78,0-1.41,0.63-1.41,1.41"/>
<path style="&st12;" d="M405.19,478.64c0,0.78,0.63,1.42,1.41,1.42"/>
<path style="&st12;" d="M406.6,480.06c0.79,0,1.42-0.64,1.42-1.42"/>
<text transform="matrix(1 0 0 1 400.5933 469.2856)" style="&st6;"><tspan x="0" y="0" style="&st20; &st13;">1</tspan></text>
<text ewd:textID="16" transform="matrix(0 -1 1 0 429.8237 509.4966)" style="&st6; &st20; &st13;">Un-Lock Warning <tspan x="0" y="7">Switch Assembly</tspan></text>
<text transform="matrix(0 -1 1 0 422.7134 509.4966)" style="&st6;"><tspan x="0" y="0" style="&st20; &st13;">G3</tspan></text>
<text transform="matrix(1 0 0 1 399.813 515.1567)" style="&st6;"><tspan x="0" y="0" style="&st20; &st13;">2</tspan></text>
</g>
<g ewd:code="G104" ewd:figID="15" ewd:figtype="conn">
<path style="&st12;" d="M457.59,659.95v25.49"/>
<path style="&st7;" d="M449.1,659.95v16.99h16.99v-16.99H449.1"/>
<text ewd:textID="10" transform="matrix(0 -1 1 0 480.813 679.4673)" style="&st6; &st20; &st13;">Junction <tspan x="0" y="7">Connector</tspan></text>
<text transform="matrix(0 -1 1 0 473.7036 679.4673)" style="&st6;"><tspan x="0" y="0" style="&st20; &st13;">G104</tspan></text>
<text transform="matrix(1 0 0 1 450.8032 656.2563)" style="&st6;"><tspan x="0" y="0" style="&st20; &st13;">3</tspan></text>
</g>
<g ewd:code="G74,G138" ewd:figID="1" ewd:figtype="conn">
<path style="&st7;" d="M15.67,269.01v42.49h467.42v-42.49H15.67"/>
<path style="&st7;" d="M351.65,264.48c0-2.5-2.03-4.53-4.54-4.53"/>
<path style="&st7;" d="M347.11,259.95c-2.5,0-4.53,2.03-4.53,4.53"/>
<path style="&st7;" d="M342.58,264.48c0,2.5,2.03,4.53,4.53,4.53"/>
<path style="&st7;" d="M347.11,269.01c2.51,0,4.54-2.03,4.54-4.53"/>
<path style="&st7;" d="M351.65,255.41c0-2.5-2.03-4.53-4.54-4.53"/>
<path style="&st7;" d="M347.11,250.88c-2.5,0-4.53,2.03-4.53,4.53"/>
<path style="&st7;" d="M342.58,255.41c0,2.51,2.03,4.54,4.53,4.54"/>
<path style="&st7;" d="M347.11,259.95c2.51,0,4.54-2.03,4.54-4.54"/>
<path style="&st7;" d="M258.16,264.48c0-2.5-2.03-4.53-4.53-4.53"/>
<path style="&st7;" d="M253.63,259.95c-2.5,0-4.53,2.03-4.53,4.53"/>
<path style="&st7;" d="M249.1,264.48c0,2.5,2.03,4.53,4.53,4.53"/>
<path style="&st7;" d="M253.63,269.01c2.5,0,4.53-2.03,4.53-4.53"/>
<path style="&st7;" d="M258.16,255.41c0-2.5-2.03-4.53-4.53-4.53"/>
<path style="&st7;" d="M253.63,250.88c-2.5,0-4.53,2.03-4.53,4.53"/>
<path style="&st7;" d="M249.1,255.41c0,2.51,2.03,4.54,4.53,4.54"/>
<path style="&st7;" d="M253.63,259.95c2.5,0,4.53-2.03,4.53-4.54"/>
<path style="&st7;" d="M224.17,264.48c0-2.5-2.03-4.53-4.54-4.53"/>
<path style="&st7;" d="M219.63,259.95c-2.5,0-4.53,2.03-4.53,4.53"/>
<path style="&st7;" d="M215.1,264.48c0,2.5,2.03,4.53,4.53,4.53"/>
<path style="&st7;" d="M219.63,269.01c2.51,0,4.54-2.03,4.54-4.53"/>
<path style="&st7;" d="M462.13,316.04c0-2.51-2.03-4.54-4.54-4.54"/>
<path style="&st7;" d="M457.59,311.5c-2.5,0-4.53,2.03-4.53,4.54"/>
<path style="&st7;" d="M453.06,316.04c0,2.5,2.03,4.53,4.53,4.53"/>
<path style="&st7;" d="M457.59,320.57c2.51,0,4.54-2.03,4.54-4.53"/>
<path style="&st7;" d="M224.17,255.41c0-2.5-2.03-4.53-4.54-4.53"/>
<path style="&st7;" d="M219.63,250.88c-2.5,0-4.53,2.03-4.53,4.53"/>
<path style="&st7;" d="M215.1,255.41c0,2.51,2.03,4.54,4.53,4.54"/>
<path style="&st7;" d="M219.63,259.95c2.51,0,4.54-2.03,4.54-4.54"/>
<path style="&st7;" d="M139.18,264.48c0-2.5-2.03-4.53-4.53-4.53"/>
<path style="&st7;" d="M134.65,259.95c-2.5,0-4.53,2.03-4.53,4.53"/>
<path style="&st7;" d="M130.12,264.48c0,2.5,2.03,4.53,4.53,4.53"/>
<path style="&st7;" d="M134.65,269.01c2.5,0,4.53-2.03,4.53-4.53"/>
<path style="&st7;" d="M139.18,255.41c0-2.5-2.03-4.53-4.53-4.53"/>
<path style="&st7;" d="M134.65,250.88c-2.5,0-4.53,2.03-4.53,4.53"/>
<path style="&st7;" d="M130.12,255.41c0,2.51,2.03,4.54,4.53,4.54"/>
<path style="&st7;" d="M134.65,259.95c2.5,0,4.53-2.03,4.53-4.54"/>
<path style="&st7;" d="M37.2,264.48c0-2.5-2.03-4.53-4.53-4.53"/>
<path style="&st7;" d="M32.67,259.95c-2.51,0-4.54,2.03-4.54,4.53"/>
<path style="&st7;" d="M28.13,264.48c0,2.5,2.03,4.53,4.54,4.53"/>
<path style="&st7;" d="M32.67,269.01c2.5,0,4.53-2.03,4.53-4.53"/>
<path style="&st7;" d="M37.2,255.41c0-2.5-2.03-4.53-4.53-4.53"/>
<path style="&st7;" d="M32.67,250.88c-2.51,0-4.54,2.03-4.54,4.53"/>
<path style="&st7;" d="M28.13,255.41c0,2.51,2.03,4.54,4.54,4.54"/>
<path style="&st7;" d="M32.67,259.95c2.5,0,4.53-2.03,4.53-4.54"/>
<path style="&st7;" d="M462.13,325.1c0-2.5-2.03-4.53-4.54-4.53"/>
<path style="&st7;" d="M457.59,320.57c-2.5,0-4.53,2.03-4.53,4.53"/>
<path style="&st7;" d="M453.06,325.1c0,2.5,2.03,4.53,4.53,4.53"/>
<path style="&st7;" d="M457.59,329.63c2.51,0,4.54-2.03,4.54-4.53"/>
<path style="&st7;" d="M411.14,316.04c0-2.51-2.03-4.54-4.54-4.54"/>
<path style="&st7;" d="M406.6,311.5c-2.5,0-4.53,2.03-4.53,4.54"/>
<path style="&st7;" d="M402.07,316.04c0,2.5,2.03,4.53,4.53,4.53"/>
<path style="&st7;" d="M406.6,320.57c2.51,0,4.54-2.03,4.54-4.53"/>
<path style="&st7;" d="M411.14,325.1c0-2.5-2.03-4.53-4.54-4.53"/>
<path style="&st7;" d="M406.6,320.57c-2.5,0-4.53,2.03-4.53,4.53"/>
<path style="&st7;" d="M402.07,325.1c0,2.5,2.03,4.53,4.53,4.53"/>
<path style="&st7;" d="M406.6,329.63c2.51,0,4.54-2.03,4.54-4.53"/>
<path style="&st7;" d="M334.65,316.04c0-2.51-2.03-4.54-4.53-4.54"/>
<path style="&st7;" d="M330.12,311.5c-2.51,0-4.54,2.03-4.54,4.54"/>
<path style="&st7;" d="M325.58,316.04c0,2.5,2.03,4.53,4.54,4.53"/>
<path style="&st7;" d="M330.12,320.57c2.5,0,4.53-2.03,4.53-4.53"/>
<path style="&st7;" d="M334.65,325.1c0-2.5-2.03-4.53-4.53-4.53"/>
<path style="&st7;" d="M330.12,320.57c-2.51,0-4.54,2.03-4.54,4.53"/>
<path style="&st7;" d="M325.58,325.1c0,2.5,2.03,4.53,4.54,4.53"/>
<path style="&st7;" d="M330.12,329.63c2.5,0,4.53-2.03,4.53-4.53"/>
<path style="&st7;" d="M215.67,316.04c0-2.51-2.03-4.54-4.53-4.54"/>
<path style="&st7;" d="M211.14,311.5c-2.51,0-4.54,2.03-4.54,4.54"/>
<path style="&st7;" d="M206.6,316.04c0,2.5,2.03,4.53,4.54,4.53"/>
<path style="&st7;" d="M211.14,320.57c2.5,0,4.53-2.03,4.53-4.53"/>
<path style="&st7;" d="M215.67,325.1c0-2.5-2.03-4.53-4.53-4.53"/>
<path style="&st7;" d="M211.14,320.57c-2.51,0-4.54,2.03-4.54,4.53"/>
<path style="&st7;" d="M206.6,325.1c0,2.5,2.03,4.53,4.54,4.53"/>
<path style="&st7;" d="M211.14,329.63c2.5,0,4.53-2.03,4.53-4.53"/>
<path style="&st7;" d="M37.2,316.04c0-2.51-2.03-4.54-4.53-4.54"/>
<path style="&st7;" d="M32.67,311.5c-2.51,0-4.54,2.03-4.54,4.54"/>
<path style="&st7;" d="M28.13,316.04c0,2.5,2.03,4.53,4.54,4.53"/>
<path style="&st7;" d="M32.67,320.57c2.5,0,4.53-2.03,4.53-4.53"/>
<path style="&st7;" d="M37.2,325.1c0-2.5-2.03-4.53-4.53-4.53"/>
<path style="&st7;" d="M32.67,320.57c-2.51,0-4.54,2.03-4.54,4.53"/>
<path style="&st7;" d="M28.13,325.1c0,2.5,2.03,4.53,4.54,4.53"/>
<path style="&st7;" d="M32.67,329.63c2.5,0,4.53-2.03,4.53-4.53"/>
<path style="&st7;" d="M79.69,316.04c0-2.51-2.03-4.54-4.53-4.54"/>
<path style="&st7;" d="M75.16,311.5c-2.5,0-4.53,2.03-4.53,4.54"/>
<path style="&st7;" d="M70.63,316.04c0,2.5,2.03,4.53,4.53,4.53"/>
<path style="&st7;" d="M75.16,320.57c2.5,0,4.53-2.03,4.53-4.53"/>
<path style="&st7;" d="M79.69,325.1c0-2.5-2.03-4.53-4.53-4.53"/>
<path style="&st7;" d="M75.16,320.57c-2.5,0-4.53,2.03-4.53,4.53"/>
<path style="&st7;" d="M70.63,325.1c0,2.5,2.03,4.53,4.53,4.53"/>
<path style="&st7;" d="M75.16,329.63c2.5,0,4.53-2.03,4.53-4.53"/>
<path style="&st7;" d="M122.18,316.04c0-2.51-2.03-4.54-4.53-4.54"/>
<path style="&st7;" d="M117.65,311.5c-2.5,0-4.53,2.03-4.53,4.54"/>
<path style="&st7;" d="M113.12,316.04c0,2.5,2.03,4.53,4.53,4.53"/>
<path style="&st7;" d="M117.65,320.57c2.5,0,4.53-2.03,4.53-4.53"/>
<path style="&st7;" d="M122.18,325.1c0-2.5-2.03-4.53-4.53-4.53"/>
<path style="&st7;" d="M117.65,320.57c-2.5,0-4.53,2.03-4.53,4.53"/>
<path style="&st7;" d="M113.12,325.1c0,2.5,2.03,4.53,4.53,4.53"/>
<path style="&st7;" d="M117.65,329.63c2.5,0,4.53-2.03,4.53-4.53"/>
<path style="&st7;" d="M164.68,316.04c0-2.51-2.03-4.54-4.54-4.54"/>
<path style="&st7;" d="M160.14,311.5c-2.5,0-4.53,2.03-4.53,4.54"/>
<path style="&st7;" d="M155.61,316.04c0,2.5,2.03,4.53,4.53,4.53"/>
<path style="&st7;" d="M160.14,320.57c2.51,0,4.54-2.03,4.54-4.53"/>
<path style="&st7;" d="M164.68,325.1c0-2.5-2.03-4.53-4.54-4.53"/>
<path style="&st7;" d="M160.14,320.57c-2.5,0-4.53,2.03-4.53,4.53"/>
<path style="&st7;" d="M155.61,325.1c0,2.5,2.03,4.53,4.53,4.53"/>
<path style="&st7;" d="M160.14,329.63c2.51,0,4.54-2.03,4.54-4.53"/>
<text ewd:textID="15" transform="matrix(0 -1 1 0 497.813 314.0264)" style="&st6; &st20; &st13;">Transponder Key ECU <tspan x="0" y="7">Assembly</tspan></text>
<text transform="matrix(0 -1 1 0 490.7036 314.0264)" style="&st6;"><tspan x="0" y="0" style="&st20; &st13;">G74(A),G138(B)</tspan></text>
<text transform="matrix(1 0 0 1 23.6235 307.8066)" style="&st6;"><tspan x="0" y="0" style="&st20; &st13;">TXCT</tspan></text>
<text transform="matrix(1 0 0 1 324.1831 307.8066)" style="&st6;"><tspan x="0" y="0" style="&st20; &st13;">IND</tspan></text>
<text transform="matrix(1 0 0 1 68.3833 307.8066)" style="&st6;"><tspan x="0" y="0" style="&st20; &st13;">VC5</tspan></text>
<text transform="matrix(1 0 0 1 28.3228 276.6465)" style="&st6;"><tspan x="0" y="0" style="&st20; &st13;">+B</tspan></text>
<text transform="matrix(1 0 0 1 130.9028 276.6465)" style="&st6;"><tspan x="0" y="0" style="&st20; &st13;">IG</tspan></text>
<text transform="matrix(1 0 0 1 213.2134 276.6465)" style="&st6;"><tspan x="0" y="0" style="&st20; &st13;">EFII</tspan></text>
<text transform="matrix(1 0 0 1 245.4331 276.6465)" style="&st6;"><tspan x="0" y="0" style="&st20; &st13;">EFIO</tspan></text>
<text transform="matrix(1 0 0 1 344.6431 276.6465)" style="&st6;"><tspan x="0" y="0" style="&st20; &st13;">D</tspan></text>
<text transform="matrix(1 0 0 1 107.6235 307.8066)" style="&st6;"><tspan x="0" y="0" style="&st20; &st13;">CODE</tspan></text>
<text transform="matrix(1 0 0 1 150.1128 307.8066)" style="&st6;"><tspan x="0" y="0" style="&st20; &st13;">AGND</tspan></text>
<text transform="matrix(1 0 0 1 204.2134 307.8066)" style="&st6;"><tspan x="0" y="0" style="&st20; &st13;">CTY</tspan></text>
<text transform="matrix(1 0 0 1 398.5933 307.8066)" style="&st6;"><tspan x="0" y="0" style="&st20; &st13;">KSW</tspan></text>
<text transform="matrix(1 0 0 1 449.8931 307.8066)" style="&st6;"><tspan x="0" y="0" style="&st20; &st13;">GND</tspan></text>
<text transform="matrix(1 0 0 1 336.2437 266.4468)" style="&st6;"><tspan x="0" y="0" style="&st20; &st13;">9</tspan></text>
<text transform="matrix(1 0 0 1 344.7837 266.4468)" style="&st6;"><tspan x="0" y="0" style="&st20; &st13;">A</tspan></text>
<text transform="matrix(1 0 0 1 336.2437 257.3765)" style="&st6;"><tspan x="0" y="0" style="&st20; &st13;">9</tspan></text>
<text transform="matrix(1 0 0 1 344.7837 257.3765)" style="&st6;"><tspan x="0" y="0" style="&st20; &st13;">B</tspan></text>
<text transform="matrix(1 0 0 1 239.5728 266.4468)" style="&st6;"><tspan x="0" y="0" style="&st20; &st13;">13</tspan></text>
<text transform="matrix(1 0 0 1 251.3032 266.4468)" style="&st6;"><tspan x="0" y="0" style="&st20; &st13;">A</tspan></text>
<text transform="matrix(1 0 0 1 239.5728 257.3765)" style="&st6;"><tspan x="0" y="0" style="&st20; &st13;">13</tspan></text>
<text transform="matrix(1 0 0 1 251.3032 257.3765)" style="&st6;"><tspan x="0" y="0" style="&st20; &st13;">B</tspan></text>
<text transform="matrix(1 0 0 1 205.5835 266.4468)" style="&st6;"><tspan x="0" y="0" style="&st20; &st13;">12</tspan></text>
<text transform="matrix(1 0 0 1 217.3032 266.4468)" style="&st6;"><tspan x="0" y="0" style="&st20; &st13;">A</tspan></text>
<text transform="matrix(1 0 0 1 205.5835 257.3765)" style="&st6;"><tspan x="0" y="0" style="&st20; &st13;">12</tspan></text>
<text transform="matrix(1 0 0 1 217.3032 257.3765)" style="&st6;"><tspan x="0" y="0" style="&st20; &st13;">B</tspan></text>
<text transform="matrix(1 0 0 1 443.5435 318.0068)" style="&st6;"><tspan x="0" y="0" style="&st20; &st13;">16</tspan></text>
<text transform="matrix(1 0 0 1 123.7729 266.4468)" style="&st6;"><tspan x="0" y="0" style="&st20; &st13;">2</tspan></text>
<text transform="matrix(1 0 0 1 132.3228 266.4468)" style="&st6;"><tspan x="0" y="0" style="&st20; &st13;">A</tspan></text>
<text transform="matrix(1 0 0 1 123.7729 257.3765)" style="&st6;"><tspan x="0" y="0" style="&st20; &st13;">2</tspan></text>
<text transform="matrix(1 0 0 1 132.3228 257.3765)" style="&st6;"><tspan x="0" y="0" style="&st20; &st13;">B</tspan></text>
<text transform="matrix(1 0 0 1 22.5728 266.4468)" style="&st6;"><tspan x="0" y="0" style="&st20; &st13;">1</tspan></text>
<text transform="matrix(1 0 0 1 30.3335 266.4468)" style="&st6;"><tspan x="0" y="0" style="&st20; &st13;">A</tspan></text>
<text transform="matrix(1 0 0 1 455.2632 318.0068)" style="&st6;"><tspan x="0" y="0" style="&st20; &st13;">B</tspan></text>
<text transform="matrix(1 0 0 1 22.5728 257.3765)" style="&st6;"><tspan x="0" y="0" style="&st20; &st13;">1</tspan></text>
<text transform="matrix(1 0 0 1 30.3335 257.3765)" style="&st6;"><tspan x="0" y="0" style="&st20; &st13;">B</tspan></text>
<text transform="matrix(1 0 0 1 443.5435 327.0664)" style="&st6;"><tspan x="0" y="0" style="&st20; &st13;">16</tspan></text>
<text transform="matrix(1 0 0 1 455.2632 327.0664)" style="&st6;"><tspan x="0" y="0" style="&st20; &st13;">A</tspan></text>
<text transform="matrix(1 0 0 1 395.7329 318.0068)" style="&st6;"><tspan x="0" y="0" style="&st20; &st13;">3</tspan></text>
<text transform="matrix(1 0 0 1 404.2729 318.0068)" style="&st6;"><tspan x="0" y="0" style="&st20; &st13;">B</tspan></text>
<text transform="matrix(1 0 0 1 395.7329 327.0664)" style="&st6;"><tspan x="0" y="0" style="&st20; &st13;">3</tspan></text>
<text transform="matrix(1 0 0 1 404.2729 327.0664)" style="&st6;"><tspan x="0" y="0" style="&st20; &st13;">A</tspan></text>
<text transform="matrix(1 0 0 1 319.2437 318.0068)" style="&st6;"><tspan x="0" y="0" style="&st20; &st13;">8</tspan></text>
<text transform="matrix(1 0 0 1 327.7837 318.0068)" style="&st6;"><tspan x="0" y="0" style="&st20; &st13;">B</tspan></text>
<text transform="matrix(1 0 0 1 319.2437 327.0664)" style="&st6;"><tspan x="0" y="0" style="&st20; &st13;">8</tspan></text>
<text transform="matrix(1 0 0 1 327.7837 327.0664)" style="&st6;"><tspan x="0" y="0" style="&st20; &st13;">A</tspan></text>
<text transform="matrix(1 0 0 1 200.2632 318.0068)" style="&st6;"><tspan x="0" y="0" style="&st20; &st13;">7</tspan></text>
<text transform="matrix(1 0 0 1 208.8032 318.0068)" style="&st6;"><tspan x="0" y="0" style="&st20; &st13;">B</tspan></text>
<text transform="matrix(1 0 0 1 200.2632 327.0664)" style="&st6;"><tspan x="0" y="0" style="&st20; &st13;">7</tspan></text>
<text transform="matrix(1 0 0 1 208.8032 327.0664)" style="&st6;"><tspan x="0" y="0" style="&st20; &st13;">A</tspan></text>
<text transform="matrix(1 0 0 1 21.7935 318.0068)" style="&st6;"><tspan x="0" y="0" style="&st20; &st13;">4</tspan></text>
<text transform="matrix(1 0 0 1 30.3335 318.0068)" style="&st6;"><tspan x="0" y="0" style="&st20; &st13;">B</tspan></text>
<text transform="matrix(1 0 0 1 21.7935 327.0664)" style="&st6;"><tspan x="0" y="0" style="&st20; &st13;">4</tspan></text>
<text transform="matrix(1 0 0 1 30.3335 327.0664)" style="&st6;"><tspan x="0" y="0" style="&st20; &st13;">A</tspan></text>
<text transform="matrix(1 0 0 1 61.103 318.0068)" style="&st6;"><tspan x="0" y="0" style="&st20; &st13;">14</tspan></text>
<text transform="matrix(1 0 0 1 72.8335 318.0068)" style="&st6;"><tspan x="0" y="0" style="&st20; &st13;">B</tspan></text>
<text transform="matrix(1 0 0 1 61.103 327.0664)" style="&st6;"><tspan x="0" y="0" style="&st20; &st13;">14</tspan></text>
<text transform="matrix(1 0 0 1 72.8335 327.0664)" style="&st6;"><tspan x="0" y="0" style="&st20; &st13;">A</tspan></text>
<text transform="matrix(1 0 0 1 103.603 318.0068)" style="&st6;"><tspan x="0" y="0" style="&st20; &st13;">15</tspan></text>
<text transform="matrix(1 0 0 1 115.3228 318.0068)" style="&st6;"><tspan x="0" y="0" style="&st20; &st13;">B</tspan></text>
<text transform="matrix(1 0 0 1 103.603 327.0664)" style="&st6;"><tspan x="0" y="0" style="&st20; &st13;">15</tspan></text>
<text transform="matrix(1 0 0 1 115.3228 327.0664)" style="&st6;"><tspan x="0" y="0" style="&st20; &st13;">A</tspan></text>
<text transform="matrix(1 0 0 1 149.2729 318.0068)" style="&st6;"><tspan x="0" y="0" style="&st20; &st13;">5</tspan></text>
<text transform="matrix(1 0 0 1 157.813 318.0068)" style="&st6;"><tspan x="0" y="0" style="&st20; &st13;">B</tspan></text>
<text transform="matrix(1 0 0 1 149.2729 327.0664)" style="&st6;"><tspan x="0" y="0" style="&st20; &st13;">5</tspan></text>
<text transform="matrix(1 0 0 1 157.813 327.0664)" style="&st6;"><tspan x="0" y="0" style="&st20; &st13;">A</tspan></text>
</g>
<path style="&st2;" d="M41.16,255.41h80.74"/>
<path style="&st2;" d="M41.16,264.48h80.74"/>
<path style="&st2;" d="M143.15,255.41h59.49"/>
<path style="&st2;" d="M143.15,264.48h59.49"/>
<path style="&st2;" d="M228.13,255.41h8.5"/>
<path style="&st2;" d="M228.13,264.48h8.5"/>
<path style="&st2;" d="M262.13,255.41h72.24"/>
<path style="&st2;" d="M262.13,264.48h72.24"/>
<path style="&st2;" d="M41.16,316.04h17"/>
<path style="&st2;" d="M41.16,325.1h17"/>
<path style="&st2;" d="M83.66,316.04h16.99"/>
<path style="&st2;" d="M83.66,325.1h16.99"/>
<path style="&st2;" d="M126.15,316.04h21.25"/>
<path style="&st2;" d="M126.15,325.1h21.25"/>
<path style="&st2;" d="M168.64,316.04h29.75"/>
<path style="&st2;" d="M168.64,325.1h29.75"/>
<path style="&st2;" d="M219.63,316.04h97.74"/>
<path style="&st2;" d="M219.63,325.1h97.74"/>
<path style="&st2;" d="M338.61,316.04h55.25"/>
<path style="&st2;" d="M338.61,325.1h55.25"/>
<path style="&st2;" d="M415.1,316.04h25.5"/>
<path style="&st2;" d="M415.1,325.1h25.5"/>
<path style="&st2;" d="M228.13,154.56h8.5"/>
<path style="&st2;" d="M236.63,163.63h-8.5"/>
<path style="&st2;" d="M228.13,172.69h8.5"/>
<path style="&st2;" d="M228.13,181.76h8.5"/>
<text ewd:textID="3" transform="matrix(1 0 0 1 370.0835 41.5166)" style="&st6; &st20; &st13;">* 3 :Before Oct. 2010 Production</text>
<text ewd:textID="4" transform="matrix(1 0 0 1 370.0835 50.0166)" style="&st6; &st20; &st13;">* 4 :From Oct. 2010 Production</text>
<text transform="matrix(0 -1 1 0 156.4526 590.1763)" style="&st6;"><tspan x="0" y="0" style="&st20; &st13;">R</tspan></text>
<text transform="matrix(0 -1 1 0 167.7827 601.9771)" style="&st6;"><tspan x="0" y="0" style="&st20; &st13;">(*3 LHD)</tspan></text>
<text transform="matrix(1 0 0 1 259.603 183.7266)" style="&st6;"><tspan x="0" y="0" style="&st20; &st13;">(*6)</tspan></text>
<text transform="matrix(1 0 0 1 259.603 174.6567)" style="&st6;"><tspan x="0" y="0" style="&st20; &st13;">(*5)</tspan></text>
<text transform="matrix(1 0 0 1 370.0835 67.0068)" style="&st6;"><tspan x="0" y="0" style="&st20; &st13;">* 6 :1KD-FTV</tspan></text>
<text transform="matrix(1 0 0 1 370.0835 58.5166)" style="&st6;"><tspan x="0" y="0" style="&st20; &st13;">* 5 :1GR-FE</tspan></text>
<text ewd:textID="5" transform="matrix(1 0 0 1 370.0835 75.5068)" style="&st6; &st20; &st13;">* 7 :Except *1</text>
<text ewd:textID="2" transform="matrix(1 0 0 1 370.0835 109.5068)" style="&st6; &st20; &st13;">* 11 :From Aug. 2013 Production</text>
<text ewd:textID="1" transform="matrix(1 0 0 1 370.0835 101.0068)" style="&st6; &st20; &st13;">* 10 :Before Aug. 2013 Production</text>
<text ewd:textID="6" transform="matrix(1 0 0 1 370.0835 84.0068)" style="&st6; &st20; &st13;">* 8 :Before Oct. 2011 Production</text>
<text ewd:textID="7" transform="matrix(1 0 0 1 370.0835 92.5068)" style="&st6; &st20; &st13;">* 9 :From Oct. 2011 Production</text>
<text transform="matrix(0 -1 1 0 28.9731 364.8267)" style="&st6;"><tspan x="0" y="0" style="&st20; &st13;">P</tspan></text>
<text transform="matrix(0 -1 1 0 269.7632 380.7368)" style="&st6;"><tspan x="0" y="0" style="&st20; &st13;">(RHD)</tspan></text>
<text transform="matrix(0 -1 1 0 71.4634 364.9673)" style="&st6;"><tspan x="0" y="0" style="&st20; &st13;">R</tspan></text>
<text transform="matrix(0 -1 1 0 258.4331 373.3169)" style="&st6;"><tspan x="0" y="0" style="&st20; &st13;">B</tspan></text>
<text transform="matrix(0 -1 1 0 218.7729 380.2466)" style="&st6;"><tspan x="0" y="0" style="&st20; &st13;">(LHD)</tspan></text>
<text transform="matrix(0 -1 1 0 207.4429 373.4673)" style="&st6;"><tspan x="0" y="0" style="&st20; &st13;">R</tspan></text>
<text transform="matrix(0 -1 1 0 28.9731 130.1064)" style="&st6;"><tspan x="0" y="0" style="&st20; &st13;">P</tspan></text>
<text transform="matrix(0 -1 1 0 28.9731 172.8564)" style="&st6;"><tspan x="0" y="0" style="&st20; &st13;">P</tspan></text>
<text transform="matrix(0 -1 1 0 28.9731 245.8467)" style="&st6;"><tspan x="0" y="0" style="&st20; &st13;">P</tspan></text>
<text transform="matrix(0 -1 1 0 130.9526 238.3667)" style="&st6;"><tspan x="0" y="0" style="&st20; &st13;">W</tspan></text>
<text transform="matrix(0 -1 1 0 130.9526 136.3867)" style="&st6;"><tspan x="0" y="0" style="&st20; &st13;">W</tspan></text>
<text transform="matrix(0 -1 1 0 215.9429 239.6768)" style="&st6;"><tspan x="0" y="0" style="&st20; &st13;">SB</tspan></text>
<text transform="matrix(0 -1 1 0 249.9331 238.3667)" style="&st6;"><tspan x="0" y="0" style="&st20; &st13;">W</tspan></text>
<text transform="matrix(0 -1 1 0 343.4233 238.3667)" style="&st6;"><tspan x="0" y="0" style="&st20; &st13;">W</tspan></text>
<text transform="matrix(0 -1 1 0 113.9634 367.2271)" style="&st6;"><tspan x="0" y="0" style="&st20; &st13;">LG</tspan></text>
<text transform="matrix(0 -1 1 0 156.4526 364.4668)" style="&st6;"><tspan x="0" y="0" style="&st20; &st13;">L</tspan></text>
<text transform="matrix(0 -1 1 0 326.4233 343.9966)" style="&st6;"><tspan x="0" y="0" style="&st20; &st13;">G</tspan></text>
<text transform="matrix(0 -1 1 0 326.4233 437.4868)" style="&st6;"><tspan x="0" y="0" style="&st20; &st13;">G</tspan></text>
<text transform="matrix(0 -1 1 0 326.4233 475.7271)" style="&st6;"><tspan x="0" y="0" style="&st20; &st13;">G</tspan></text>
<text transform="matrix(0 -1 1 0 326.4233 558.5161)" style="&st6;"><tspan x="0" y="0" style="&st20; &st13;">BR</tspan></text>
<text transform="matrix(0 -1 1 0 326.4233 639.2466)" style="&st6;"><tspan x="0" y="0" style="&st20; &st13;">BR</tspan></text>
<text transform="matrix(0 -1 1 0 402.9136 348.2466)" style="&st6;"><tspan x="0" y="0" style="&st20; &st13;">G</tspan></text>
<text transform="matrix(0 -1 1 0 453.9038 353.1968)" style="&st6;"><tspan x="0" y="0" style="&st20; &st13;">W-B</tspan></text>
<text transform="matrix(0 -1 1 0 453.9038 642.147)" style="&st6;"><tspan x="0" y="0" style="&st20; &st13;">W-B</tspan></text>
<text transform="matrix(1 0 0 1 370.0835 33.0166)" style="&st6;"><tspan x="0" y="0" style="&st20; &st13;">* 2 :2TR-FE</tspan></text>
<text transform="matrix(1 0 0 1 370.0835 24.5166)" style="&st6;"><tspan x="0" y="0" style="&st20; &st13;">* 1 :5L-E</tspan></text>
<text transform="matrix(1 0 0 1 353.0933 266.4468)" style="&st6;"><tspan x="0" y="0" style="&st20; &st13;">(*8 *2,*9 *7)</tspan></text>
<text transform="matrix(1 0 0 1 353.0933 257.3765)" style="&st6;"><tspan x="0" y="0" style="&st20; &st13;">(*1)</tspan></text>
<text transform="matrix(1 0 0 1 463.5737 318.0068)" style="&st6;"><tspan x="0" y="0" style="&st20; &st13;">(*1)</tspan></text>
<text transform="matrix(1 0 0 1 463.5737 327.0664)" style="&st6;"><tspan x="0" y="0" style="&st20; &st13;">(*8 *2,*9 *7)</tspan></text>
<text transform="matrix(0 -1 1 0 343.4233 170.3765)" style="&st6;"><tspan x="0" y="0" style="&st20; &st13;">W</tspan></text>
<text transform="matrix(0 -1 1 0 258.4331 590.0356)" style="&st6;"><tspan x="0" y="0" style="&st20; &st13;">B</tspan></text>
<text transform="matrix(0 -1 1 0 207.4429 590.1763)" style="&st6;"><tspan x="0" y="0" style="&st20; &st13;">R</tspan></text>
<text transform="matrix(0 -1 1 0 258.4331 483.8071)" style="&st6;"><tspan x="0" y="0" style="&st20; &st13;">B</tspan></text>
<text transform="matrix(0 -1 1 0 269.7632 491.2173)" style="&st6;"><tspan x="0" y="0" style="&st20; &st13;">(RHD)</tspan></text>
<text transform="matrix(0 -1 1 0 207.4429 483.9458)" style="&st6;"><tspan x="0" y="0" style="&st20; &st13;">R</tspan></text>
<text transform="matrix(0 -1 1 0 218.7729 490.7271)" style="&st6;"><tspan x="0" y="0" style="&st20; &st13;">(LHD)</tspan></text>
<text transform="matrix(0 -1 1 0 402.9136 441.7368)" style="&st6;"><tspan x="0" y="0" style="&st20; &st13;">G</tspan></text>
<text transform="matrix(0 -1 1 0 402.9136 540.1665)" style="&st6;"><tspan x="0" y="0" style="&st20; &st13;">W-B</tspan></text>
<text transform="matrix(1 0 0 1 259.603 156.5264)" style="&st6;"><tspan x="0" y="0" style="&st20; &st13;">(*1)</tspan></text>
<text transform="matrix(1 0 0 1 259.603 165.5967)" style="&st6;"><tspan x="0" y="0" style="&st20; &st13;">(*2)</tspan></text>
<text transform="matrix(0 -1 1 0 218.7729 601.9771)" style="&st6;"><tspan x="0" y="0" style="&st20; &st13;">(*4 LHD)</tspan></text>
<text transform="matrix(0 -1 1 0 269.7632 597.4575)" style="&st6;"><tspan x="0" y="0" style="&st20; &st13;">(RHD)</tspan></text>
<text transform="matrix(1 0 0 1 38.6431 233.5864)" style="&st6;"><tspan x="0" y="0" style="&st20; &st13;">(*4)</tspan></text>
<text transform="matrix(1 0 0 1 38.6431 224.5166)" style="&st6;"><tspan x="0" y="0" style="&st20; &st13;">(*3)</tspan></text>
<text transform="matrix(1 0 0 1 38.6431 198.4565)" style="&st6;"><tspan x="0" y="0" style="&st20; &st13;">(*4)</tspan></text>
<text transform="matrix(1 0 0 1 38.6431 189.3867)" style="&st6;"><tspan x="0" y="0" style="&st20; &st13;">(*3)</tspan></text>
<text transform="matrix(1 0 0 1 353.0933 225.0864)" style="&st6;"><tspan x="0" y="0" style="&st20; &st13;">(*4)</tspan></text>
<text transform="matrix(1 0 0 1 353.0933 216.0166)" style="&st6;"><tspan x="0" y="0" style="&st20; &st13;">(*3)</tspan></text>
<text transform="matrix(1 0 0 1 353.0933 189.9565)" style="&st6;"><tspan x="0" y="0" style="&st20; &st13;">(*4)</tspan></text>
<text transform="matrix(1 0 0 1 353.0933 180.8965)" style="&st6;"><tspan x="0" y="0" style="&st20; &st13;">(*3)</tspan></text>
<text transform="matrix(1 0 0 1 43.2329 160.2666)" style="&st6;"><tspan x="0" y="0" style="&st20; &st13;">(*11)</tspan></text>
<text transform="matrix(1 0 0 1 43.2329 151.1968)" style="&st6;"><tspan x="0" y="0" style="&st20; &st13;">(*10)</tspan></text>
</svg>
