﻿<?xml version="1.0" encoding="UTF-8"?>
<!DOCTYPE svg PUBLIC "-//W3C//DTD SVG 1.0//EN" "http://www.w3.org/TR/2001/REC-SVG-20010904/DTD/svg10.dtd"[
<!ENTITY ns_flows "http://ns.adobe.com/Flows/1.0/">
<!ENTITY ns_svg "http://www.w3.org/2000/svg">
<!ENTITY ns_xlink "http://www.w3.org/1999/xlink">
	<!ENTITY st0 "fill:none;stroke:#FB0F0C;stroke-width:5.1;stroke-linejoin:round;">
	<!ENTITY st1 "fill:none;stroke:#9A9999;stroke-width:5.1;stroke-linejoin:round;">
		<!ENTITY st2 "fill:none;stroke:#000000;stroke-width:0.85;stroke-linecap:round;stroke-linejoin:round;stroke-dasharray:3 1.5;enable-background:new    ;">
	<!ENTITY st3 "fill:none;stroke:#9A9999;stroke-width:5.1;">
	<!ENTITY st4 "fill:none;stroke:#000000;stroke-width:5.1;stroke-linejoin:round;">
	<!ENTITY st5 "fill:none;stroke:#000000;stroke-linecap:round;stroke-linejoin:round;">
	<!ENTITY st6 "stroke:#000000;stroke-width:0.28;stroke-linecap:round;stroke-linejoin:round;enable-background:new    ;">
	<!ENTITY st7 "enable-background:new    ;">
	<!ENTITY st8 "fill:none;stroke:#000000;stroke-width:1.3;">
		<!ENTITY st9 "fill:none;stroke:#000000;stroke-width:1.42;stroke-linecap:round;stroke-linejoin:round;enable-background:new    ;">
	<!ENTITY st10 "fill:none;stroke:#EE67AA;stroke-width:5.1;stroke-linejoin:round;">
	<!ENTITY st11 "fill:none;stroke:#FFFFFF;stroke-width:4;">
	<!ENTITY st12 "fill:none;stroke:#199DBF;stroke-width:5.1;stroke-linejoin:round;">
	<!ENTITY st13 "opacity:0.5;fill:none;stroke:#34ACCE;stroke-linejoin:round;stroke-dasharray:6;">
	<!ENTITY st14 "fill:none;stroke:#FFFFFF;stroke-width:4.53;stroke-linejoin:round;">
		<!ENTITY st15 "fill:none;stroke:#000000;stroke-width:0.85;stroke-linecap:round;stroke-linejoin:round;enable-background:new    ;">
	<!ENTITY st16 "fill:none;stroke:#56107C;stroke-width:5.1;stroke-linejoin:round;">
	<!ENTITY st17 "font-size:6px;">
	<!ENTITY st18 "fill:none;stroke:#FFFFFF;stroke-width:2.27;stroke-linejoin:round;">
	<!ENTITY st19 "fill:none;stroke:#168638;stroke-width:5.1;stroke-linejoin:round;">
	<!ENTITY st20 "fill:none;stroke:#000000;stroke-width:1.13;stroke-linejoin:round;">
		<!ENTITY st21 "fill:none;stroke:#000000;stroke-width:1.13;stroke-linecap:round;stroke-linejoin:round;stroke-dasharray:3 1.5;enable-background:new    ;">
	<!ENTITY st22 "fill:#FFFFFF;stroke:#000000;stroke-width:1.41;stroke-linecap:round;stroke-linejoin:round;">
	<!ENTITY st23 "fill:none;stroke:#3E65AC;stroke-width:3;">
	<!ENTITY st24 "fill:#CCCCCC;stroke:#CCCCCC;stroke-width:0.1;stroke-linecap:round;stroke-linejoin:round;">
	<!ENTITY st25 "fill:none;stroke:#000000;stroke-width:5;">
	<!ENTITY st26 "font-family:'ArialMT';">
	<!ENTITY st27 "opacity:0.5;fill:none;stroke:#34ACCE;stroke-linejoin:round;">
	<!ENTITY st28 "fill:#CFE6E7;stroke:#000000;stroke-width:1.133;stroke-linecap:round;stroke-linejoin:round;">
	<!ENTITY st29 "fill:none;stroke:#99D5E0;stroke-width:5.1;stroke-linejoin:round;">
	<!ENTITY st30 "fill:none;stroke:#7EC57E;stroke-width:5.1;stroke-linejoin:round;">
<!ATTLIST svg
xmlns:ewd CDATA #FIXED "http://shcl.co.jp/ewd"
xmlns:a CDATA #FIXED "http://ns.adobe.com/AdobeSVGViewerExtensions/3.0/"
ewd:ver CDATA #IMPLIED
>
<!ATTLIST a
ewd:lineID CDATA #IMPLIED
ewd:groupID CDATA #IMPLIED
ewd:figtype CDATA #IMPLIED
ewd:code CDATA #IMPLIED
ewd:figID CDATA #IMPLIED
ewd:pinNo CDATA #IMPLIED
ewd:comment CDATA #IMPLIED >
<!ATTLIST g
ewd:lineID CDATA #IMPLIED
ewd:groupID CDATA #IMPLIED
ewd:figtype CDATA #IMPLIED
ewd:code CDATA #IMPLIED
ewd:figID CDATA #IMPLIED
ewd:pinNo CDATA #IMPLIED
ewd:comment CDATA #IMPLIED >
<!ATTLIST text
ewd:textID CDATA #IMPLIED >
<!ATTLIST title
ewd:textID CDATA #IMPLIED >
]>
<svg 
viewBox='0 0 8815.97 729.44'
height='729.44'
width='8815.97'
xml:space="preserve"
xmlns="&ns_svg;"
xmlns:ewd="http://shcl.co.jp/ewd"
xmlns:xlink="&ns_xlink;" ewd:ver="L2.1">
<g ewd:code="WG1" ewd:figID="616" ewd:figtype="w2w" ewd:pinNo="13">
<path style="&st9;" d="M2902.44,184.03h8.5"/>
<path style="&st9;" d="M2906.69,174.96l4.25,4.25l4.25-4.25"/>
<path style="&st9;" d="M2915.19,178.36l-4.25,4.25l-4.25-4.25"/>
<text transform="matrix(1 0 0 1 2892.769 190.2354)" style="&st7;"><tspan x="0" y="0" style="&st26; &st17;">13</tspan></text>
</g>
<g ewd:code="WG1" ewd:figID="615" ewd:figtype="w2w" ewd:pinNo="15">
<path style="&st9;" d="M2817.46,184.03h8.5"/>
<path style="&st9;" d="M2821.71,174.96l4.25,4.25l4.25-4.25"/>
<path style="&st9;" d="M2830.21,178.36l-4.25,4.25l-4.25-4.25"/>
<text transform="matrix(1 0 0 1 2807.7896 190.2354)" style="&st7;"><tspan x="0" y="0" style="&st26; &st17;">15</tspan></text>
</g>
<g ewd:code="WG1" ewd:figID="647" ewd:figtype="w2w" ewd:pinNo="12">
<path style="&st9;" d="M2919.44,464.48h-8.5"/>
<path style="&st9;" d="M2915.19,470.14l-4.25-4.25l-4.25,4.25"/>
<path style="&st9;" d="M2915.19,473.54l-4.25-4.25l-4.25,4.25"/>
<text transform="matrix(1 0 0 1 2892.769 462.1958)" style="&st7;"><tspan x="0" y="0" style="&st26; &st17;">12</tspan></text>
</g>
<g ewd:code="WG1" ewd:figID="646" ewd:figtype="w2w" ewd:pinNo="25">
<path style="&st9;" d="M2876.95,489.97h-8.5"/>
<path style="&st9;" d="M2872.7,499.04l-4.25-4.25l-4.25,4.25"/>
<path style="&st9;" d="M2872.7,495.64l-4.25-4.25l-4.25,4.25"/>
<text transform="matrix(1 0 0 1 2850.2788 487.686)" style="&st7;"><tspan x="0" y="0" style="&st26; &st17;">25</tspan></text>
</g>
<g ewd:code="269010" ewd:figID="510" ewd:figtype="sp">
<path style="&st9;" d="M2876.95,426.96l-4.97-4.97"/>
<path style="&st9;" d="M2859.95,434.01l4.97,4.97"/>
<path style="&st9;" d="M2871.98,438.98l4.97-4.97"/>
<path style="&st9;" d="M2864.92,421.99l-4.97,4.97"/>
</g>
<g ewd:code="2" ewd:figID="307" ewd:figtype="jb">
<path style="&st9;" d="M2828.08,107.54h-4.25"/>
<path style="&st9;" d="M2828.08,116.04h-4.25"/>
<path style="&st9;" d="M2862.08,116.04h-4.25"/>
<path style="&st9;" d="M2862.08,107.54h-4.25"/>
<path style="&st15;" d="M2824.76,89.54l-0.27,0.47l-0.09,0.53l0.09,0.53l0.27,0.47l0.42,0.35l0.5,0.19h0.55l0.5-0.19l0.42-0.35l0.27-0.47l0.09-0.53l-0.09-0.53l-0.27-0.47l-0.42-0.35l-0.5-0.18h-0.55l-0.5,0.18L2824.76,89.54l0.4,0.71v0.58l0.37,0.45l0.57,0.1l0.51-0.29l0.2-0.55l-0.2-0.55l-0.51-0.28l-0.57,0.09l0.43,0.74"/>
<path style="&st6;" d="M2859.95,102.64l-2.83-2.83v4.25l2.83,2.83l2.83-2.83v-4.25L2859.95,102.64"/>
<path style="&st6;" d="M2825.96,102.64l-2.84-2.83v4.25l2.84,2.83l2.83-2.83v-4.25L2825.96,102.64"/>
<path style="&st15;" d="M2825.96,107.54v-25.5"/>
<path style="&st15;" d="M2825.96,90.54h33.99v17"/>
<path style="&st9;" d="M2823.83,107.54c-2.34,0-4.25,1.9-4.25,4.25"/>
<path style="&st9;" d="M2819.58,111.79c0,2.34,1.91,4.25,4.25,4.25"/>
<path style="&st9;" d="M2828.08,116.04c2.35,0,4.25-1.91,4.25-4.25"/>
<path style="&st9;" d="M2832.33,111.79c0-2.35-1.9-4.25-4.25-4.25"/>
<path style="&st9;" d="M2866.33,111.79c0-2.35-1.91-4.25-4.25-4.25"/>
<path style="&st9;" d="M2862.08,116.04c2.34,0,4.25-1.91,4.25-4.25"/>
<path style="&st9;" d="M2853.58,111.79c0,2.34,1.9,4.25,4.25,4.25"/>
<path style="&st9;" d="M2857.83,107.54c-2.35,0-4.25,1.9-4.25,4.25"/>
<text transform="matrix(1 0 0 1 2843.313 113.7559)" style="&st7;"><tspan x="0" y="0" style="&st26; &st17;">33</tspan></text>
<text transform="matrix(1 0 0 1 2855.5034 113.7559)" style="&st7;"><tspan x="0" y="0" style="&st26; &st17;">2D</tspan></text>
<text transform="matrix(1 0 0 1 2821.5132 113.7559)" style="&st7;"><tspan x="0" y="0" style="&st26; &st17;">2D</tspan></text>
<text transform="matrix(1 0 0 1 2810.0933 113.7559)" style="&st7;"><tspan x="0" y="0" style="&st26; &st17;">18</tspan></text>
<text transform="matrix(1 0 0 1 2819.9526 90.2354)" style="&st7;"><tspan x="0" y="0" style="&st26; &st17;">1</tspan></text>
</g>
<g ewd:code="G5" ewd:figID="210" ewd:figtype="gp">
<path style="&st15;" d="M2936.44,701.02v4.25"/>
<path style="&st15;" d="M2927.94,705.27h17"/>
<path style="&st15;" d="M2932.19,708.1h8.5"/>
<path style="&st15;" d="M2933.6,710.94h5.67"/>
<path style="&st15;" d="M2935.02,713.77h2.83"/>
</g>
<g ewd:code="G3" ewd:figID="209" ewd:figtype="gp">
<path style="&st15;" d="M2783.46,701.02v4.25"/>
<path style="&st15;" d="M2774.96,705.27h17"/>
<path style="&st15;" d="M2779.21,708.1h8.5"/>
<path style="&st15;" d="M2780.63,710.94h5.67"/>
<path style="&st15;" d="M2782.05,713.77h2.83"/>
</g>
<g ewd:code="G106" ewd:figID="57" ewd:figtype="conn">
<path style="&st9;" d="M2927.94,659.95v16.99h17v-16.99H2927.94"/>
<path style="&st15;" d="M2936.44,659.95v25.49"/>
<text transform="matrix(1 0 0 1 2929.6528 656.2563)" style="&st7;"><tspan x="0" y="0" style="&st26; &st17;">4</tspan></text>
<text ewd:textID="49" transform="matrix(1 0 0 1 2948.0835 668.9966)" style="&st7; &st26; &st17;">Junction Connector</text>
<text transform="matrix(1 0 0 1 2948.0835 661.8853)" style="&st7;"><tspan x="0" y="0" style="&st26; &st17;">G106</tspan></text>
</g>
<g ewd:code="G104" ewd:figID="55" ewd:figtype="conn">
<path style="&st9;" d="M2774.96,659.95v16.99h17v-16.99H2774.96"/>
<path style="&st15;" d="M2783.46,659.95v25.49"/>
<text transform="matrix(1 0 0 1 2776.6831 656.2563)" style="&st7;"><tspan x="0" y="0" style="&st26; &st17;">4</tspan></text>
<text ewd:textID="49" transform="matrix(1 0 0 1 2795.103 668.9966)" style="&st7; &st26; &st17;">Junction Connector</text>
<text transform="matrix(1 0 0 1 2795.103 661.8853)" style="&st7;"><tspan x="0" y="0" style="&st26; &st17;">G104</tspan></text>
</g>
<g ewd:code="G79,G140" ewd:figID="54" ewd:figtype="conn">
<path style="&st9;" d="M2774.96,557.96h17v17h-17V557.96"/>
<path style="&st15;" d="M2783.46,557.96v17"/>
<path style="&st9;" d="M2788,588.56c0-2.51-2.03-4.53-4.54-4.53"/>
<path style="&st9;" d="M2783.46,584.03c-2.5,0-4.53,2.02-4.53,4.53"/>
<path style="&st9;" d="M2778.93,588.56c0,2.5,2.03,4.53,4.53,4.53"/>
<path style="&st9;" d="M2783.46,593.09c2.51,0,4.54-2.03,4.54-4.53"/>
<path style="&st9;" d="M2788,544.36c0-2.5-2.03-4.53-4.54-4.53"/>
<path style="&st9;" d="M2783.46,539.82c-2.5,0-4.53,2.03-4.53,4.53"/>
<path style="&st9;" d="M2778.93,544.36c0,2.51,2.03,4.54,4.53,4.54"/>
<path style="&st9;" d="M2783.46,548.9c2.51,0,4.54-2.03,4.54-4.54"/>
<path style="&st9;" d="M2788,553.43c0-2.5-2.03-4.53-4.54-4.53"/>
<path style="&st9;" d="M2783.46,548.9c-2.5,0-4.53,2.03-4.53,4.53"/>
<path style="&st9;" d="M2778.93,553.43c0,2.5,2.03,4.53,4.53,4.53"/>
<path style="&st9;" d="M2783.46,557.96c2.51,0,4.54-2.03,4.54-4.53"/>
<path style="&st9;" d="M2788,579.48c0-2.5-2.03-4.53-4.54-4.53"/>
<path style="&st9;" d="M2783.46,574.96c-2.5,0-4.53,2.03-4.53,4.53"/>
<path style="&st9;" d="M2778.93,579.48c0,2.51,2.03,4.54,4.53,4.54"/>
<path style="&st9;" d="M2783.46,584.03c2.51,0,4.54-2.03,4.54-4.54"/>
<text transform="matrix(1 0 0 1 2772.5933 555.395)" style="&st7;"><tspan x="0" y="0" style="&st26; &st17;">9</tspan></text>
<text transform="matrix(1 0 0 1 2780.9937 555.395)" style="&st7;"><tspan x="0" y="0" style="&st26; &st17;">C</tspan></text>
<text transform="matrix(1 0 0 1 2772.5933 546.3247)" style="&st7;"><tspan x="0" y="0" style="&st26; &st17;">9</tspan></text>
<text transform="matrix(1 0 0 1 2781.1333 546.3247)" style="&st7;"><tspan x="0" y="0" style="&st26; &st17;">A</tspan></text>
<text transform="matrix(1 0 0 1 2772.5933 590.5259)" style="&st7;"><tspan x="0" y="0" style="&st26; &st17;">7</tspan></text>
<text transform="matrix(1 0 0 1 2780.9937 590.5259)" style="&st7;"><tspan x="0" y="0" style="&st26; &st17;">C</tspan></text>
<text transform="matrix(1 0 0 1 2772.5933 581.4556)" style="&st7;"><tspan x="0" y="0" style="&st26; &st17;">7</tspan></text>
<text transform="matrix(1 0 0 1 2781.1333 581.4556)" style="&st7;"><tspan x="0" y="0" style="&st26; &st17;">A</tspan></text>
<text ewd:textID="49" transform="matrix(1 0 0 1 2795.103 571.2563)" style="&st7; &st26; &st17;">Junction Connector</text>
<text transform="matrix(1 0 0 1 2795.103 564.1548)" style="&st7;"><tspan x="0" y="0" style="&st26; &st17;">G79(A),G140(C)</tspan></text>
</g>
<g ewd:code="G128-C,G129-D" ewd:figID="56" ewd:figtype="conn">
<path style="&st21;" d="M2893.94,557.96h51"/>
<path style="&st9;" d="M2893.94,549.46h51v34h-51V549.46"/>
<path style="&st15;" d="M2936.44,549.46v34"/>
<path style="&st21;" d="M2893.94,574.96h51"/>
<path style="&st15;" d="M2902.44,583.46v-34"/>
<path style="&st9;" d="M2940.97,587.98c0-2.5-2.03-4.53-4.53-4.53"/>
<path style="&st9;" d="M2936.44,583.46c-2.5,0-4.53,2.03-4.53,4.53"/>
<path style="&st9;" d="M2931.91,587.98c0,2.5,2.03,4.53,4.53,4.53"/>
<path style="&st9;" d="M2936.44,592.52c2.5,0,4.53-2.03,4.53-4.53"/>
<path style="&st9;" d="M2906.98,544.93c0-2.5-2.03-4.53-4.54-4.53"/>
<path style="&st9;" d="M2902.44,540.4c-2.5,0-4.53,2.03-4.53,4.53"/>
<path style="&st9;" d="M2897.91,544.93c0,2.5,2.03,4.53,4.53,4.53"/>
<path style="&st9;" d="M2902.44,549.46c2.51,0,4.54-2.03,4.54-4.53"/>
<path style="&st9;" d="M2906.98,587.98c0-2.5-2.03-4.53-4.54-4.53"/>
<path style="&st9;" d="M2902.44,583.46c-2.5,0-4.53,2.03-4.53,4.53"/>
<path style="&st9;" d="M2897.91,587.98c0,2.5,2.03,4.53,4.53,4.53"/>
<path style="&st9;" d="M2902.44,592.52c2.51,0,4.54-2.03,4.54-4.53"/>
<path style="&st9;" d="M2940.97,544.93c0-2.5-2.03-4.53-4.53-4.53"/>
<path style="&st9;" d="M2936.44,540.4c-2.5,0-4.53,2.03-4.53,4.53"/>
<path style="&st9;" d="M2931.91,544.93c0,2.5,2.03,4.53,4.53,4.53"/>
<path style="&st9;" d="M2936.44,549.46c2.5,0,4.53-2.03,4.53-4.53"/>
<text transform="matrix(1 0 0 1 2925.563 589.9556)" style="&st7;"><tspan x="0" y="0" style="&st26; &st17;">7</tspan></text>
<text transform="matrix(1 0 0 1 2933.9731 589.9556)" style="&st7;"><tspan x="0" y="0" style="&st26; &st17;">C</tspan></text>
<text ewd:textID="49" transform="matrix(0 -1 1 0 2959.6528 585.9751)" style="&st7; &st26; &st17;">Junction Connector</text>
<text transform="matrix(0 -1 1 0 2952.5532 585.9751)" style="&st7;"><tspan x="0" y="0" style="&st26; &st17;">G128(C),G129(D)</tspan></text>
<text transform="matrix(1 0 0 1 2891.5728 546.895)" style="&st7;"><tspan x="0" y="0" style="&st26; &st17;">9</tspan></text>
<text transform="matrix(1 0 0 1 2889.1733 589.9556)" style="&st7;"><tspan x="0" y="0" style="&st26; &st17;">11</tspan></text>
<text transform="matrix(1 0 0 1 2899.9731 589.9556)" style="&st7;"><tspan x="0" y="0" style="&st26; &st17;">C</tspan></text>
<text transform="matrix(1 0 0 1 2899.9731 546.895)" style="&st7;"><tspan x="0" y="0" style="&st26; &st17;">D</tspan></text>
<text transform="matrix(1 0 0 1 2933.9731 546.895)" style="&st7;"><tspan x="0" y="0" style="&st26; &st17;">D</tspan></text>
<text transform="matrix(1 0 0 1 2922.3833 546.895)" style="&st7;"><tspan x="0" y="0" style="&st26; &st17;">10</tspan></text>
</g>
<text transform="matrix(0 -1 1 0 2814.7632 412.686)" style="&st7;"><tspan x="0" y="0" style="&st26; &st17;">W-B</tspan></text>
<text transform="matrix(0 -1 1 0 2508.813 163.7559)" style="&st7;"><tspan x="0" y="0" style="&st26; &st17;">GR</tspan></text>
<text transform="matrix(0 -1 1 0 2508.813 214.7456)" style="&st7;"><tspan x="0" y="0" style="&st26; &st17;">GR</tspan></text>
<text transform="matrix(0 -1 1 0 2823.2632 161.2754)" style="&st7;"><tspan x="0" y="0" style="&st26; &st17;">G</tspan></text>
<text transform="matrix(0 -1 1 0 2823.2632 212.2754)" style="&st7;"><tspan x="0" y="0" style="&st26; &st17;">G</tspan></text>
<text transform="matrix(0 -1 1 0 2865.7632 412.686)" style="&st7;"><tspan x="0" y="0" style="&st26; &st17;">W-B</tspan></text>
<text transform="matrix(0 -1 1 0 2908.2534 432.8052)" style="&st7;"><tspan x="0" y="0" style="&st26; &st17;">V</tspan></text>
<text transform="matrix(0 -1 1 0 2945.0835 622.9458)" style="&st7;"><tspan x="0" y="0" style="&st26; &st17;">(RHD)</tspan></text>
<text transform="matrix(1 0 0 1 2817.7026 514.606)" style="&st7;"><tspan x="0" y="0" style="&st26; &st17;">(LHD)</tspan></text>
<text transform="matrix(0 -1 1 0 2865.7632 463.6763)" style="&st7;"><tspan x="0" y="0" style="&st26; &st17;">W-B</tspan></text>
<text transform="matrix(1 0 0 1 2935.1128 494.7759)" style="&st7;"><tspan x="0" y="0" style="&st26; &st17;">V</tspan></text>
<text transform="matrix(0 -1 1 0 2908.2534 169.4956)" style="&st7;"><tspan x="0" y="0" style="&st26; &st17;">R</tspan></text>
<text transform="matrix(0 -1 1 0 2908.2534 211.9854)" style="&st7;"><tspan x="0" y="0" style="&st26; &st17;">R</tspan></text>
<text transform="matrix(0 -1 1 0 2520.1528 166.6855)" style="&st7;"><tspan x="0" y="0" style="&st26; &st17;">(*22)</tspan></text>
<text transform="matrix(0 -1 1 0 2520.1528 217.6758)" style="&st7;"><tspan x="0" y="0" style="&st26; &st17;">(*22)</tspan></text>
<text transform="matrix(1 0 0 1 2912.7437 520.2661)" style="&st7;"><tspan x="0" y="0" style="&st26; &st17;">W-B</tspan></text>
<text transform="matrix(0 -1 1 0 2865.7632 565.6548)" style="&st7;"><tspan x="0" y="0" style="&st26; &st17;">W-B</tspan></text>
<text transform="matrix(1 0 0 1 2819.2632 503.2661)" style="&st7;"><tspan x="0" y="0" style="&st26; &st17;">W-B</tspan></text>
<text transform="matrix(0 -1 1 0 2877.0933 567.7056)" style="&st7;"><tspan x="0" y="0" style="&st26; &st17;">(RHD)</tspan></text>
<text transform="matrix(1 0 0 1 2910.6929 531.5962)" style="&st7;"><tspan x="0" y="0" style="&st26; &st17;">(RHD)</tspan></text>
<text transform="matrix(0 -1 1 0 2933.7437 620.895)" style="&st7;"><tspan x="0" y="0" style="&st26; &st17;">W-B</tspan></text>
<text transform="matrix(0 -1 1 0 2780.7729 625.145)" style="&st7;"><tspan x="0" y="0" style="&st26; &st17;">W-B</tspan></text>
<text transform="matrix(0 -1 1 0 2792.103 626.7056)" style="&st7;"><tspan x="0" y="0" style="&st26; &st17;">(LHD)</tspan></text>
<text transform="matrix(1 0 0 1 2790.4429 555.395)" style="&st7;"><tspan x="0" y="0" style="&st26; &st17;">(*26)</tspan></text>
<text transform="matrix(1 0 0 1 2790.4429 546.3247)" style="&st7;"><tspan x="0" y="0" style="&st26; &st17;">(*25)</tspan></text>
<text transform="matrix(1 0 0 1 2790.4429 590.5259)" style="&st7;"><tspan x="0" y="0" style="&st26; &st17;">(*26)</tspan></text>
<text transform="matrix(1 0 0 1 2790.4429 581.4556)" style="&st7;"><tspan x="0" y="0" style="&st26; &st17;">(*25)</tspan></text>
</svg>
