﻿<?xml version="1.0" encoding="UTF-8"?>
<!DOCTYPE svg PUBLIC "-//W3C//DTD SVG 1.0//EN" "http://www.w3.org/TR/2001/REC-SVG-20010904/DTD/svg10.dtd"[
<!ENTITY ns_flows "http://ns.adobe.com/Flows/1.0/">
<!ENTITY ns_svg "http://www.w3.org/2000/svg">
<!ENTITY ns_xlink "http://www.w3.org/1999/xlink">
	<!ENTITY st0 "fill:none;stroke:#F8E616;stroke-width:5.1;stroke-linejoin:round;">
	<!ENTITY st1 "fill:none;stroke:#FB0F0C;stroke-width:5.1;stroke-linejoin:round;">
	<!ENTITY st2 "fill:none;stroke:#9A9999;stroke-width:5.1;stroke-linejoin:round;">
	<!ENTITY st3 "fill:none;stroke:#99280B;stroke-width:5.1;stroke-linejoin:round;">
		<!ENTITY st4 "fill:none;stroke:#000000;stroke-width:0.85;stroke-linecap:round;stroke-linejoin:round;stroke-dasharray:3 1.5;enable-background:new    ;">
	<!ENTITY st5 "fill:none;stroke:#000000;stroke-width:5.1;stroke-linejoin:round;">
	<!ENTITY st6 "fill:none;stroke:#000000;stroke-linecap:round;stroke-linejoin:round;">
	<!ENTITY st7 "stroke:#000000;stroke-width:0.28;stroke-linecap:round;stroke-linejoin:round;enable-background:new    ;">
	<!ENTITY st8 "enable-background:new    ;">
		<!ENTITY st9 "fill:none;stroke:#000000;stroke-width:1.42;stroke-linecap:round;stroke-linejoin:round;enable-background:new    ;">
	<!ENTITY st10 "fill:none;stroke:#EE67AA;stroke-width:5.1;stroke-linejoin:round;">
	<!ENTITY st11 "fill:none;stroke:#199DBF;stroke-width:5.1;stroke-linejoin:round;">
	<!ENTITY st12 "opacity:0.5;fill:none;stroke:#34ACCE;stroke-linejoin:round;stroke-dasharray:6;">
	<!ENTITY st13 "fill:none;stroke:#FFFFFF;stroke-width:4.53;stroke-linejoin:round;">
		<!ENTITY st14 "fill:none;stroke:#000000;stroke-width:0.85;stroke-linecap:round;stroke-linejoin:round;enable-background:new    ;">
	<!ENTITY st15 "fill:none;stroke:#56107C;stroke-width:5.1;stroke-linejoin:round;">
	<!ENTITY st16 "font-size:6px;">
	<!ENTITY st17 "fill:none;stroke:#168638;stroke-width:5.1;stroke-linejoin:round;">
	<!ENTITY st18 "fill:none;stroke:#000000;stroke-width:1.13;stroke-linejoin:round;">
		<!ENTITY st19 "fill:none;stroke:#000000;stroke-width:1.13;stroke-linecap:round;stroke-linejoin:round;stroke-dasharray:3 1.5;enable-background:new    ;">
	<!ENTITY st20 "fill:#FFFFFF;stroke:#000000;stroke-width:1.41;stroke-linecap:round;stroke-linejoin:round;">
	<!ENTITY st21 "fill:none;stroke:#3E65AC;stroke-width:3;">
	<!ENTITY st22 "fill:#CCCCCC;stroke:#CCCCCC;stroke-width:0.1;stroke-linecap:round;stroke-linejoin:round;">
	<!ENTITY st23 "font-family:'ArialMT';">
	<!ENTITY st24 "opacity:0.5;fill:none;stroke:#34ACCE;stroke-linejoin:round;">
	<!ENTITY st25 "fill:#CFE6E7;stroke:#000000;stroke-width:1.133;stroke-linecap:round;stroke-linejoin:round;">
	<!ENTITY st26 "fill:none;stroke:#7EC57E;stroke-width:5.1;stroke-linejoin:round;">
<!ATTLIST svg
xmlns:ewd CDATA #FIXED "http://shcl.co.jp/ewd"
xmlns:a CDATA #FIXED "http://ns.adobe.com/AdobeSVGViewerExtensions/3.0/"
ewd:ver CDATA #IMPLIED
>
<!ATTLIST a
ewd:lineID CDATA #IMPLIED
ewd:groupID CDATA #IMPLIED
ewd:figtype CDATA #IMPLIED
ewd:code CDATA #IMPLIED
ewd:figID CDATA #IMPLIED
ewd:pinNo CDATA #IMPLIED
ewd:comment CDATA #IMPLIED >
<!ATTLIST g
ewd:lineID CDATA #IMPLIED
ewd:groupID CDATA #IMPLIED
ewd:figtype CDATA #IMPLIED
ewd:code CDATA #IMPLIED
ewd:figID CDATA #IMPLIED
ewd:pinNo CDATA #IMPLIED
ewd:comment CDATA #IMPLIED >
<!ATTLIST text
ewd:textID CDATA #IMPLIED >
<!ATTLIST title
ewd:textID CDATA #IMPLIED >
]>
<svg onload="call_execInitLoadProc_svg('system')"
style='overflow:visible;enable-background:new 0 0 3113.46 729.44'
viewBox='0 0 3113.46 729.44'
height='729.44'
width='3113.46'
xml:space="preserve"
xmlns="&ns_svg;"
xmlns:ewd="http://shcl.co.jp/ewd"
xmlns:a="http://ns.adobe.com/AdobeSVGViewerExtensions/3.0/"
xmlns:xlink="&ns_xlink;" ewd:ver="L2.1">
<style type="text/css">
	<![CDATA[
@font-face{font-family:'ArialMT';src:url("data:;base64,\
T1RUTwADACAAAQAQQ0ZGIOv3n64AAAA8AAAa2UdQT1OgP7GcAAAbfAAAAhJjbWFwAgYCRwAAGxgA\
AABkAQAEAgABAQEIQXJpYWxNVAABAQE3+BsB+BgEHPqv/S0cEAAcCAwFHqAASIKBJf+Lix6gAEiC\
gSX/i4sMB/dKD/djEPdlEZMcGtESAAEBAWVBcmlhbChSKSBUcmFkZW1hcmsgb2YgVGhlIE1vbm90\
eXBlIENvcnBvcmF0aW9uIHBsYyByZWdpc3RlcmVkIGluIHRoZSBVUyBQYXQgJiBUTSBPZmYuIGFu\
ZCBlbHNld2hlcmUuAAABAAEAAAkSACIWADoAAEIIAEwFAFMFAFoBAAAARAIAAQAbAB4AcQDHASEB\
QAFpAXcBhAGYAi4CWALiA6EDywRQBRgFXgY+BxAHKwdpCCAIxwlJCWYJgAo8CloKaQq/CuwK/Qs9\
C2MMFwx4DVIN3g7EDtwPQQ9uD9MQBBDqEWcR6hJtEvsTRRQCFFEUbhScFKsVOBWPFhAWmhbaF60Y\
BxhkGJAY2hlEGXTK95QWHAUA+pQc+wAH/nSrFfpUHATA/lQGDv4cDv2r+HP8QxUo9xE39ydG9zwI\
Rvc8afdC90ga9zOl9yy+9yUex/c96Pc89xH3Owj3FQY6+x9WKHFQYi9rK3QnCG77EX37EfsSGvvV\
7/vU91v71B4O/av3kfxDFfsVBvdb99Tv99T31Rr3EX33EW73Dx5072zrYudxx1XvOvcgCPcVBvcR\
+zvo+zzH+z0Ivvslpfss+zMa+0hp+0JG+zweRvs8N/snKPsRCA79OMscBK0Vufci9WbYartwGX73\
DYXeirgI9yUGiUmDOH4o0K7Zq+SoufsiGDZvOHg6grRoxEzVMPsMNhhkwF7SVuZaLV9DZlr7CuAY\
2OrDyqyqNZw5nT6gCA77qfiV94EV+Cb8I/c8+CP4I/c+/CP4I/s8/CP8JgcO/hz3Shb3Yfdh+2EH\
QH5OcF0ecFxhZ1FyWdgYsZyno52snauVuY3ICA79q8z4TBX3Sfi9+0kHDv4c904W92H3YfthBw7+\
HHIE+D0cBewF9yQG/Dwc+hQFDuD5ZxX3QZ33IK/1Hq70wN3SxAjE0eOo9hva0Htsxh/Ga7xdslCy\
T6lCoTYIoTWW+wj7JRr7QHn7H2giHmghVjlFUghRRDJuIBv7IfsDvvA6Hyr3Dlv3W/enGvdNFvuF\
p/s0xDweO8PQY94b3tCz28Qfw9un9zT3hBr3hW/3NVPaHtpSRbM3GzhJaEVaH00ybPs5+4UaDvmP\
FvtIHAR7BmBiUmFFYkRiTGxTdgj3QgfwuuPF1s7WzsHNqsoI9wgGDvqb90EV+0H+XQeKtpK1mrOk\
zbLMwsvBy9nV8t/3M/cX9wDyw9gIw9en088a0nLIWLwevFhIozkbNEZxV1cfV1dxQ4ov+02eGJj3\
Hrr03tQI0973A6/3Hxv3IfcDZD3dH909tCr7BxpQf1JzUh5zUmNQVExTTC41+xX7AfsAMEZObGts\
anJrd2oIDuH4FxX3SKOgJa5CvV4ZXrzIdNIb4NKoxsYfxcao0+Ia3nDPVcEewFVGpjgbaWGEflgf\
n/cyBYqXlYqSG9jQn7PIH8izqsneGs11wl62HrZeUqFEG0VRdV9cH1xfbUl+M/tIqxih9w296NnO\
CM3Z7Kz3CBvb1Xppzh/OaL9cr1AIrlCdTEgaTHpRaVceaVdZYkhs4nfOYrtMCLtMozwsGvsUXPsA\
LjIeMi77Cl77Ixv7FSGx2DYfNtha7n/3DggO+SoW9/P9EPc5B/kx+koF9yf+Svda+zn7WvvzBvtI\
+JgV+SkH/F/9KQUO4PgUFfdRm5kvrEa+XRlcvsh00xvi1KzMxx/HzKni9wAa8m7cUsYexlE/qS4b\
UVd+cVwfXHBnaXBh+z2hGPci+YUF+W37QPzdBjz8HgXI4+eq7Bv3FPcAXzLjH+Myt/sG+x8a+xlk\
+wY+Kh77Cy37FFD7Nxv7GfsBsNY3HzbWW+5/9w8IDvqP+ucV+0d9e9J0vm6rGb5aT6VEG1JYe2tg\
H1JiX05qPGo8evsFivsnts3AvMqrCKvKzJvQG/cM8V8z4B/fMrX7BvsgGi93NmQ8HmM8VE5GYQhh\
Rjx2Mxv7KvsOwvcDLB8s9wJc90r3kRr3r7/3YvT3FR73BOb3D8P3Lxv3B+prStUf1Eq3Mpr7Bgj9\
c/0MFU2YUKZSHqVSsGC6bghtur18vxvXzKrIwh/CyKbf9BrwcNtVxh7FVUeoORs6Rm5RUh9SUG8/\
LBoO7BwE+hX3QfpJ+yAHLigu+xgw+zkv+zlE+z1Z+0Jn+w90+xqB+yYI+00GjfcHovcgtvc3tvc3\
yvcy3Pcs3Pcr4fcU5vMIDvf++a8VQKZUsme+CGe+ecfSGvax5NjUHtTY8a/3Exv3FPJmQdkf2UCy\
MSAaR3lQaFkeZ1hVZEJw5W7QW7pKCLpKoj0wGvsRXyEyNh42MvsIYPslG/sl+wi24TIfMuBf9vcU\
Guqj27zMHrvL0Lfkoghn98UVRqFSuF8eX7jFddIb0MSht7gft7ahwcoazXTDXrgeuF1SoUcbRlJ1\
X14fXl90Vk4aUf05FViXWaRbHqNbr2a7cQhwu79+whvh0qfCwx/DwqfS4BribtJSxB7EUUOnNBs2\
RW9TVB9TU29FNxoO9wT35xX3QZuaOqdQtGYZZrTAecwbwryYpLUftKStraa2prWhxJ3TCJ3TlNTW\
GpOLl4qbHmdSWlxNaAhnTEh5Qhv7DSS34zcfN+Nh9wj3JBr3Kbf3C+PmHubi9wK49xgb6uNxWNof\
2ljHQrQsCLQsn/se+0ga+093+yli+wMeYvsDTzY7UQhROi1u+wAb+wcuq8tCH0LKYOV89wcI+XX5\
GxXycN1UyB7IVEipPhs7RWpKUB9QSm02Ixoupz/EUR5Qw9Bu3hve0KjGwR/Axabc8hoO/hz3Tfnt\
Ffdh92H7YQf7Yf3tFfdh92H7YQcOIIgW+MccBboF92UG+Owc+kYF+3EG+z/4UAX8+Qb7NfxQBfdt\
+O4V+IUG+y34Klz3D2nxdNoZeC1xLmkuCA4g9yoWHAW6+LoH9wTlfG7PH85twF2yTgixTZ5KSBpM\
elBpVB5pVFheRmnkcc9fu0wIukyjQTYaRn1MblAeblBnXWBrYGtWc0t7CHpKPIMuG/wB+eYV99EG\
4cmRlrAfvJqxo6StCKStl7a+Grx/tnSwHnSwaaRgmQiYYECSIhv7uQb+9AT4AQbKt42QpB+4k7CY\
qZ6pnqSmnq8Inq6VtLoawn26b7Qeb7Nkp1qcCJtZQ5MuG/vnBg6RHAS0+JYV91ZaYvszQvsOIjgZ\
NyH7FWH7LRv7MvsUq8woHyjLP+hY9w4IV/cOcfcX9yAa9y2o9xnG9wYexfcF3uL3AMYIxvb3C6j3\
FRv3J/cPZkDvH+9A0SKy+xv7U14YafZa2Eq8CLxKOqMpG/sFLXBVQB8/VVZDbDAIbDB8LSoa+xGd\
+wCwLh6vLsNF2F0IXdjedOQb9wHnqsrWH9bKvuim9w8IDpH3MhYcBbr4jQf3BuKEfccf33jTaMZY\
2ErFN7ImCLElnvsI+xca+wN+KHE1HnE1akRiU2JSX19ba1pqUXNHegh6Rj2DMhv74/dBFffNBuzX\
lJ3CH8KdtqSsrLm5r8ml2Qik2Jjp9wMa9y1y9wpZ3h5Y3U7CQ6cIn1c3lfsHG/vIBg4g9zYWHAW6\
+rj7Qf32/FX5v/tA/b/8h/oY+0EHDvty9zwWHAW6+nH7Qf2v/Fr5RPtB/UT9LgcO9wz54PjTFfdA\
B/kBjAX8tAcsPyhSJmUIZCYjeCAb+yT7F6rJ+wkf+wrIMuRP9wkIT/cJbfcW9yQa9yOp9xnH9xAe\
xvcP4ef3BMcIx/cE9xWp9yYb9et6aeEf4GjOW7xOvE6wO6Qo+0NbGHXWcMVqtmq2Xa1OpQikTkiY\
QRsyP35wSh9KcFdnZF9jX2xbdVYIZjB4KSEa+xei+wG4Mx64M8xK4WAIYOHmduwb392brNsf26vI\
rbSwCPelBw6R9zgWHAW691b87vmO+O73Vhz6RvtW+Uf9jv1HBw7+HPdTFhwFuvdWHPpGBw78Vcb4\
NBX3Q6OQ+wSgPrBiGWKwv3bNG7y1lqKuH66hpKmYsgiYsZLI3xr6hvdW/nsH+w98LG5IHm1IXFdL\
aAhoSkB5NBv7FSmw1UcfRtVq9wKO9yYIDiD3KhYcBbr3Vv1rB/ls+WsF95sG/Pv85vkW/fwF+5QG\
/J75evuE+34F/JAHDvcqFhwFuvdWHPrz+Wb7QQcO9333LBYcBbr3uAf37/6iqyqiQ5pbGZzApdqu\
8vfz+pAY95kc+kb7TxwEywb8Phz7NQX7Qwb8PBwE4AUc+yAHDpH3MBYcBbr3Wwf5lhz7gQUcBH/3\
Thz6RvtbB/2WHASABRz7gAcO9wzu+V4V94fM91P3F/ceHvcd9xf3PND3Yxv3G/cOa0r3AR/3AUre\
McT7BwjE+win+xf7Jxr7KW37GU/7CR5P+wk2MvsCTwhO+wL7C237Exv7HvsPrM77AR/7Ac455lP3\
BwhT9wdv9w73FRr3XIgV+0W7+x/qJh4l6vcLWPcjG/cm9wy+8uof6fK69yX3URr3C3f0Y+QeYuRQ\
0D68CLw9NKMqG/sd+wpcLSgfKCxZ+zH7cRoOIPcyFhwFuvi9B+zWhoK+H9N/x3S8arxpslypTgio\
TppJQhr7EWMiPDUeNDz7JGD7Yxv8DPzoBvmVBPgPBvcR5KK6wB/AuqXM4BrIfMBstx5stmKoWJkI\
lGpPjzMb/AsGDvcMHAT19zEV5U3eXtduUvsbGCKxIsci3QhO+wH7DG37Fxv7GfsMq8v7AB/7AMs4\
5VH3CAhQ9whu9xf3JRr3Jaj3F8b3Cx7G9wve5fcByQjJ9wD3Dar3Ghv3G/cOa0v3AR/3AUreMcT7\
BwjE+win+xf7JRr7DXn7AGYrHmYqVDdBRAj8P/eMFfcEbOdc1E0I9wbzxPcw92Ua9wt38mPkHmLk\
UNA+vAi8PTSjKhv7JfsMWigsHywoW/so+1ka+1O6+ybqJR4l6fcMWPcnG9DNmKXIH06yS6dInAgO\
kfc1FhwFuvkeB/cX7n5xzx/PcMFdtEgItEifQjoaI2kzSEQeSEQjXfsheL5ysnOmc8RXwEq+PfeT\
/CMY+4gG+1b3xVLjXc5muhlmumurbp5unm2YbZIIkHVnjVkb+3X9Hwb5xwT4NQbk0JSevR+9nbGo\
pbQIpbOYt7oa0HLEWbgeuFg8ofsBG/xkBg4g5/hrFfdLm5RCn0+rXBmqXLxlzm4Ibs7WfN4b1cyW\
ocQfxKG1qaeyCKaxmbW4Grl+s3CuHnCtX6hOomSaNKP7G6z7G6stqVWoRbBXuGnCCGjBesjOGtWg\
0LXMHrXLyLzcrAis3OSc7hv3Aet6aN4f3mjKV7hHuEejPo41+059GIHoadFSugi6UTaj+wUb+wk1\
dmBWH1VgcFdOGlaeYLFpHrBp7Wj3Mmj3MWf3AGzGcOBkylm0Twi0Tp9GPBo9dUJeRh5eRktVOGUI\
ZDcteCIb+xn7A56yMh8xskXFWNlY2HDjiO0IDvty+KcWHAUN/Hf3QRwEivtB/Hkc+vMHDpH69BwF\
uhX3Vv3jBvsnevsJajQeajRPRTRVCFQ0+wdw+yEb+x37BaO6NB80ukzQZuUIZuR49w/3Lxr54/dW\
/eIH+xOXLaNPHqJOtF3FaghqxNJ73hv3I/CrzMgfyMyp9xD3TBoOIPjVFvzMHAW6BfdmBvgR/r2q\
NqQ7oEAZotul26nb+CD6vRj3Wgb80hz6RgUO+GD4Mhb8GRwFugX3Wwb3c/5VoyagJ5woGbD3MaHl\
kqP3q/pyGPd+Bvdm/XrA+0yx+0Gi+zYZnuij9an3DPd6+kIY91cG/CYc+kYF+08G+8n68XHofMWG\
oBl8SHxRflz7y/7xGA4g+M8W+QEH/Mn54QX3gAb3tfxOwDi9Obk4GbfYwOHK6/ew+EMY93YG/N39\
4QX9AQcO+dD3FxVIUktjTnQIdE1Jf0Qb+wkyqMRMH0zEbNPkGr+Xu6O2HqK2qq2ypbGltp+7mK6U\
wZTSlPclnPag0KMIjKSLmpIa1Hq/aaketF1HnzAbNk18bmMfYm1tVnhA+0SjGJvWpciwurC5wK/Q\
pAik0NyX5hvm1IB2xB/EdrRwpmumap1illoIkWyOVDsa+4QH+zuPIZNfHpJemmGiYgj7UAZ4sH+3\
hr0IfPgmFUpwKXX7F3hBgFd/bH5sfnR3enIIenGDbmwaW51jsGsea6/Ae9Eb0MmaqsEfwamztKTA\
CJ60lcfaGg73wRb7OxwFuvdI/J8G6tfsu/cKG8zJfnHGH8Vwu2axXLBbqVGgSAigSJZDPhr7Sl77\
ITEoHigx+wBZ+xIb+xEov/REH4n4KhX7E5wvrlIeLsTXXewb2s+t0MQfxM+o8fcbGvcfcPFUzR7N\
VEisPRs8R2lHUh9SRm4o+xUaDvxV+dD4GRX3RXR4+w5ZLDxGGUY7KWj7CBv7JfsJu+ozHzLqX/cc\
90Ua9wee77HhHrHhxczZtgi22OCg5hv3B+puUdQf1FC6OKAg+0NwGHrSbsFhrwivYFidTxswQmtK\
Uh9SSm8k+yEa+yOmJMJKHkrC0mvjG9LGoba6H7q2qc6Y5QgO+cwW9xoHIkgoVvsXGzY+orpEH0S6\
VMxk3whk3nfr9wEa9Z3rruIeruHAzdK5CLnS2qLiG8vEfnC9H71wtGeqYAj4ovdHHPpGB/10+KYV\
+xyoJcRIHkjEz2nZG9rOq8zCH8LLpu33GBr3JW/2U88ez1NGrTkbO0hqSlYfVUpwJPshGg758vfq\
FfdOdG77AVQ3PE8ZTzwlbfsPG/sv+w+76zAfMOpd9xr3QRr3R7n3HufuHu7n9wu89ycb9yL3CFsq\
5R/lKrj7HPtDGoCLe4p2Hv2sBpL7Cawyxk0ITcbVbOQbzcOcrrofuq6wwqbXCPzj97cV+OUGg+R0\
zma4CNBSQK4wGzhGb1RTH1JUbEGFLggO/hz3Rhb6Lvsz9yD3M/cFB9KRwJiuHpy6qrG3qAiotsiZ\
2hu+w4V/yB9w+zEFkmZnjmobVGV/dHQfdHSAX0saKfdj+yD7Y/4uBw7xMxX3Q3GSVaBkrHIZarjI\
etgb3sycrLgfuKyqupvHlLCQ2Ir3CQguPCld+wkb+yb7BcD0Ox879GP3E/cnGvCd6bDhHrDgwM3R\
ugi60N2i6Rv3EfNYJtwf9xT3Ov4qB/s5evsKakceaUZWVEJjCGNCMXcgG/sTJafFPR89xGXgjvcH\
CPcp+RIV+x+nJcJLHkvC0WveG97Qq8vDH8PKp+/3HBr3Fm7tUs0ezVFFrDobO0drSlMfU0pvKvsU\
Gg73GxYcBbr3SPyiB+zf9bz3FBvaz3xsxR/FbLVgpFQIpFSXPCMa/TX7SPk1B+V4zWS0HrRkU59E\
G1ZZfXBcH1xvaWV3XAh3XIFJOBr82QcO/o73HBwE6xX3Y/dI+2MH+0gc+xUV+rr3SP66Bw78Vfcc\
FhwFuvdI/dgH+D74RAX3fQb8Kvwe+FP9MAX7cgb78/iz+xP7DgX8OQcO/o73FxYcBbr3SBz6RgcO\
9333Gxb6uvc1+ykHrL+4tcKrCKrCypvSG9rLe2q+H71qrl6gUAj3EN/3Acn3Gxv03G5RxB/EUKcx\
+w0a/W37R/kxB9OFv4CrHn+qdqVsngiebGeVYhtATXJaWh9aWXI7+wEa/P37SPlGB9t8x26zHrNu\
W59IG1hdfnBgH2Bwa2R4WAh4WIFBKhr8uwcO9xsW+rr3NvsrB/cJ2fcFxfcnG8vGgHTBH8B0s2ym\
ZqZmnV6WWAiSao5QOBr9IftI+RoH1ITCfbAefa9yqGihCKBnYZZbGz5Jc1pUH1Naby/7HBr82AcO\
z/inFfdZwvcl9wHqHtrm9wSy9xcb9yb3C1ss6B/oK7n7GPs9GvsddyBiPR5iPE9OPWAIYDw2dS4b\
+yn7DLvqMB8v6l33HvdHGvdNFvscqSXGSB5HxtZp5Rvk1q3Pxh/Gz6nz9x8a9xdt71DPHs5PQa0y\
GzFAaUhQH1BIbSX7HBoO9xv8KxUcBb33OPseB7LBtrS8pgimvMaY0Bvm23Rc0B/QXMBKrjYIrjad\
LSYa+wF4KmQ0HmQ0UkhBXQhcQD10ORtPVZikXB9bpGSrbLII/JkHevo4FfsdpybCSh5Kws5q2hvb\
0K3PxB/Ezqf09yIa9xtv8VTOHs5TSK0+Gz5IZ0RQH1BDbSP7HRoO/av3GRb6uvc2+zUHtNayva6j\
CKOusZe1G8jIeGTKH037OwWlX1+YXxtkZ390bB9sc3RqfmEId0uBRT8a/MAHDvxVyvfRFfdGp5VE\
p1S5ZRlluMt43RveyJytsx+zrJ+zuBq0eatooh5ym06fKaT7GKwwqFikWKNkrXG2CHC2frq/GrqW\
t6G0HqCzqaywpqegsZy8mgiZu7+Swhve1X9zyh/Kc7lrqWKpYqBUlkb7RHMYg8J0tWWqCKpkVZpF\
GzhQfXBoH2hweWtmGnSSdpp4Hpp4onuqfp2EwHzjc/cTaeRvvna9dbJrqGIIqGKZV04aT3pTaFYe\
aFZYYkluCG5JQHw4G/seIqjEQx9CxF3gd/cFCA7+HPik9zUVpfszBYBYXoZjG0pYlaBnH2egcqZ8\
rQh8rITS9wAa+Pf7GPcg9xj3mwf3R/cABfwH90n7IPtJ/QEHWI5qknwekXyVgJqCCIKZn4emG5+l\
jZCsHw750xb3MAf7DDj7BE/7IhtMUZejVR9Uo2OpcbBwr3m3gMAIhK6Hw9ga+Sb3SPzhBy2PTJJq\
HpZco2awcAhwsLh9wRvBvpmnuh+6pq2xn7sInrqV0OYa+M33SP66Bw78VfhCFvwo+roF91IG93j9\
EKRGoUSgQRmbw6HOqNr3gPkcGPdNBvwm/roFDpH33xb72fq6BfdOBvc9/PnK+3iOlp3UrfcbGfc9\
+QIF900G9zP8/MD7X8j3YfdK+PoF90MG++D+ugX7Twb7PfkQYvdJ+2v9xQUO/FX3E/wtFXf3PQWA\
sq6GqBuzq5KYox+jmJ+emqOWnZ64pNKOlZGakp78J/q8GPdWBvdx/PuoPaQ5ojUZoN6j26ja93f4\
/xj3SAb8KP7MYPsJaTtzXxlrUGZfYnAIb2JZfVIbaGWSmmAfDvxVsxb3Jgf5OPmcBYc+SIlQG/xF\
9yb5+PsLBvzT/Tb7A/sPBZHc1o7SG/h/+y8GDhwEcxQcBcEVAAAAAAAAAQAAAAMAAAAMAAQAWAAA\
ABIAEAADAAIAIAA6AFcAWQBpAHAAdwB6//8AAAAgACgAQQBZAGEAawByAHn////h/9r/1P/T/8z/\
y//K/8kAAQAAAAAAAAAAAAAAAAAAAAAAAAABAAAACgAeACwAAURGTFQACAAEAAAAAP//AAEAAAAB\
a2VybgAIAAAAAQAAAAEABAACAAAAAQAIAAEBtgAEAAAAEAAqADgAPgBgAG4AiACaAKwA8gEkAVIB\
iAGOAZgBogGsAAMAFf+PACj/2wAs/9sAAQAL/2gACAAB/48AKP9oACr/aAAr/7QALP9oAED/2wBB\
/9sAQv/bAAMABv8dAAj/HQAV/48ABgAB/7QAKP9oACr/aAAr/2gALP9oAEL/tAAEAAH/2wAG/vgA\
CP74ABX/aAAEACj/2wAq/9sAK//bACz/2wARAAH/2wAG/x0AB/+PAAj/HQAU/x0AFf9oACP/2wAt\
/x0AL/8dADH/HQA1/7QAOv8dADz/tAA9/x0AP/+0AEH/jwBC/48ADAAG/0QAB/+PAAj/RAAU/7QA\
Ff9oAC3/aAAx/48ANf/bADr/jwA8/7QAP/+0AEL/tAALAAb/jwAH/9sACP+PABT/2wAV/7QALf+0\
ADH/2wA6/9sAPP/bAD//2wBC/+4ADQAB/9sABv74AAf/RAAI/vgAFP+PABX/aAAt/2gAMf9EADX/\
tAA6/0QAO/9oAD//jwBA/48AAQAy/9sAAgAG/48ACP+PAAIABv9oAAj/aAACAAb/jwAI/48AAgAG\
	]]>
	</style>
<script type="text/javascript" xlink:href="../../../../../system/js/ewd/fig/svgfig.js"/>
<defs>
<font horiz-adv-x="1229">
<font-face font-family="Svg Symbol" units-per-em="2048" panose-1="5 5 1 2 1 7 6 2 5 7" ascent="2059" descent="450" alphabetic="0"/>
<missing-glyph d="M 103,0 l 0,1280 1024,0 0,-1280 -1024,0 z m 32,32 l 960,0 0,1216 -960,0 0,-1216 z"/>
<glyph unicode="&#xF057;" horiz-adv-x="1573" d="M 1517,0 l -567,0 24,279 q 141,59 207.5,168 66.5,109 66.5,306    0,272 -132.5,417.5 -132.5,145.5 -333.5,145.5 -194,0 -328,-147.5 -134,-147.5 -134,-401.5 0,-200 68.5,-319 68.5,-119     206.5,-169 l 25,-279 -564,0 0,279 35,0 q 3,-61 32,-83 45,-35 137,-35 l 270,0 0,70 q -210,61 -324.5,209 -114.5,148     -114.5,349 0,252 186.5,425 186.5,173 504.5,173 195,0 358.5,-73.5 163.5,-73.5 252,-214.5 88.5,-141 88.5,-310 0,-207     -121.5,-360.5 -121.5,-153.5 -317.5,-197.5 l -8,-70 275,0 q 92,0 128,28 36,28 42,90 l 38,0 0,-279 z"/>
</font>
</defs>
<g id="ewd_top">
<a ewd:lineID="1" style="cursor:pointer;">
<path style="&st11;" d="M 445.36 , 150.03 L 445.36 , 167.03 L 88.42 , 167.03 L 88.42 , 107.54"/>
</a>
<a ewd:lineID="2" style="cursor:pointer;">
<path style="&st5;" d="M 615.33 , 505.25 L 615.33 , 107.54 L 572.83 , 107.54 L 564.34 , 99.04 L 564.34 , 91.11"/>
<path style="&st13;" d="M 615.33 , 505.25 L 615.33 , 107.54 L 572.83 , 107.54 L 564.34 , 99.04 L 564.34 , 91.11"/>
<path style="&st18;" d="M 615.33 , 505.25 L 615.33 , 107.54 L 572.83 , 107.54 L 564.34 , 99.04 L 564.34 , 91.11"/>
</a>
<a ewd:lineID="51" style="cursor:pointer;">
<path style="&st5;" d="M 564.34 , 567.03 L 564.34 , 642.95 L 606.83 , 642.95 L 615.33 , 651.45 L 615.33 , 659.95"/>
<path style="&st13;" d="M 564.34 , 567.03 L 564.34 , 642.95 L 606.83 , 642.95 L 615.33 , 651.45 L 615.33 , 659.95"/>
<path style="&st18;" d="M 564.34 , 567.03 L 564.34 , 642.95 L 606.83 , 642.95 L 615.33 , 651.45 L 615.33 , 659.95"/>
</a>
<a ewd:lineID="52" style="cursor:pointer;">
<path style="&st5;" d="M 615.33 , 567.03 L 615.33 , 659.95"/>
<path style="&st13;" d="M 615.33 , 567.03 L 615.33 , 659.95"/>
<path style="&st18;" d="M 615.33 , 567.03 L 615.33 , 659.95"/>
</a>
<a ewd:lineID="5" style="cursor:pointer;">
<path style="&st5;" d="M 717.31 , 302.44 L 717.31 , 175.53 L 759.8 , 175.53 L 768.3 , 167.03 L 768.3 , 158.53"/>
<path style="&st13;" d="M 717.31 , 302.44 L 717.31 , 175.53 L 759.8 , 175.53 L 768.3 , 167.03 L 768.3 , 158.53"/>
<path style="&st18;" d="M 717.31 , 302.44 L 717.31 , 175.53 L 759.8 , 175.53 L 768.3 , 167.03 L 768.3 , 158.53"/>
</a>
<a ewd:lineID="7" style="cursor:pointer;">
<path style="&st5;" d="M 768.3 , 293.37 L 768.3 , 158.53"/>
<path style="&st13;" d="M 768.3 , 293.37 L 768.3 , 158.53"/>
<path style="&st18;" d="M 768.3 , 293.37 L 768.3 , 158.53"/>
</a>
<a ewd:lineID="6" style="cursor:pointer;">
<path style="&st5;" d="M 768.3 , 659.95 L 768.3 , 651.45 L 759.8 , 642.95 L 717.31 , 642.95 L 717.31 , 337.55"/>
<path style="&st13;" d="M 768.3 , 659.95 L 768.3 , 651.45 L 759.8 , 642.95 L 717.31 , 642.95 L 717.31 , 337.55"/>
<path style="&st18;" d="M 768.3 , 659.95 L 768.3 , 651.45 L 759.8 , 642.95 L 717.31 , 642.95 L 717.31 , 337.55"/>
</a>
<a ewd:lineID="8" style="cursor:pointer;">
<path style="&st5;" d="M 768.3 , 659.95 L 768.3 , 355.13"/>
<path style="&st13;" d="M 768.3 , 659.95 L 768.3 , 355.13"/>
<path style="&st18;" d="M 768.3 , 659.95 L 768.3 , 355.13"/>
</a>
<a ewd:lineID="9" style="cursor:pointer;">
<path style="&st17;" d="M 1201.73 , 412.92 L 1201.73 , 404.99 L 1193.23 , 396.49 L 1082.75 , 396.49 L 1082.75 , 192.52"/>
</a>
<a ewd:lineID="10" style="cursor:pointer;">
<path style="&st5;" d="M 1244.22 , 412.92 L 1244.22 , 404.99 L 1235.72 , 396.49 L 1218.73 , 396.49 L 1218.73 , 379.49 L 1125.24 , 379.49 L 1125.24 , 192.52"/>
<path style="&st13;" d="M 1244.22 , 412.92 L 1244.22 , 404.99 L 1235.72 , 396.49 L 1218.73 , 396.49 L 1218.73 , 379.49 L 1125.24 , 379.49 L 1125.24 , 192.52"/>
</a>
<a ewd:lineID="12" style="cursor:pointer;">
<path style="&st17;" d="M 1201.73 , 237.28 L 1201.73 , 192.52"/>
</a>
<a ewd:lineID="13" style="cursor:pointer;">
<path style="&st17;" d="M 1201.73 , 277.51 L 1201.73 , 252.01"/>
</a>
<a ewd:lineID="11" style="cursor:pointer;">
<path style="&st17;" d="M 1201.73 , 330.77 L 1201.73 , 292.24"/>
</a>
<a ewd:lineID="14" style="cursor:pointer;">
<path style="&st17;" d="M 1201.73 , 412.92 L 1201.73 , 345.5"/>
</a>
<a ewd:lineID="16" style="cursor:pointer;">
<path style="&st5;" d="M 1244.22 , 412.92 L 1244.22 , 345.5"/>
<path style="&st13;" d="M 1244.22 , 412.92 L 1244.22 , 345.5"/>
</a>
<a ewd:lineID="18" style="cursor:pointer;">
<path style="&st5;" d="M 1244.22 , 330.48 L 1244.22 , 292.52"/>
<path style="&st13;" d="M 1244.22 , 330.48 L 1244.22 , 292.52"/>
</a>
<a ewd:lineID="17" style="cursor:pointer;">
<path style="&st5;" d="M 1244.22 , 277.51 L 1244.22 , 252.01"/>
<path style="&st13;" d="M 1244.22 , 277.51 L 1244.22 , 252.01"/>
</a>
<a ewd:lineID="15" style="cursor:pointer;">
<path style="&st5;" d="M 1244.22 , 237 L 1244.22 , 192.52"/>
<path style="&st13;" d="M 1244.22 , 237 L 1244.22 , 192.52"/>
</a>
<a ewd:lineID="19" style="cursor:pointer;">
<path style="&st17;" d="M 1320.71 , 412.92 L 1320.71 , 328.5"/>
</a>
<a ewd:lineID="20" style="cursor:pointer;">
<path style="&st5;" d="M 1363.2 , 412.92 L 1363.2 , 328.5"/>
<path style="&st13;" d="M 1363.2 , 412.92 L 1363.2 , 328.5"/>
</a>
<a ewd:lineID="21" style="cursor:pointer;">
<path style="&st17;" d="M 1448.19 , 328.5 L 1448.19 , 412.92"/>
</a>
<a ewd:lineID="22" style="cursor:pointer;">
<path style="&st5;" d="M 1490.68 , 328.5 L 1490.68 , 412.92"/>
<path style="&st13;" d="M 1490.68 , 328.5 L 1490.68 , 412.92"/>
</a>
<a ewd:lineID="53" style="cursor:pointer;">
<path style="&st17;" d="M 1448.19 , 557.96 L 1448.19 , 482.04"/>
</a>
<a ewd:lineID="54" style="cursor:pointer;">
<path style="&st5;" d="M 1490.68 , 557.96 L 1490.68 , 482.04"/>
<path style="&st13;" d="M 1490.68 , 557.96 L 1490.68 , 482.04"/>
</a>
<a ewd:lineID="23" style="cursor:pointer;">
<path style="&st0;" d="M 1660.65 , 412.92 L 1660.65 , 192.52"/>
</a>
<a ewd:lineID="24" style="cursor:pointer;">
<path style="&st0;" d="M 1660.65 , 412.92 L 1660.65 , 404.99 L 1677.65 , 387.99 L 1677.65 , 379.49 L 2238.56 , 379.49 L 2238.56 , 286.57"/>
</a>
<a ewd:lineID="26" style="cursor:pointer;">
<path style="&st5;" d="M 2272.55 , 286.57 L 2272.55 , 396.49 L 1703.15 , 396.49 L 1694.65 , 404.99 L 1694.65 , 412.92"/>
<path style="&st13;" d="M 2272.55 , 286.57 L 2272.55 , 396.49 L 1703.15 , 396.49 L 1694.65 , 404.99 L 1694.65 , 412.92"/>
</a>
<a ewd:lineID="28" style="cursor:pointer;">
<path style="&st5;" d="M 1839.12 , 286.57 L 1839.12 , 421.99"/>
<path style="&st13;" d="M 1839.12 , 286.57 L 1839.12 , 421.99"/>
</a>
<a ewd:lineID="30" style="cursor:pointer;">
<path style="&st1;" d="M 1873.12 , 421.99 L 1873.12 , 286.57"/>
</a>
<a ewd:lineID="29" style="cursor:pointer;">
<path style="&st5;" d="M 1839.12 , 192.52 L 1839.12 , 242.95"/>
<path style="&st13;" d="M 1839.12 , 192.52 L 1839.12 , 242.95"/>
</a>
<a ewd:lineID="31" style="cursor:pointer;">
<path style="&st2;" d="M 1873.12 , 192.52 L 1873.12 , 242.95"/>
</a>
<a ewd:lineID="27" style="cursor:pointer;">
<path style="&st5;" d="M 1839.12 , 167.03 L 1839.12 , 99.04 L 2272.55 , 99.04 L 2272.55 , 233.88"/>
<path style="&st13;" d="M 1839.12 , 167.03 L 1839.12 , 99.04 L 2272.55 , 99.04 L 2272.55 , 233.88"/>
</a>
<a ewd:lineID="32" style="cursor:pointer;">
<path style="&st26;" d="M 2238.56 , 233.88 L 2238.56 , 116.04 L 1873.12 , 116.04 L 1873.12 , 167.03"/>
</a>
<a ewd:lineID="55" style="cursor:pointer;">
<path style="&st5;" d="M 1839.12 , 437 L 1839.12 , 480.91"/>
<path style="&st13;" d="M 1839.12 , 437 L 1839.12 , 480.91"/>
</a>
<a ewd:lineID="62" style="cursor:pointer;">
<path style="&st1;" d="M 1873.12 , 436.72 L 1873.12 , 480.91"/>
</a>
<a ewd:lineID="58" style="cursor:pointer;">
<path style="&st5;" d="M 1839.12 , 583.46 L 1839.12 , 574.96 L 1856.12 , 557.96 L 1856.12 , 532.47 L 1992.1 , 532.47 L 1992.1 , 489.97 L 2374.53 , 489.97 L 2374.53 , 481.48 L 2391.53 , 464.48 L 2391.53 , 457.11"/>
<path style="&st13;" d="M 1839.12 , 583.46 L 1839.12 , 574.96 L 1856.12 , 557.96 L 1856.12 , 532.47 L 1992.1 , 532.47 L 1992.1 , 489.97 L 2374.53 , 489.97 L 2374.53 , 481.48 L 2391.53 , 464.48 L 2391.53 , 457.11"/>
</a>
<a ewd:lineID="60" style="cursor:pointer;">
<path style="&st1;" d="M 1873.12 , 583.46 L 1873.12 , 574.96 L 1890.11 , 557.96 L 2017.59 , 557.96 L 2017.59 , 472.98 L 2315.04 , 472.98 L 2323.54 , 464.48 L 2323.54 , 457.11"/>
</a>
<a ewd:lineID="56" style="cursor:pointer;">
<path style="&st17;" d="M 1839.12 , 617.45 L 1839.12 , 676.94"/>
</a>
<a ewd:lineID="59" style="cursor:pointer;">
<path style="&st1;" d="M 1864.62 , 617.45 L 1864.62 , 676.94"/>
</a>
<a ewd:lineID="63" style="cursor:pointer;">
<path style="&st11;" d="M 1890.11 , 617.45 L 1890.11 , 676.94"/>
</a>
<a ewd:lineID="64" style="cursor:pointer;">
<path style="&st10;" d="M 1915.61 , 617.45 L 1915.61 , 676.94"/>
</a>
<a ewd:lineID="65" style="cursor:pointer;">
<path style="&st17;" d="M 1941.11 , 617.45 L 1941.11 , 676.94"/>
</a>
<a ewd:lineID="66" style="cursor:pointer;">
<path style="&st1;" d="M 1966.6 , 617.45 L 1966.6 , 676.94"/>
</a>
<a ewd:lineID="67" style="cursor:pointer;">
<path style="&st5;" d="M 1992.1 , 617.45 L 1992.1 , 676.94"/>
<path style="&st13;" d="M 1992.1 , 617.45 L 1992.1 , 676.94"/>
</a>
<a ewd:lineID="68" style="cursor:pointer;">
<path style="&st5;" d="M 2017.59 , 617.45 L 2017.59 , 676.94"/>
</a>
<a ewd:lineID="69" style="cursor:pointer;">
<path style="&st17;" d="M 2111.08 , 634.45 L 2111.08 , 566.46"/>
</a>
<a ewd:lineID="70" style="cursor:pointer;">
<path style="&st1;" d="M 2136.57 , 634.45 L 2136.57 , 566.46"/>
</a>
<a ewd:lineID="71" style="cursor:pointer;">
<path style="&st11;" d="M 2162.07 , 634.45 L 2162.07 , 566.46"/>
</a>
<a ewd:lineID="72" style="cursor:pointer;">
<path style="&st10;" d="M 2187.57 , 634.45 L 2187.57 , 566.46"/>
</a>
<a ewd:lineID="73" style="cursor:pointer;">
<path style="&st17;" d="M 2213.06 , 634.45 L 2213.06 , 566.46"/>
</a>
<a ewd:lineID="74" style="cursor:pointer;">
<path style="&st1;" d="M 2238.56 , 634.45 L 2238.56 , 566.46"/>
</a>
<a ewd:lineID="75" style="cursor:pointer;">
<path style="&st5;" d="M 2264.05 , 634.45 L 2264.05 , 566.46"/>
<path style="&st13;" d="M 2264.05 , 634.45 L 2264.05 , 566.46"/>
</a>
<a ewd:lineID="76" style="cursor:pointer;">
<path style="&st5;" d="M 2289.55 , 634.45 L 2289.55 , 566.46"/>
</a>
<a ewd:lineID="78" style="cursor:pointer;">
<path style="&st1;" d="M 2323.54 , 634.45 L 2323.54 , 625.95 L 2332.04 , 617.45 L 2349.04 , 617.45 L 2349.04 , 583.46 L 2332.04 , 583.46 L 2323.54 , 574.96 L 2323.54 , 567.03"/>
</a>
<a ewd:lineID="77" style="cursor:pointer;">
<path style="&st5;" d="M 2323.54 , 567.03 L 2323.54 , 634.45"/>
</a>
<a ewd:lineID="82" style="cursor:pointer;">
<path style="&st5;" d="M 2391.53 , 567.03 L 2391.53 , 634.45"/>
<path style="&st13;" d="M 2391.53 , 567.03 L 2391.53 , 634.45"/>
</a>
<a ewd:lineID="79" style="cursor:pointer;">
<path style="&st1;" d="M 2323.54 , 531.9 L 2323.54 , 523.97 L 2332.04 , 515.47 L 2349.04 , 515.47 L 2349.04 , 472.98 L 2332.04 , 472.98 L 2323.54 , 464.48 L 2323.54 , 457.11"/>
</a>
<a ewd:lineID="81" style="cursor:pointer;">
<path style="&st5;" d="M 2391.53 , 457.11 L 2391.53 , 531.9"/>
<path style="&st13;" d="M 2391.53 , 457.11 L 2391.53 , 531.9"/>
</a>
<a ewd:lineID="80" style="cursor:pointer;">
<path style="&st5;" d="M 2323.54 , 457.11 L 2323.54 , 531.9"/>
</a>
<a ewd:lineID="84" style="cursor:pointer;">
<path style="&st26;" d="M 2442.52 , 457.11 L 2442.52 , 509.24"/>
</a>
<a ewd:lineID="83" style="cursor:pointer;">
<path style="&st26;" d="M 2799.46 , 388.56 L 2799.46 , 396.49 L 2816.46 , 413.49 L 2816.46 , 566.46 L 2442.52 , 566.46 L 2442.52 , 532.47"/>
</a>
<a ewd:lineID="85" style="cursor:pointer;">
<path style="&st5;" d="M 2756.97 , 388.56 L 2756.97 , 396.49 L 2773.97 , 413.49 L 2773.97 , 549.46 L 2476.52 , 549.46 L 2476.52 , 532.47"/>
<path style="&st13;" d="M 2756.97 , 388.56 L 2756.97 , 396.49 L 2773.97 , 413.49 L 2773.97 , 549.46 L 2476.52 , 549.46 L 2476.52 , 532.47"/>
</a>
<a ewd:lineID="86" style="cursor:pointer;">
<path style="&st5;" d="M 2476.52 , 457.11 L 2476.52 , 508.95"/>
<path style="&st13;" d="M 2476.52 , 457.11 L 2476.52 , 508.95"/>
</a>
<a ewd:lineID="35" style="cursor:pointer;">
<path style="&st1;" d="M 2442.52 , 351.73 L 2442.52 , 354 L 2434.02 , 362.5 L 2417.03 , 362.5 L 2417.03 , 379.49 L 2434.02 , 379.49 L 2442.52 , 387.99 L 2442.52 , 395.36"/>
</a>
<a ewd:lineID="37" style="cursor:pointer;">
<path style="&st5;" d="M 2442.52 , 395.36 L 2442.52 , 351.73"/>
</a>
<a ewd:lineID="39" style="cursor:pointer;">
<path style="&st5;" d="M 2476.52 , 395.36 L 2476.52 , 352.01"/>
<path style="&st13;" d="M 2476.52 , 395.36 L 2476.52 , 352.01"/>
</a>
<a ewd:lineID="36" style="cursor:pointer;">
<path style="&st5;" d="M 2442.52 , 328.5 L 2442.52 , 295.64"/>
</a>
<a ewd:lineID="38" style="cursor:pointer;">
<path style="&st5;" d="M 2476.52 , 328.5 L 2476.52 , 295.64"/>
<path style="&st13;" d="M 2476.52 , 328.5 L 2476.52 , 295.64"/>
</a>
<a ewd:lineID="33" style="cursor:pointer;">
<path style="&st11;" d="M 2323.54 , 91.11 L 2323.54 , 233.88"/>
</a>
<a ewd:lineID="34" style="cursor:pointer;">
<path style="&st5;" d="M 2357.54 , 91.11 L 2357.54 , 233.88"/>
<path style="&st13;" d="M 2357.54 , 91.11 L 2357.54 , 233.88"/>
</a>
<a ewd:lineID="42" style="cursor:pointer;">
<path style="&st11;" d="M 2629.49 , 107.54 L 2629.49 , 150.03"/>
</a>
<a ewd:lineID="44" style="cursor:pointer;">
<path style="&st11;" d="M 2629.49 , 201.02 L 2629.49 , 243.52"/>
</a>
<a ewd:lineID="43" style="cursor:pointer;">
<path style="&st11;" d="M 2629.49 , 294.51 L 2629.49 , 345.5"/>
</a>
<a ewd:lineID="40" style="cursor:pointer;">
<path style="&st15;" d="M 2519.01 , 286.57 L 2519.01 , 532.47 L 2799.46 , 532.47 L 2799.46 , 388.56"/>
</a>
<a ewd:lineID="41" style="cursor:pointer;">
<path style="&st5;" d="M 2756.97 , 388.56 L 2756.97 , 515.47 L 2553 , 515.47 L 2553 , 286.57"/>
<path style="&st13;" d="M 2756.97 , 388.56 L 2756.97 , 515.47 L 2553 , 515.47 L 2553 , 286.57"/>
</a>
<a ewd:lineID="87" style="cursor:pointer;">
<path style="&st15;" d="M 2629.49 , 396.49 L 2629.49 , 421.99 L 2714.48 , 421.99 L 2714.48 , 388.56"/>
</a>
<a ewd:lineID="46" style="cursor:pointer;">
<path style="&st11;" d="M 2697.48 , 107.54 L 2697.48 , 141.53"/>
</a>
<a ewd:lineID="45" style="cursor:pointer;">
<path style="&st11;" d="M 2773.97 , 133.04 L 2773.97 , 96.04 L 2739.97 , 96.04 L 2739.97 , 209.52 L 2697.48 , 209.52 L 2697.48 , 192.52"/>
</a>
<a ewd:lineID="47" style="cursor:pointer;">
<path style="&st11;" d="M 2773.97 , 225.95 L 2773.97 , 192.52"/>
</a>
<a ewd:lineID="48" style="cursor:pointer;">
<path style="&st1;" d="M 2833.46 , 225.95 L 2833.46 , 107.54"/>
</a>
<a ewd:lineID="94" style="cursor:pointer;">
<path style="&st3;" d="M 2858.95 , 388.56 L 2858.95 , 421.99"/>
</a>
<a ewd:lineID="92" style="cursor:pointer;">
<path style="&st3;" d="M 2858.95 , 472.98 L 2858.95 , 489.97"/>
</a>
<a ewd:lineID="93" style="cursor:pointer;">
<path style="&st3;" d="M 2858.95 , 540.97 L 2858.95 , 568.73"/>
</a>
<a ewd:lineID="88" style="cursor:pointer;">
<path style="&st3;" d="M 2790.96 , 685.44 L 2790.96 , 600.46 L 2841.96 , 600.46 L 2858.95 , 591.96 L 2858.95 , 583.46"/>
</a>
<a ewd:lineID="89" style="cursor:pointer;">
<path style="&st3;" d="M 2824.96 , 685.44 L 2824.96 , 617.45 L 2841.96 , 617.45 L 2858.95 , 591.96 L 2858.95 , 583.46"/>
</a>
<a ewd:lineID="91" style="cursor:pointer;">
<path style="&st3;" d="M 2858.95 , 583.46 L 2858.95 , 634.45"/>
</a>
<a ewd:lineID="90" style="cursor:pointer;">
<path style="&st3;" d="M 2858.95 , 583.46 L 2858.95 , 591.96 L 2867.45 , 600.46 L 2892.95 , 600.46 L 2892.95 , 685.44"/>
</a>
<a ewd:lineID="95" style="cursor:pointer;">
<path style="&st5;" d="M 2858.95 , 651.45 L 2858.95 , 685.44"/>
<path style="&st13;" d="M 2858.95 , 651.45 L 2858.95 , 685.44"/>
<path style="&st18;" d="M 2858.95 , 651.45 L 2858.95 , 685.44"/>
</a>
<a ewd:lineID="96" style="cursor:pointer;">
<path style="&st5;" d="M 2909.94 , 388.56 L 2909.94 , 412.35"/>
<path style="&st13;" d="M 2909.94 , 388.56 L 2909.94 , 412.35"/>
<path style="&st18;" d="M 2909.94 , 388.56 L 2909.94 , 412.35"/>
</a>
<a ewd:lineID="97" style="cursor:pointer;">
<path style="&st5;" d="M 2909.94 , 465.61 L 2909.94 , 514.34"/>
<path style="&st13;" d="M 2909.94 , 465.61 L 2909.94 , 514.34"/>
<path style="&st18;" d="M 2909.94 , 465.61 L 2909.94 , 514.34"/>
</a>
<a ewd:lineID="98" style="cursor:pointer;">
<path style="&st5;" d="M 2935.44 , 514.34 L 2935.44 , 498.47 L 2960.94 , 498.47 L 2960.94 , 514.34"/>
<path style="&st13;" d="M 2935.44 , 514.34 L 2935.44 , 498.47 L 2960.94 , 498.47 L 2960.94 , 514.34"/>
<path style="&st18;" d="M 2935.44 , 514.34 L 2935.44 , 498.47 L 2960.94 , 498.47 L 2960.94 , 514.34"/>
</a>
<a ewd:lineID="99" style="cursor:pointer;">
<path style="&st5;" d="M 2960.94 , 659.95 L 2960.94 , 584.59"/>
<path style="&st13;" d="M 2960.94 , 659.95 L 2960.94 , 584.59"/>
<path style="&st18;" d="M 2960.94 , 659.95 L 2960.94 , 584.59"/>
</a>
<a ewd:lineID="100" style="cursor:pointer;">
<path style="&st5;" d="M 3010.43 , 415.75 L 3010.43 , 685.44"/>
<path style="&st13;" d="M 3010.43 , 415.75 L 3010.43 , 685.44"/>
<path style="&st18;" d="M 3010.43 , 415.75 L 3010.43 , 685.44"/>
</a>
<a ewd:lineID="101" style="cursor:pointer;">
<path style="&st5;" d="M 3061.42 , 497.9 L 3061.42 , 430.47 L 3018.92 , 430.47 L 3010.43 , 421.98 L 3010.43 , 415.74"/>
<path style="&st13;" d="M 3061.42 , 497.9 L 3061.42 , 430.47 L 3018.92 , 430.47 L 3010.43 , 421.98 L 3010.43 , 415.74"/>
<path style="&st18;" d="M 3061.42 , 497.9 L 3061.42 , 430.47 L 3018.92 , 430.47 L 3010.43 , 421.98 L 3010.43 , 415.74"/>
</a>
<a ewd:lineID="103" style="cursor:pointer;">
<path style="&st5;" d="M 3061.42 , 541.53 L 3061.42 , 600.46"/>
<path style="&st13;" d="M 3061.42 , 541.53 L 3061.42 , 600.46"/>
<path style="&st18;" d="M 3061.42 , 541.53 L 3061.42 , 600.46"/>
</a>
<a ewd:lineID="102" style="cursor:pointer;">
<path style="&st5;" d="M 3061.42 , 617.45 L 3061.42 , 685.44"/>
<path style="&st13;" d="M 3061.42 , 617.45 L 3061.42 , 685.44"/>
<path style="&st18;" d="M 3061.42 , 617.45 L 3061.42 , 685.44"/>
</a>
<a ewd:lineID="49" style="cursor:pointer;">
<path style="&st11;" d="M 2935.44 , 152.3 L 2935.44 , 133.03 L 3010.43 , 133.03 L 3010.43 , 224.25"/>
</a>
<a ewd:lineID="50" style="cursor:pointer;">
<path style="&st11;" d="M 2935.44 , 175.53 L 2935.44 , 225.95"/>
</a>
<a ewd:lineID="3" style="cursor:pointer;">
<path style="&st5;" d="M 564.34 , 91.11 L 564.34 , 523.4"/>
<path style="&st13;" d="M 564.34 , 91.11 L 564.34 , 523.4"/>
<path style="&st18;" d="M 564.34 , 91.11 L 564.34 , 523.4"/>
</a>
<a ewd:lineID="25" style="cursor:pointer;">
<path style="&st5;" d="M 1694.65 , 412.92 L 1694.65 , 192.52"/>
<path style="&st13;" d="M 1694.65 , 412.92 L 1694.65 , 192.52"/>
</a>
<a ewd:lineID="57" style="cursor:pointer;">
<path style="&st5;" d="M 1839.12 , 524.53 L 1839.12 , 583.46"/>
<path style="&st13;" d="M 1839.12 , 524.53 L 1839.12 , 583.46"/>
</a>
<a ewd:lineID="61" style="cursor:pointer;">
<path style="&st5;" d="M 1873.12 , 524.53 L 1873.12 , 583.46"/>
</a>
<a ewd:code="GQ1" ewd:figtype="w2w" style="cursor:pointer;" ewd:figID="604">
<path style="&st9;" d="M1235.72,252.01h17v-8.49h-17V252.01"/>
<path style="&st20;" d="M1252.72,243.52h-17v8.49h17V243.52"/>
<text transform="matrix(1 0 0 1 1237.8877 250.2559)" style="&st8;"><tspan x="0" y="0" style="&st23; &st16;">GQ1</tspan></text>
</a>
<a ewd:code="GQ1" ewd:figtype="w2w" style="cursor:pointer;" ewd:figID="601">
<path style="&st9;" d="M1193.23,252.01h17v-8.49h-17V252.01"/>
<path style="&st20;" d="M1210.23,243.52h-17v8.49h17V243.52"/>
<text transform="matrix(1 0 0 1 1195.3975 250.2559)" style="&st8;"><tspan x="0" y="0" style="&st23; &st16;">GQ1</tspan></text>
</a>
<a ewd:code="GR3" ewd:figtype="w2w" style="cursor:pointer;" ewd:figID="602">
<path style="&st9;" d="M1193.23,286.01h17v-8.5h-17V286.01"/>
<path style="&st20;" d="M1210.23,277.51h-17v8.5h17V277.51"/>
<text transform="matrix(1 0 0 1 1195.5645 284.2456)" style="&st8;"><tspan x="0" y="0" style="&st23; &st16;">GR3</tspan></text>
</a>
<a ewd:code="GR3" ewd:figtype="w2w" style="cursor:pointer;" ewd:figID="605">
<path style="&st9;" d="M1235.72,286.01h17v-8.5h-17V286.01"/>
<path style="&st20;" d="M1252.72,277.51h-17v8.5h17V277.51"/>
<text transform="matrix(1 0 0 1 1238.0547 284.2456)" style="&st8;"><tspan x="0" y="0" style="&st23; &st16;">GR3</tspan></text>
</a>
<a ewd:code="RR1" ewd:figtype="w2w" style="cursor:pointer;" ewd:figID="606">
<path style="&st9;" d="M1235.72,345.5h17V337h-17V345.5"/>
<path style="&st20;" d="M1252.72,337h-17v8.5h17V337"/>
<text transform="matrix(1 0 0 1 1238.2217 343.7358)" style="&st8;"><tspan x="0" y="0" style="&st23; &st16;">RR1</tspan></text>
</a>
<a ewd:code="RR1" ewd:figtype="w2w" style="cursor:pointer;" ewd:figID="603">
<path style="&st9;" d="M1193.23,345.5h17V337h-17V345.5"/>
<path style="&st20;" d="M1210.23,337h-17v8.5h17V337"/>
<text transform="matrix(1 0 0 1 1195.7314 343.7358)" style="&st8;"><tspan x="0" y="0" style="&st23; &st16;">RR1</tspan></text>
</a>
<a ewd:code="GA6" ewd:figtype="w2w" style="cursor:pointer;" ewd:figID="613">
<path style="&st20;" d="M1847.62,421.99h-17v8.49h17V421.99"/>
<text transform="matrix(1 0 0 1 1833.1196 428.7251)" style="&st8;"><tspan x="0" y="0" style="&st23; &st16;">GA6</tspan></text>
</a>
<a ewd:code="GA6" ewd:figtype="w2w" style="cursor:pointer;" ewd:figID="614">
<path style="&st20;" d="M1881.62,421.99h-17v8.49h17V421.99"/>
<text transform="matrix(1 0 0 1 1867.1196 428.7251)" style="&st8;"><tspan x="0" y="0" style="&st23; &st16;">GA6</tspan></text>
</a>
<a ewd:code="GA6" ewd:figtype="w2w" style="cursor:pointer;" ewd:figID="608">
<path style="&st20;" d="M2451.02,337h-17v8.5h17V337"/>
<text transform="matrix(1 0 0 1 2436.52 343.7358)" style="&st8;"><tspan x="0" y="0" style="&st23; &st16;">GA6</tspan></text>
</a>
<a ewd:code="GA2" ewd:figtype="w2w" style="cursor:pointer;" ewd:figID="607">
<path style="&st20;" d="M2451.02,328.5h-17v8.5h17V328.5"/>
<text transform="matrix(1 0 0 1 2436.52 335.2358)" style="&st8;"><tspan x="0" y="0" style="&st23; &st16;">GA2</tspan></text>
</a>
<a ewd:code="GA6" ewd:figtype="w2w" style="cursor:pointer;" ewd:figID="610">
<path style="&st20;" d="M2485.02,337h-17v8.5h17V337"/>
<text transform="matrix(1 0 0 1 2470.52 343.7358)" style="&st8;"><tspan x="0" y="0" style="&st23; &st16;">GA6</tspan></text>
</a>
<a ewd:code="GA2" ewd:figtype="w2w" style="cursor:pointer;" ewd:figID="609">
<path style="&st20;" d="M2485.02,328.5h-17v8.5h17V328.5"/>
<text transform="matrix(1 0 0 1 2470.52 335.2358)" style="&st8;"><tspan x="0" y="0" style="&st23; &st16;">GA2</tspan></text>
</a>
<a ewd:code="GA6" ewd:figtype="w2w" style="cursor:pointer;" ewd:figID="618">
<path style="&st20;" d="M2485.02,523.97h-17v8.5h17V523.97"/>
<text transform="matrix(1 0 0 1 2470.52 530.7056)" style="&st8;"><tspan x="0" y="0" style="&st23; &st16;">GA6</tspan></text>
</a>
<a ewd:code="GA2" ewd:figtype="w2w" style="cursor:pointer;" ewd:figID="617">
<path style="&st20;" d="M2485.02,515.47h-17v8.5h17V515.47"/>
<text transform="matrix(1 0 0 1 2470.52 522.2056)" style="&st8;"><tspan x="0" y="0" style="&st23; &st16;">GA2</tspan></text>
</a>
<a ewd:code="GA6" ewd:figtype="w2w" style="cursor:pointer;" ewd:figID="616">
<path style="&st20;" d="M2451.02,523.97h-17v8.5h17V523.97"/>
<text transform="matrix(1 0 0 1 2436.52 530.7056)" style="&st8;"><tspan x="0" y="0" style="&st23; &st16;">GA6</tspan></text>
</a>
<a ewd:code="GA2" ewd:figtype="w2w" style="cursor:pointer;" ewd:figID="615">
<path style="&st20;" d="M2451.02,515.47h-17v8.5h17V515.47"/>
<text transform="matrix(1 0 0 1 2436.52 522.2056)" style="&st8;"><tspan x="0" y="0" style="&st23; &st16;">GA2</tspan></text>
</a>
<a ewd:code="CG2" ewd:figtype="w2w" style="cursor:pointer;" ewd:figID="619">
<path style="&st20;" d="M2867.45,574.96h-17v8.5h17V574.96"/>
<text transform="matrix(1 0 0 1 2852.7837 581.6958)" style="&st8;"><tspan x="0" y="0" style="&st23; &st16;">CG2</tspan></text>
</a>
<a ewd:code="GR1" ewd:figtype="w2w" style="cursor:pointer;" ewd:figID="611">
<path style="&st20;" d="M2943.94,167.03h-17v8.5h17V167.03"/>
<text transform="matrix(1 0 0 1 2929.2739 173.7656)" style="&st8;"><tspan x="0" y="0" style="&st23; &st16;">GR1</tspan></text>
</a>
<a ewd:code="GQ2" ewd:figtype="w2w" style="cursor:pointer;" ewd:figID="612">
<path style="&st20;" d="M2943.94,158.53h-17v8.5h17V158.53"/>
<text transform="matrix(1 0 0 1 2929.1079 165.2656)" style="&st8;"><tspan x="0" y="0" style="&st23; &st16;">GQ2</tspan></text>
</a>
<a ewd:code="281001" ewd:figtype="sp" style="cursor:pointer;" ewd:figID="501">
<path style="&st20;" d="M2854.7,634.45h8.5l4.25,4.25v8.5l-4.25,4.25h-8.5l-4.25-4.25v-8.5L2854.7,634.45"/>
</a>
<a ewd:code="FUSE10" ewd:figtype="rb" style="cursor:pointer;" ewd:figID="401">
<path style="&st25;" d="M75.67,39.55v42.49h25.49V39.55H75.67"/>
</a>
<a ewd:code="FUSE10" ewd:figtype="rb" style="cursor:pointer;" ewd:figID="402">
<path style="&st25;" d="M2684.73,39.55v42.49h25.5V39.55H2684.73"/>
</a>
<a ewd:code="2" ewd:figtype="jb" style="cursor:pointer;" ewd:figID="302">
<path style="&st22;" d="M751.31,82.04v76.49h25.49V82.04H751.31"/>
</a>
<a ewd:code="2" ewd:figtype="jb" style="cursor:pointer;" ewd:figID="301">
<path style="&st22;" d="M139.41,39.55v110.48h314.44V82.04H326.38V39.55H139.41"/>
</a>
<a ewd:code="4JB" ewd:figtype="jb" style="cursor:pointer;" ewd:figID="310">
<path style="&st22;" d="M2841.96,489.97v51h25.49v-51H2841.96"/>
</a>
<a ewd:code="3JB" ewd:figtype="jb" style="cursor:pointer;" ewd:figID="309">
<path style="&st22;" d="M2841.96,421.99v50.99h25.49v-50.99H2841.96"/>
</a>
<a ewd:code="4JB" ewd:figtype="jb" style="cursor:pointer;" ewd:figID="305">
<path style="&st22;" d="M2604,243.52v50.99h33.99v-50.99H2604"/>
</a>
<a ewd:code="3JB" ewd:figtype="jb" style="cursor:pointer;" ewd:figID="303">
<path style="&st22;" d="M2604,150.03v50.99h33.99v-50.99H2604"/>
</a>
<a ewd:code="2" ewd:figtype="jb" style="cursor:pointer;" ewd:figID="306">
<path style="&st22;" d="M2680.48,141.53v50.99h25.5v-50.99H2680.48"/>
</a>
<a ewd:code="3JB" ewd:figtype="jb" style="cursor:pointer;" ewd:figID="307">
<path style="&st22;" d="M2756.97,133.04v59.48h39.87v-59.48H2756.97"/>
</a>
<a ewd:code="2" ewd:figtype="jb" style="cursor:pointer;" ewd:figID="304">
<path style="&st22;" d="M2604,39.55v67.99h67.98V39.55H2604"/>
</a>
<a ewd:code="2" ewd:figtype="jb" style="cursor:pointer;" ewd:figID="308">
<path style="&st22;" d="M2816.46,39.55v67.99h59.49V39.55H2816.46"/>
</a>
<a ewd:code="G3" ewd:figtype="gp" style="cursor:pointer;" ewd:figID="202">
<path style="&st20;" d="M757.68,685.44h21.25l-10.63,15.58L757.68,685.44"/>
<text transform="matrix(1 0 0 1 763.3228 693.5962)" style="&st8;"><tspan x="0" y="0" style="&st23; &st16;">G3</tspan></text>
</a>
<a ewd:code="G5" ewd:figtype="gp" style="cursor:pointer;" ewd:figID="201">
<path style="&st20;" d="M604.7,685.44h21.25l-10.62,15.58L604.7,685.44"/>
<text transform="matrix(1 0 0 1 610.353 693.5962)" style="&st8;"><tspan x="0" y="0" style="&st23; &st16;">G5</tspan></text>
</a>
<a ewd:code="C1" ewd:figtype="gp" style="cursor:pointer;" ewd:figID="203">
<path style="&st20;" d="M2780.34,685.44h21.25l-10.63,15.58L2780.34,685.44"/>
<text transform="matrix(1 0 0 1 2786.6929 693.5962)" style="&st8;"><tspan x="0" y="0" style="&st23; &st16;">C1</tspan></text>
</a>
<a ewd:code="C2" ewd:figtype="gp" style="cursor:pointer;" ewd:figID="204">
<path style="&st20;" d="M2814.34,685.44h21.24l-10.62,15.58L2814.34,685.44"/>
<text transform="matrix(1 0 0 1 2820.2729 693.5962)" style="&st8;"><tspan x="0" y="0" style="&st23; &st16;">C2</tspan></text>
</a>
<a ewd:code="C4" ewd:figtype="gp" style="cursor:pointer;" ewd:figID="205">
<path style="&st20;" d="M2848.33,685.44h21.25l-10.63,15.58L2848.33,685.44"/>
<text transform="matrix(1 0 0 1 2854.2729 693.5962)" style="&st8;"><tspan x="0" y="0" style="&st23; &st16;">C4</tspan></text>
</a>
<a ewd:code="C6" ewd:figtype="gp" style="cursor:pointer;" ewd:figID="206">
<path style="&st20;" d="M2882.32,685.44h21.25l-10.62,15.58L2882.32,685.44"/>
<text transform="matrix(1 0 0 1 2888.2632 693.5962)" style="&st8;"><tspan x="0" y="0" style="&st23; &st16;">C6</tspan></text>
</a>
<a ewd:code="G5" ewd:figtype="gp" style="cursor:pointer;" ewd:figID="207">
<path style="&st20;" d="M2950.31,685.44h21.25l-10.62,15.58L2950.31,685.44"/>
<text transform="matrix(1 0 0 1 2955.9526 693.5962)" style="&st8;"><tspan x="0" y="0" style="&st23; &st16;">G5</tspan></text>
</a>
<a ewd:code="Q2" ewd:figtype="gp" style="cursor:pointer;" ewd:figID="208">
<path style="&st20;" d="M2999.8,685.44h21.25l-10.62,15.58L2999.8,685.44"/>
<text transform="matrix(1 0 0 1 3005.4429 693.5962)" style="&st8;"><tspan x="0" y="0" style="&st23; &st16;">Q2</tspan></text>
</a>
<a ewd:code="R1" ewd:figtype="gp" style="cursor:pointer;" ewd:figID="209">
<path style="&st20;" d="M3050.79,685.44h21.25l-10.62,15.58L3050.79,685.44"/>
<text transform="matrix(1 0 0 1 3057.1431 693.5962)" style="&st8;"><tspan x="0" y="0" style="&st23; &st16;">R1</tspan></text>
</a>
<a ewd:code="FUSE75" ewd:figtype="fuse" style="cursor:pointer;" ewd:figID="104">
<path style="&st9;" d="M262.64,39.55v42.49h25.49V39.55H262.64"/>
</a>
<a ewd:code="FUSE65" ewd:figtype="fuse" style="cursor:pointer;" ewd:figID="103">
<path style="&st9;" d="M203.15,39.55v42.49h25.49V39.55H203.15"/>
</a>
<a ewd:code="FUSE87" ewd:figtype="fuse" style="cursor:pointer;" ewd:figID="102">
<path style="&st9;" d="M143.66,39.55v42.49h25.49V39.55H143.66"/>
</a>
<a ewd:code="FUSE10" ewd:figtype="fuse" style="cursor:pointer;" ewd:figID="101">
<path style="&st9;" d="M75.67,39.55v42.49h25.49V39.55H75.67"/>
</a>
<a ewd:code="FUSE67" ewd:figtype="fuse" style="cursor:pointer;" ewd:figID="107">
<path style="&st9;" d="M2820.71,39.55v42.49h25.49V39.55H2820.71"/>
</a>
<a ewd:code="FUSE10" ewd:figtype="fuse" style="cursor:pointer;" ewd:figID="106">
<path style="&st9;" d="M2684.73,39.55v42.49h25.5V39.55H2684.73"/>
</a>
<a ewd:code="FUSE75" ewd:figtype="fuse" style="cursor:pointer;" ewd:figID="105">
<path style="&st9;" d="M2616.74,39.55v42.49h25.5V39.55H2616.74"/>
</a>
<a ewd:code="Q26" ewd:figtype="conn" style="cursor:pointer;" ewd:figID="6">
<path style="&st25;" d="M1303.71,328.5h84.99v-84.98h-84.99V328.5"/>
<title ewd:textID="20">Front Seat Inner Belt Assembly RH</title>
</a>
<a ewd:code="R10" ewd:figtype="conn" style="cursor:pointer;" ewd:figID="7">
<path style="&st25;" d="M1431.19,328.5h84.99v-84.98h-84.99V328.5"/>
<title ewd:textID="19">Front Seat Inner Belt Assembly LH</title>
</a>
<a ewd:code="G1-A,Q1-B,Q25-C,R1-D" ewd:figtype="conn" style="cursor:pointer;" ewd:figID="18">
<path style="&st25;" d="M1184.73,421.99v50.99h526.91v-50.99H1184.73"/>
<title ewd:textID="11">Airbag Sensor Assembly</title>
</a>
<a ewd:code="Q26" ewd:figtype="conn" style="cursor:pointer;" ewd:figID="5">
<path style="&st25;" d="M1184.73,192.52v-84.98h84.99v84.98H1184.73"/>
<title ewd:textID="20">Front Seat Inner Belt Assembly RH</title>
</a>
<a ewd:code="R10" ewd:figtype="conn" style="cursor:pointer;" ewd:figID="4">
<path style="&st25;" d="M1065.75,192.52v-84.98h84.99v84.98H1065.75"/>
<title ewd:textID="19">Front Seat Inner Belt Assembly LH</title>
</a>
<a ewd:code="G79,G80,G140,G141" ewd:figtype="conn" style="cursor:pointer;" ewd:figID="3">
<path style="&st25;" d="M759.8,311.5V337h17v-25.5H759.8"/>
<title ewd:textID="22">Junction Connector</title>
</a>
<a ewd:code="G127" ewd:figtype="conn" style="cursor:pointer;" ewd:figID="2">
<path style="&st25;" d="M708.81,311.5h17v16.99h-17V311.5"/>
<title ewd:textID="22">Junction Connector</title>
</a>
<a ewd:code="G128-C,G129-D" ewd:figtype="conn" style="cursor:pointer;" ewd:figID="14">
<path style="&st25;" d="M555.84,532.47h16.99v25.49h-16.99V532.47"/>
<title ewd:textID="22">Junction Connector</title>
</a>
<a ewd:code="G106" ewd:figtype="conn" style="cursor:pointer;" ewd:figID="16">
<path style="&st25;" d="M606.83,659.95v16.99h17v-16.99H606.83"/>
<title ewd:textID="22">Junction Connector</title>
</a>
<a ewd:code="G104" ewd:figtype="conn" style="cursor:pointer;" ewd:figID="17">
<path style="&st25;" d="M759.8,659.95h17v16.99h-17V659.95"/>
<title ewd:textID="22">Junction Connector</title>
</a>
<a ewd:code="Q26" ewd:figtype="conn" style="cursor:pointer;" ewd:figID="19">
<path style="&st25;" d="M1431.19,557.96v93.49h84.99v-93.49H1431.19"/>
<title ewd:textID="20">Front Seat Inner Belt Assembly RH</title>
</a>
<a ewd:code="A72" ewd:figtype="conn" style="cursor:pointer;" ewd:figID="21">
<path style="&st25;" d="M1830.62,489.97v25.5h51v-25.5H1830.62"/>
<title ewd:textID="22">Junction Connector</title>
</a>
<a ewd:code="G97" ewd:figtype="conn" style="cursor:pointer;" ewd:figID="9">
<path style="&st25;" d="M1830.62,252.01v25.5h51v-25.5H1830.62"/>
<title ewd:textID="22">Junction Connector</title>
</a>
<a ewd:code="G100" ewd:figtype="conn" style="cursor:pointer;" ewd:figID="8">
<path style="&st25;" d="M1652.15,167.03v25.49h229.47v-25.49H1652.15"/>
<title ewd:textID="22">Junction Connector</title>
</a>
<a ewd:code="A47,A48" ewd:figtype="conn" style="cursor:pointer;" ewd:figID="24">
<path style="&st25;" d="M2315.04,540.97h84.99v16.99h-84.99V540.97"/>
<title ewd:textID="27">Short Connector</title>
</a>
<a ewd:code="A72,A73" ewd:figtype="conn" style="cursor:pointer;" ewd:figID="23">
<path style="&st25;" d="M2315.04,413.49v25.49h169.98v-25.49H2315.04"/>
<title ewd:textID="22">Junction Connector</title>
</a>
<a ewd:code="G5" ewd:figtype="conn" style="cursor:pointer;" ewd:figID="11">
<path style="&st25;" d="M2612.49,345.5v50.99h51V345.5H2612.49"/>
<title ewd:textID="29">Telltale Light Assembly</title>
</a>
<a ewd:code="G92,G143" ewd:figtype="conn" style="cursor:pointer;" ewd:figID="26">
<path style="&st25;" d="M2901.45,430.48h16.99v17h-16.99V430.48"/>
<title ewd:textID="22">Junction Connector</title>
</a>
<a ewd:code="R27,R28" ewd:figtype="conn" style="cursor:pointer;" ewd:figID="28">
<path style="&st25;" d="M3052.92,506.97v25.5h17v-25.5H3052.92"/>
<title ewd:textID="22">Junction Connector</title>
</a>
<a ewd:code="G81-A,G82-B,G128-C,G129-D" ewd:figtype="conn" style="cursor:pointer;" ewd:figID="25">
<path style="&st25;" d="M2901.45,532.47v33.99h67.98v-33.99H2901.45"/>
<title ewd:textID="22">Junction Connector</title>
</a>
<a ewd:code="R31" ewd:figtype="conn" style="cursor:pointer;" ewd:figID="29">
<path style="&st25;" d="M3052.92,600.46h17v16.99h-17V600.46"/>
<title ewd:textID="22">Junction Connector</title>
</a>
<a ewd:code="G106" ewd:figtype="conn" style="cursor:pointer;" ewd:figID="27">
<path style="&st25;" d="M2952.44,659.95h16.99v16.99h-16.99V659.95"/>
<title ewd:textID="22">Junction Connector</title>
</a>
<a ewd:code="Q21,R34" ewd:figtype="conn" style="cursor:pointer;" ewd:figID="13">
<path style="&st25;" d="M2984.93,260.51v118.98h84.99V260.51H2984.93"/>
<title ewd:textID="21">Front Seat Inner Belt Assembly RH,Front Seat Inner Belt Assembly LH</title>
</a>
<a ewd:code="G6-A,G7-B" ewd:figtype="conn" style="cursor:pointer;" ewd:figID="12">
<path style="&st25;" d="M2688.98,235.02v144.47h271.96V235.02H2688.98"/>
<title ewd:textID="15">Combination Meter Assembly</title>
</a>
<a ewd:code="G94,G132" ewd:figtype="conn" style="cursor:pointer;" ewd:figID="10">
<path style="&st25;" d="M2230.06,252.01v25.5h331.44v-25.5H2230.06"/>
<title ewd:textID="22">Junction Connector</title>
</a>
<a ewd:code="A6" ewd:figtype="conn" style="cursor:pointer;" ewd:figID="20">
<path style="&st25;" d="M1822.13,617.45v-33.99h212.46v33.99H1822.13"/>
<title ewd:textID="12">Brake Actuator Assembly</title>
</a>
<a ewd:code="A7" ewd:figtype="conn" style="cursor:pointer;" ewd:figID="22">
<path style="&st25;" d="M2094.08,668.44v-33.99h314.45v33.99H2094.08"/>
<title ewd:textID="12">Brake Actuator Assembly</title>
</a>
<a ewd:code="G63-A,G64-B" ewd:figtype="conn" style="cursor:pointer;" ewd:figID="1">
<path style="&st25;" d="M326.38,39.55v42.49h2048.15V39.55H326.38"/>
<title ewd:textID="23">Main Body ECU</title>
</a>
<a ewd:code="G81-A,G82-B,G164,G165" ewd:figtype="conn" style="cursor:pointer;" ewd:figID="15">
<path style="&st25;" d="M606.83,523.4h17v25.49h-17V523.4"/>
<title ewd:textID="22">Junction Connector</title>
</a>
</g>
</svg>
