﻿<?xml version="1.0" encoding="UTF-8"?>
<!DOCTYPE svg PUBLIC "-//W3C//DTD SVG 1.0//EN" "http://www.w3.org/TR/2001/REC-SVG-20010904/DTD/svg10.dtd"[
<!ENTITY ns_flows "http://ns.adobe.com/Flows/1.0/">
<!ENTITY ns_svg "http://www.w3.org/2000/svg">
<!ENTITY ns_xlink "http://www.w3.org/1999/xlink">
	<!ENTITY st0 "fill:none;stroke:#FB0F0C;stroke-width:5.1;stroke-linejoin:round;">
	<!ENTITY st1 "fill:none;stroke:#9A9999;stroke-width:5.1;stroke-linejoin:round;">
	<!ENTITY st2 "fill:none;stroke:#000000;stroke-width:5.1;stroke-linejoin:round;">
	<!ENTITY st3 "fill:none;stroke:#000000;stroke-linecap:round;stroke-linejoin:round;">
	<!ENTITY st4 "stroke:#000000;stroke-width:0.28;stroke-linecap:round;stroke-linejoin:round;enable-background:new    ;">
	<!ENTITY st5 "enable-background:new    ;">
		<!ENTITY st6 "fill:none;stroke:#000000;stroke-width:1.42;stroke-linecap:round;stroke-linejoin:round;enable-background:new    ;">
	<!ENTITY st7 "fill:none;stroke:#EE67AA;stroke-width:5.1;stroke-linejoin:round;">
	<!ENTITY st8 "fill:none;stroke:#199DBF;stroke-width:5.1;stroke-linejoin:round;">
	<!ENTITY st9 "opacity:0.5;fill:none;stroke:#34ACCE;stroke-linejoin:round;stroke-dasharray:6;">
	<!ENTITY st10 "fill:none;stroke:#FFFFFF;stroke-width:4.53;stroke-linejoin:round;">
		<!ENTITY st11 "fill:none;stroke:#000000;stroke-width:0.85;stroke-linecap:round;stroke-linejoin:round;enable-background:new    ;">
	<!ENTITY st12 "font-size:6px;">
	<!ENTITY st13 "fill:none;stroke:#000000;stroke-width:1.13;">
	<!ENTITY st14 "fill:none;stroke:#168638;stroke-width:5.1;stroke-linejoin:round;">
	<!ENTITY st15 "fill:#FFFFFF;stroke:#000000;stroke-width:1.41;stroke-linecap:round;stroke-linejoin:round;">
	<!ENTITY st16 "fill:none;stroke:#550E7B;stroke-width:5.1;stroke-linejoin:round;">
	<!ENTITY st17 "fill:none;stroke:#3E65AC;stroke-width:3;">
	<!ENTITY st18 "fill:#CCCCCC;stroke:#CCCCCC;stroke-width:0.1;stroke-linecap:round;stroke-linejoin:round;">
	<!ENTITY st19 "font-family:'ArialMT';">
	<!ENTITY st20 "opacity:0.5;fill:none;stroke:#34ACCE;stroke-linejoin:round;">
	<!ENTITY st21 "fill:none;stroke:#000000;stroke-width:1.42;stroke-linecap:round;stroke-linejoin:round;">
	<!ENTITY st22 "fill:#CFE6E7;stroke:#000000;stroke-width:1.133;stroke-linecap:round;stroke-linejoin:round;">
	<!ENTITY st23 "fill:none;stroke:#000000;stroke-width:0.85;stroke-linecap:round;stroke-linejoin:round;stroke-dasharray:3 1.5;">
	<!ENTITY st24 "fill:none;stroke:#000000;stroke-width:0.85;stroke-linecap:round;stroke-linejoin:round;">
<!ATTLIST svg
xmlns:ewd CDATA #FIXED "http://shcl.co.jp/ewd"
xmlns:a CDATA #FIXED "http://ns.adobe.com/AdobeSVGViewerExtensions/3.0/"
ewd:ver CDATA #IMPLIED
>
<!ATTLIST a
ewd:lineID CDATA #IMPLIED
ewd:groupID CDATA #IMPLIED
ewd:figtype CDATA #IMPLIED
ewd:code CDATA #IMPLIED
ewd:figID CDATA #IMPLIED
ewd:pinNo CDATA #IMPLIED
ewd:comment CDATA #IMPLIED >
<!ATTLIST g
ewd:lineID CDATA #IMPLIED
ewd:groupID CDATA #IMPLIED
ewd:figtype CDATA #IMPLIED
ewd:code CDATA #IMPLIED
ewd:figID CDATA #IMPLIED
ewd:pinNo CDATA #IMPLIED
ewd:comment CDATA #IMPLIED >
<!ATTLIST text
ewd:textID CDATA #IMPLIED >
<!ATTLIST title
ewd:textID CDATA #IMPLIED >
]>
<svg 
viewBox='0 0 1048.46 729.44'
height='729.44'
width='1048.46'
xml:space="preserve"
xmlns="&ns_svg;"
xmlns:ewd="http://shcl.co.jp/ewd"
xmlns:xlink="&ns_xlink;" ewd:ver="L2.1">
<g ewd:code="TG2" ewd:figID="6022" ewd:figtype="w2w" ewd:pinNo="11">
<path style="&st6;" d="M677.55,376.02l4.24,4.25l4.25-4.25"/>
<path style="&st6;" d="M686.04,379.42l-4.25,4.25l-4.24-4.25"/>
<text transform="matrix(1 0 0 1 664.0566 391.2964)" style="&st5;"><tspan x="0" y="0" style="&st19; &st12;">11</tspan></text>
</g>
<g ewd:code="TG2" ewd:figID="6023" ewd:figtype="w2w" ewd:pinNo="16">
<path style="&st6;" d="M768.23,376.02l4.24,4.25l4.25-4.25"/>
<path style="&st6;" d="M776.72,379.42l-4.25,4.25l-4.24-4.25"/>
<text transform="matrix(1 0 0 1 754.2949 391.2964)" style="&st5;"><tspan x="0" y="0" style="&st19; &st12;">16</tspan></text>
</g>
<g ewd:code="TG2" ewd:figID="6024" ewd:figtype="w2w" ewd:pinNo="17">
<path style="&st6;" d="M831.86,376.02l4.24,4.25l4.25-4.25"/>
<path style="&st6;" d="M840.35,379.42l-4.25,4.25l-4.24-4.25"/>
<text transform="matrix(1 0 0 1 817.9219 391.2964)" style="&st5;"><tspan x="0" y="0" style="&st19; &st12;">17</tspan></text>
</g>
<g ewd:code="TG2" ewd:figID="6021" ewd:figtype="w2w" ewd:pinNo="9">
<path style="&st6;" d="M626.29,539.02l-4.25-4.25l-4.25,4.25"/>
<path style="&st6;" d="M626.29,535.62l-4.25-4.25l-4.25,4.25"/>
<text transform="matrix(1 0 0 1 607.207 527.6851)" style="&st5;"><tspan x="0" y="0" style="&st19; &st12;">9</tspan></text>
</g>
<g ewd:code="Qw1" ewd:figID="6011" ewd:figtype="w2w" ewd:pinNo="2">
<path style="&st6;" d="M768.23,268.51l4.24,4.25l4.25-4.25"/>
<path style="&st6;" d="M776.72,271.91l-4.25,4.25l-4.24-4.25"/>
<text transform="matrix(1 0 0 1 757.6299 283.7925)" style="&st5;"><tspan x="0" y="0" style="&st19; &st12;">2</tspan></text>
</g>
<g ewd:code="GQ1" ewd:figID="6010" ewd:figtype="w2w" ewd:pinNo="32">
<text transform="matrix(1 0 0 1 782.377 340.3594)" style="&st5;"><tspan x="0" y="0" style="&st19; &st12;">(RHD)</tspan></text>
<text transform="matrix(1 0 0 1 754.293 340.3594)" style="&st5;"><tspan x="0" y="0" style="&st19; &st12;">32</tspan></text>
</g>
<g ewd:code="GQ1" ewd:figID="6009" ewd:figtype="w2w" ewd:pinNo="26">
<path style="&st6;" d="M768.23,316.58l4.24,4.25l4.25-4.25"/>
<path style="&st6;" d="M776.72,319.98l-4.25,4.25l-4.24-4.25"/>
<text transform="matrix(1 0 0 1 782.377 331.8594)" style="&st5;"><tspan x="0" y="0" style="&st19; &st12;">(LHD)</tspan></text>
<text transform="matrix(1 0 0 1 754.293 331.8594)" style="&st5;"><tspan x="0" y="0" style="&st19; &st12;">26</tspan></text>
</g>
<g ewd:code="Qw1" ewd:figID="6014" ewd:figtype="w2w" ewd:pinNo="3">
<path style="&st6;" d="M831.85,268.51l4.24,4.25l4.25-4.25"/>
<path style="&st6;" d="M840.34,271.91l-4.25,4.25l-4.24-4.25"/>
<text transform="matrix(1 0 0 1 821.2549 283.7925)" style="&st5;"><tspan x="0" y="0" style="&st19; &st12;">3</tspan></text>
</g>
<g ewd:code="Qw1" ewd:figID="6015" ewd:figtype="w2w" ewd:pinNo="1">
<path style="&st6;" d="M913.66,268.51l4.24,4.25l4.25-4.25"/>
<path style="&st6;" d="M922.14,271.91l-4.25,4.25l-4.24-4.25"/>
<text transform="matrix(1 0 0 1 903.0576 283.7925)" style="&st5;"><tspan x="0" y="0" style="&st19; &st12;">1</tspan></text>
</g>
<g ewd:code="Qw1" ewd:figID="6016" ewd:figtype="w2w" ewd:pinNo="5">
<path style="&st6;" d="M965.3,268.51l4.24,4.25l4.25-4.25"/>
<path style="&st6;" d="M973.79,271.91l-4.25,4.25l-4.24-4.25"/>
<text transform="matrix(1 0 0 1 954.7041 283.7925)" style="&st5;"><tspan x="0" y="0" style="&st19; &st12;">5</tspan></text>
</g>
<g ewd:code="GQ1" ewd:figID="6012" ewd:figtype="w2w" ewd:pinNo="33">
<text transform="matrix(1 0 0 1 846.002 340.3594)" style="&st5;"><tspan x="0" y="0" style="&st19; &st12;">(RHD)</tspan></text>
<text transform="matrix(1 0 0 1 817.918 340.3594)" style="&st5;"><tspan x="0" y="0" style="&st19; &st12;">33</tspan></text>
</g>
<g ewd:code="GQ1" ewd:figID="6013" ewd:figtype="w2w" ewd:pinNo="27">
<path style="&st6;" d="M831.85,316.58l4.24,4.25l4.25-4.25"/>
<path style="&st6;" d="M840.34,319.98l-4.25,4.25l-4.24-4.25"/>
<text transform="matrix(1 0 0 1 846.002 331.8594)" style="&st5;"><tspan x="0" y="0" style="&st19; &st12;">(LHD)</tspan></text>
<text transform="matrix(1 0 0 1 817.918 331.8594)" style="&st5;"><tspan x="0" y="0" style="&st19; &st12;">27</tspan></text>
</g>
<g ewd:code="4JB" ewd:figID="3005" ewd:figtype="jb">
<path style="&st6;" d="M624.17,616.34h-4.25"/>
<path style="&st6;" d="M624.17,607.84h-4.25"/>
<path style="&st6;" d="M624.17,573.85h-4.25"/>
<path style="&st6;" d="M624.17,565.35h-4.25"/>
<path style="&st11;" d="M622.04,607.84v-33.99"/>
<path style="&st4;" d="M622.04,602.95l-2.83-2.84v4.25l2.83,2.84l2.83-2.84v-4.25L622.04,602.95"/>
<path style="&st4;" d="M622.04,578.74l2.83,2.83v-4.24l-2.83-2.84l-2.83,2.84v4.24L622.04,578.74"/>
<path style="&st6;" d="M619.92,565.35c-2.35,0-4.25,1.9-4.25,4.25"/>
<path style="&st6;" d="M615.67,569.6c0,2.34,1.9,4.25,4.25,4.25"/>
<path style="&st6;" d="M624.17,573.85c2.34,0,4.25-1.91,4.25-4.25"/>
<path style="&st6;" d="M628.42,569.6c0-2.35-1.91-4.25-4.25-4.25"/>
<path style="&st6;" d="M619.92,607.84c-2.35,0-4.25,1.9-4.25,4.25"/>
<path style="&st6;" d="M615.67,612.09c0,2.35,1.9,4.25,4.25,4.25"/>
<path style="&st6;" d="M624.17,616.34c2.34,0,4.25-1.9,4.25-4.25"/>
<path style="&st6;" d="M628.42,612.09c0-2.35-1.91-4.25-4.25-4.25"/>
<text transform="matrix(0 -1 1 0 618.501 557.7935)" style="&st5;"><tspan x="0" y="0" style="&st19; &st12;">W-B</tspan></text>
<text transform="matrix(1 0 0 1 617.5947 571.5688)" style="&st5;"><tspan x="0" y="0" style="&st19; &st12;">4C</tspan></text>
<text transform="matrix(1 0 0 1 617.7334 614.0591)" style="&st5;"><tspan x="0" y="0" style="&st19; &st12;">4A</tspan></text>
<text transform="matrix(1 0 0 1 605.417 571.5688)" style="&st5;"><tspan x="0" y="0" style="&st19; &st12;">24</tspan></text>
<text transform="matrix(1 0 0 1 605.417 614.0591)" style="&st5;"><tspan x="0" y="0" style="&st19; &st12;">68</tspan></text>
</g>
<g ewd:code="2" ewd:figID="3004" ewd:figtype="jb">
<path style="&st3;" d="M694.54,82.04V39.55h-25.5v42.49H694.54"/>
<path style="&st11;" d="M681.79,73.54v25.5"/>
<path style="&st6;" d="M683.92,99.04h-4.25"/>
<path style="&st6;" d="M683.92,107.54h-4.25"/>
<path style="&st6;" d="M694.54,82.04V39.55h-25.5v42.49H694.54"/>
<path style="&st4;" d="M681.79,94.14l-2.83-2.83v4.25l2.83,2.83l2.83-2.83v-4.25L681.79,94.14"/>
<path style="&st6;" d="M681.79,50.88c-2.74,1.61-3.65,5.14-2.04,7.88"/>
<path style="&st6;" d="M679.75,58.76c0.52,0.88,1.16,1.51,2.04,2.03"/>
<path style="&st6;" d="M681.79,70.71c2.74-1.62,3.65-5.14,2.04-7.88"/>
<path style="&st6;" d="M683.83,62.83c-0.52-0.88-1.16-1.52-2.04-2.04"/>
<path style="&st11;" d="M683.21,49.46c0-0.78-0.64-1.41-1.42-1.41"/>
<path style="&st11;" d="M681.79,48.05c-0.78,0-1.41,0.63-1.41,1.41"/>
<path style="&st11;" d="M680.38,49.46c0,0.78,0.63,1.42,1.41,1.42"/>
<path style="&st11;" d="M681.79,50.88c0.78,0,1.42-0.64,1.42-1.42"/>
<path style="&st11;" d="M683.21,72.12c0-0.78-0.64-1.41-1.42-1.41"/>
<path style="&st11;" d="M681.79,70.71c-0.78,0-1.41,0.63-1.41,1.41"/>
<path style="&st11;" d="M680.38,72.12c0,0.79,0.63,1.42,1.41,1.42"/>
<path style="&st11;" d="M681.79,73.54c0.78,0,1.42-0.63,1.42-1.42"/>
<path style="&st6;" d="M679.67,99.04c-2.35,0-4.25,1.9-4.25,4.25"/>
<path style="&st6;" d="M675.42,103.29c0,2.34,1.9,4.25,4.25,4.25"/>
<path style="&st6;" d="M683.92,107.54c2.34,0,4.25-1.91,4.25-4.25"/>
<path style="&st6;" d="M688.17,103.29c0-2.35-1.91-4.25-4.25-4.25"/>
<text transform="matrix(1 0 0 1 699.0947 59.9365)" style="&st5;"><tspan x="0" y="0" style="&st19; &st12;">10A</tspan></text>
<text transform="matrix(1 0 0 1 699.0947 65.9365)" style="&st5;"><tspan x="0" y="0" style="&st19; &st12;">ECU-IG </tspan><tspan x="0" y="7" style="&st19; &st12;">NO. 2</tspan></text>
<text transform="matrix(1 0 0 1 677.4746 105.2568)" style="&st5;"><tspan x="0" y="0" style="&st19; &st12;">2D</tspan></text>
<text transform="matrix(1 0 0 1 675.7148 35.8467)" style="&st5;"><tspan x="0" y="0" style="&st19; &st12;">(IG)</tspan></text>
<text transform="matrix(1 0 0 1 666.0703 105.2568)" style="&st5;"><tspan x="0" y="0" style="&st19; &st12;">39</tspan></text>
</g>
<g ewd:code="3JB" ewd:figID="3002" ewd:figtype="jb">
<path style="&st6;" d="M683.9,245.52h-4.25"/>
<path style="&st6;" d="M683.9,237.02h-4.25"/>
<path style="&st6;" d="M683.9,203.03h-4.25"/>
<path style="&st6;" d="M683.9,194.53h-4.25"/>
<path style="&st11;" d="M681.77,237.02v-33.99"/>
<path style="&st4;" d="M681.77,232.13l-2.83-2.84v4.25l2.83,2.84l2.83-2.84v-4.25L681.77,232.13"/>
<path style="&st4;" d="M681.77,207.92l2.83,2.83v-4.24l-2.83-2.84l-2.83,2.84v4.24L681.77,207.92"/>
<path style="&st6;" d="M679.65,194.53c-2.35,0-4.25,1.9-4.25,4.25"/>
<path style="&st6;" d="M675.4,198.78c0,2.34,1.9,4.25,4.25,4.25"/>
<path style="&st6;" d="M683.9,203.03c2.34,0,4.25-1.91,4.25-4.25"/>
<path style="&st6;" d="M688.15,198.78c0-2.35-1.91-4.25-4.25-4.25"/>
<path style="&st6;" d="M679.65,237.02c-2.35,0-4.25,1.9-4.25,4.25"/>
<path style="&st6;" d="M675.4,241.27c0,2.35,1.9,4.25,4.25,4.25"/>
<path style="&st6;" d="M683.9,245.52c2.34,0,4.25-1.9,4.25-4.25"/>
<path style="&st6;" d="M688.15,241.27c0-2.35-1.91-4.25-4.25-4.25"/>
<text transform="matrix(1 0 0 1 677.3203 200.7466)" style="&st5;"><tspan x="0" y="0" style="&st19; &st12;">3B</tspan></text>
<text transform="matrix(1 0 0 1 677.459 243.2368)" style="&st5;"><tspan x="0" y="0" style="&st19; &st12;">3A</tspan></text>
<text transform="matrix(1 0 0 1 665.1426 200.7466)" style="&st5;"><tspan x="0" y="0" style="&st19; &st12;">36</tspan></text>
<text transform="matrix(1 0 0 1 665.1426 243.2368)" style="&st5;"><tspan x="0" y="0" style="&st19; &st12;">18</tspan></text>
</g>
<g ewd:code="4JB" ewd:figID="3003" ewd:figtype="jb">
<path style="&st6;" d="M683.9,332.18h-4.25"/>
<path style="&st6;" d="M683.9,323.68h-4.25"/>
<path style="&st6;" d="M683.9,289.69h-4.25"/>
<path style="&st6;" d="M683.9,281.19h-4.25"/>
<path style="&st11;" d="M681.77,323.68v-33.99"/>
<path style="&st4;" d="M681.77,318.79l-2.83-2.84v4.25l2.83,2.84l2.83-2.84v-4.25L681.77,318.79"/>
<path style="&st4;" d="M681.77,294.58l2.83,2.83v-4.24l-2.83-2.84l-2.83,2.84v4.24L681.77,294.58"/>
<path style="&st6;" d="M679.65,281.19c-2.35,0-4.25,1.9-4.25,4.25"/>
<path style="&st6;" d="M675.4,285.44c0,2.34,1.9,4.25,4.25,4.25"/>
<path style="&st6;" d="M683.9,289.69c2.34,0,4.25-1.91,4.25-4.25"/>
<path style="&st6;" d="M688.15,285.44c0-2.35-1.91-4.25-4.25-4.25"/>
<path style="&st6;" d="M679.65,323.68c-2.35,0-4.25,1.9-4.25,4.25"/>
<path style="&st6;" d="M675.4,327.93c0,2.35,1.9,4.25,4.25,4.25"/>
<path style="&st6;" d="M683.9,332.18c2.34,0,4.25-1.9,4.25-4.25"/>
<path style="&st6;" d="M688.15,327.93c0-2.35-1.91-4.25-4.25-4.25"/>
<text transform="matrix(1 0 0 1 677.3203 287.4131)" style="&st5;"><tspan x="0" y="0" style="&st19; &st12;">4A</tspan></text>
<text transform="matrix(1 0 0 1 677.459 329.9033)" style="&st5;"><tspan x="0" y="0" style="&st19; &st12;">4C</tspan></text>
<text transform="matrix(1 0 0 1 665.1426 287.4131)" style="&st5;"><tspan x="0" y="0" style="&st19; &st12;">14</tspan></text>
<text transform="matrix(1 0 0 1 665.1426 329.9033)" style="&st5;"><tspan x="0" y="0" style="&st19; &st12;">13</tspan></text>
</g>
<g ewd:code="G5" ewd:figID="2003" ewd:figtype="gp">
<path style="&st11;" d="M620.63,713.15h2.83"/>
<path style="&st11;" d="M619.21,710.31h5.67"/>
<path style="&st11;" d="M617.8,707.48h8.49"/>
<path style="&st11;" d="M613.55,704.65h16.99"/>
<path style="&st11;" d="M622.04,700.4v4.25"/>
</g>
<g ewd:code="Q2" ewd:figID="2004" ewd:figtype="gp">
<path style="&st11;" d="M915.06,713.77h5.67"/>
<path style="&st11;" d="M913.65,710.93h8.49"/>
<path style="&st11;" d="M909.4,708.1h16.99"/>
<path style="&st11;" d="M917.89,703.85v4.25"/>
</g>
<g ewd:code="G106" ewd:figID="8" ewd:figtype="conn">
<path style="&st6;" d="M613.55,659.32h16.99v16.99h-16.99V659.32"/>
<path style="&st11;" d="M622.04,659.32v25.49"/>
<text transform="matrix(1 0 0 1 635.5166 659.7935)" style="&st5;"><tspan x="0" y="0" style="&st19; &st12;">G106</tspan></text>
<text ewd:textID="2" transform="matrix(1 0 0 1 635.5166 666.9028)" style="&st5; &st19; &st12;">Junction <tspan x="0" y="7">Connector</tspan></text>
<text transform="matrix(1 0 0 1 613.7109 656.9312)" style="&st5;"><tspan x="0" y="0" style="&st19; &st12;">3</tspan></text>
</g>
<g ewd:code="T7" ewd:figID="7" ewd:figtype="conn">
<path style="&st6;" d="M552.22,448.97v36.36h302.05v-36.36H552.22"/>
<text transform="matrix(1 0 0 1 557.8467 444.6265)" style="&st5;"><tspan x="0" y="0" style="&st19; &st12;">13</tspan></text>
<text transform="matrix(1 0 0 1 614.4961 493.4604)" style="&st5;"><tspan x="0" y="0" style="&st19; &st12;">8</tspan></text>
<text transform="matrix(1 0 0 1 614.6836 444.6265)" style="&st5;"><tspan x="0" y="0" style="&st19; &st12;">4</tspan></text>
<text transform="matrix(1 0 0 1 673.4482 444.6265)" style="&st5;"><tspan x="0" y="0" style="&st19; &st12;">1</tspan></text>
<text transform="matrix(1 0 0 1 761.1113 444.6265)" style="&st5;"><tspan x="0" y="0" style="&st19; &st12;">12</tspan></text>
<text transform="matrix(1 0 0 1 829.2813 444.6265)" style="&st5;"><tspan x="0" y="0" style="&st19; &st12;">3</tspan></text>
<text ewd:textID="1" transform="matrix(1 0 0 1 678.8008 499.8755)" style="&st5; &st19; &st12;">A/C Control Assembly</text>
<text transform="matrix(1 0 0 1 678.0127 492.7759)" style="&st5;"><tspan x="0" y="0" style="&st19; &st12;">T7</tspan></text>
<text transform="matrix(1 0 0 1 565.3486 456.7036)" style="&st5;"><tspan x="0" y="0" style="&st19; &st12;">RLY</tspan></text>
<text transform="matrix(1 0 0 1 620.0986 481.3169)" style="&st5;"><tspan x="0" y="0" style="&st19; &st12;">E</tspan></text>
<text transform="matrix(1 0 0 1 616.0596 456.7036)" style="&st5;"><tspan x="0" y="0" style="&st19; &st12;">COM</tspan></text>
<text transform="matrix(1 0 0 1 678.8984 456.7036)" style="&st5;"><tspan x="0" y="0" style="&st19; &st12;">IG</tspan></text>
<text ewd:textID="5" transform="matrix(1 0 0 1 674.1621 466.7036)" style="&st5; &st19; &st12;">Rear Seat Heater Switch <tspan x="0" y="7">Rear A/C Control Switch</tspan></text>
<text transform="matrix(1 0 0 1 767.0645 456.7036)" style="&st5;"><tspan x="0" y="0" style="&st19; &st12;">RLY</tspan></text>
<text transform="matrix(1 0 0 1 829.2314 456.7036)" style="&st5;"><tspan x="0" y="0" style="&st19; &st12;">COM</tspan></text>
</g>
<g ewd:code="w1" ewd:figID="3" ewd:figtype="conn">
<path style="&st6;" d="M745.2,39.55v173h244.97v-173H745.2"/>
<path style="&st24;" d="M910.32,148.62c0-0.84-0.68-1.51-1.51-1.51s-1.51,0.68-1.51,1.51s0.68,1.51,1.51,1.51S910.32,149.46,910.32,148.62 M910.32,157.71c0-0.84-0.68-1.51-1.51-1.51s-1.51,0.68-1.51,1.51c0,0.84,0.68,1.51,1.51,1.51S910.32,158.54,910.32,157.71"/>
<path style="&st24;" d="M872.45,75.9h36.36v18.18 M799.73,166.8V94.08 M836.09,121.35h4.54v4.54h4.54v-9.09h4.54v9.09h4.54v-9.09h4.55v9.09h4.54v-9.09h4.55v4.54h4.54 M836.09,75.9h4.54v4.54h4.54v-9.09h4.54v9.09h4.54v-9.09h4.55v9.09h4.54v-9.09h4.55v4.54h4.54 M908.8,121.35V94.08 M913.35,148.62v9.09 M904.26,153.16h9.09 M904.26,148.62v9.09 M836.09,175.88v-9.09"/>
<path style="&st21;" d="M872.45,66.81v18.18h-36.36V66.81H872.45z"/>
<path style="&st24;" d="M799.73,175.88v-9.09 M908.8,166.8v9.09"/>
<path style="&st21;" d="M926.98,48.64V166.8H790.64V48.64H926.98z"/>
<path style="&st24;" d="M836.09,194.06v18.18 M917.89,194.06v18.18 M969.54,194.06v18.18"/>
<path style="&st21;" d="M978.89,175.88v18.18H763.38v-18.18H978.89z"/>
<path style="&st24;" d="M772.47,212.24v-18.18"/>
<path style="&st24;" d="M908.8,159.22v7.58 M908.8,121.35v25.75"/>
<path style="&st21;" d="M881.54,139.53v18.18H827v-18.18H881.54z"/>
<path style="&st24;" d="M836.09,157.71v9.09 M799.73,94.08V75.9h36.36"/>
<path style="&st23;" d="M902.75,153.16h-10.61v-28.18 M819.43,124.38v6.06h34.84v9.09"/>
<path style="&st24;" d="M907.53,122.42l-0.29-0.5l-0.1-0.57l0.1-0.57l0.29-0.5l0.44-0.37l0.54-0.2h0.58l0.54,0.2l0.44,0.37l0.29,0.5l0.1,0.57l-0.1,0.57l-0.29,0.5l-0.44,0.37l-0.54,0.2h-0.58l-0.54-0.2L907.53,122.42l0.42-0.76v-0.62l0.4-0.48l0.61-0.11l0.54,0.31l0.21,0.58l-0.21,0.58l-0.54,0.31l-0.61-0.11l0.45-0.79 M798.46,122.42l-0.29-0.5l-0.1-0.57l0.1-0.57l0.29-0.5l0.44-0.37l0.54-0.2h0.58l0.54,0.2l0.44,0.37l0.29,0.5l0.1,0.57l-0.1,0.57l-0.29,0.5l-0.44,0.37l-0.54,0.2h-0.58l-0.54-0.2L798.46,122.42l0.42-0.76v-0.62l0.4-0.48l0.61-0.11l0.54,0.31l0.21,0.58l-0.21,0.58l-0.54,0.31l-0.61-0.11l0.45-0.79 M872.45,157.71v9.09 M872.45,166.8v9.09"/>
<path style="&st21;" d="M790.64,94.08h136.34"/>
<path style="&st24;" d="M799.73,121.35h9.09l1.51-3.03l3.03,6.06l3.03-6.06l3.03,6.06l3.03-6.06l3.03,6.06l1.52-3.03h9.09 M872.45,121.35h9.09l1.51-3.03l3.03,6.06l3.03-6.06l3.03,6.06l3.03-6.06l3.03,6.06l1.51-3.03h9.09"/>
<text transform="matrix(1 0 0 1 764.0127 220.1641)" style="&st5;"><tspan x="0" y="0" style="&st19; &st12;">5</tspan></text>
<text transform="matrix(1 0 0 1 828.667 220.1641)" style="&st5;"><tspan x="0" y="0" style="&st19; &st12;">1</tspan></text>
<text transform="matrix(1 0 0 1 909.9932 220.1641)" style="&st5;"><tspan x="0" y="0" style="&st19; &st12;">6</tspan></text>
<text transform="matrix(1 0 0 1 961.7031 220.1641)" style="&st5;"><tspan x="0" y="0" style="&st19; &st12;">4</tspan></text>
<text ewd:textID="4" transform="matrix(0 -1 1 0 1004.7949 213.7617)" style="&st5; &st19; &st12;">Rear Seat Heater Assembly RH</text>
<text transform="matrix(0 -1 1 0 997.6846 213.7617)" style="&st5;"><tspan x="0" y="0" style="&st19; &st12;">w1</tspan></text>
<text ewd:textID="7" transform="matrix(1 0 0 1 840.9287 62.1597)" style="&st5; &st19; &st12;">Seat Back</text>
<text ewd:textID="8" transform="matrix(1 0 0 1 834.5947 108.356)" style="&st5; &st19; &st12;">Seat Cushion</text>
<text ewd:textID="10" transform="matrix(1 0 0 1 839.3721 150.8916)" style="&st5; &st19; &st12;">Thermistor</text>
<text ewd:textID="9" transform="matrix(1 0 0 1 831.4697 186.5381)" style="&st5; &st19; &st12;">Seat Heater Control</text>
<text transform="matrix(1 0 0 1 775.4863 207.5942)" style="&st5;"><tspan x="0" y="0" style="&st19; &st12;">THR</tspan></text>
<text transform="matrix(1 0 0 1 840.1396 207.5942)" style="&st5;"><tspan x="0" y="0" style="&st19; &st12;">PWR</tspan></text>
<text transform="matrix(1 0 0 1 921.6387 207.5942)" style="&st5;"><tspan x="0" y="0" style="&st19; &st12;">E</tspan></text>
<text transform="matrix(1 0 0 1 972.667 207.5942)" style="&st5;"><tspan x="0" y="0" style="&st19; &st12;">B</tspan></text>
</g>
<text transform="matrix(1 0 0 1 551.5547 638.4497)" style="&st5;"><tspan x="0" y="0" style="&st19; &st12;">B</tspan></text>
<text transform="matrix(0 -1 1 0 963.7334 310.478)" style="&st5;"><tspan x="0" y="0" style="&st19; &st12;">B</tspan></text>
<text transform="matrix(0 -1 1 0 618.501 633.3569)" style="&st5;"><tspan x="0" y="0" style="&st19; &st12;">W-B</tspan></text>
<text transform="matrix(0 -1 1 0 618.501 510.2212)" style="&st5;"><tspan x="0" y="0" style="&st19; &st12;">W-B</tspan></text>
<text transform="matrix(0 -1 1 0 618.5 421.187)" style="&st5;"><tspan x="0" y="0" style="&st19; &st12;">G</tspan></text>
<text transform="matrix(1 0 0 1 551.5547 425.5923)" style="&st5;"><tspan x="0" y="0" style="&st19; &st12;">P</tspan></text>
<text transform="matrix(1 0 0 1 551.2217 405.3374)" style="&st5;"><tspan x="0" y="0" style="&st19; &st12;">G</tspan></text>
<text transform="matrix(0 -1 1 0 914.3418 311.2554)" style="&st5;"><tspan x="0" y="0" style="&st19; &st12;">W-B</tspan></text>
<text transform="matrix(0 -1 1 0 914.3418 563.5464)" style="&st5;"><tspan x="0" y="0" style="&st19; &st12;">W-B</tspan></text>
<text transform="matrix(0 -1 1 0 914.3516 250.4219)" style="&st5;"><tspan x="0" y="0" style="&st19; &st12;">W-B</tspan></text>
<text transform="matrix(0 -1 1 0 678.2412 156.145)" style="&st5;"><tspan x="0" y="0" style="&st19; &st12;">L</tspan></text>
<text transform="matrix(0 -1 1 0 678.2412 264.9302)" style="&st5;"><tspan x="0" y="0" style="&st19; &st12;">L</tspan></text>
<text transform="matrix(0 -1 1 0 678.2412 356.0967)" style="&st5;"><tspan x="0" y="0" style="&st19; &st12;">L</tspan></text>
<text transform="matrix(0 -1 1 0 678.2412 418.9888)" style="&st5;"><tspan x="0" y="0" style="&st19; &st12;">L</tspan></text>
<text transform="matrix(0 -1 1 0 768.9229 302.9326)" style="&st5;"><tspan x="0" y="0" style="&st19; &st12;">L</tspan></text>
<text transform="matrix(0 -1 1 0 768.9229 359.6309)" style="&st5;"><tspan x="0" y="0" style="&st19; &st12;">L</tspan></text>
<text transform="matrix(0 -1 1 0 768.9229 420.436)" style="&st5;"><tspan x="0" y="0" style="&st19; &st12;">L</tspan></text>
<text transform="matrix(0 -1 1 0 768.9229 246.6455)" style="&st5;"><tspan x="0" y="0" style="&st19; &st12;">V</tspan></text>
<text transform="matrix(0 -1 1 0 832.5479 303.2305)" style="&st5;"><tspan x="0" y="0" style="&st19; &st12;">GR</tspan></text>
<text transform="matrix(0 -1 1 0 832.5479 420.7485)" style="&st5;"><tspan x="0" y="0" style="&st19; &st12;">GR</tspan></text>
<text transform="matrix(0 -1 1 0 832.5537 359.9478)" style="&st5;"><tspan x="0" y="0" style="&st19; &st12;">GR</tspan></text>
<text transform="matrix(0 -1 1 0 832.5469 246.811)" style="&st5;"><tspan x="0" y="0" style="&st19; &st12;">R</tspan></text>
<text transform="matrix(0 -1 1 0 965.9971 246.978)" style="&st5;"><tspan x="0" y="0" style="&st19; &st12;">G</tspan></text>
</svg>
