﻿<?xml version="1.0" encoding="UTF-8"?>
<!DOCTYPE svg PUBLIC "-//W3C//DTD SVG 1.0//EN" "http://www.w3.org/TR/2001/REC-SVG-20010904/DTD/svg10.dtd"[
<!ENTITY ns_flows "http://ns.adobe.com/Flows/1.0/">
<!ENTITY ns_svg "http://www.w3.org/2000/svg">
<!ENTITY ns_xlink "http://www.w3.org/1999/xlink">
	<!ENTITY st0 "fill:none;stroke:#F8E616;stroke-width:5.1;stroke-linejoin:round;">
	<!ENTITY st1 "fill:none;stroke:#FB0F0C;stroke-width:5.1;stroke-linejoin:round;">
	<!ENTITY st2 "fill:none;stroke:#9A9999;stroke-width:5.1;stroke-linejoin:round;">
	<!ENTITY st3 "fill:none;stroke:#99280B;stroke-width:5.1;stroke-linejoin:round;">
		<!ENTITY st4 "fill:none;stroke:#000000;stroke-width:0.85;stroke-linecap:round;stroke-linejoin:round;stroke-dasharray:3 1.5;enable-background:new    ;">
	<!ENTITY st5 "fill:none;stroke:#000000;stroke-width:5.1;stroke-linejoin:round;">
	<!ENTITY st6 "fill:none;stroke:#000000;stroke-linecap:round;stroke-linejoin:round;">
	<!ENTITY st7 "stroke:#000000;stroke-width:0.28;stroke-linecap:round;stroke-linejoin:round;enable-background:new    ;">
	<!ENTITY st8 "enable-background:new    ;">
		<!ENTITY st9 "fill:none;stroke:#000000;stroke-width:1.42;stroke-linecap:round;stroke-linejoin:round;enable-background:new    ;">
	<!ENTITY st10 "fill:none;stroke:#EE67AA;stroke-width:5.1;stroke-linejoin:round;">
	<!ENTITY st11 "fill:none;stroke:#199DBF;stroke-width:5.1;stroke-linejoin:round;">
	<!ENTITY st12 "opacity:0.5;fill:none;stroke:#34ACCE;stroke-linejoin:round;stroke-dasharray:6;">
	<!ENTITY st13 "fill:none;stroke:#FFFFFF;stroke-width:4.53;stroke-linejoin:round;">
		<!ENTITY st14 "fill:none;stroke:#000000;stroke-width:0.85;stroke-linecap:round;stroke-linejoin:round;enable-background:new    ;">
	<!ENTITY st15 "fill:none;stroke:#56107C;stroke-width:5.1;stroke-linejoin:round;">
	<!ENTITY st16 "font-size:6px;">
	<!ENTITY st17 "fill:none;stroke:#168638;stroke-width:5.1;stroke-linejoin:round;">
	<!ENTITY st18 "fill:none;stroke:#000000;stroke-width:1.13;stroke-linejoin:round;">
		<!ENTITY st19 "fill:none;stroke:#000000;stroke-width:1.13;stroke-linecap:round;stroke-linejoin:round;stroke-dasharray:3 1.5;enable-background:new    ;">
	<!ENTITY st20 "fill:#FFFFFF;stroke:#000000;stroke-width:1.41;stroke-linecap:round;stroke-linejoin:round;">
	<!ENTITY st21 "fill:none;stroke:#3E65AC;stroke-width:3;">
	<!ENTITY st22 "fill:#CCCCCC;stroke:#CCCCCC;stroke-width:0.1;stroke-linecap:round;stroke-linejoin:round;">
	<!ENTITY st23 "font-family:'ArialMT';">
	<!ENTITY st24 "opacity:0.5;fill:none;stroke:#34ACCE;stroke-linejoin:round;">
	<!ENTITY st25 "fill:#CFE6E7;stroke:#000000;stroke-width:1.133;stroke-linecap:round;stroke-linejoin:round;">
	<!ENTITY st26 "fill:none;stroke:#7EC57E;stroke-width:5.1;stroke-linejoin:round;">
<!ATTLIST svg
xmlns:ewd CDATA #FIXED "http://shcl.co.jp/ewd"
xmlns:a CDATA #FIXED "http://ns.adobe.com/AdobeSVGViewerExtensions/3.0/"
ewd:ver CDATA #IMPLIED
>
<!ATTLIST a
ewd:lineID CDATA #IMPLIED
ewd:groupID CDATA #IMPLIED
ewd:figtype CDATA #IMPLIED
ewd:code CDATA #IMPLIED
ewd:figID CDATA #IMPLIED
ewd:pinNo CDATA #IMPLIED
ewd:comment CDATA #IMPLIED >
<!ATTLIST g
ewd:lineID CDATA #IMPLIED
ewd:groupID CDATA #IMPLIED
ewd:figtype CDATA #IMPLIED
ewd:code CDATA #IMPLIED
ewd:figID CDATA #IMPLIED
ewd:pinNo CDATA #IMPLIED
ewd:comment CDATA #IMPLIED >
<!ATTLIST text
ewd:textID CDATA #IMPLIED >
<!ATTLIST title
ewd:textID CDATA #IMPLIED >
]>
<svg 
viewBox='0 0 3113.46 729.44'
height='729.44'
width='3113.46'
xml:space="preserve"
xmlns="&ns_svg;"
xmlns:ewd="http://shcl.co.jp/ewd"
xmlns:xlink="&ns_xlink;" ewd:ver="L2.1">
<g ewd:code="2" ewd:figID="302" ewd:figtype="jb">
<path style="&st9;" d="M770.43,158.53h-4.25"/>
<path style="&st9;" d="M770.43,150.03h-4.25"/>
<path style="&st7;" d="M768.3,145.14l-2.83-2.84v4.25l2.83,2.84l2.83-2.84v-4.25L768.3,145.14"/>
<path style="&st14;" d="M768.3,150.03V82.04"/>
<path style="&st9;" d="M774.68,154.28c0-2.35-1.91-4.25-4.25-4.25"/>
<path style="&st9;" d="M770.43,158.53c2.34,0,4.25-1.9,4.25-4.25"/>
<path style="&st9;" d="M761.93,154.28c0,2.35,1.9,4.25,4.25,4.25"/>
<path style="&st9;" d="M766.18,150.03c-2.35,0-4.25,1.9-4.25,4.25"/>
<text transform="matrix(1 0 0 1 763.853 156.2456)" style="&st8;"><tspan x="0" y="0" style="&st23; &st16;">2D</tspan></text>
<text transform="matrix(1 0 0 1 755.6128 156.2456)" style="&st8;"><tspan x="0" y="0" style="&st23; &st16;">4</tspan></text>
</g>
<g ewd:code="G3" ewd:figID="202" ewd:figtype="gp">
<path style="&st14;" d="M768.3,701.02v4.25"/>
<path style="&st14;" d="M759.8,705.27h17"/>
<path style="&st14;" d="M764.05,708.1h8.5"/>
<path style="&st14;" d="M765.47,710.94h5.66"/>
<path style="&st14;" d="M766.89,713.77h2.83"/>
</g>
<g ewd:code="G5" ewd:figID="201" ewd:figtype="gp">
<path style="&st14;" d="M615.33,701.02v4.25"/>
<path style="&st14;" d="M606.83,705.27h17"/>
<path style="&st14;" d="M611.08,708.1h8.5"/>
<path style="&st14;" d="M612.49,710.94h5.67"/>
<path style="&st14;" d="M613.91,713.77h2.83"/>
</g>
<g ewd:code="G79,G80,G140,G141" ewd:figID="3" ewd:figtype="conn">
<path style="&st9;" d="M759.8,311.5V337h17v-25.5H759.8"/>
<path style="&st19;" d="M759.8,320h17"/>
<path style="&st14;" d="M768.3,311.5V337"/>
<path style="&st19;" d="M759.8,328.5h17"/>
<path style="&st9;" d="M772.83,341.53c0-2.5-2.02-4.53-4.53-4.53"/>
<path style="&st9;" d="M768.3,337c-2.5,0-4.53,2.03-4.53,4.53"/>
<path style="&st9;" d="M763.77,341.53c0,2.51,2.03,4.53,4.53,4.53"/>
<path style="&st9;" d="M768.3,346.06c2.51,0,4.53-2.02,4.53-4.53"/>
<path style="&st9;" d="M772.83,297.91c0-2.51-2.02-4.54-4.53-4.54"/>
<path style="&st9;" d="M768.3,293.37c-2.5,0-4.53,2.03-4.53,4.54"/>
<path style="&st9;" d="M763.77,297.91c0,2.5,2.03,4.53,4.53,4.53"/>
<path style="&st9;" d="M768.3,302.44c2.51,0,4.53-2.03,4.53-4.53"/>
<path style="&st9;" d="M772.83,306.97c0-2.5-2.02-4.53-4.53-4.53"/>
<path style="&st9;" d="M768.3,302.44c-2.5,0-4.53,2.03-4.53,4.53"/>
<path style="&st9;" d="M763.77,306.97c0,2.5,2.03,4.53,4.53,4.53"/>
<path style="&st9;" d="M768.3,311.5c2.51,0,4.53-2.03,4.53-4.53"/>
<path style="&st9;" d="M772.83,350.6c0-2.51-2.02-4.54-4.53-4.54"/>
<path style="&st9;" d="M768.3,346.06c-2.5,0-4.53,2.03-4.53,4.54"/>
<path style="&st9;" d="M763.77,350.6c0,2.5,2.03,4.53,4.53,4.53"/>
<path style="&st9;" d="M768.3,355.13c2.51,0,4.53-2.03,4.53-4.53"/>
<text transform="matrix(1 0 0 1 755.0229 308.9355)" style="&st8;"><tspan x="0" y="0" style="&st23; &st16;">11</tspan></text>
<text transform="matrix(1 0 0 1 765.8335 308.9355)" style="&st8;"><tspan x="0" y="0" style="&st23; &st16;">D</tspan></text>
<text transform="matrix(1 0 0 1 755.0229 299.8755)" style="&st8;"><tspan x="0" y="0" style="&st23; &st16;">11</tspan></text>
<text transform="matrix(1 0 0 1 765.9731 299.8755)" style="&st8;"><tspan x="0" y="0" style="&st23; &st16;">B</tspan></text>
<text transform="matrix(1 0 0 1 757.4331 352.5654)" style="&st8;"><tspan x="0" y="0" style="&st23; &st16;">7</tspan></text>
<text transform="matrix(1 0 0 1 765.8335 352.5654)" style="&st8;"><tspan x="0" y="0" style="&st23; &st16;">C</tspan></text>
<text transform="matrix(1 0 0 1 757.4331 343.4956)" style="&st8;"><tspan x="0" y="0" style="&st23; &st16;">7</tspan></text>
<text transform="matrix(1 0 0 1 765.9731 343.4956)" style="&st8;"><tspan x="0" y="0" style="&st23; &st16;">A</tspan></text>
<text ewd:textID="22" transform="matrix(1 0 0 1 779.9429 329.3354)" style="&st8; &st23; &st16;">Junction <tspan x="0" y="7">Connector</tspan></text>
<text transform="matrix(1 0 0 1 779.9429 316.2754)" style="&st8;"><tspan x="0" y="0" style="&st23; &st16;">G79(A),G80(B),</tspan></text>
<text transform="matrix(1 0 0 1 779.9429 322.2754)" style="&st8;"><tspan x="0" y="0" style="&st23; &st16;">G140(C),G141(D)</tspan></text>
</g>
<g ewd:code="G127" ewd:figID="2" ewd:figtype="conn">
<path style="&st9;" d="M708.81,311.5h17v16.99h-17V311.5"/>
<path style="&st14;" d="M717.31,328.49V311.5"/>
<path style="&st9;" d="M721.84,333.02c0-2.5-2.03-4.53-4.53-4.53"/>
<path style="&st9;" d="M717.31,328.49c-2.5,0-4.53,2.03-4.53,4.53"/>
<path style="&st9;" d="M712.78,333.02c0,2.51,2.03,4.53,4.53,4.53"/>
<path style="&st9;" d="M717.31,337.55c2.5,0,4.53-2.02,4.53-4.53"/>
<path style="&st9;" d="M721.84,306.97c0-2.5-2.03-4.53-4.53-4.53"/>
<path style="&st9;" d="M717.31,302.44c-2.5,0-4.53,2.03-4.53,4.53"/>
<path style="&st9;" d="M712.78,306.97c0,2.5,2.03,4.53,4.53,4.53"/>
<path style="&st9;" d="M717.31,311.5c2.5,0,4.53-2.03,4.53-4.53"/>
<text transform="matrix(1 0 0 1 714.9829 308.9355)" style="&st8;"><tspan x="0" y="0" style="&st23; &st16;">B</tspan></text>
<text transform="matrix(1 0 0 1 706.4331 308.9355)" style="&st8;"><tspan x="0" y="0" style="&st23; &st16;">8</tspan></text>
<text transform="matrix(1 0 0 1 714.9829 334.9858)" style="&st8;"><tspan x="0" y="0" style="&st23; &st16;">B</tspan></text>
<text transform="matrix(1 0 0 1 706.4331 334.9858)" style="&st8;"><tspan x="0" y="0" style="&st23; &st16;">7</tspan></text>
<text ewd:textID="22" transform="matrix(0 -1 1 0 740.5327 331.0059)" style="&st8; &st23; &st16;">Junction Connector</text>
<text transform="matrix(0 -1 1 0 733.4233 331.0059)" style="&st8;"><tspan x="0" y="0" style="&st23; &st16;">G127(B)</tspan></text>
</g>
<g ewd:code="G128-C,G129-D" ewd:figID="14" ewd:figtype="conn">
<path style="&st19;" d="M555.84,540.97h16.99"/>
<path style="&st9;" d="M555.84,532.47h16.99v25.49h-16.99V532.47"/>
<path style="&st14;" d="M564.34,532.47v25.49"/>
<path style="&st19;" d="M555.84,549.46h16.99"/>
<path style="&st9;" d="M568.87,562.5c0-2.51-2.03-4.54-4.53-4.54"/>
<path style="&st9;" d="M564.34,557.96c-2.51,0-4.54,2.03-4.54,4.54"/>
<path style="&st9;" d="M559.8,562.5c0,2.5,2.03,4.53,4.54,4.53"/>
<path style="&st9;" d="M564.34,567.03c2.5,0,4.53-2.03,4.53-4.53"/>
<path style="&st9;" d="M568.87,527.93c0-2.5-2.03-4.53-4.53-4.53"/>
<path style="&st9;" d="M564.34,523.4c-2.51,0-4.54,2.03-4.54,4.53"/>
<path style="&st9;" d="M559.8,527.93c0,2.51,2.03,4.54,4.54,4.54"/>
<path style="&st9;" d="M564.34,532.47c2.5,0,4.53-2.03,4.53-4.54"/>
<text transform="matrix(1 0 0 1 553.4634 564.4556)" style="&st8;"><tspan x="0" y="0" style="&st23; &st16;">7</tspan></text>
<text transform="matrix(1 0 0 1 561.8628 564.4556)" style="&st8;"><tspan x="0" y="0" style="&st23; &st16;">C</tspan></text>
<text transform="matrix(1 0 0 1 550.2827 529.895)" style="&st8;"><tspan x="0" y="0" style="&st23; &st16;">12</tspan></text>
<text transform="matrix(1 0 0 1 561.8628 529.895)" style="&st8;"><tspan x="0" y="0" style="&st23; &st16;">D</tspan></text>
<text ewd:textID="22" transform="matrix(0 -1 1 0 587.5532 560.4849)" style="&st8; &st23; &st16;">Junction Connector</text>
<text transform="matrix(0 -1 1 0 580.4526 560.4849)" style="&st8;"><tspan x="0" y="0" style="&st23; &st16;">G128(C),G129(D)</tspan></text>
</g>
<g ewd:code="G106" ewd:figID="16" ewd:figtype="conn">
<path style="&st9;" d="M606.83,659.95v16.99h17v-16.99H606.83"/>
<path style="&st14;" d="M615.33,659.95v25.49"/>
<text transform="matrix(1 0 0 1 608.5435 656.2563)" style="&st8;"><tspan x="0" y="0" style="&st23; &st16;">4</tspan></text>
<text ewd:textID="22" transform="matrix(1 0 0 1 626.9731 668.9966)" style="&st8; &st23; &st16;">Junction Connector</text>
<text transform="matrix(1 0 0 1 626.9731 661.8853)" style="&st8;"><tspan x="0" y="0" style="&st23; &st16;">G106</tspan></text>
</g>
<g ewd:code="G104" ewd:figID="17" ewd:figtype="conn">
<path style="&st9;" d="M759.8,659.95h17v16.99h-17V659.95"/>
<path style="&st14;" d="M768.3,659.95v25.49"/>
<text transform="matrix(1 0 0 1 761.5132 656.2563)" style="&st8;"><tspan x="0" y="0" style="&st23; &st16;">4</tspan></text>
<text ewd:textID="22" transform="matrix(1 0 0 1 779.9429 668.9966)" style="&st8; &st23; &st16;">Junction Connector</text>
<text transform="matrix(1 0 0 1 779.9429 661.8853)" style="&st8;"><tspan x="0" y="0" style="&st23; &st16;">G104</tspan></text>
</g>
<g ewd:code="G81-A,G82-B,G164,G165" ewd:figID="15" ewd:figtype="conn">
<path style="&st9;" d="M606.83,523.4h17v25.49h-17V523.4"/>
<path style="&st14;" d="M615.33,523.4v25.49"/>
<path style="&st9;" d="M619.86,518.86c0-2.5-2.03-4.53-4.53-4.53"/>
<path style="&st9;" d="M615.33,514.32c-2.51,0-4.53,2.03-4.53,4.53"/>
<path style="&st9;" d="M610.8,518.86c0,2.51,2.02,4.54,4.53,4.54"/>
<path style="&st9;" d="M615.33,523.4c2.5,0,4.53-2.03,4.53-4.54"/>
<path style="&st9;" d="M619.86,553.43c0-2.51-2.03-4.54-4.53-4.54"/>
<path style="&st9;" d="M615.33,548.89c-2.51,0-4.53,2.03-4.53,4.54"/>
<path style="&st9;" d="M610.8,553.43c0,2.5,2.02,4.53,4.53,4.53"/>
<path style="&st9;" d="M615.33,557.96c2.5,0,4.53-2.03,4.53-4.53"/>
<path style="&st19;" d="M606.83,531.89h16.99"/>
<path style="&st19;" d="M606.83,540.38h16.99"/>
<path style="&st9;" d="M619.86,509.79c0-2.5-2.03-4.53-4.53-4.53"/>
<path style="&st9;" d="M615.33,505.25c-2.51,0-4.53,2.03-4.53,4.53"/>
<path style="&st9;" d="M610.8,509.79c0,2.51,2.02,4.54,4.53,4.54"/>
<path style="&st9;" d="M615.33,514.32c2.5,0,4.53-2.03,4.53-4.54"/>
<path style="&st9;" d="M619.86,562.5c0-2.51-2.03-4.54-4.53-4.54"/>
<path style="&st9;" d="M615.33,557.96c-2.51,0-4.53,2.03-4.53,4.54"/>
<path style="&st9;" d="M610.8,562.5c0,2.5,2.02,4.53,4.53,4.53"/>
<path style="&st9;" d="M615.33,567.03c2.5,0,4.53-2.03,4.53-4.53"/>
<text transform="matrix(1 0 0 1 604.4526 555.3853)" style="&st8;"><tspan x="0" y="0" style="&st23; &st16;">7</tspan></text>
<text transform="matrix(1 0 0 1 613.0034 555.3853)" style="&st8;"><tspan x="0" y="0" style="&st23; &st16;">A</tspan></text>
<text transform="matrix(1 0 0 1 601.2729 520.8247)" style="&st8;"><tspan x="0" y="0" style="&st23; &st16;">12</tspan></text>
<text transform="matrix(1 0 0 1 613.0034 520.8247)" style="&st8;"><tspan x="0" y="0" style="&st23; &st16;">D</tspan></text>
<text ewd:textID="22" transform="matrix(1 0 0 1 627.5435 543.5151)" style="&st8; &st23; &st16;">Junction Connector</text>
<text transform="matrix(1 0 0 1 627.5435 536.4146)" style="&st8;"><tspan x="0" y="0" style="&st23; &st16;">G164(C),G165(D) </tspan></text>
<text transform="matrix(1 0 0 1 627.5435 529.314)" style="&st8;"><tspan x="0" y="0" style="&st23; &st16;">G81(A),G82(B) </tspan></text>
<text transform="matrix(1 0 0 1 601.2729 511.7544)" style="&st8;"><tspan x="0" y="0" style="&st23; &st16;">12</tspan></text>
<text transform="matrix(1 0 0 1 613.0034 511.7544)" style="&st8;"><tspan x="0" y="0" style="&st23; &st16;">B</tspan></text>
<text transform="matrix(1 0 0 1 604.4526 564.4556)" style="&st8;"><tspan x="0" y="0" style="&st23; &st16;">7</tspan></text>
<text transform="matrix(1 0 0 1 613.0034 564.4556)" style="&st8;"><tspan x="0" y="0" style="&st23; &st16;">C</tspan></text>
</g>
<path style="&st9;" d="M1890.11,659.95l5.06,11.36"/>
<path style="&st9;" d="M1890.11,659.95l-5.05,11.36"/>
<path style="&st9;" d="M1941.11,659.95l5.06,11.36"/>
<path style="&st9;" d="M1941.11,659.95l-5.06,11.36"/>
<path style="&st9;" d="M1992.1,659.95l5.06,11.36"/>
<path style="&st9;" d="M1839.12,659.95l-5.06,11.36"/>
<path style="&st9;" d="M1839.12,659.95l5.06,11.36"/>
<path style="&st9;" d="M2017.59,676.94l5.06-11.36"/>
<path style="&st9;" d="M2017.59,676.94l-5.06-11.36"/>
<path style="&st9;" d="M1966.6,676.94l5.06-11.36"/>
<path style="&st9;" d="M1966.6,676.94l-5.06-11.36"/>
<path style="&st9;" d="M1915.61,676.94l5.06-11.36"/>
<path style="&st9;" d="M1915.61,676.94l-5.06-11.36"/>
<path style="&st9;" d="M1864.62,676.94l5.06-11.36"/>
<path style="&st9;" d="M1864.62,676.94l-5.06-11.36"/>
<path style="&st9;" d="M1992.1,659.95l-5.06,11.36"/>
<path style="&st9;" d="M2264.05,583.46l-5.06-11.36"/>
<path style="&st9;" d="M2264.05,583.46l5.06-11.36"/>
<path style="&st9;" d="M2213.06,583.46L2208,572.1"/>
<path style="&st9;" d="M2213.06,583.46l5.06-11.36"/>
<path style="&st9;" d="M2162.07,583.46l-5.06-11.36"/>
<path style="&st9;" d="M2162.07,583.46l5.06-11.36"/>
<path style="&st9;" d="M2111.08,583.46l-5.06-11.36"/>
<path style="&st9;" d="M2111.08,583.46l5.06-11.36"/>
<path style="&st9;" d="M2289.55,566.46l5.06,11.36"/>
<path style="&st9;" d="M2289.55,566.46l-5.06,11.36"/>
<path style="&st9;" d="M2238.56,566.46l5.06,11.36"/>
<path style="&st9;" d="M2238.56,566.46l-5.06,11.36"/>
<path style="&st9;" d="M2187.57,566.46l5.05,11.36"/>
<path style="&st9;" d="M2187.57,566.46l-5.06,11.36"/>
<path style="&st9;" d="M2136.57,566.46l5.06,11.36"/>
<path style="&st9;" d="M2136.57,566.46l-5.06,11.36"/>
<path style="&st4;" d="M2247.05,238.42h8.5"/>
<path style="&st4;" d="M2281.05,238.42h29.74"/>
<path style="&st4;" d="M2332.04,247.48h8.5"/>
<path style="&st4;" d="M2332.04,238.42h8.5"/>
<path style="&st4;" d="M2451.02,443.52h8.5"/>
<path style="&st4;" d="M2400.03,443.52h25.49"/>
<path style="&st4;" d="M2332.04,443.52h42.49"/>
<path style="&st4;" d="M2451.02,399.89h8.5"/>
<path style="&st4;" d="M2400.03,452.57h25.49"/>
<path style="&st4;" d="M2332.04,452.57h42.49"/>
<path style="&st4;" d="M2451.02,408.95h8.5"/>
<path style="&st4;" d="M2451.02,452.57h8.5"/>
<path style="&st4;" d="M2527.51,282.04h8.5"/>
<path style="&st4;" d="M2485.01,282.04h21.25"/>
<path style="&st4;" d="M2451.02,282.04h8.5"/>
<path style="&st4;" d="M2451.02,291.11h8.5"/>
<path style="&st14;" d="M2021.84,681.19l-4.25,4.25h-87.11l-2.12,4.25l-2.13-4.25h-87.11l-4.25-4.25"/>
<path style="&st14;" d="M2293.8,562.21l-4.25-4.25h-87.11l-2.13-4.25l-2.12,4.25h-87.11l-4.25,4.25"/>
<text transform="matrix(0 -1 1 0 622.9634 626.7056)" style="&st8;"><tspan x="0" y="0" style="&st23; &st16;">(LHD)</tspan></text>
<text transform="matrix(0 -1 1 0 611.6333 625.145)" style="&st8;"><tspan x="0" y="0" style="&st23; &st16;">W-B</tspan></text>
<text transform="matrix(0 -1 1 0 560.6431 217.2158)" style="&st8;"><tspan x="0" y="0" style="&st23; &st16;">W-B</tspan></text>
<text transform="matrix(0 -1 1 0 611.6333 217.2158)" style="&st8;"><tspan x="0" y="0" style="&st23; &st16;">W-B</tspan></text>
<text transform="matrix(0 -1 1 0 571.9731 219.2656)" style="&st8;"><tspan x="0" y="0" style="&st23; &st16;">(RHD)</tspan></text>
<text transform="matrix(0 -1 1 0 622.9634 218.7656)" style="&st8;"><tspan x="0" y="0" style="&st23; &st16;">(LHD)</tspan></text>
<text transform="matrix(0 -1 1 0 571.9731 627.1958)" style="&st8;"><tspan x="0" y="0" style="&st23; &st16;">(RHD)</tspan></text>
<text transform="matrix(0 -1 1 0 560.6431 625.145)" style="&st8;"><tspan x="0" y="0" style="&st23; &st16;">W-B</tspan></text>
<text transform="matrix(0 -1 1 0 724.9526 219.2656)" style="&st8;"><tspan x="0" y="0" style="&st23; &st16;">(RHD)</tspan></text>
<text transform="matrix(0 -1 1 0 713.6235 217.2158)" style="&st8;"><tspan x="0" y="0" style="&st23; &st16;">W-B</tspan></text>
<text transform="matrix(0 -1 1 0 775.9429 218.7656)" style="&st8;"><tspan x="0" y="0" style="&st23; &st16;">(LHD)</tspan></text>
<text transform="matrix(0 -1 1 0 764.6128 217.2158)" style="&st8;"><tspan x="0" y="0" style="&st23; &st16;">W-B</tspan></text>
<text transform="matrix(0 -1 1 0 713.6235 378.686)" style="&st8;"><tspan x="0" y="0" style="&st23; &st16;">W-B</tspan></text>
<text transform="matrix(0 -1 1 0 724.9526 380.7358)" style="&st8;"><tspan x="0" y="0" style="&st23; &st16;">(RHD)</tspan></text>
<text transform="matrix(0 -1 1 0 764.6128 378.686)" style="&st8;"><tspan x="0" y="0" style="&st23; &st16;">W-B</tspan></text>
<text transform="matrix(0 -1 1 0 775.9429 380.2456)" style="&st8;"><tspan x="0" y="0" style="&st23; &st16;">(LHD)</tspan></text>
<text transform="matrix(0 -1 1 0 764.6128 625.145)" style="&st8;"><tspan x="0" y="0" style="&st23; &st16;">W-B</tspan></text>
<text transform="matrix(0 -1 1 0 775.9429 626.7056)" style="&st8;"><tspan x="0" y="0" style="&st23; &st16;">(LHD)</tspan></text>
<text transform="matrix(0 -1 1 0 713.6235 625.145)" style="&st8;"><tspan x="0" y="0" style="&st23; &st16;">W-B</tspan></text>
<text transform="matrix(0 -1 1 0 724.9526 627.1958)" style="&st8;"><tspan x="0" y="0" style="&st23; &st16;">(RHD)</tspan></text>
<text transform="matrix(1 0 0 1 774.2827 308.9355)" style="&st8;"><tspan x="0" y="0" style="&st23; &st16;">(*16)</tspan></text>
<text transform="matrix(1 0 0 1 774.2827 299.8755)" style="&st8;"><tspan x="0" y="0" style="&st23; &st16;">(*15)</tspan></text>
<text transform="matrix(1 0 0 1 774.2827 352.5654)" style="&st8;"><tspan x="0" y="0" style="&st23; &st16;">(*16)</tspan></text>
<text transform="matrix(1 0 0 1 774.2827 343.4956)" style="&st8;"><tspan x="0" y="0" style="&st23; &st16;">(*15)</tspan></text>
<text ewd:textID="6" transform="matrix(1 0 0 1 867.7632 185.9854)" style="&st8; &st23; &st16;">*16 :From Oct. 2010 Production</text>
<text ewd:textID="10" transform="matrix(1 0 0 1 867.7632 202.9648)" style="&st8; &st23; &st16;">*20 :From Aug. 2013 Production</text>
<text ewd:textID="9" transform="matrix(1 0 0 1 867.7632 194.4751)" style="&st8; &st23; &st16;">*19 :Before Aug. 2013 Production</text>
<text ewd:textID="5" transform="matrix(1 0 0 1 867.7632 177.4956)" style="&st8; &st23; &st16;">*15 :Before Oct. 2010 Production</text>
<text transform="matrix(1 0 0 1 624.2729 520.8247)" style="&st8;"><tspan x="0" y="0" style="&st23; &st16;">(*20)</tspan></text>
<text transform="matrix(1 0 0 1 624.2729 511.7642)" style="&st8;"><tspan x="0" y="0" style="&st23; &st16;">(*19)</tspan></text>
<text transform="matrix(1 0 0 1 623.4526 564.4556)" style="&st8;"><tspan x="0" y="0" style="&st23; &st16;">(*20)</tspan></text>
<text transform="matrix(1 0 0 1 623.4526 555.397)" style="&st8;"><tspan x="0" y="0" style="&st23; &st16;">(*19)</tspan></text>
</svg>
