﻿<?xml version="1.0" encoding="UTF-8"?>
<!DOCTYPE svg PUBLIC "-//W3C//DTD SVG 1.0//EN" "http://www.w3.org/TR/2001/REC-SVG-20010904/DTD/svg10.dtd"[
<!ENTITY ns_flows "http://ns.adobe.com/Flows/1.0/">
<!ENTITY ns_svg "http://www.w3.org/2000/svg">
<!ENTITY ns_xlink "http://www.w3.org/1999/xlink">
	<!ENTITY st0 "fill:none;stroke:#9A9999;stroke-width:5.1;stroke-linejoin:round;">
	<!ENTITY st1 "fill:none;stroke:#99280B;stroke-width:5.1;stroke-linejoin:round;">
		<!ENTITY st2 "fill:none;stroke:#000000;stroke-width:0.85;stroke-linecap:round;stroke-linejoin:round;stroke-dasharray:3 1.5;enable-background:new    ;">
	<!ENTITY st3 "fill:none;stroke:#000000;stroke-width:5.1;stroke-linejoin:round;">
	<!ENTITY st4 "stroke:#000000;stroke-width:0.28;stroke-linecap:round;stroke-linejoin:round;enable-background:new    ;">
	<!ENTITY st5 "enable-background:new    ;">
		<!ENTITY st6 "fill:none;stroke:#000000;stroke-width:1.42;stroke-linecap:round;stroke-linejoin:round;enable-background:new    ;">
	<!ENTITY st7 "fill:none;stroke:#199DBF;stroke-width:5.1;stroke-linejoin:round;">
	<!ENTITY st8 "opacity:0.5;fill:none;stroke:#34ACCE;stroke-linejoin:round;stroke-dasharray:6;">
	<!ENTITY st9 "fill:none;stroke:#FFFFFF;stroke-width:4.53;stroke-linejoin:round;">
		<!ENTITY st10 "fill:none;stroke:#000000;stroke-width:0.85;stroke-linecap:round;stroke-linejoin:round;enable-background:new    ;">
	<!ENTITY st11 "font-size:6px;">
	<!ENTITY st12 "fill:none;stroke:#000000;stroke-width:1.13;stroke-linejoin:round;">
		<!ENTITY st13 "fill:none;stroke:#000000;stroke-width:1.13;stroke-linecap:round;stroke-linejoin:round;stroke-dasharray:3 1.5;enable-background:new    ;">
	<!ENTITY st14 "fill:#FFFFFF;stroke:#000000;stroke-width:1.41;stroke-linecap:round;stroke-linejoin:round;">
	<!ENTITY st15 "fill:none;stroke:#3E65AC;stroke-width:3;">
	<!ENTITY st16 "fill:#CCCCCC;stroke:#CCCCCC;stroke-width:0.1;stroke-linecap:round;stroke-linejoin:round;">
	<!ENTITY st17 "font-family:'ArialMT';">
	<!ENTITY st18 "opacity:0.5;fill:none;stroke:#34ACCE;stroke-linejoin:round;">
	<!ENTITY st19 "fill:#CFE6E7;stroke:#000000;stroke-width:1.133;stroke-linecap:round;stroke-linejoin:round;">
<!ATTLIST svg
xmlns:ewd CDATA #FIXED "http://shcl.co.jp/ewd"
xmlns:a CDATA #FIXED "http://ns.adobe.com/AdobeSVGViewerExtensions/3.0/"
ewd:ver CDATA #IMPLIED
>
<!ATTLIST a
ewd:lineID CDATA #IMPLIED
ewd:groupID CDATA #IMPLIED
ewd:figtype CDATA #IMPLIED
ewd:code CDATA #IMPLIED
ewd:figID CDATA #IMPLIED
ewd:pinNo CDATA #IMPLIED
ewd:comment CDATA #IMPLIED >
<!ATTLIST g
ewd:lineID CDATA #IMPLIED
ewd:groupID CDATA #IMPLIED
ewd:figtype CDATA #IMPLIED
ewd:code CDATA #IMPLIED
ewd:figID CDATA #IMPLIED
ewd:pinNo CDATA #IMPLIED
ewd:comment CDATA #IMPLIED >
<!ATTLIST text
ewd:textID CDATA #IMPLIED >
<!ATTLIST title
ewd:textID CDATA #IMPLIED >
]>
<svg 
viewBox='0 0 11408.02 729.44'
height='729.44'
width='11408.02'
xml:space="preserve"
xmlns="&ns_svg;"
xmlns:ewd="http://shcl.co.jp/ewd"
xmlns:xlink="&ns_xlink;" ewd:ver="L2.1">
<g ewd:code="CG2" ewd:figID="6068" ewd:figtype="w2w" ewd:pinNo="22">
<path style="&st6;" d="M4454.86,638.7v4.25"/>
<path style="&st6;" d="M4463.92,647.2l-4.25-4.25l4.25-4.25"/>
<path style="&st6;" d="M4460.52,647.2l-4.25-4.25l4.25-4.25"/>
<text transform="matrix(1 0 0 1 4443.0215 635.707)" style="&st5;"><tspan x="0" y="0" style="&st17; &st11;">22</tspan></text>
</g>
<g ewd:code="TG1" ewd:figID="6069" ewd:figtype="w2w" ewd:pinNo="7">
<path style="&st6;" d="M4488.85,489.97v4.25"/>
<path style="&st6;" d="M4479.78,485.72l4.25,4.25l-4.25,4.25"/>
<path style="&st6;" d="M4483.18,485.72l4.25,4.25l-4.25,4.25"/>
<text transform="matrix(1 0 0 1 4495.6802 482.7363)" style="&st5;"><tspan x="0" y="0" style="&st17; &st11;">7</tspan></text>
</g>
<g ewd:code="Gi1" ewd:figID="6026" ewd:figtype="w2w" ewd:pinNo="23">
<path style="&st6;" d="M4505.85,230.77v4.25"/>
<path style="&st6;" d="M4511.51,239.27l-4.25-4.25l4.25-4.25"/>
<path style="&st6;" d="M4514.91,239.27l-4.25-4.25l4.25-4.25"/>
<text transform="matrix(1 0 0 1 4494.0117 227.7759)" style="&st5;"><tspan x="0" y="0" style="&st17; &st11;">23</tspan></text>
</g>
<g ewd:code="Gi1" ewd:figID="6027" ewd:figtype="w2w" ewd:pinNo="15">
<path style="&st6;" d="M4505.85,196.77v4.25"/>
<path style="&st6;" d="M4514.91,205.27l-4.25-4.25l4.25-4.25"/>
<path style="&st6;" d="M4511.51,205.27l-4.25-4.25l4.25-4.25"/>
<text transform="matrix(1 0 0 1 4494.0117 193.7759)" style="&st5;"><tspan x="0" y="0" style="&st17; &st11;">15</tspan></text>
</g>
<g ewd:code="295074" ewd:figID="5074" ewd:figtype="sp">
<path style="&st6;" d="M4378.37,639.42l-4.97-4.97"/>
<path style="&st6;" d="M4361.37,646.48l4.97,4.97"/>
<path style="&st6;" d="M4373.4,651.45l4.97-4.97"/>
<path style="&st6;" d="M4366.34,634.45l-4.97,4.97"/>
</g>
<g ewd:code="4JB" ewd:figID="3009" ewd:figtype="jb">
<path style="&st6;" d="M4369.87,579.21h-4.25"/>
<path style="&st6;" d="M4365.62,570.71h4.25"/>
<path style="&st6;" d="M4369.87,528.22h-4.25"/>
<path style="&st6;" d="M4365.62,519.72h4.25"/>
<path style="&st6;" d="M4408.11,528.22h-4.25"/>
<path style="&st6;" d="M4408.11,519.72h-4.25"/>
<path style="&st6;" d="M4369.87,494.22h-4.25"/>
<path style="&st6;" d="M4365.62,485.72h4.25"/>
<path style="&st6;" d="M4408.11,494.22h-4.25"/>
<path style="&st6;" d="M4408.11,485.72h-4.25"/>
<path style="&st6;" d="M4369.87,451.73h-4.25"/>
<path style="&st6;" d="M4365.62,443.23h4.25"/>
<path style="&st6;" d="M4408.11,451.73h-4.25"/>
<path style="&st6;" d="M4408.11,443.23h-4.25"/>
<path style="&st6;" d="M4369.87,409.24h-4.25"/>
<path style="&st6;" d="M4365.62,400.74h4.25"/>
<path style="&st6;" d="M4408.11,409.24h-4.25"/>
<path style="&st6;" d="M4408.11,400.74h-4.25"/>
<path style="&st6;" d="M4369.87,375.24h-4.25"/>
<path style="&st6;" d="M4365.62,366.74h4.25"/>
<path style="&st6;" d="M4408.11,375.24h-4.25"/>
<path style="&st6;" d="M4408.11,366.74h-4.25"/>
<path style="&st6;" d="M4369.87,341.25h-4.25"/>
<path style="&st6;" d="M4365.62,332.75h4.25"/>
<path style="&st6;" d="M4408.11,341.25h-4.25"/>
<path style="&st6;" d="M4408.11,332.75h-4.25"/>
<path style="&st6;" d="M4369.87,307.25h-4.25"/>
<path style="&st6;" d="M4365.62,298.76h4.25"/>
<path style="&st6;" d="M4408.11,307.25h-4.25"/>
<path style="&st6;" d="M4408.11,298.76h-4.25"/>
<path style="&st6;" d="M4369.87,273.26h-4.25"/>
<path style="&st6;" d="M4365.62,264.76h4.25"/>
<path style="&st6;" d="M4369.87,239.27h-4.25"/>
<path style="&st6;" d="M4365.62,230.77h4.25"/>
<path style="&st6;" d="M4408.11,239.27h-4.25"/>
<path style="&st6;" d="M4408.11,230.77h-4.25"/>
<path style="&st6;" d="M4369.87,205.27h-4.25"/>
<path style="&st6;" d="M4365.62,196.77h4.25"/>
<path style="&st6;" d="M4408.11,205.27h-4.25"/>
<path style="&st6;" d="M4408.11,196.77h-4.25"/>
<path style="&st6;" d="M4369.87,171.28h-4.25"/>
<path style="&st6;" d="M4365.62,162.78h4.25"/>
<path style="&st6;" d="M4369.87,137.28h-4.25"/>
<path style="&st6;" d="M4365.62,128.78h4.25"/>
<path style="&st6;" d="M4408.11,137.28h-4.25"/>
<path style="&st6;" d="M4408.11,128.78h-4.25"/>
<path style="&st6;" d="M4369.87,103.29h-4.25"/>
<path style="&st6;" d="M4365.62,94.79h4.25"/>
<path style="&st6;" d="M4408.11,570.71h-4.25"/>
<path style="&st6;" d="M4408.11,579.21h-4.25"/>
<path style="&st10;" d="M4385.67,302l-0.27,0.47l-0.09,0.54l0.09,0.53l0.27,0.47l0.42,0.34l0.51,0.19h0.53l0.51-0.19l0.42-0.34l0.27-0.47l0.09-0.53l-0.09-0.54l-0.27-0.47l-0.42-0.34l-0.51-0.19h-0.53l-0.51,0.19L4385.67,302l0.4,0.71v0.59l0.37,0.44l0.57,0.1l0.51-0.29l0.2-0.54l-0.2-0.55l-0.51-0.29l-0.57,0.1l0.43,0.74"/>
<path style="&st10;" d="M4374.12,574.96h25.49"/>
<path style="&st10;" d="M4386.87,574.96V99.04h-12.75"/>
<path style="&st4;" d="M4394.72,489.97l-2.83-2.83h4.24l2.84,2.83l-2.84,2.84h-4.24L4394.72,489.97"/>
<path style="&st4;" d="M4379.01,489.97l2.84-2.83h-4.25l-2.84,2.83l2.84,2.84h4.25L4379.01,489.97"/>
<path style="&st10;" d="M4374.12,489.97h25.49"/>
<path style="&st4;" d="M4394.72,523.97l-2.83-2.83h4.24l2.84,2.83l-2.84,2.83h-4.24L4394.72,523.97"/>
<path style="&st4;" d="M4379.01,523.97l2.84-2.83h-4.25l-2.84,2.83l2.84,2.83h4.25L4379.01,523.97"/>
<path style="&st10;" d="M4374.12,523.97h25.49"/>
<path style="&st4;" d="M4379.01,574.96l2.84-2.83h-4.25l-2.84,2.83l2.84,2.83h4.25L4379.01,574.96"/>
<path style="&st4;" d="M4394.72,574.96l-2.83-2.83h4.24l2.84,2.83l-2.84,2.83h-4.24L4394.72,574.96"/>
<path style="&st10;" d="M4385.67,268.01l-0.27,0.47l-0.09,0.53l0.09,0.53l0.27,0.47l0.42,0.35l0.51,0.19h0.53l0.51-0.19l0.42-0.35l0.27-0.47l0.09-0.53l-0.09-0.53l-0.27-0.47l-0.42-0.35l-0.51-0.18h-0.53l-0.51,0.18L4385.67,268.01l0.4,0.71v0.58l0.37,0.45l0.57,0.1l0.51-0.29l0.2-0.55l-0.2-0.55l-0.51-0.28l-0.57,0.09l0.43,0.74"/>
<path style="&st10;" d="M4385.67,234.01l-0.27,0.47l-0.09,0.54l0.09,0.53l0.27,0.47l0.42,0.35l0.51,0.18h0.53l0.51-0.18l0.42-0.35l0.27-0.47l0.09-0.53l-0.09-0.54l-0.27-0.47l-0.42-0.34l-0.51-0.19h-0.53l-0.51,0.19L4385.67,234.01l0.4,0.72v0.58l0.37,0.44l0.57,0.1l0.51-0.29l0.2-0.54l-0.2-0.55l-0.51-0.29l-0.57,0.1l0.43,0.74"/>
<path style="&st10;" d="M4385.67,200.02l-0.27,0.47l-0.09,0.53l0.09,0.54l0.27,0.47l0.42,0.34l0.51,0.19h0.53l0.51-0.19l0.42-0.34l0.27-0.47l0.09-0.54l-0.09-0.53l-0.27-0.47l-0.42-0.35l-0.51-0.18h-0.53l-0.51,0.18L4385.67,200.02l0.4,0.71v0.58l0.37,0.45l0.57,0.1l0.51-0.29l0.2-0.55l-0.2-0.54l-0.51-0.29l-0.57,0.1l0.43,0.73"/>
<path style="&st10;" d="M4385.67,166.03l-0.27,0.47l-0.09,0.53l0.09,0.53l0.27,0.47l0.42,0.35l0.51,0.18h0.53l0.51-0.18l0.42-0.35l0.27-0.47l0.09-0.53l-0.09-0.53l-0.27-0.47l-0.42-0.35l-0.51-0.19h-0.53l-0.51,0.19L4385.67,166.03l0.4,0.71v0.58l0.37,0.44l0.57,0.1l0.51-0.29l0.2-0.54l-0.2-0.55l-0.51-0.29l-0.57,0.1l0.43,0.74"/>
<path style="&st4;" d="M4394.72,447.48l-2.83-2.83h4.24l2.84,2.83l-2.84,2.83h-4.24L4394.72,447.48"/>
<path style="&st4;" d="M4379.01,447.48l2.84-2.83h-4.25l-2.84,2.83l2.84,2.83h4.25L4379.01,447.48"/>
<path style="&st10;" d="M4374.12,447.48h25.49"/>
<path style="&st4;" d="M4394.72,404.99l-2.83-2.83h4.24l2.84,2.83l-2.84,2.83h-4.24L4394.72,404.99"/>
<path style="&st4;" d="M4379.01,404.99l2.84-2.83h-4.25l-2.84,2.83l2.84,2.83h4.25L4379.01,404.99"/>
<path style="&st10;" d="M4374.12,404.99h25.49"/>
<path style="&st10;" d="M4374.12,370.99h25.49"/>
<path style="&st4;" d="M4379.01,370.99l2.84-2.83h-4.25l-2.84,2.83l2.84,2.84h4.25L4379.01,370.99"/>
<path style="&st4;" d="M4394.72,370.99l-2.83-2.83h4.24l2.84,2.83l-2.84,2.84h-4.24L4394.72,370.99"/>
<path style="&st10;" d="M4374.12,337h25.49"/>
<path style="&st4;" d="M4379.01,337l2.84-2.83h-4.25l-2.84,2.83l2.84,2.83h4.25L4379.01,337"/>
<path style="&st4;" d="M4394.72,337l-2.83-2.83h4.24l2.84,2.83l-2.84,2.83h-4.24L4394.72,337"/>
<path style="&st10;" d="M4374.12,303.01h25.49"/>
<path style="&st4;" d="M4379.01,303.01l2.84-2.84h-4.25l-2.84,2.84l2.84,2.83h4.25L4379.01,303.01"/>
<path style="&st4;" d="M4394.72,303.01l-2.83-2.84h4.24l2.84,2.84l-2.84,2.83h-4.24L4394.72,303.01"/>
<path style="&st10;" d="M4374.12,167.03h12.75"/>
<path style="&st10;" d="M4374.12,269.01h12.75"/>
<path style="&st4;" d="M4379.01,269.01l2.84-2.83h-4.25l-2.84,2.83l2.84,2.83h4.25L4379.01,269.01"/>
<path style="&st10;" d="M4385.67,573.96l-0.27,0.47l-0.09,0.53l0.09,0.53l0.27,0.47l0.42,0.35l0.51,0.19h0.53l0.51-0.19l0.42-0.35l0.27-0.47l0.09-0.53l-0.09-0.53l-0.27-0.47l-0.42-0.35l-0.51-0.19h-0.53l-0.51,0.19L4385.67,573.96l0.4,0.71v0.58l0.37,0.45l0.57,0.1l0.51-0.29l0.2-0.55l-0.2-0.55l-0.51-0.29l-0.57,0.1l0.43,0.74"/>
<path style="&st10;" d="M4374.12,235.02h25.49"/>
<path style="&st4;" d="M4379.01,235.02l2.84-2.84h-4.25l-2.84,2.84l2.84,2.83h4.25L4379.01,235.02"/>
<path style="&st4;" d="M4394.72,235.02l-2.83-2.84h4.24l2.84,2.84l-2.84,2.83h-4.24L4394.72,235.02"/>
<path style="&st10;" d="M4385.67,522.97l-0.27,0.47l-0.09,0.53l0.09,0.53l0.27,0.47l0.42,0.35l0.51,0.18h0.53l0.51-0.18l0.42-0.35l0.27-0.47l0.09-0.53l-0.09-0.53l-0.27-0.47l-0.42-0.35l-0.51-0.19h-0.53l-0.51,0.19L4385.67,522.97l0.4,0.71v0.58l0.37,0.45l0.57,0.09l0.51-0.28l0.2-0.55l-0.2-0.55l-0.51-0.29l-0.57,0.1l0.43,0.74"/>
<path style="&st10;" d="M4385.67,488.97l-0.27,0.47l-0.09,0.53l0.09,0.54l0.27,0.47l0.42,0.34l0.51,0.19h0.53l0.51-0.19l0.42-0.34l0.27-0.47l0.09-0.54l-0.09-0.53l-0.27-0.47l-0.42-0.34l-0.51-0.19h-0.53l-0.51,0.19L4385.67,488.97l0.4,0.71v0.59l0.37,0.44l0.57,0.1l0.51-0.29l0.2-0.55l-0.2-0.54l-0.51-0.29l-0.57,0.1l0.43,0.73"/>
<path style="&st10;" d="M4385.67,446.48l-0.27,0.47l-0.09,0.53l0.09,0.53l0.27,0.47l0.42,0.35l0.51,0.19h0.53l0.51-0.19l0.42-0.35l0.27-0.47l0.09-0.53l-0.09-0.53l-0.27-0.47l-0.42-0.35l-0.51-0.18h-0.53l-0.51,0.18L4385.67,446.48l0.4,0.71v0.58l0.37,0.45l0.57,0.1l0.51-0.29l0.2-0.55l-0.2-0.55l-0.51-0.28l-0.57,0.09l0.43,0.74"/>
<path style="&st10;" d="M4385.67,403.99l-0.27,0.47l-0.09,0.53l0.09,0.53l0.27,0.47l0.42,0.35l0.51,0.18h0.53l0.51-0.18l0.42-0.35l0.27-0.47l0.09-0.53l-0.09-0.53l-0.27-0.47l-0.42-0.35l-0.51-0.19h-0.53l-0.51,0.19L4385.67,403.99l0.4,0.71v0.58l0.37,0.44l0.57,0.1l0.51-0.28l0.2-0.55l-0.2-0.55l-0.51-0.29l-0.57,0.1l0.43,0.74"/>
<path style="&st10;" d="M4374.12,201.02h25.49"/>
<path style="&st4;" d="M4379.01,201.02l2.84-2.83h-4.25l-2.84,2.83l2.84,2.84h4.25L4379.01,201.02"/>
<path style="&st4;" d="M4394.72,201.02l-2.83-2.83h4.24l2.84,2.83l-2.84,2.84h-4.24L4394.72,201.02"/>
<path style="&st10;" d="M4385.67,369.99l-0.27,0.47l-0.09,0.53l0.09,0.54l0.27,0.47l0.42,0.34l0.51,0.19h0.53l0.51-0.19l0.42-0.34l0.27-0.47l0.09-0.54l-0.09-0.53l-0.27-0.47l-0.42-0.34l-0.51-0.19h-0.53l-0.51,0.19L4385.67,369.99l0.4,0.71v0.59l0.37,0.44l0.57,0.1l0.51-0.29l0.2-0.55l-0.2-0.54l-0.51-0.29l-0.57,0.1l0.43,0.73"/>
<path style="&st10;" d="M4385.67,336l-0.27,0.47l-0.09,0.53l0.09,0.53l0.27,0.47l0.42,0.35l0.51,0.19h0.53l0.51-0.19l0.42-0.35l0.27-0.47l0.09-0.53l-0.09-0.53l-0.27-0.47l-0.42-0.35l-0.51-0.19h-0.53l-0.51,0.19L4385.67,336l0.4,0.71v0.58l0.37,0.45l0.57,0.1l0.51-0.29l0.2-0.55l-0.2-0.55l-0.51-0.29l-0.57,0.1l0.43,0.74"/>
<path style="&st10;" d="M4385.67,132.03l-0.27,0.47l-0.09,0.53l0.09,0.54l0.27,0.47l0.42,0.34l0.51,0.19h0.53l0.51-0.19l0.42-0.34l0.27-0.47l0.09-0.54l-0.09-0.53l-0.27-0.47l-0.42-0.34l-0.51-0.19h-0.53l-0.51,0.19L4385.67,132.03l0.4,0.71v0.59l0.37,0.44l0.57,0.1l0.51-0.29l0.2-0.55l-0.2-0.54l-0.51-0.29l-0.57,0.1l0.43,0.73"/>
<path style="&st4;" d="M4379.01,167.03l2.84-2.83h-4.25l-2.84,2.83l2.84,2.83h4.25L4379.01,167.03"/>
<path style="&st10;" d="M4374.12,133.03h25.49"/>
<path style="&st4;" d="M4379.01,133.03l2.84-2.83h-4.25l-2.84,2.83l2.84,2.84h4.25L4379.01,133.03"/>
<path style="&st4;" d="M4394.72,133.03l-2.83-2.83h4.24l2.84,2.83l-2.84,2.84h-4.24L4394.72,133.03"/>
<path style="&st4;" d="M4379.01,99.04l2.84-2.83h-4.25l-2.84,2.83l2.84,2.83h4.25L4379.01,99.04"/>
<path style="&st6;" d="M4374.12,574.96c0-2.35-1.9-4.25-4.25-4.25"/>
<path style="&st6;" d="M4369.87,579.21c2.35,0,4.25-1.9,4.25-4.25"/>
<path style="&st6;" d="M4361.37,574.96c0,2.35,1.9,4.25,4.25,4.25"/>
<path style="&st6;" d="M4365.62,570.71c-2.35,0-4.25,1.9-4.25,4.25"/>
<path style="&st6;" d="M4374.12,523.97c0-2.35-1.9-4.25-4.25-4.25"/>
<path style="&st6;" d="M4369.87,528.22c2.35,0,4.25-1.9,4.25-4.25"/>
<path style="&st6;" d="M4361.37,523.97c0,2.35,1.9,4.25,4.25,4.25"/>
<path style="&st6;" d="M4365.62,519.72c-2.35,0-4.25,1.9-4.25,4.25"/>
<path style="&st6;" d="M4412.36,523.97c0-2.35-1.9-4.25-4.25-4.25"/>
<path style="&st6;" d="M4408.11,528.22c2.35,0,4.25-1.9,4.25-4.25"/>
<path style="&st6;" d="M4399.62,523.97c0,2.35,1.9,4.25,4.24,4.25"/>
<path style="&st6;" d="M4403.86,519.72c-2.34,0-4.24,1.9-4.24,4.25"/>
<path style="&st6;" d="M4374.12,489.97c0-2.34-1.9-4.25-4.25-4.25"/>
<path style="&st6;" d="M4369.87,494.22c2.35,0,4.25-1.9,4.25-4.25"/>
<path style="&st6;" d="M4361.37,489.97c0,2.35,1.9,4.25,4.25,4.25"/>
<path style="&st6;" d="M4365.62,485.72c-2.35,0-4.25,1.91-4.25,4.25"/>
<path style="&st6;" d="M4412.36,489.97c0-2.34-1.9-4.25-4.25-4.25"/>
<path style="&st6;" d="M4408.11,494.22c2.35,0,4.25-1.9,4.25-4.25"/>
<path style="&st6;" d="M4399.62,489.97c0,2.35,1.9,4.25,4.24,4.25"/>
<path style="&st6;" d="M4403.86,485.72c-2.34,0-4.24,1.91-4.24,4.25"/>
<path style="&st6;" d="M4374.12,447.48c0-2.35-1.9-4.25-4.25-4.25"/>
<path style="&st6;" d="M4369.87,451.73c2.35,0,4.25-1.9,4.25-4.25"/>
<path style="&st6;" d="M4361.37,447.48c0,2.35,1.9,4.25,4.25,4.25"/>
<path style="&st6;" d="M4365.62,443.23c-2.35,0-4.25,1.9-4.25,4.25"/>
<path style="&st6;" d="M4412.36,447.48c0-2.35-1.9-4.25-4.25-4.25"/>
<path style="&st6;" d="M4408.11,451.73c2.35,0,4.25-1.9,4.25-4.25"/>
<path style="&st6;" d="M4399.62,447.48c0,2.35,1.9,4.25,4.24,4.25"/>
<path style="&st6;" d="M4403.86,443.23c-2.34,0-4.24,1.9-4.24,4.25"/>
<path style="&st6;" d="M4374.12,404.99c0-2.35-1.9-4.25-4.25-4.25"/>
<path style="&st6;" d="M4369.87,409.24c2.35,0,4.25-1.9,4.25-4.25"/>
<path style="&st6;" d="M4361.37,404.99c0,2.35,1.9,4.25,4.25,4.25"/>
<path style="&st6;" d="M4365.62,400.74c-2.35,0-4.25,1.9-4.25,4.25"/>
<path style="&st6;" d="M4412.36,404.99c0-2.35-1.9-4.25-4.25-4.25"/>
<path style="&st6;" d="M4408.11,409.24c2.35,0,4.25-1.9,4.25-4.25"/>
<path style="&st6;" d="M4399.62,404.99c0,2.35,1.9,4.25,4.24,4.25"/>
<path style="&st6;" d="M4403.86,400.74c-2.34,0-4.24,1.9-4.24,4.25"/>
<path style="&st6;" d="M4374.12,370.99c0-2.34-1.9-4.25-4.25-4.25"/>
<path style="&st6;" d="M4369.87,375.24c2.35,0,4.25-1.9,4.25-4.25"/>
<path style="&st6;" d="M4361.37,370.99c0,2.35,1.9,4.25,4.25,4.25"/>
<path style="&st6;" d="M4365.62,366.74c-2.35,0-4.25,1.91-4.25,4.25"/>
<path style="&st6;" d="M4412.36,370.99c0-2.34-1.9-4.25-4.25-4.25"/>
<path style="&st6;" d="M4408.11,375.24c2.35,0,4.25-1.9,4.25-4.25"/>
<path style="&st6;" d="M4399.62,370.99c0,2.35,1.9,4.25,4.24,4.25"/>
<path style="&st6;" d="M4403.86,366.74c-2.34,0-4.24,1.91-4.24,4.25"/>
<path style="&st6;" d="M4374.12,337c0-2.35-1.9-4.25-4.25-4.25"/>
<path style="&st6;" d="M4369.87,341.25c2.35,0,4.25-1.9,4.25-4.25"/>
<path style="&st6;" d="M4361.37,337c0,2.35,1.9,4.25,4.25,4.25"/>
<path style="&st6;" d="M4365.62,332.75c-2.35,0-4.25,1.9-4.25,4.25"/>
<path style="&st6;" d="M4412.36,337c0-2.35-1.9-4.25-4.25-4.25"/>
<path style="&st6;" d="M4408.11,341.25c2.35,0,4.25-1.9,4.25-4.25"/>
<path style="&st6;" d="M4399.62,337c0,2.35,1.9,4.25,4.24,4.25"/>
<path style="&st6;" d="M4403.86,332.75c-2.34,0-4.24,1.9-4.24,4.25"/>
<path style="&st6;" d="M4374.12,303.01c0-2.35-1.9-4.25-4.25-4.25"/>
<path style="&st6;" d="M4369.87,307.25c2.35,0,4.25-1.9,4.25-4.24"/>
<path style="&st6;" d="M4361.37,303.01c0,2.34,1.9,4.24,4.25,4.24"/>
<path style="&st6;" d="M4365.62,298.76c-2.35,0-4.25,1.9-4.25,4.25"/>
<path style="&st6;" d="M4412.36,303.01c0-2.35-1.9-4.25-4.25-4.25"/>
<path style="&st6;" d="M4408.11,307.25c2.35,0,4.25-1.9,4.25-4.24"/>
<path style="&st6;" d="M4399.62,303.01c0,2.34,1.9,4.24,4.24,4.24"/>
<path style="&st6;" d="M4403.86,298.76c-2.34,0-4.24,1.9-4.24,4.25"/>
<path style="&st6;" d="M4374.12,269.01c0-2.35-1.9-4.25-4.25-4.25"/>
<path style="&st6;" d="M4369.87,273.26c2.35,0,4.25-1.9,4.25-4.25"/>
<path style="&st6;" d="M4361.37,269.01c0,2.35,1.9,4.25,4.25,4.25"/>
<path style="&st6;" d="M4365.62,264.76c-2.35,0-4.25,1.9-4.25,4.25"/>
<path style="&st6;" d="M4374.12,235.02c0-2.35-1.9-4.25-4.25-4.25"/>
<path style="&st6;" d="M4369.87,239.27c2.35,0,4.25-1.91,4.25-4.25"/>
<path style="&st6;" d="M4361.37,235.02c0,2.34,1.9,4.25,4.25,4.25"/>
<path style="&st6;" d="M4365.62,230.77c-2.35,0-4.25,1.9-4.25,4.25"/>
<path style="&st6;" d="M4412.36,235.02c0-2.35-1.9-4.25-4.25-4.25"/>
<path style="&st6;" d="M4408.11,239.27c2.35,0,4.25-1.91,4.25-4.25"/>
<path style="&st6;" d="M4399.62,235.02c0,2.34,1.9,4.25,4.24,4.25"/>
<path style="&st6;" d="M4403.86,230.77c-2.34,0-4.24,1.9-4.24,4.25"/>
<path style="&st6;" d="M4374.12,201.02c0-2.34-1.9-4.25-4.25-4.25"/>
<path style="&st6;" d="M4369.87,205.27c2.35,0,4.25-1.9,4.25-4.25"/>
<path style="&st6;" d="M4361.37,201.02c0,2.35,1.9,4.25,4.25,4.25"/>
<path style="&st6;" d="M4365.62,196.77c-2.35,0-4.25,1.91-4.25,4.25"/>
<path style="&st6;" d="M4412.36,201.02c0-2.34-1.9-4.25-4.25-4.25"/>
<path style="&st6;" d="M4408.11,205.27c2.35,0,4.25-1.9,4.25-4.25"/>
<path style="&st6;" d="M4399.62,201.02c0,2.35,1.9,4.25,4.24,4.25"/>
<path style="&st6;" d="M4403.86,196.77c-2.34,0-4.24,1.91-4.24,4.25"/>
<path style="&st6;" d="M4374.12,167.03c0-2.35-1.9-4.25-4.25-4.25"/>
<path style="&st6;" d="M4369.87,171.28c2.35,0,4.25-1.91,4.25-4.25"/>
<path style="&st6;" d="M4361.37,167.03c0,2.34,1.9,4.25,4.25,4.25"/>
<path style="&st6;" d="M4365.62,162.78c-2.35,0-4.25,1.9-4.25,4.25"/>
<path style="&st6;" d="M4374.12,133.03c0-2.34-1.9-4.25-4.25-4.25"/>
<path style="&st6;" d="M4369.87,137.28c2.35,0,4.25-1.9,4.25-4.25"/>
<path style="&st6;" d="M4361.37,133.03c0,2.35,1.9,4.25,4.25,4.25"/>
<path style="&st6;" d="M4365.62,128.78c-2.35,0-4.25,1.91-4.25,4.25"/>
<path style="&st6;" d="M4412.36,133.03c0-2.34-1.9-4.25-4.25-4.25"/>
<path style="&st6;" d="M4408.11,137.28c2.35,0,4.25-1.9,4.25-4.25"/>
<path style="&st6;" d="M4399.62,133.03c0,2.35,1.9,4.25,4.24,4.25"/>
<path style="&st6;" d="M4403.86,128.78c-2.34,0-4.24,1.91-4.24,4.25"/>
<path style="&st6;" d="M4374.12,99.04c0-2.35-1.9-4.25-4.25-4.25"/>
<path style="&st6;" d="M4369.87,103.29c2.35,0,4.25-1.9,4.25-4.25"/>
<path style="&st6;" d="M4361.37,99.04c0,2.35,1.9,4.25,4.25,4.25"/>
<path style="&st6;" d="M4365.62,94.79c-2.35,0-4.25,1.9-4.25,4.25"/>
<path style="&st6;" d="M4403.86,570.71c-2.34,0-4.24,1.9-4.24,4.25"/>
<path style="&st6;" d="M4399.62,574.96c0,2.35,1.9,4.25,4.24,4.25"/>
<path style="&st6;" d="M4408.11,579.21c2.35,0,4.25-1.9,4.25-4.25"/>
<path style="&st6;" d="M4412.36,574.96c0-2.35-1.9-4.25-4.25-4.25"/>
<text transform="matrix(1 0 0 1 4363.7881 567.7168)" style="&st5;"><tspan x="0" y="0" style="&st17; &st11;">35</tspan></text>
<text transform="matrix(1 0 0 1 4363.2881 576.9258)" style="&st5;"><tspan x="0" y="0" style="&st17; &st11;">4C</tspan></text>
<text transform="matrix(1 0 0 1 4402.0283 516.7266)" style="&st5;"><tspan x="0" y="0" style="&st17; &st11;">59</tspan></text>
<text transform="matrix(1 0 0 1 4401.5381 525.9355)" style="&st5;"><tspan x="0" y="0" style="&st17; &st11;">4C</tspan></text>
<text transform="matrix(1 0 0 1 4363.7881 516.7266)" style="&st5;"><tspan x="0" y="0" style="&st17; &st11;">34</tspan></text>
<text transform="matrix(1 0 0 1 4363.2881 525.9355)" style="&st5;"><tspan x="0" y="0" style="&st17; &st11;">4C</tspan></text>
<text transform="matrix(1 0 0 1 4402.0283 482.7363)" style="&st5;"><tspan x="0" y="0" style="&st17; &st11;">24</tspan></text>
<text transform="matrix(1 0 0 1 4401.5381 491.9355)" style="&st5;"><tspan x="0" y="0" style="&st17; &st11;">4C</tspan></text>
<text transform="matrix(1 0 0 1 4363.7881 482.7363)" style="&st5;"><tspan x="0" y="0" style="&st17; &st11;">47</tspan></text>
<text transform="matrix(1 0 0 1 4363.4385 491.9355)" style="&st5;"><tspan x="0" y="0" style="&st17; &st11;">4B</tspan></text>
<text transform="matrix(1 0 0 1 4402.0283 440.2363)" style="&st5;"><tspan x="0" y="0" style="&st17; &st11;">23</tspan></text>
<text transform="matrix(1 0 0 1 4401.5381 449.4453)" style="&st5;"><tspan x="0" y="0" style="&st17; &st11;">4C</tspan></text>
<text transform="matrix(1 0 0 1 4363.7881 440.2363)" style="&st5;"><tspan x="0" y="0" style="&st17; &st11;">35</tspan></text>
<text transform="matrix(1 0 0 1 4363.4385 449.4453)" style="&st5;"><tspan x="0" y="0" style="&st17; &st11;">4B</tspan></text>
<text transform="matrix(1 0 0 1 4402.0283 397.7461)" style="&st5;"><tspan x="0" y="0" style="&st17; &st11;">22</tspan></text>
<text transform="matrix(1 0 0 1 4401.5381 406.9561)" style="&st5;"><tspan x="0" y="0" style="&st17; &st11;">4C</tspan></text>
<text transform="matrix(1 0 0 1 4363.7881 397.7461)" style="&st5;"><tspan x="0" y="0" style="&st17; &st11;">34</tspan></text>
<text transform="matrix(1 0 0 1 4363.4385 406.9561)" style="&st5;"><tspan x="0" y="0" style="&st17; &st11;">4B</tspan></text>
<text transform="matrix(1 0 0 1 4402.4189 363.7559)" style="&st5;"><tspan x="0" y="0" style="&st17; &st11;">10</tspan></text>
<text transform="matrix(1 0 0 1 4401.5381 372.9561)" style="&st5;"><tspan x="0" y="0" style="&st17; &st11;">4C</tspan></text>
<text transform="matrix(1 0 0 1 4363.7881 363.7559)" style="&st5;"><tspan x="0" y="0" style="&st17; &st11;">33</tspan></text>
<text transform="matrix(1 0 0 1 4363.4385 372.9561)" style="&st5;"><tspan x="0" y="0" style="&st17; &st11;">4B</tspan></text>
<text transform="matrix(1 0 0 1 4404.0088 329.7563)" style="&st5;"><tspan x="0" y="0" style="&st17; &st11;">9</tspan></text>
<text transform="matrix(1 0 0 1 4401.5381 338.9663)" style="&st5;"><tspan x="0" y="0" style="&st17; &st11;">4C</tspan></text>
<text transform="matrix(1 0 0 1 4363.7881 329.7563)" style="&st5;"><tspan x="0" y="0" style="&st17; &st11;">24</tspan></text>
<text transform="matrix(1 0 0 1 4363.4385 338.9663)" style="&st5;"><tspan x="0" y="0" style="&st17; &st11;">4B</tspan></text>
<text transform="matrix(1 0 0 1 4402.0283 295.7661)" style="&st5;"><tspan x="0" y="0" style="&st17; &st11;">48</tspan></text>
<text transform="matrix(1 0 0 1 4401.6787 304.9663)" style="&st5;"><tspan x="0" y="0" style="&st17; &st11;">4B</tspan></text>
<text transform="matrix(1 0 0 1 4363.7881 295.7661)" style="&st5;"><tspan x="0" y="0" style="&st17; &st11;">23</tspan></text>
<text transform="matrix(1 0 0 1 4363.4385 304.9663)" style="&st5;"><tspan x="0" y="0" style="&st17; &st11;">4B</tspan></text>
<text transform="matrix(1 0 0 1 4363.7881 261.7661)" style="&st5;"><tspan x="0" y="0" style="&st17; &st11;">22</tspan></text>
<text transform="matrix(1 0 0 1 4363.4385 270.9761)" style="&st5;"><tspan x="0" y="0" style="&st17; &st11;">4B</tspan></text>
<text transform="matrix(1 0 0 1 4402.0283 227.7759)" style="&st5;"><tspan x="0" y="0" style="&st17; &st11;">48</tspan></text>
<text transform="matrix(1 0 0 1 4401.5381 236.9858)" style="&st5;"><tspan x="0" y="0" style="&st17; &st11;">4C</tspan></text>
<text transform="matrix(1 0 0 1 4363.7881 227.7759)" style="&st5;"><tspan x="0" y="0" style="&st17; &st11;">72</tspan></text>
<text transform="matrix(1 0 0 1 4363.4385 236.9858)" style="&st5;"><tspan x="0" y="0" style="&st17; &st11;">4A</tspan></text>
<text transform="matrix(1 0 0 1 4402.0283 193.7759)" style="&st5;"><tspan x="0" y="0" style="&st17; &st11;">47</tspan></text>
<text transform="matrix(1 0 0 1 4401.5381 202.9858)" style="&st5;"><tspan x="0" y="0" style="&st17; &st11;">4C</tspan></text>
<text transform="matrix(1 0 0 1 4363.7881 193.7759)" style="&st5;"><tspan x="0" y="0" style="&st17; &st11;">59</tspan></text>
<text transform="matrix(1 0 0 1 4363.4385 202.9858)" style="&st5;"><tspan x="0" y="0" style="&st17; &st11;">4A</tspan></text>
<text transform="matrix(1 0 0 1 4363.7881 159.7861)" style="&st5;"><tspan x="0" y="0" style="&st17; &st11;">58</tspan></text>
<text transform="matrix(1 0 0 1 4363.4385 168.9961)" style="&st5;"><tspan x="0" y="0" style="&st17; &st11;">4A</tspan></text>
<text transform="matrix(1 0 0 1 4402.8086 125.7964)" style="&st5;"><tspan x="0" y="0" style="&st17; &st11;">11</tspan></text>
<text transform="matrix(1 0 0 1 4401.5381 134.9961)" style="&st5;"><tspan x="0" y="0" style="&st17; &st11;">4C</tspan></text>
<text transform="matrix(1 0 0 1 4363.7881 125.7964)" style="&st5;"><tspan x="0" y="0" style="&st17; &st11;">23</tspan></text>
<text transform="matrix(1 0 0 1 4363.4385 134.9961)" style="&st5;"><tspan x="0" y="0" style="&st17; &st11;">4A</tspan></text>
<text transform="matrix(1 0 0 1 4364.5693 91.7964)" style="&st5;"><tspan x="0" y="0" style="&st17; &st11;">11</tspan></text>
<text transform="matrix(1 0 0 1 4363.4385 101.0063)" style="&st5;"><tspan x="0" y="0" style="&st17; &st11;">4A</tspan></text>
<text transform="matrix(1 0 0 1 4401.6787 576.9258)" style="&st5;"><tspan x="0" y="0" style="&st17; &st11;">4A</tspan></text>
<text transform="matrix(1 0 0 1 4402.0283 567.7168)" style="&st5;"><tspan x="0" y="0" style="&st17; &st11;">68</tspan></text>
</g>
<g ewd:code="C5" ewd:figID="2015" ewd:figtype="gp">
<path style="&st10;" d="M4369.87,701.02v4.25"/>
<path style="&st10;" d="M4361.37,705.27h17"/>
<path style="&st10;" d="M4365.62,708.1h8.5"/>
<path style="&st10;" d="M4367.04,710.94h5.66"/>
<path style="&st10;" d="M4368.45,713.77h2.83"/>
</g>
<text transform="matrix(1 0 0 1 4220.3486 610.916)" style="&st5;"><tspan x="0" y="0" style="&st17; &st11;">(GND)</tspan></text>
<text ewd:textID="267" transform="matrix(1 0 0 1 4159.1279 616.5859)" style="&st5; &st17; &st11;">Transfer Shift <tspan x="0" y="7">Actuator Assembly</tspan></text>
<text transform="matrix(1 0 0 1 4159.1279 609.4766)" style="&st5;"><tspan x="0" y="0" style="&st17; &st11;">C43</tspan></text>
<text transform="matrix(1 0 0 1 4217.1689 644.916)" style="&st5;"><tspan x="0" y="0" style="&st17; &st11;">(GND1)</tspan></text>
<text transform="matrix(1 0 0 1 4159.1279 490.4961)" style="&st5;"><tspan x="0" y="0" style="&st17; &st11;">G22</tspan></text>
<text ewd:textID="151" transform="matrix(1 0 0 1 4159.1279 497.6055)" style="&st5; &st17; &st11;">Heater Switch Assembly</text>
<text transform="matrix(1 0 0 1 4227.0586 491.9355)" style="&st5;"><tspan x="0" y="0" style="&st17; &st11;">(-S)</tspan></text>
<text transform="matrix(1 0 0 1 4159.1279 448.0059)" style="&st5;"><tspan x="0" y="0" style="&st17; &st11;">G9</tspan></text>
<text ewd:textID="276" transform="matrix(1 0 0 1 4159.1279 455.1152)" style="&st5; &st17; &st11;">VSC Off Switch</text>
<text transform="matrix(1 0 0 1 4231.0791 449.4453)" style="&st5;"><tspan x="0" y="0" style="&st17; &st11;">(E)</tspan></text>
<text transform="matrix(1 0 0 1 4159.1279 405.5156)" style="&st5;"><tspan x="0" y="0" style="&st17; &st11;">G13</tspan></text>
<text ewd:textID="68" transform="matrix(1 0 0 1 4159.1279 412.6162)" style="&st5; &st17; &st11;">Back Sonar or <tspan x="0" y="7">Clearance Sonar </tspan><tspan x="0" y="14">Switch Assembly</tspan></text>
<text transform="matrix(1 0 0 1 4223.8779 406.9561)" style="&st5;"><tspan x="0" y="0" style="&st17; &st11;">(IND)</tspan></text>
<text transform="matrix(1 0 0 1 4159.1279 371.5156)" style="&st5;"><tspan x="0" y="0" style="&st17; &st11;">G113</tspan></text>
<text ewd:textID="58" transform="matrix(1 0 0 1 4159.1279 378.626)" style="&st5; &st17; &st11;">Absorber Control Switch</text>
<text transform="matrix(1 0 0 1 4231.0791 372.9561)" style="&st5;"><tspan x="0" y="0" style="&st17; &st11;">(E)</tspan></text>
<text transform="matrix(1 0 0 1 4159.1279 337.5259)" style="&st5;"><tspan x="0" y="0" style="&st17; &st11;">G12</tspan></text>
<text ewd:textID="207" transform="matrix(1 0 0 1 4159.1279 344.626)" style="&st5; &st17; &st11;">Pattern Select <tspan x="0" y="7">Switch Assembly</tspan></text>
<text transform="matrix(1 0 0 1 4231.0791 338.9663)" style="&st5;"><tspan x="0" y="0" style="&st17; &st11;">(E)</tspan></text>
<text transform="matrix(1 0 0 1 4159.1279 303.5259)" style="&st5;"><tspan x="0" y="0" style="&st17; &st11;">G111</tspan></text>
<text ewd:textID="259" transform="matrix(1 0 0 1 4159.1279 310.6362)" style="&st5; &st17; &st11;">Suspension Control <tspan x="0" y="7">Switch</tspan></text>
<text transform="matrix(1 0 0 1 4220.3486 304.9663)" style="&st5;"><tspan x="0" y="0" style="&st17; &st11;">(GND)</tspan></text>
<text transform="matrix(1 0 0 1 4159.1279 269.5361)" style="&st5;"><tspan x="0" y="0" style="&st17; &st11;">G112</tspan></text>
<text ewd:textID="192" transform="matrix(1 0 0 1 4159.1279 276.646)" style="&st5; &st17; &st11;">No. 2 Absorber Control <tspan x="0" y="7">Switch</tspan></text>
<text transform="matrix(1 0 0 1 4231.0791 270.9761)" style="&st5;"><tspan x="0" y="0" style="&st17; &st11;">(E)</tspan></text>
<text transform="matrix(1 0 0 1 4159.1279 235.5464)" style="&st5;"><tspan x="0" y="0" style="&st17; &st11;">G23</tspan></text>
<text ewd:textID="173" transform="matrix(1 0 0 1 4159.1279 242.646)" style="&st5; &st17; &st11;">Integration Control <tspan x="0" y="7">and Panel Assembly</tspan></text>
<text transform="matrix(1 0 0 1 4220.3486 236.9858)" style="&st5;"><tspan x="0" y="0" style="&st17; &st11;">(GND)</tspan></text>
<text transform="matrix(1 0 0 1 4159.1279 201.5464)" style="&st5;"><tspan x="0" y="0" style="&st17; &st11;">G5</tspan></text>
<text ewd:textID="261" transform="matrix(1 0 0 1 4159.1279 208.6563)" style="&st5; &st17; &st11;">Telltale Light <tspan x="0" y="7">Assembly</tspan></text>
<text transform="matrix(1 0 0 1 4220.3486 202.9858)" style="&st5;"><tspan x="0" y="0" style="&st17; &st11;">(GND)</tspan></text>
<text transform="matrix(1 0 0 1 4159.1279 167.5562)" style="&st5;"><tspan x="0" y="0" style="&st17; &st11;">G48</tspan></text>
<text transform="matrix(1 0 0 1 4159.1279 174.6563)" style="&st5;"><tspan x="0" y="0" style="&st17; &st11;">DLC3</tspan></text>
<text transform="matrix(1 0 0 1 4225.2881 168.9961)" style="&st5;"><tspan x="0" y="0" style="&st17; &st11;">(CG)</tspan></text>
<text transform="matrix(1 0 0 1 4159.1279 133.5562)" style="&st5;"><tspan x="0" y="0" style="&st17; &st11;">G76</tspan></text>
<text ewd:textID="96" transform="matrix(1 0 0 1 4159.1279 140.666)" style="&st5; &st17; &st11;">Driving Support Switch <tspan x="0" y="7">Control ECU</tspan></text>
<text transform="matrix(1 0 0 1 4220.3486 134.9961)" style="&st5;"><tspan x="0" y="0" style="&st17; &st11;">(GND)</tspan></text>
<text transform="matrix(1 0 0 1 4159.1279 99.5659)" style="&st5;"><tspan x="0" y="0" style="&st17; &st11;">G124</tspan></text>
<text ewd:textID="240" transform="matrix(1 0 0 1 4159.1279 106.666)" style="&st5; &st17; &st11;">Room Light Switch <tspan x="0" y="7">Assembly</tspan></text>
<text transform="matrix(1 0 0 1 4231.0791 101.0063)" style="&st5;"><tspan x="0" y="0" style="&st17; &st11;">(E)</tspan></text>
<text transform="matrix(1 0 0 1 4294.1787 605.2559)" style="&st5;"><tspan x="0" y="0" style="&st17; &st11;">W-B</tspan></text>
<text transform="matrix(1 0 0 1 4294.1787 639.2461)" style="&st5;"><tspan x="0" y="0" style="&st17; &st11;">W-B</tspan></text>
<text transform="matrix(1 0 0 1 4396.1592 639.2461)" style="&st5;"><tspan x="0" y="0" style="&st17; &st11;">W-B</tspan></text>
<text transform="matrix(1 0 0 1 4498.1484 639.2461)" style="&st5;"><tspan x="0" y="0" style="&st17; &st11;">W-B</tspan></text>
<text transform="matrix(1 0 0 1 4499.6689 650.5762)" style="&st5;"><tspan x="0" y="0" style="&st17; &st11;">(*3)</tspan></text>
<text transform="matrix(0 -1 1 0 4366.1787 682.3262)" style="&st5;"><tspan x="0" y="0" style="&st17; &st11;">W-B(*3)</tspan></text>
<text transform="matrix(1 0 0 1 4159.1279 575.4863)" style="&st5;"><tspan x="0" y="0" style="&st17; &st11;">G10</tspan></text>
<text ewd:textID="93" transform="matrix(1 0 0 1 4159.1279 582.5859)" style="&st5; &st17; &st11;">Downhill Assist <tspan x="0" y="7">Control Switch</tspan></text>
<text transform="matrix(1 0 0 1 4231.0791 576.9258)" style="&st5;"><tspan x="0" y="0" style="&st17; &st11;">(E)</tspan></text>
<text transform="matrix(1 0 0 1 4159.1279 524.4961)" style="&st5;"><tspan x="0" y="0" style="&st17; &st11;">G18</tspan></text>
<text ewd:textID="266" transform="matrix(1 0 0 1 4159.1279 531.5957)" style="&st5; &st17; &st11;">Transfer Position Switch</text>
<text transform="matrix(1 0 0 1 4220.3486 525.9355)" style="&st5;"><tspan x="0" y="0" style="&st17; &st11;">(GND)</tspan></text>
<text transform="matrix(1 0 0 1 4285.6787 95.3359)" style="&st5;"><tspan x="0" y="0" style="&st17; &st11;">W-B</tspan></text>
<text transform="matrix(1 0 0 1 4285.6787 129.3359)" style="&st5;"><tspan x="0" y="0" style="&st17; &st11;">W-B</tspan></text>
<text transform="matrix(1 0 0 1 4285.6787 163.3262)" style="&st5;"><tspan x="0" y="0" style="&st17; &st11;">W-B</tspan></text>
<text transform="matrix(1 0 0 1 4285.6787 197.3262)" style="&st5;"><tspan x="0" y="0" style="&st17; &st11;">W-B</tspan></text>
<text transform="matrix(1 0 0 1 4285.6787 231.3159)" style="&st5;"><tspan x="0" y="0" style="&st17; &st11;">W-B</tspan></text>
<text transform="matrix(1 0 0 1 4285.6787 265.3062)" style="&st5;"><tspan x="0" y="0" style="&st17; &st11;">W-B</tspan></text>
<text transform="matrix(1 0 0 1 4285.6787 299.3062)" style="&st5;"><tspan x="0" y="0" style="&st17; &st11;">W-B</tspan></text>
<text transform="matrix(1 0 0 1 4285.6787 333.2964)" style="&st5;"><tspan x="0" y="0" style="&st17; &st11;">W-B</tspan></text>
<text transform="matrix(1 0 0 1 4285.6787 367.2959)" style="&st5;"><tspan x="0" y="0" style="&st17; &st11;">W-B</tspan></text>
<text transform="matrix(1 0 0 1 4285.6787 401.2861)" style="&st5;"><tspan x="0" y="0" style="&st17; &st11;">W-B</tspan></text>
<text transform="matrix(1 0 0 1 4285.6787 443.7754)" style="&st5;"><tspan x="0" y="0" style="&st17; &st11;">W-B</tspan></text>
<text transform="matrix(1 0 0 1 4285.6787 486.2754)" style="&st5;"><tspan x="0" y="0" style="&st17; &st11;">W-B</tspan></text>
<text transform="matrix(1 0 0 1 4285.6787 520.2656)" style="&st5;"><tspan x="0" y="0" style="&st17; &st11;">W-B</tspan></text>
<text transform="matrix(1 0 0 1 4285.6787 571.2559)" style="&st5;"><tspan x="0" y="0" style="&st17; &st11;">W-B</tspan></text>
<text transform="matrix(1 0 0 1 4489.6484 163.3262)" style="&st5;"><tspan x="0" y="0" style="&st17; &st11;">W-B</tspan></text>
<text transform="matrix(1 0 0 1 4489.1885 174.6563)" style="&st5;"><tspan x="0" y="0" style="&st17; &st11;">(*25)</tspan></text>
<text transform="matrix(1 0 0 1 4489.6484 265.3062)" style="&st5;"><tspan x="0" y="0" style="&st17; &st11;">W-B</tspan></text>
<text transform="matrix(1 0 0 1 4489.1885 276.646)" style="&st5;"><tspan x="0" y="0" style="&st17; &st11;">(*25)</tspan></text>
<text transform="matrix(1 0 0 1 4455.6484 197.3262)" style="&st5;"><tspan x="0" y="0" style="&st17; &st11;">W-B</tspan></text>
<text transform="matrix(1 0 0 1 4455.1982 208.6563)" style="&st5;"><tspan x="0" y="0" style="&st17; &st11;">(*24)</tspan></text>
<text transform="matrix(1 0 0 1 4455.6484 231.3159)" style="&st5;"><tspan x="0" y="0" style="&st17; &st11;">W-B</tspan></text>
<text transform="matrix(1 0 0 1 4455.1982 242.646)" style="&st5;"><tspan x="0" y="0" style="&st17; &st11;">(*24)</tspan></text>
<text transform="matrix(1 0 0 1 4489.6484 129.3359)" style="&st5;"><tspan x="0" y="0" style="&st17; &st11;">W-B</tspan></text>
<text transform="matrix(1 0 0 1 4489.6484 299.3062)" style="&st5;"><tspan x="0" y="0" style="&st17; &st11;">W-B</tspan></text>
<text transform="matrix(1 0 0 1 4493.9893 333.2964)" style="&st5;"><tspan x="0" y="0" style="&st17; &st11;">W</tspan></text>
<text transform="matrix(1 0 0 1 4489.6484 367.2959)" style="&st5;"><tspan x="0" y="0" style="&st17; &st11;">W-B</tspan></text>
<text transform="matrix(1 0 0 1 4489.6484 401.2861)" style="&st5;"><tspan x="0" y="0" style="&st17; &st11;">W-B</tspan></text>
<text transform="matrix(1 0 0 1 4495.0186 443.7754)" style="&st5;"><tspan x="0" y="0" style="&st17; &st11;">B</tspan></text>
<text transform="matrix(1 0 0 1 4455.6484 486.2754)" style="&st5;"><tspan x="0" y="0" style="&st17; &st11;">W-B</tspan></text>
<text transform="matrix(1 0 0 1 4489.6484 520.2656)" style="&st5;"><tspan x="0" y="0" style="&st17; &st11;">W-B</tspan></text>
<text transform="matrix(1 0 0 1 4455.6484 571.2559)" style="&st5;"><tspan x="0" y="0" style="&st17; &st11;">W-B</tspan></text>
<text transform="matrix(1 0 0 1 4057.4092 542.9258)" style="&st5;"><tspan x="0" y="0" style="&st17; &st11;">(ILL-)</tspan></text>
<text transform="matrix(1 0 0 1 4057.4092 313.4663)" style="&st5;"><tspan x="0" y="0" style="&st17; &st11;">(E)</tspan></text>
<text transform="matrix(1 0 0 1 4082.6387 312.0259)" style="&st5;"><tspan x="0" y="0" style="&st17; &st11;">P2</tspan></text>
<text ewd:textID="128" transform="matrix(1 0 0 1 4082.6387 319.1362)" style="&st5; &st17; &st11;">Front Side Step <tspan x="0" y="7">Light RH</tspan></text>
<text ewd:textID="236" transform="matrix(1 0 0 1 4082.6387 353.126)" style="&st5; &st17; &st11;">Rear Side Step <tspan x="0" y="7">Light RH</tspan></text>
<text transform="matrix(1 0 0 1 4082.6387 346.0259)" style="&st5;"><tspan x="0" y="0" style="&st17; &st11;">P4</tspan></text>
<text transform="matrix(1 0 0 1 4057.4092 347.4663)" style="&st5;"><tspan x="0" y="0" style="&st17; &st11;">(E)</tspan></text>
<text transform="matrix(1 0 0 1 4057.4092 381.4561)" style="&st5;"><tspan x="0" y="0" style="&st17; &st11;">(GND)</tspan></text>
<text transform="matrix(1 0 0 1 4082.6387 380.0156)" style="&st5;"><tspan x="0" y="0" style="&st17; &st11;">Q18</tspan></text>
<text ewd:textID="263" transform="matrix(1 0 0 1 4082.6387 387.126)" style="&st5; &st17; &st11;">Theft Warning <tspan x="0" y="7">Siren Assembly</tspan></text>
<text ewd:textID="221" transform="matrix(1 0 0 1 4082.6387 421.1162)" style="&st5; &st17; &st11;">Rear Blower with <tspan x="0" y="7">Fan Motor </tspan><tspan x="0" y="14">Sub-Assembly</tspan></text>
<text transform="matrix(1 0 0 1 4082.6387 414.0156)" style="&st5;"><tspan x="0" y="0" style="&st17; &st11;">Q12</tspan></text>
<text transform="matrix(1 0 0 1 4057.4092 415.4561)" style="&st5;"><tspan x="0" y="0" style="&st17; &st11;">(GND)</tspan></text>
<text transform="matrix(1 0 0 1 4057.4092 576.9258)" style="&st5;"><tspan x="0" y="0" style="&st17; &st11;">(E)</tspan></text>
<text transform="matrix(1 0 0 1 4057.4092 500.4355)" style="&st5;"><tspan x="0" y="0" style="&st17; &st11;">(E)</tspan></text>
<text transform="matrix(1 0 0 1 4082.6387 498.9961)" style="&st5;"><tspan x="0" y="0" style="&st17; &st11;">Q11</tspan></text>
<text ewd:textID="186" transform="matrix(1 0 0 1 4082.6387 506.1055)" style="&st5; &st17; &st11;">No. 1 Fold <tspan x="0" y="7">Seat Switch </tspan><tspan x="0" y="14">Assembly</tspan></text>
<text ewd:textID="230" transform="matrix(1 0 0 1 4082.6387 548.5957)" style="&st5; &st17; &st11;">Rear Power Seat <tspan x="0" y="7">Switch RH</tspan></text>
<text transform="matrix(1 0 0 1 4082.6387 541.4863)" style="&st5;"><tspan x="0" y="0" style="&st17; &st11;">Q10</tspan></text>
<text transform="matrix(1 0 0 1 4057.4092 134.9961)" style="&st5;"><tspan x="0" y="0" style="&st17; &st11;">(-)</tspan></text>
<text ewd:textID="67" transform="matrix(1 0 0 1 4082.6387 174.6563)" style="&st5; &st17; &st11;">Back Door Lock <tspan x="0" y="7">Assembly</tspan></text>
<text transform="matrix(1 0 0 1 4082.6387 167.5562)" style="&st5;"><tspan x="0" y="0" style="&st17; &st11;">X2</tspan></text>
<text transform="matrix(1 0 0 1 4057.4092 168.9961)" style="&st5;"><tspan x="0" y="0" style="&st17; &st11;">(E)</tspan></text>
<text transform="matrix(1 0 0 1 4057.4092 202.9858)" style="&st5;"><tspan x="0" y="0" style="&st17; &st11;">(L)</tspan></text>
<text transform="matrix(1 0 0 1 4082.6387 201.5464)" style="&st5;"><tspan x="0" y="0" style="&st17; &st11;">X3</tspan></text>
<text ewd:textID="139" transform="matrix(1 0 0 1 4082.6387 208.6563)" style="&st5; &st17; &st11;">Glass Hatch <tspan x="0" y="7">Opener Switch </tspan><tspan x="0" y="14">Assembly</tspan></text>
<text transform="matrix(1 0 0 1 4057.4092 101.0063)" style="&st5;"><tspan x="0" y="0" style="&st17; &st11;">(-)</tspan></text>
<text transform="matrix(1 0 0 1 4082.6387 99.5659)" style="&st5;"><tspan x="0" y="0" style="&st17; &st11;">X4</tspan></text>
<text ewd:textID="69" transform="matrix(1 0 0 1 4082.6387 106.666)" style="&st5; &st17; &st11;">Back Window Lock <tspan x="0" y="7">Assembly</tspan></text>
<text transform="matrix(1 0 0 1 4005.2285 197.3262)" style="&st5;"><tspan x="0" y="0" style="&st17; &st11;">W-B</tspan></text>
<text transform="matrix(1 0 0 1 4010.5986 163.3262)" style="&st5;"><tspan x="0" y="0" style="&st17; &st11;">B</tspan></text>
<text transform="matrix(1 0 0 1 4005.2285 129.3359)" style="&st5;"><tspan x="0" y="0" style="&st17; &st11;">W-B</tspan></text>
<text transform="matrix(1 0 0 1 4005.2285 95.3359)" style="&st5;"><tspan x="0" y="0" style="&st17; &st11;">W-B</tspan></text>
<text transform="matrix(1 0 0 1 4005.2285 307.8062)" style="&st5;"><tspan x="0" y="0" style="&st17; &st11;">W-B</tspan></text>
<text transform="matrix(1 0 0 1 4005.2285 341.7959)" style="&st5;"><tspan x="0" y="0" style="&st17; &st11;">W-B</tspan></text>
<text transform="matrix(1 0 0 1 4005.2285 375.7959)" style="&st5;"><tspan x="0" y="0" style="&st17; &st11;">W-B</tspan></text>
<text transform="matrix(1 0 0 1 4005.2285 409.7861)" style="&st5;"><tspan x="0" y="0" style="&st17; &st11;">W-B</tspan></text>
<text transform="matrix(1 0 0 1 4005.2285 571.2559)" style="&st5;"><tspan x="0" y="0" style="&st17; &st11;">W-B</tspan></text>
<text transform="matrix(1 0 0 1 4005.2285 494.7754)" style="&st5;"><tspan x="0" y="0" style="&st17; &st11;">W-B</tspan></text>
<text transform="matrix(1 0 0 1 4003.6787 506.1055)" style="&st5;"><tspan x="0" y="0" style="&st17; &st11;">(LHD)</tspan></text>
<text transform="matrix(1 0 0 1 4005.2285 537.2656)" style="&st5;"><tspan x="0" y="0" style="&st17; &st11;">W-B</tspan></text>
<text transform="matrix(1 0 0 1 4295.6982 616.5859)" style="&st5;"><tspan x="0" y="0" style="&st17; &st11;">(*3)</tspan></text>
<text transform="matrix(1 0 0 1 4295.6982 650.5762)" style="&st5;"><tspan x="0" y="0" style="&st17; &st11;">(*3)</tspan></text>
<text transform="matrix(1 0 0 1 4397.6787 650.5762)" style="&st5;"><tspan x="0" y="0" style="&st17; &st11;">(*3)</tspan></text>
<text transform="matrix(1 0 0 1 4498.1484 664.7461)" style="&st5;"><tspan x="0" y="0" style="&st17; &st11;">W-B</tspan></text>
<text transform="matrix(1 0 0 1 4499.6689 676.0762)" style="&st5;"><tspan x="0" y="0" style="&st17; &st11;">(*3)</tspan></text>
<text ewd:textID="179" transform="matrix(1 0 0 1 4082.6387 251.146)" style="&st5; &st17; &st11;">License Plate <tspan x="0" y="7">Light Assembly</tspan></text>
<text transform="matrix(1 0 0 1 4082.6387 244.0361)" style="&st5;"><tspan x="0" y="0" style="&st17; &st11;">z9</tspan></text>
<text transform="matrix(1 0 0 1 4057.4092 245.4761)" style="&st5;"><tspan x="0" y="0" style="&st17; &st11;">(E)</tspan></text>
<text transform="matrix(1 0 0 1 4030.7285 239.8159)" style="&st5;"><tspan x="0" y="0" style="&st17; &st11;">W-B</tspan></text>
<text transform="matrix(1 0 0 1 4057.4092 457.9453)" style="&st5;"><tspan x="0" y="0" style="&st17; &st11;">(GND)</tspan></text>
<text transform="matrix(1 0 0 1 4082.6387 456.5059)" style="&st5;"><tspan x="0" y="0" style="&st17; &st11;">Q33</tspan></text>
<text ewd:textID="263" transform="matrix(1 0 0 1 4082.6387 463.6055)" style="&st5; &st17; &st11;">Theft Warning <tspan x="0" y="7">Siren Assembly</tspan></text>
<text transform="matrix(1 0 0 1 4005.2285 452.2754)" style="&st5;"><tspan x="0" y="0" style="&st17; &st11;">W-B</tspan></text>
<text transform="matrix(1 0 0 1 4004.7686 463.6055)" style="&st5;"><tspan x="0" y="0" style="&st17; &st11;">(*55)</tspan></text>
<text transform="matrix(1 0 0 1 4004.7686 387.126)" style="&st5;"><tspan x="0" y="0" style="&st17; &st11;">(*54)</tspan></text>
</svg>
