﻿<?xml version="1.0" encoding="UTF-8"?>
<!DOCTYPE svg PUBLIC "-//W3C//DTD SVG 1.0//EN" "http://www.w3.org/TR/2001/REC-SVG-20010904/DTD/svg10.dtd"[
<!ENTITY ns_flows "http://ns.adobe.com/Flows/1.0/">
<!ENTITY ns_svg "http://www.w3.org/2000/svg">
<!ENTITY ns_xlink "http://www.w3.org/1999/xlink">
	<!ENTITY st0 "fill:none;stroke:#F8E616;stroke-width:5.1;stroke-linejoin:round;">
	<!ENTITY st1 "fill:none;stroke:#FB0F0C;stroke-width:5.1;stroke-linejoin:round;">
	<!ENTITY st2 "fill:none;stroke:#9A9999;stroke-width:5.1;stroke-linejoin:round;">
	<!ENTITY st3 "fill:none;stroke:#99280B;stroke-width:5.1;stroke-linejoin:round;">
		<!ENTITY st4 "fill:none;stroke:#000000;stroke-width:0.85;stroke-linecap:round;stroke-linejoin:round;stroke-dasharray:3 1.5;enable-background:new    ;">
	<!ENTITY st5 "fill:none;stroke:#000000;stroke-width:5.1;stroke-linejoin:round;">
	<!ENTITY st6 "stroke:#000000;stroke-width:0.28;stroke-linecap:round;stroke-linejoin:round;enable-background:new    ;">
	<!ENTITY st7 "enable-background:new    ;">
		<!ENTITY st8 "fill:none;stroke:#000000;stroke-width:1.42;stroke-linecap:round;stroke-linejoin:round;enable-background:new    ;">
	<!ENTITY st9 "fill:none;stroke:#EE67AA;stroke-width:5.1;stroke-linejoin:round;">
	<!ENTITY st10 "fill:none;stroke:#199DBF;stroke-width:5.1;stroke-linejoin:round;">
	<!ENTITY st11 "opacity:0.5;fill:none;stroke:#34ACCE;stroke-linejoin:round;stroke-dasharray:6;">
	<!ENTITY st12 "fill:none;stroke:#FFFFFF;stroke-width:4.53;stroke-linejoin:round;">
		<!ENTITY st13 "fill:none;stroke:#000000;stroke-width:0.85;stroke-linecap:round;stroke-linejoin:round;enable-background:new    ;">
	<!ENTITY st14 "fill:none;stroke:#56107C;stroke-width:5.1;stroke-linejoin:round;">
	<!ENTITY st15 "font-size:6px;">
	<!ENTITY st16 "fill:none;stroke:#168638;stroke-width:5.1;stroke-linejoin:round;">
	<!ENTITY st17 "fill:none;stroke:#000000;stroke-width:1.13;stroke-linejoin:round;">
	<!ENTITY st18 "fill:#FFFFFF;stroke:#000000;stroke-width:1.41;stroke-linecap:round;stroke-linejoin:round;">
	<!ENTITY st19 "fill:none;stroke:#3E65AC;stroke-width:3;">
	<!ENTITY st20 "fill:#CCCCCC;stroke:#CCCCCC;stroke-width:0.1;stroke-linecap:round;stroke-linejoin:round;">
	<!ENTITY st21 "font-family:'ArialMT';">
	<!ENTITY st22 "opacity:0.5;fill:none;stroke:#34ACCE;stroke-linejoin:round;">
	<!ENTITY st23 "fill:#CFE6E7;stroke:#000000;stroke-width:1.133;stroke-linecap:round;stroke-linejoin:round;">
	<!ENTITY st24 "fill:none;stroke:#7EC57E;stroke-width:5.1;stroke-linejoin:round;">
<!ATTLIST svg
xmlns:ewd CDATA #FIXED "http://shcl.co.jp/ewd"
xmlns:a CDATA #FIXED "http://ns.adobe.com/AdobeSVGViewerExtensions/3.0/"
ewd:ver CDATA #IMPLIED
>
<!ATTLIST a
ewd:lineID CDATA #IMPLIED
ewd:groupID CDATA #IMPLIED
ewd:figtype CDATA #IMPLIED
ewd:code CDATA #IMPLIED
ewd:figID CDATA #IMPLIED
ewd:pinNo CDATA #IMPLIED
ewd:comment CDATA #IMPLIED >
<!ATTLIST g
ewd:lineID CDATA #IMPLIED
ewd:groupID CDATA #IMPLIED
ewd:figtype CDATA #IMPLIED
ewd:code CDATA #IMPLIED
ewd:figID CDATA #IMPLIED
ewd:pinNo CDATA #IMPLIED
ewd:comment CDATA #IMPLIED >
<!ATTLIST text
ewd:textID CDATA #IMPLIED >
<!ATTLIST title
ewd:textID CDATA #IMPLIED >
]>
<svg 
viewBox='0 0 3631.87 729.44'
height='729.44'
width='3631.87'
xml:space="preserve"
xmlns="&ns_svg;"
xmlns:ewd="http://shcl.co.jp/ewd"
xmlns:xlink="&ns_xlink;" ewd:ver="L2.1">
<g ewd:code="G38-A" ewd:figID="15" ewd:figtype="conn">
<path style="&st8;" d="M1766.19,120.29v33.99h67.98v-33.99H1766.19"/>
<path style="&st8;" d="M1821.71,158.81c0-2.5-2.03-4.53-4.53-4.53"/>
<path style="&st8;" d="M1817.18,154.28c-2.51,0-4.54,2.03-4.54,4.53"/>
<path style="&st8;" d="M1812.64,158.81c0,2.51,2.03,4.54,4.54,4.54"/>
<path style="&st8;" d="M1817.18,163.35c2.5,0,4.53-2.03,4.53-4.54"/>
<path style="&st8;" d="M1787.72,158.81c0-2.5-2.03-4.53-4.54-4.53"/>
<path style="&st8;" d="M1783.18,154.28c-2.5,0-4.53,2.03-4.53,4.53"/>
<path style="&st8;" d="M1778.65,158.81c0,2.51,2.03,4.54,4.53,4.54"/>
<path style="&st8;" d="M1783.18,163.35c2.51,0,4.54-2.03,4.54-4.54"/>
<text transform="matrix(1 0 0 1 1773.9331 150.5757)" style="&st7;"><tspan x="0" y="0" style="&st21; &st15;">CANL</tspan></text>
<text transform="matrix(1 0 0 1 1807.4331 150.5757)" style="&st7;"><tspan x="0" y="0" style="&st21; &st15;">CANH</tspan></text>
<text ewd:textID="8" transform="matrix(1 0 0 1 1763.6626 116.5854)" style="&st7; &st21; &st15;">Certification ECU Assembly</text>
<text transform="matrix(1 0 0 1 1763.6626 109.4756)" style="&st7;"><tspan x="0" y="0" style="&st21; &st15;">G38(A)</tspan></text>
<text transform="matrix(1 0 0 1 1806.3032 160.7754)" style="&st7;"><tspan x="0" y="0" style="&st21; &st15;">9</tspan></text>
<text transform="matrix(1 0 0 1 1814.853 160.7754)" style="&st7;"><tspan x="0" y="0" style="&st21; &st15;">A</tspan></text>
<text transform="matrix(1 0 0 1 1769.1333 160.7754)" style="&st7;"><tspan x="0" y="0" style="&st21; &st15;">10</tspan></text>
<text transform="matrix(1 0 0 1 1780.853 160.7754)" style="&st7;"><tspan x="0" y="0" style="&st21; &st15;">A</tspan></text>
</g>
<g ewd:code="G97" ewd:figID="14" ewd:figtype="conn">
<path style="&st8;" d="M1672.7,222.27v50.99h526.91v-50.99H1672.7"/>
<path style="&st13;" d="M1681.2,222.27v50.99"/>
<path style="&st13;" d="M1715.19,222.27v50.99"/>
<path style="&st13;" d="M1783.18,222.27v50.99"/>
<path style="&st13;" d="M1817.18,222.27v50.99"/>
<path style="&st13;" d="M1953.15,239.27v33.99"/>
<path style="&st13;" d="M1987.15,256.26v17"/>
<path style="&st13;" d="M2157.12,256.26h-441.93"/>
<path style="&st13;" d="M2123.13,239.27H1681.2"/>
<path style="&st13;" d="M1680.01,238.26l-0.28,0.47l-0.09,0.54l0.09,0.53l0.28,0.47l0.41,0.35l0.51,0.18h0.54l0.51-0.18l0.41-0.35l0.27-0.47l0.1-0.53l-0.1-0.54l-0.27-0.47l-0.41-0.34l-0.51-0.19h-0.54l-0.51,0.19L1680.01,238.26l0.39,0.72v0.58l0.37,0.44l0.58,0.1l0.5-0.29l0.2-0.54l-0.2-0.55l-0.5-0.29l-0.58,0.1l0.43,0.74"/>
<path style="&st13;" d="M1714,255.26l-0.27,0.47l-0.09,0.53l0.09,0.54l0.27,0.47l0.41,0.34l0.51,0.19h0.55l0.5-0.19l0.42-0.34l0.27-0.47l0.09-0.54l-0.09-0.53l-0.27-0.47l-0.42-0.34l-0.5-0.19h-0.55l-0.51,0.19L1714,255.26l0.39,0.71v0.59l0.38,0.44l0.57,0.1l0.51-0.29l0.19-0.55l-0.19-0.54l-0.51-0.29l-0.57,0.1l0.42,0.73"/>
<path style="&st13;" d="M1781.99,238.26l-0.27,0.47l-0.1,0.54l0.1,0.53l0.27,0.47l0.41,0.35l0.51,0.18h0.54l0.51-0.18l0.42-0.35l0.27-0.47l0.09-0.53l-0.09-0.54l-0.27-0.47l-0.42-0.34l-0.51-0.19h-0.54l-0.51,0.19L1781.99,238.26l0.39,0.72v0.58l0.38,0.44l0.57,0.1l0.5-0.29l0.2-0.54l-0.2-0.55l-0.5-0.29l-0.57,0.1l0.42,0.74"/>
<path style="&st13;" d="M1815.98,255.26l-0.27,0.47l-0.09,0.53l0.09,0.54l0.27,0.47l0.42,0.34l0.5,0.19h0.55l0.51-0.19l0.41-0.34l0.27-0.47l0.09-0.54l-0.09-0.53l-0.27-0.47l-0.41-0.34l-0.51-0.19h-0.55l-0.5,0.19L1815.98,255.26l0.4,0.71v0.59l0.37,0.44l0.57,0.1l0.51-0.29l0.2-0.55l-0.2-0.54l-0.51-0.29l-0.57,0.1l0.43,0.73"/>
<path style="&st13;" d="M1951.96,238.26l-0.27,0.47l-0.09,0.54l0.09,0.53l0.27,0.47l0.41,0.35l0.51,0.18h0.55l0.5-0.18l0.42-0.35l0.27-0.47l0.09-0.53l-0.09-0.54l-0.27-0.47l-0.42-0.34l-0.5-0.19h-0.55l-0.51,0.19L1951.96,238.26l0.4,0.72v0.58l0.37,0.44l0.57,0.1l0.51-0.29l0.19-0.54l-0.19-0.55l-0.51-0.29l-0.57,0.1l0.42,0.74"/>
<path style="&st13;" d="M1985.96,255.26l-0.28,0.47l-0.09,0.53l0.09,0.54l0.28,0.47l0.41,0.34l0.51,0.19h0.54l0.51-0.19l0.41-0.34l0.27-0.47l0.1-0.54l-0.1-0.53l-0.27-0.47l-0.41-0.34l-0.51-0.19h-0.54l-0.51,0.19L1985.96,255.26l0.39,0.71v0.59l0.37,0.44l0.58,0.1l0.5-0.29l0.2-0.55l-0.2-0.54l-0.5-0.29l-0.58,0.1l0.43,0.73"/>
<path style="&st13;" d="M2157.12,256.26v17"/>
<path style="&st13;" d="M2123.13,239.27v33.99"/>
<text ewd:textID="17" transform="matrix(1 0 0 1 2095.1128 218.5654)" style="&st7; &st21; &st15;">Junction Connector</text>
<text transform="matrix(1 0 0 1 2150.3325 281.4458)" style="&st7;"><tspan x="0" y="0" style="&st21; &st15;">6</tspan></text>
<text transform="matrix(1 0 0 1 2095.1128 211.4658)" style="&st7;"><tspan x="0" y="0" style="&st21; &st15;">G97</tspan></text>
<text transform="matrix(1 0 0 1 2113.1626 281.4458)" style="&st7;"><tspan x="0" y="0" style="&st21; &st15;">17</tspan></text>
<text transform="matrix(1 0 0 1 1810.3931 218.5757)" style="&st7;"><tspan x="0" y="0" style="&st21; &st15;">3</tspan></text>
<text transform="matrix(1 0 0 1 1980.3628 281.4458)" style="&st7;"><tspan x="0" y="0" style="&st21; &st15;">4</tspan></text>
<text transform="matrix(1 0 0 1 1943.1929 281.4458)" style="&st7;"><tspan x="0" y="0" style="&st21; &st15;">15</tspan></text>
<text transform="matrix(1 0 0 1 1773.2231 218.5757)" style="&st7;"><tspan x="0" y="0" style="&st21; &st15;">14</tspan></text>
<text transform="matrix(1 0 0 1 1810.3931 281.4458)" style="&st7;"><tspan x="0" y="0" style="&st21; &st15;">5</tspan></text>
<text transform="matrix(1 0 0 1 1709.1831 218.5757)" style="&st7;"><tspan x="0" y="0" style="&st21; &st15;">1</tspan></text>
<text transform="matrix(1 0 0 1 1773.2231 281.4458)" style="&st7;"><tspan x="0" y="0" style="&st21; &st15;">16</tspan></text>
<text transform="matrix(1 0 0 1 1671.2329 218.5757)" style="&st7;"><tspan x="0" y="0" style="&st21; &st15;">12</tspan></text>
<text transform="matrix(1 0 0 1 1708.4126 281.4458)" style="&st7;"><tspan x="0" y="0" style="&st21; &st15;">2</tspan></text>
<text transform="matrix(1 0 0 1 1671.2329 281.4458)" style="&st7;"><tspan x="0" y="0" style="&st21; &st15;">13</tspan></text>
<text ewd:textID="17" transform="matrix(1 0 0 1 1840.1528 287.9756)" style="&st7; &st21; &st15;">Junction <tspan x="0" y="7">Connector</tspan></text>
<text transform="matrix(1 0 0 1 1840.1528 280.8657)" style="&st7;"><tspan x="0" y="0" style="&st21; &st15;">G97</tspan></text>
</g>
<g ewd:code="G53-A" ewd:figID="35" ewd:figtype="conn">
<path style="&st8;" d="M1664.2,545.22v-34h67.99v34H1664.2"/>
<path style="&st8;" d="M1685.73,506.69c0-2.5-2.03-4.53-4.53-4.53"/>
<path style="&st8;" d="M1681.2,502.15c-2.5,0-4.53,2.03-4.53,4.53"/>
<path style="&st8;" d="M1676.67,506.69c0,2.5,2.03,4.53,4.53,4.53"/>
<path style="&st8;" d="M1681.2,511.22c2.5,0,4.53-2.03,4.53-4.53"/>
<path style="&st8;" d="M1719.73,506.69c0-2.5-2.03-4.53-4.54-4.53"/>
<path style="&st8;" d="M1715.19,502.15c-2.5,0-4.53,2.03-4.53,4.53"/>
<path style="&st8;" d="M1710.66,506.69c0,2.5,2.03,4.53,4.53,4.53"/>
<path style="&st8;" d="M1715.19,511.22c2.51,0,4.54-2.03,4.54-4.53"/>
<text transform="matrix(1 0 0 1 1671.9526 518.856)" style="&st7;"><tspan x="0" y="0" style="&st21; &st15;">CANL</tspan></text>
<text transform="matrix(1 0 0 1 1705.4526 518.856)" style="&st7;"><tspan x="0" y="0" style="&st21; &st15;">CANH</tspan></text>
<text transform="matrix(0 -1 1 0 1739.8032 547.7349)" style="&st7;"><tspan x="0" y="0" style="&st21; &st15;">G53(A)</tspan></text>
<text transform="matrix(1 0 0 1 1678.8726 508.6548)" style="&st7;"><tspan x="0" y="0" style="&st21; &st15;">A</tspan></text>
<text transform="matrix(1 0 0 1 1666.3726 508.6548)" style="&st7;"><tspan x="0" y="0" style="&st21; &st15;">20</tspan></text>
<text ewd:textID="14" transform="matrix(0 -1 1 0 1746.9126 547.7349)" style="&st7; &st21; &st15;">Four Wheel Drive Control ECU</text>
<text transform="matrix(1 0 0 1 1701.1431 508.6548)" style="&st7;"><tspan x="0" y="0" style="&st21; &st15;">19</tspan></text>
<text transform="matrix(1 0 0 1 1712.8628 508.6548)" style="&st7;"><tspan x="0" y="0" style="&st21; &st15;">A</tspan></text>
</g>
<g ewd:code="G46" ewd:figID="36" ewd:figtype="conn">
<path style="&st8;" d="M1766.19,545.22v-34h67.98v34H1766.19"/>
<text transform="matrix(1 0 0 1 1773.9331 518.856)" style="&st7;"><tspan x="0" y="0" style="&st21; &st15;">CANL</tspan></text>
<text transform="matrix(1 0 0 1 1807.4331 518.856)" style="&st7;"><tspan x="0" y="0" style="&st21; &st15;">CANH</tspan></text>
<text transform="matrix(1 0 0 1 1811.1724 507.5259)" style="&st7;"><tspan x="0" y="0" style="&st21; &st15;">1</tspan></text>
<text transform="matrix(1 0 0 1 1776.3931 507.5259)" style="&st7;"><tspan x="0" y="0" style="&st21; &st15;">2</tspan></text>
<text ewd:textID="23" transform="matrix(0 -1 1 0 1848.8931 547.7349)" style="&st7; &st21; &st15;">Power Steering ECU Assembly</text>
<text transform="matrix(0 -1 1 0 1841.7935 547.7349)" style="&st7;"><tspan x="0" y="0" style="&st21; &st15;">G46</tspan></text>
</g>
<g ewd:code="G25-B" ewd:figID="37" ewd:figtype="conn">
<path style="&st8;" d="M1936.16,545.22v-34h67.99v34H1936.16"/>
<path style="&st8;" d="M1991.68,506.69c0-2.5-2.03-4.53-4.53-4.53"/>
<path style="&st8;" d="M1987.15,502.15c-2.5,0-4.53,2.03-4.53,4.53"/>
<path style="&st8;" d="M1982.62,506.69c0,2.5,2.03,4.53,4.53,4.53"/>
<path style="&st8;" d="M1987.15,511.22c2.5,0,4.53-2.03,4.53-4.53"/>
<path style="&st8;" d="M1957.69,506.69c0-2.5-2.03-4.53-4.54-4.53"/>
<path style="&st8;" d="M1953.15,502.15c-2.5,0-4.53,2.03-4.53,4.53"/>
<path style="&st8;" d="M1948.62,506.69c0,2.5,2.03,4.53,4.53,4.53"/>
<path style="&st8;" d="M1953.15,511.22c2.51,0,4.54-2.03,4.54-4.53"/>
<text transform="matrix(1 0 0 1 1939.103 508.6548)" style="&st7;"><tspan x="0" y="0" style="&st21; &st15;">12</tspan></text>
<text transform="matrix(1 0 0 1 1950.8228 508.6548)" style="&st7;"><tspan x="0" y="0" style="&st21; &st15;">B</tspan></text>
<text transform="matrix(1 0 0 1 1973.8726 508.6548)" style="&st7;"><tspan x="0" y="0" style="&st21; &st15;">11</tspan></text>
<text transform="matrix(1 0 0 1 1984.8228 508.6548)" style="&st7;"><tspan x="0" y="0" style="&st21; &st15;">B</tspan></text>
<text transform="matrix(1 0 0 1 1943.9028 518.856)" style="&st7;"><tspan x="0" y="0" style="&st21; &st15;">CANL</tspan></text>
<text transform="matrix(1 0 0 1 1977.4028 518.856)" style="&st7;"><tspan x="0" y="0" style="&st21; &st15;">CANH</tspan></text>
<text transform="matrix(1 0 0 1 1933.6333 552.8247)" style="&st7;"><tspan x="0" y="0" style="&st21; &st15;">G25(B)</tspan></text>
<text ewd:textID="5" transform="matrix(1 0 0 1 1933.6333 559.9263)" style="&st7; &st21; &st15;">A/C Amplifier Assembly</text>
</g>
<text transform="matrix(0 -1 1 0 1677.5024 446.5864)" style="&st7;"><tspan x="0" y="0" style="&st21; &st15;">W</tspan></text>
<text transform="matrix(0 -1 1 0 1711.5024 445.9849)" style="&st7;"><tspan x="0" y="0" style="&st21; &st15;">G</tspan></text>
<text transform="matrix(0 -1 1 0 1779.4927 446.5864)" style="&st7;"><tspan x="0" y="0" style="&st21; &st15;">W</tspan></text>
<text transform="matrix(0 -1 1 0 1813.4829 445.2056)" style="&st7;"><tspan x="0" y="0" style="&st21; &st15;">L</tspan></text>
<text transform="matrix(0 -1 1 0 1949.4634 446.5864)" style="&st7;"><tspan x="0" y="0" style="&st21; &st15;">W</tspan></text>
<text transform="matrix(0 -1 1 0 1983.4526 448.0356)" style="&st7;"><tspan x="0" y="0" style="&st21; &st15;">BR</tspan></text>
<text transform="matrix(0 -1 1 0 1994.7935 454.2856)" style="&st7;"><tspan x="0" y="0" style="&st21; &st15;">(*2,*4)</tspan></text>
<text transform="matrix(0 -1 1 0 1960.7935 454.2856)" style="&st7;"><tspan x="0" y="0" style="&st21; &st15;">(*2,*4)</tspan></text>
<text transform="matrix(0 -1 1 0 1918.3032 453.895)" style="&st7;"><tspan x="0" y="0" style="&st21; &st15;">(*1,*3)</tspan></text>
<text transform="matrix(0 -1 1 0 1884.3032 453.895)" style="&st7;"><tspan x="0" y="0" style="&st21; &st15;">(*1,*3)</tspan></text>
<text transform="matrix(0 -1 1 0 1906.9731 448.0356)" style="&st7;"><tspan x="0" y="0" style="&st21; &st15;">BR</tspan></text>
<text transform="matrix(0 -1 1 0 1872.9731 446.5864)" style="&st7;"><tspan x="0" y="0" style="&st21; &st15;">W</tspan></text>
<text transform="matrix(0 -1 1 0 1677.5024 191.6255)" style="&st7;"><tspan x="0" y="0" style="&st21; &st15;">W</tspan></text>
<text transform="matrix(0 -1 1 0 1711.5024 193.4956)" style="&st7;"><tspan x="0" y="0" style="&st21; &st15;">GR</tspan></text>
<text transform="matrix(0 -1 1 0 1779.4927 191.6255)" style="&st7;"><tspan x="0" y="0" style="&st21; &st15;">W</tspan></text>
<text transform="matrix(0 -1 1 0 1813.4829 190.6055)" style="&st7;"><tspan x="0" y="0" style="&st21; &st15;">P</tspan></text>
<text transform="matrix(0 -1 1 0 1510.3726 330.4258)" style="&st7;"><tspan x="0" y="0" style="&st21; &st15;">(*7)</tspan></text>
<text transform="matrix(0 -1 1 0 1510.3726 236.9458)" style="&st7;"><tspan x="0" y="0" style="&st21; &st15;">(*7)</tspan></text>
<text transform="matrix(1 0 0 1 1534.3931 626.4966)" style="&st7;"><tspan x="0" y="0" style="&st21; &st15;">P</tspan></text>
<text transform="matrix(1 0 0 1 1585.3833 626.4966)" style="&st7;"><tspan x="0" y="0" style="&st21; &st15;">P</tspan></text>
<text transform="matrix(1 0 0 1 1533.3726 643.4966)" style="&st7;"><tspan x="0" y="0" style="&st21; &st15;">W</tspan></text>
<text transform="matrix(1 0 0 1 1584.3628 643.4966)" style="&st7;"><tspan x="0" y="0" style="&st21; &st15;">W</tspan></text>
<text transform="matrix(1 0 0 1 1531.5024 74.0957)" style="&st7;"><tspan x="0" y="0" style="&st21; &st15;">GR</tspan></text>
<text transform="matrix(1 0 0 1 1582.4927 74.0957)" style="&st7;"><tspan x="0" y="0" style="&st21; &st15;">GR</tspan></text>
<text transform="matrix(1 0 0 1 1533.3726 91.0854)" style="&st7;"><tspan x="0" y="0" style="&st21; &st15;">W</tspan></text>
<text transform="matrix(1 0 0 1 1584.3628 91.0854)" style="&st7;"><tspan x="0" y="0" style="&st21; &st15;">W</tspan></text>
<text transform="matrix(0 -1 1 0 1601.0229 458.6958)" style="&st7;"><tspan x="0" y="0" style="&st21; &st15;">BR(*1,*3)</tspan></text>
<text transform="matrix(0 -1 1 0 1626.5229 457.2563)" style="&st7;"><tspan x="0" y="0" style="&st21; &st15;">W(*1,*3)</tspan></text>
<text ewd:textID="4" transform="matrix(1 0 0 1 1882.6431 190.2354)" style="&st7; &st21; &st15;">* 8 :For production from approximately Jan. 2011</text>
<text ewd:textID="3" transform="matrix(1 0 0 1 1882.6431 181.7456)" style="&st7; &st21; &st15;">* 7 :For production through approximately Jan. 2011</text>
<text transform="matrix(1 0 0 1 1882.6431 156.2456)" style="&st7;"><tspan x="0" y="0" style="&st21; &st15;">* 2 :2TR-FE</tspan></text>
<text transform="matrix(1 0 0 1 1882.6431 164.7456)" style="&st7;"><tspan x="0" y="0" style="&st21; &st15;">* 3 :1KD-FTV</tspan></text>
<text transform="matrix(1 0 0 1 1882.6431 147.7456)" style="&st7;"><tspan x="0" y="0" style="&st21; &st15;">* 1 :1GR-FE</tspan></text>
<text transform="matrix(1 0 0 1 1882.6431 173.2456)" style="&st7;"><tspan x="0" y="0" style="&st21; &st15;">* 4 :5L-E</tspan></text>
</svg>
