﻿<?xml version="1.0" encoding="UTF-8"?>
<!DOCTYPE svg PUBLIC "-//W3C//DTD SVG 1.0//EN" "http://www.w3.org/TR/2001/REC-SVG-20010904/DTD/svg10.dtd"[
<!ENTITY ns_flows "http://ns.adobe.com/Flows/1.0/">
<!ENTITY ns_svg "http://www.w3.org/2000/svg">
<!ENTITY ns_xlink "http://www.w3.org/1999/xlink">
	<!ENTITY st0 "fill:none;stroke:#FB0F0C;stroke-width:5.1;stroke-linejoin:round;">
	<!ENTITY st1 "fill:none;stroke:#9A9999;stroke-width:5.1;stroke-linejoin:round;">
	<!ENTITY st2 "fill:none;stroke:#99280B;stroke-width:5.1;stroke-linejoin:round;">
	<!ENTITY st3 "fill:none;stroke:#000000;stroke-width:5.1;stroke-linejoin:round;">
	<!ENTITY st4 "fill:none;stroke:#000000;stroke-linecap:round;stroke-linejoin:round;">
	<!ENTITY st5 "fill:#1D63A2;">
	<!ENTITY st6 "stroke:#000000;stroke-width:0.28;stroke-linecap:round;stroke-linejoin:round;enable-background:new    ;">
	<!ENTITY st7 "enable-background:new    ;">
		<!ENTITY st8 "fill:none;stroke:#000000;stroke-width:1.42;stroke-linecap:round;stroke-linejoin:round;enable-background:new    ;">
	<!ENTITY st9 "fill:none;stroke:#EE67AA;stroke-width:5.1;stroke-linejoin:round;">
	<!ENTITY st10 "fill:none;stroke:#FFFFFF;stroke-width:4;">
	<!ENTITY st11 "fill:none;stroke:#199DBF;stroke-width:5.1;stroke-linejoin:round;">
	<!ENTITY st12 "opacity:0.5;fill:none;stroke:#34ACCE;stroke-linejoin:round;stroke-dasharray:6;">
	<!ENTITY st13 "fill:none;stroke:#FFFFFF;stroke-width:4.53;stroke-linejoin:round;">
	<!ENTITY st14 "fill:#F6140D;">
		<!ENTITY st15 "fill:none;stroke:#000000;stroke-width:0.85;stroke-linecap:round;stroke-linejoin:round;enable-background:new    ;">
	<!ENTITY st16 "font-size:6px;">
	<!ENTITY st17 "fill:none;stroke:#168638;stroke-width:5.1;stroke-linejoin:round;">
	<!ENTITY st18 "fill:none;stroke:#000000;stroke-width:1.13;stroke-linejoin:round;">
	<!ENTITY st19 "fill:#FFFFFF;stroke:#000000;stroke-width:1.41;stroke-linecap:round;stroke-linejoin:round;">
	<!ENTITY st20 "fill:none;stroke:#550E7B;stroke-width:5.1;stroke-linejoin:round;">
	<!ENTITY st21 "fill:none;stroke:#000000;stroke-width:1.133;stroke-linecap:round;stroke-linejoin:round;">
	<!ENTITY st22 "fill:none;stroke:#3E65AC;stroke-width:3;">
	<!ENTITY st23 "fill:#CCCCCC;stroke:#CCCCCC;stroke-width:0.1;stroke-linecap:round;stroke-linejoin:round;">
	<!ENTITY st24 "stroke:#FFFFFF;stroke-width:2;">
	<!ENTITY st25 "font-family:'ArialMT';">
	<!ENTITY st26 "opacity:0.5;fill:none;stroke:#34ACCE;stroke-linejoin:round;">
	<!ENTITY st27 "fill:#CFE6E7;stroke:#000000;stroke-width:1.133;stroke-linecap:round;stroke-linejoin:round;">
	<!ENTITY st28 "font-size:12px;">
	<!ENTITY st29 "fill:none;stroke:#F7E416;stroke-width:5.1;stroke-linejoin:round;">
	<!ENTITY st30 "fill:none;stroke:#000000;stroke-width:0.85;stroke-linecap:round;stroke-linejoin:round;stroke-dasharray:3 1.5;">
	<!ENTITY st31 "fill:none;stroke:#550E7B;stroke-width:4.54;">
	<!ENTITY st32 "fill:none;stroke:#000000;stroke-width:0.85;stroke-linecap:round;stroke-linejoin:round;">
	<!ENTITY st33 "fill:none;stroke:#7EC57E;stroke-width:5.1;stroke-linejoin:round;">
<!ATTLIST svg
xmlns:ewd CDATA #FIXED "http://shcl.co.jp/ewd"
xmlns:a CDATA #FIXED "http://ns.adobe.com/AdobeSVGViewerExtensions/3.0/"
ewd:ver CDATA #IMPLIED
>
<!ATTLIST a
ewd:lineID CDATA #IMPLIED
ewd:groupID CDATA #IMPLIED
ewd:figtype CDATA #IMPLIED
ewd:code CDATA #IMPLIED
ewd:figID CDATA #IMPLIED
ewd:pinNo CDATA #IMPLIED
ewd:comment CDATA #IMPLIED >
<!ATTLIST g
ewd:lineID CDATA #IMPLIED
ewd:groupID CDATA #IMPLIED
ewd:figtype CDATA #IMPLIED
ewd:code CDATA #IMPLIED
ewd:figID CDATA #IMPLIED
ewd:pinNo CDATA #IMPLIED
ewd:comment CDATA #IMPLIED >
<!ATTLIST text
ewd:textID CDATA #IMPLIED >
<!ATTLIST title
ewd:textID CDATA #IMPLIED >
]>
<svg 
viewBox='0 0 4687.94 733.05'
height='733.05'
width='4687.94'
xml:space="preserve"
xmlns="&ns_svg;"
xmlns:ewd="http://shcl.co.jp/ewd"
xmlns:xlink="&ns_xlink;" ewd:ver="L2.1">
<g ewd:code="FUSE10" ewd:figID="4001" ewd:figtype="rb">
<path style="&st4;" d="M4568.7,39.26v42.49h25.49V39.26H4568.7"/>
<path style="&st15;" d="M4581.44,73.25v34.01"/>
<path style="&st8;" d="M4583.57,107.26h-4.25"/>
<path style="&st6;" d="M4581.44,102.36l-2.83-2.83v4.25l2.83,2.83l2.84-2.83v-4.25L4581.44,102.36"/>
<path style="&st8;" d="M4568.7,39.26v42.49h25.49V39.26H4568.7"/>
<path style="&st8;" d="M4581.44,50.59c-2.73,1.61-3.64,5.14-2.03,7.88"/>
<path style="&st8;" d="M4579.41,58.47c0.52,0.88,1.15,1.52,2.03,2.04"/>
<path style="&st8;" d="M4581.44,70.42c2.74-1.61,3.65-5.14,2.04-7.88"/>
<path style="&st8;" d="M4583.48,62.54c-0.52-0.88-1.15-1.51-2.04-2.03"/>
<path style="&st15;" d="M4582.86,49.17c0-0.78-0.63-1.41-1.42-1.41"/>
<path style="&st15;" d="M4581.44,47.76c-0.78,0-1.41,0.63-1.41,1.41"/>
<path style="&st15;" d="M4580.03,49.17c0,0.79,0.63,1.42,1.41,1.42"/>
<path style="&st15;" d="M4581.44,50.59c0.79,0,1.42-0.63,1.42-1.42"/>
<path style="&st15;" d="M4582.86,71.84c0-0.79-0.63-1.42-1.42-1.42"/>
<path style="&st15;" d="M4581.44,70.42c-0.78,0-1.41,0.63-1.41,1.42"/>
<path style="&st15;" d="M4580.03,71.84c0,0.78,0.63,1.41,1.41,1.41"/>
<path style="&st15;" d="M4581.44,73.25c0.79,0,1.42-0.63,1.42-1.41"/>
<path style="&st8;" d="M4579.32,107.26c-2.35,0-4.25,1.9-4.25,4.25"/>
<path style="&st8;" d="M4575.07,111.51c0,2.35,1.9,4.25,4.25,4.25"/>
<path style="&st8;" d="M4583.57,115.76c2.35,0,4.25-1.9,4.25-4.25"/>
<path style="&st8;" d="M4587.82,111.51c0-2.35-1.9-4.25-4.25-4.25"/>
<path style="&st8;" d="M4583.57,115.76h-4.25"/>
<text transform="matrix(1 0 0 1 4598.749 59.646)" style="&st7;"><tspan x="0" y="0" style="&st25; &st16;">10A</tspan></text>
<text transform="matrix(1 0 0 1 4598.749 65.646)" style="&st7;"><tspan x="0" y="0" style="&st25; &st16;">ECU-B</tspan></text>
<text transform="matrix(1 0 0 1 4579.8584 113.48)" style="&st7;"><tspan x="0" y="0" style="&st25; &st16;">1</tspan></text>
<text transform="matrix(1 0 0 1 4574.4014 89.9458)" style="&st7;"><tspan x="0" y="0" style="&st25; &st16;">2</tspan></text>
<text transform="matrix(1 0 0 1 4572.3291 35.5562)" style="&st7;"><tspan x="0" y="0" style="&st25; &st16;">(BAT)</tspan></text>
</g>
<g ewd:code="2" ewd:figID="3002" ewd:figtype="jb">
<path style="&st8;" d="M4583.57,291.24h-4.25"/>
<path style="&st8;" d="M4583.57,282.74h-4.25"/>
<path style="&st8;" d="M4583.57,248.75h-4.25"/>
<path style="&st8;" d="M4583.57,240.25h-4.25"/>
<path style="&st15;" d="M4581.44,282.74v-33.99"/>
<path style="&st6;" d="M4581.44,277.85l-2.83-2.84v4.25l2.83,2.84l2.83-2.84v-4.25L4581.44,277.85"/>
<path style="&st6;" d="M4581.44,253.64l2.83,2.83v-4.24l-2.83-2.84l-2.83,2.84v4.24L4581.44,253.64"/>
<path style="&st8;" d="M4579.32,240.25c-2.35,0-4.25,1.9-4.25,4.25"/>
<path style="&st8;" d="M4575.07,244.5c0,2.34,1.9,4.25,4.25,4.25"/>
<path style="&st8;" d="M4583.57,248.75c2.34,0,4.25-1.91,4.25-4.25"/>
<path style="&st8;" d="M4587.82,244.5c0-2.35-1.91-4.25-4.25-4.25"/>
<path style="&st8;" d="M4579.32,282.74c-2.35,0-4.25,1.9-4.25,4.25"/>
<path style="&st8;" d="M4575.07,286.99c0,2.35,1.9,4.25,4.25,4.25"/>
<path style="&st8;" d="M4583.57,291.24c2.34,0,4.25-1.9,4.25-4.25"/>
<path style="&st8;" d="M4587.82,286.99c0-2.35-1.91-4.25-4.25-4.25"/>
<text transform="matrix(1 0 0 1 4576.9893 246.4697)" style="&st7;"><tspan x="0" y="0" style="&st25; &st16;">2F</tspan></text>
<text transform="matrix(1 0 0 1 4577.1279 288.96)" style="&st7;"><tspan x="0" y="0" style="&st25; &st16;">2D</tspan></text>
<text transform="matrix(1 0 0 1 4564.8115 246.4697)" style="&st7;"><tspan x="0" y="0" style="&st25; &st16;">39</tspan></text>
<text transform="matrix(1 0 0 1 4564.8115 288.96)" style="&st7;"><tspan x="0" y="0" style="&st25; &st16;">14</tspan></text>
</g>
<g ewd:code="G2" ewd:figID="2004" ewd:figtype="gp">
<path style="&st15;" d="M4580.03,713.76h2.83"/>
<path style="&st15;" d="M4578.61,710.93h5.67"/>
<path style="&st15;" d="M4577.2,708.09h8.49"/>
<path style="&st15;" d="M4572.95,705.26h16.99"/>
<path style="&st15;" d="M4581.44,701.01v4.25"/>
</g>
<text transform="matrix(0 -1 1 0 4589.0654 566.2642)" style="&st7;"><tspan x="0" y="0" style="&st25; &st16;">(*1 *11)</tspan></text>
<text transform="matrix(0 -1 1 0 4577.7354 562.0923)" style="&st7;"><tspan x="0" y="0" style="&st25; &st16;">W-B</tspan></text>
<text transform="matrix(0 -1 1 0 4577.7354 409.4595)" style="&st7;"><tspan x="0" y="0" style="&st25; &st16;">L</tspan></text>
<text transform="matrix(0 -1 1 0 4589.0654 417.7397)" style="&st7;"><tspan x="0" y="0" style="&st25; &st16;">(*1 *11)</tspan></text>
<text transform="matrix(0 -1 1 0 4577.7354 183.1636)" style="&st7;"><tspan x="0" y="0" style="&st25; &st16;">L</tspan></text>
<text transform="matrix(0 -1 1 0 4525.0107 407.6597)" style="&st7;"><tspan x="0" y="0" style="&st25; &st16;">W</tspan></text>
<text transform="matrix(0 -1 1 0 4536.3408 414.7778)" style="&st7;"><tspan x="0" y="0" style="&st25; &st16;">(*1 *11)</tspan></text>
</svg>
