﻿<?xml version="1.0" encoding="UTF-8"?>
<!DOCTYPE svg PUBLIC "-//W3C//DTD SVG 1.0//EN" "http://www.w3.org/TR/2001/REC-SVG-20010904/DTD/svg10.dtd"[
<!ENTITY ns_flows "http://ns.adobe.com/Flows/1.0/">
<!ENTITY ns_svg "http://www.w3.org/2000/svg">
<!ENTITY ns_xlink "http://www.w3.org/1999/xlink">
	<!ENTITY st0 "fill:none;stroke:#FB0F0C;stroke-width:5.1;stroke-linejoin:round;">
	<!ENTITY st1 "fill:none;stroke:#9A9999;stroke-width:5.1;stroke-linejoin:round;">
	<!ENTITY st2 "fill:none;stroke:#99280B;stroke-width:5.1;stroke-linejoin:round;">
		<!ENTITY st3 "fill:none;stroke:#000000;stroke-width:0.85;stroke-linecap:round;stroke-linejoin:round;stroke-dasharray:3 1.5;enable-background:new    ;">
	<!ENTITY st4 "fill:none;stroke:#000000;stroke-width:5.1;stroke-linejoin:round;">
	<!ENTITY st5 "fill:none;stroke:#199DBF;stroke-width:1.13;stroke-linejoin:round;">
	<!ENTITY st6 "fill:none;stroke:#000000;stroke-linecap:round;stroke-linejoin:round;">
	<!ENTITY st7 "fill:none;stroke:#F8E616;stroke-width:1.13;stroke-linejoin:round;">
	<!ENTITY st8 "stroke:#000000;stroke-width:0.28;stroke-linecap:round;stroke-linejoin:round;enable-background:new    ;">
	<!ENTITY st9 "enable-background:new    ;">
		<!ENTITY st10 "fill:none;stroke:#000000;stroke-width:1.42;stroke-linecap:round;stroke-linejoin:round;enable-background:new    ;">
	<!ENTITY st11 "fill:none;stroke:#EE67AA;stroke-width:5.1;stroke-linejoin:round;">
	<!ENTITY st12 "fill:none;stroke:#199DBF;stroke-width:5.1;stroke-linejoin:round;">
	<!ENTITY st13 "opacity:0.5;fill:none;stroke:#34ACCE;stroke-linejoin:round;stroke-dasharray:6;">
	<!ENTITY st14 "fill:none;stroke:#FFFFFF;stroke-width:4.53;stroke-linejoin:round;">
		<!ENTITY st15 "fill:none;stroke:#000000;stroke-width:0.85;stroke-linecap:round;stroke-linejoin:round;enable-background:new    ;">
	<!ENTITY st16 "fill:none;stroke:#56107C;stroke-width:5.1;stroke-linejoin:round;">
	<!ENTITY st17 "font-size:6px;">
	<!ENTITY st18 "fill:none;stroke:#FFFFFF;stroke-width:2.27;stroke-linejoin:round;">
	<!ENTITY st19 "fill:none;stroke:#FB0F0C;stroke-width:1.13;stroke-linejoin:round;">
	<!ENTITY st20 "fill:none;stroke:#168638;stroke-width:5.1;stroke-linejoin:round;">
	<!ENTITY st21 "fill:none;stroke:#000000;stroke-width:1.13;stroke-linejoin:round;">
		<!ENTITY st22 "fill:none;stroke:#000000;stroke-width:1.13;stroke-linecap:round;stroke-linejoin:round;stroke-dasharray:3 1.5;enable-background:new    ;">
	<!ENTITY st23 "fill:#FFFFFF;stroke:#000000;stroke-width:1.41;stroke-linecap:round;stroke-linejoin:round;">
	<!ENTITY st24 "fill:none;stroke:#3E65AC;stroke-width:3;">
	<!ENTITY st25 "fill:#CCCCCC;stroke:#CCCCCC;stroke-width:0.1;stroke-linecap:round;stroke-linejoin:round;">
	<!ENTITY st26 "font-family:'ArialMT';">
	<!ENTITY st27 "fill:none;stroke:#168638;stroke-width:1.13;stroke-linejoin:round;">
	<!ENTITY st28 "opacity:0.5;fill:none;stroke:#34ACCE;stroke-linejoin:round;">
	<!ENTITY st29 "fill:#CFE6E7;stroke:#000000;stroke-width:1.133;stroke-linecap:round;stroke-linejoin:round;">
	<!ENTITY st30 "fill:none;stroke:#99D5E0;stroke-width:5.1;stroke-linejoin:round;">
	<!ENTITY st31 "fill:none;stroke:#7EC57E;stroke-width:5.1;stroke-linejoin:round;">
<!ATTLIST svg
xmlns:ewd CDATA #FIXED "http://shcl.co.jp/ewd"
xmlns:a CDATA #FIXED "http://ns.adobe.com/AdobeSVGViewerExtensions/3.0/"
ewd:ver CDATA #IMPLIED
>
<!ATTLIST a
ewd:lineID CDATA #IMPLIED
ewd:groupID CDATA #IMPLIED
ewd:figtype CDATA #IMPLIED
ewd:code CDATA #IMPLIED
ewd:figID CDATA #IMPLIED
ewd:pinNo CDATA #IMPLIED
ewd:comment CDATA #IMPLIED >
<!ATTLIST g
ewd:lineID CDATA #IMPLIED
ewd:groupID CDATA #IMPLIED
ewd:figtype CDATA #IMPLIED
ewd:code CDATA #IMPLIED
ewd:figID CDATA #IMPLIED
ewd:pinNo CDATA #IMPLIED
ewd:comment CDATA #IMPLIED >
<!ATTLIST text
ewd:textID CDATA #IMPLIED >
<!ATTLIST title
ewd:textID CDATA #IMPLIED >
]>
<svg onload="call_execInitLoadProc_svg('system')"
style='overflow:visible;enable-background:new 0 0 4668.69 729.44'
viewBox='0 0 4668.69 729.44'
height='729.44'
width='4668.69'
xml:space="preserve"
xmlns="&ns_svg;"
xmlns:ewd="http://shcl.co.jp/ewd"
xmlns:a="http://ns.adobe.com/AdobeSVGViewerExtensions/3.0/"
xmlns:xlink="&ns_xlink;" ewd:ver="L2.1">
<style type="text/css">
	<![CDATA[
@font-face{font-family:'ArialMT';src:url("data:;base64,\
T1RUTwADACAAAQAQQ0ZGIO4jPh0AAAA8AAAad0dQT1OgNrF8AAAbGAAAAhJjbWFwAcgB7AAAGrQA\
AABkAQAEAgABAQEIQXJpYWxNVAABAQE3+BsB+BgEHPqv/S0cEAAcCAwFHqAASIKBJf+Lix6gAEiC\
gSX/i4sMB/dKD/djEPdlEZMcGm8SAAEBAWVBcmlhbChSKSBUcmFkZW1hcmsgb2YgVGhlIE1vbm90\
eXBlIENvcnBvcmF0aW9uIHBsYyByZWdpc3RlcmVkIGluIHRoZSBVUyBQYXQgJiBUTSBPZmYuIGFu\
ZCBlbHNld2hlcmUuAAABAAEAAAkGABEKACIPADMHAEIIAEwFAFMIAAAARAIAAQAbAB4AcQDHASEB\
QAFpAXcBhAIaAkQCzgONA7cEPAUEBUoGKgb8BxcHVQgMCLMJNQlSCWwKKApGClUKqwrYCukLKQtP\
DAMMZAzwDdYN7g5TDoAO5Q8wD2EQRxDEEUcRyhJYEqITXxOuE8sT+RQIFJUU7BVtFfcWNxcKF2QX\
wRftGDcYeBjiGRLK95QWHAUA+pQc+wAH/nSrFfpUHATA/lQGDv4cDv2r+HP8QxUo9xE39ydG9zwI\
Rvc8afdC90ga9zOl9yy+9yUex/c96Pc89xH3Owj3FQY6+x9WKHFQYi9rK3QnCG77EX37EfsSGvvV\
7/vU91v71B4O/av3kfxDFfsVBvdb99Tv99T31Rr3EX33EW73Dx5072zrYudxx1XvOvcgCPcVBvcR\
+zvo+zzH+z0Ivvslpfss+zMa+0hp+0JG+zweRvs8N/snKPsRCA79OMscBK0Vufci9WbYartwGX73\
DYXeirgI9yUGiUmDOH4o0K7Zq+SoufsiGDZvOHg6grRoxEzVMPsMNhhkwF7SVuZaLV9DZlr7CuAY\
2OrDyqyqNZw5nT6gCA77qfiV94EV+Cb8I/c8+CP4I/c+/CP4I/s8/CP8JgcO/hz3Shb3Yfdh+2EH\
QH5OcF0ecFxhZ1FyWdgYsZyno52snauVuY3ICA79q8z4TBX3Sfi9+0kHDv4c904W92H3YfthBw7g\
+WcV90Gd9yCv9R6u9MDd0sQIxNHjqPYb2tB7bMYfxmu8XbJQsk+pQqE2CKE1lvsI+yUa+0B5+x9o\
Ih5oIVY5RVIIUUQybiAb+yH7A77wOh8q9w5b91v3pxr3TRb7haf7NMQ8HjvD0GPeG97Qs9vEH8Pb\
p/c094Qa94Vv9zVT2h7aUkWzNxs4SWhFWh9NMmz7OfuFGg75jxb7SBwEewZgYlJhRWJEYkxsU3YI\
90IH8LrjxdbO1s7BzarKCPcIBg76m/dBFftB/l0HiraStZqzpM2yzMLLwcvZ1fLf9zP3F/cA8sPY\
CMPXp9PPGtJyyFi8HrxYSKM5GzRGcVdXH1dXcUOKL/tNnhiY9x669N7UCNPe9wOv9x8b9yH3A2Q9\
3R/dPbQq+wcaUH9Sc1Iec1JjUFRMU0wuNfsV+wH7ADBGTmxrbGpya3dqCA7h+BcV90ijoCWuQr1e\
GV68yHTSG+DSqMbGH8XGqNPiGt5wz1XBHsBVRqY4G2lhhH5YH5/3MgWKl5WKkhvY0J+zyB/Is6rJ\
3hrNdcJeth62XlKhRBtFUXVfXB9cX21JfjP7SKsYofcNvejZzgjN2eys9wgb29V6ac4fzmi/XK9Q\
CK5QnUxIGkx6UWlXHmlXWWJIbOJ3zmK7TAi7TKM8LBr7FFz7AC4yHjIu+wpe+yMb+xUhsdg2HzbY\
Wu5/9w4IDvkqFvfz/RD3OQf5MfpKBfcn/kr3Wvs5+1r78wb7SPiYFfkpB/xf/SkFDuD4FBX3UZuZ\
L6xGvl0ZXL7IdNMb4tSszMcfx8yp4vcAGvJu3FLGHsZRP6kuG1FXfnFcH1xwZ2lwYfs9oRj3IvmF\
Bflt+0D83QY8/B4FyOPnquwb9xT3AF8y4x/jMrf7BvsfGvsZZPsGPioe+wst+xRQ+zcb+xn7AbDW\
Nx821lvuf/cPCA76j/rnFftHfXvSdL5uqxm+Wk+lRBtSWHtrYB9SYl9OajxqPHr7BYr7J7bNwLzK\
qwirysyb0Bv3DPFfM+Af3zK1+wb7IBovdzZkPB5jPFRORmEIYUY8djMb+yr7DsL3AywfLPcCXPdK\
95Ea96+/92L09xUe9wTm9w/D9y8b9wfqa0rVH9RKtzKa+wYI/XP9DBVNmFCmUh6lUrBgum4Ibbq9\
fL8b18yqyMIfwsim3/Qa8HDbVcYexVVHqDkbOkZuUVIfUlBvPywaDuwcBPoV90H6SfsgBy4oLvsY\
MPs5L/s5RPs9WftCZ/sPdPsagfsmCPtNBo33B6L3ILb3N7b3N8r3Mtz3LNz3K+H3FObzCA73/vmv\
FUCmVLJnvghnvnnH0hr2seTY1B7U2PGv9xMb9xTyZkHZH9lAsjEgGkd5UGhZHmdYVWRCcOVu0Fu6\
Sgi6SqI9MBr7EV8hMjYeNjL7CGD7JRv7JfsItuEyHzLgX/b3FBrqo9u8zB67y9C35KIIZ/fFFUah\
UrhfHl+4xXXSG9DEobe4H7e2ocHKGs10w164HrhdUqFHG0ZSdV9eH15fdFZOGlH9ORVYl1mkWx6j\
W69mu3EIcLu/fsIb4dKnwsMfw8Kn0uAa4m7SUsQexFFDpzQbNkVvU1QfU1NvRTcaDvcE9+cV90Gb\
mjqnULRmGWa0wHnMG8K8mKS1H7Skra2mtqa1ocSd0wid05TU1hqTi5eKmx5nUlpcTWgIZ0xIeUIb\
+w0kt+M3HzfjYfcI9yQa9ym39wvj5h7m4vcCuPcYG+rjcVjaH9pYx0K0LAi0LJ/7HvtIGvtPd/sp\
YvsDHmL7A082O1EIUTotbvsAG/sHLqvLQh9CymDlfPcHCPl1+RsV8nDdVMgeyFRIqT4bO0VqSlAf\
UEptNiMaLqc/xFEeUMPQbt4b3tCoxsEfwMWm3PIaDv4c90357RX3Yfdh+2EH+2H97RX3Yfdh+2EH\
DiCIFvjHHAW6BfdlBvjsHPpGBftxBvs/+FAF/PkG+zX8UAX3bfjuFfiFBvst+Cpc9w9p8XTaGXgt\
cS5pLggOIPcqFhwFuvi6B/cE5Xxuzx/ObcBdsk4IsU2eSkgaTHpQaVQeaVRYXkZp5HHPX7tMCLpM\
o0E2GkZ9TG5QHm5QZ11ga2BrVnNLewh6SjyDLhv8AfnmFffRBuHJkZawH7yasaOkrQikrZe2vhq8\
f7Z0sB50sGmkYJkImGBAkiIb+7kG/vQE+AEGyreNkKQfuJOwmKmeqZ6kpp6vCJ6ulbS6GsJ9um+0\
Hm+zZKdanAibWUOTLhv75wYOkRwEtPiWFfdWWmL7M0L7DiI4GTch+xVh+y0b+zL7FKvMKB8oyz/o\
WPcOCFf3DnH3F/cgGvctqPcZxvcGHsX3Bd7i9wDGCMb29wuo9xUb9yf3D2ZA7x/vQNEisvsb+1Ne\
GGn2WthKvAi8SjqjKRv7BS1wVUAfP1VWQ2wwCGwwfC0qGvsRnfsAsC4ery7DRdhdCF3Y3nTkG/cB\
56rK1h/Wyr7opvcPCA6R9zIWHAW6+I0H9wbihH3HH99402jGWNhKxTeyJgixJZ77CPsXGvsDfihx\
NR5xNWpEYlNiUl9fW2taalFzR3oIekY9gzIb++P3QRX3zQbs15Sdwh/CnbakrKy5ua/JpdkIpNiY\
6fcDGvctcvcKWd4eWN1OwkOnCJ9XN5X7Bxv7yAYOIPc2FhwFuvq4+0H99vxV+b/7QP2//If6GPtB\
Bw77cvc8FhwFuvpx+0H9r/xa+UT7Qf1E/S4HDvcM+eD40xX3QAf5AYwF/LQHLD8oUiZlCGQmI3gg\
G/sk+xeqyfsJH/sKyDLkT/cJCE/3CW33FvckGvcjqfcZx/cQHsb3D+Hn9wTHCMf3BPcVqfcmG/Xr\
emnhH+Bozlu8TrxOsDukKPtDWxh11nDFarZqtl2tTqUIpE5ImEEbMj9+cEofSnBXZ2RfY19sW3VW\
CGYweCkhGvsXovsBuDMeuDPMSuFgCGDh5nbsG9/dm6zbH9uryK20sAj3pQcOkfc4FhwFuvdW/O75\
jvju91Yc+kb7VvlH/Y79RwcO/hz3UxYcBbr3Vhz6RgcO/FXG+DQV90OjkPsEoD6wYhlisL92zRu8\
tZairh+uoaSpmLIImLGSyN8a+ob3Vv57B/sPfCxuSB5tSFxXS2gIaEpAeTQb+xUpsNVHH0bVavcC\
jvcmCA4g9yoWHAW691b9awf5bPlrBfebBvz7/Ob5Fv38BfuUBvye+Xr7hPt+BfyQBw73KhYcBbr3\
Vhz68/lm+0EHDvd99ywWHAW697gH9+/+oqsqokOaWxmcwKXarvL38/qQGPeZHPpG+08cBMsG/D4c\
+zUF+0MG/DwcBOAFHPsgBw6R9zAWHAW691sH+ZYc+4EFHAR/904c+kb7Wwf9lhwEgAUc+4AHDvcM\
7vleFfeHzPdT9xf3Hh73HfcX9zzQ92Mb9xv3DmtK9wEf9wFK3jHE+wcIxPsIp/sX+yca+ylt+xlP\
+wkeT/sJNjL7Ak8ITvsC+wtt+xMb+x77D6zO+wEf+wHOOeZT9wcIU/cHb/cO9xUa91yIFftFu/sf\
6iYeJer3C1j3Ixv3JvcMvvLqH+nyuvcl91Ea9wt39GPkHmLkUNA+vAi8PTSjKhv7HfsKXC0oHygs\
Wfsx+3EaDiD3MhYcBbr4vQfs1oaCvh/Tf8d0vGq8abJcqU4IqE6aSUIa+xFjIjw1HjQ8+yRg+2Mb\
/Az86Ab5lQT4Dwb3EeSiusAfwLqlzOAayHzAbLcebLZiqFiZCJRqT48zG/wLBg6R9zUWHAW6+R4H\
9xfufnHPH89wwV20SAi0SJ9COhojaTNIRB5IRCNd+yF4vnKyc6ZzxFfASr4995P8Ixj7iAb7VvfF\
UuNdzma6GWa6a6tunm6ebZhtkgiQdWeNWRv7df0fBvnHBPg1BuTQlJ69H72dsailtAils5i3uhrQ\
csRZuB64WDyh+wEb/GQGDiDn+GsV90ublEKfT6tcGapcvGXObghuztZ83hvVzJahxB/EobWpp7II\
prGZtbgauX6zcK4ecK1fqE6iZJo0o/sbrPsbqy2pVahFsFe4acIIaMF6yM4a1aDQtcwetcvIvNys\
CKzc5JzuG/cB63po3h/eaMpXuEe4R6M+jjX7Tn0Ygehp0VK6CLpRNqP7BRv7CTV2YFYfVWBwV04a\
Vp5gsWkesGntaPcyaPcxZ/cAbMZw4GTKWbRPCLROn0Y8Gj11Ql5GHl5GS1U4ZQhkNy14Ihv7GfsD\
nrIyHzGyRcVY2VjYcOOI7QgO+3L4pxYcBQ38d/dBHASK+0H8eRz68wcOkfr0HAW6FfdW/eMG+yd6\
+wlqNB5qNE9FNFUIVDT7B3D7IRv7HfsFo7o0HzS6TNBm5Qhm5Hj3D/cvGvnj91b94gf7E5cto08e\
ok60XcVqCGrE0nveG/cj8KvMyB/IzKn3EPdMGg4g+NUW/MwcBboF92YG+BH+vao2pDugQBmi26Xb\
qdv4IPq9GPdaBvzSHPpGBQ74YPgyFvwZHAW6BfdbBvdz/lWjJqAnnCgZsPcxoeWSo/er+nIY934G\
92b9esD7TLH7QaL7Nhme6KP1qfcM93r6Qhj3Vwb8Jhz6RgX7Twb7yfrxceh8xYagGXxIfFF+XPvL\
/vEYDiCUFvjL+ZD8iPlSBfd7Bvee/AzCPbNPomEZrMCxw7jF97v4GRj3Zwb8l/1H+L/9mwX7hAb8\
Bfifdql2rHWuGWpWdGZ9d/wE/JMYDiD4zxb5AQf8yfnhBfeABve1/E7AOL05uTgZt9jA4crr97D4\
Qxj3dgb83f3hBf0BBw750PcXFUhSS2NOdAh0TUl/RBv7CTKoxEwfTMRs0+Qav5e7o7YeoraqrbKl\
saW2n7uYrpTBlNKU9yWc9qDQowiMpIuakhrUer9pqR60XUefMBs2TXxuYx9ibW1WeED7RKMYm9al\
yLC6sLnAr9CkCKTQ3JfmG+bUgHbEH8R2tHCma6ZqnWKWWgiRbI5UOxr7hAf7O48hk18ekl6aYaJi\
CPtQBniwf7eGvQh8+CYVSnApdfsXeEGAV39sfmx+dHd6cgh6cYNubBpbnWOwax5rr8B70RvQyZqq\
wR/BqbO0pMAInrSVx9oaDvfBFvs7HAW690j8nwbq1+y79wobzMl+ccYfxXC7ZrFcsFupUaBICKBI\
lkM+GvtKXvshMSgeKDH7AFn7Ehv7ESi/9EQfifgqFfsTnC+uUh4uxNdd7Bvaz63QxB/Ez6jx9xsa\
9x9w8VTNHs1USKw9GzxHaUdSH1JGbij7FRoO/FX50PgZFfdFdHj7DlksPEYZRjspaPsIG/sl+wm7\
6jMfMupf9xz3RRr3B57vseEeseHFzNm2CLbY4KDmG/cH6m5R1B/UULo4oCD7Q3AYetJuwWGvCK9g\
WJ1PGzBCa0pSH1JKbyT7IRr7I6YkwkoeSsLSa+Mb0sahtrofurapzpjlCA75zBb3GgciSChW+xcb\
Nj6iukQfRLpUzGTfCGTed+v3ARr1neuu4h6u4cDN0rkIudLaouIby8R+cL0fvXC0Z6pgCPii90cc\
+kYH/XT4phX7HKglxEgeSMTPadkb2s6rzMIfwsum7fcYGvclb/ZTzx7PU0atORs7SGpKVh9VSnAk\
+yEaDvny9+oV9050bvsBVDc8TxlPPCVt+w8b+y/7D7vrMB8w6l33GvdBGvdHufce5+4e7uf3C7z3\
Jxv3IvcIWyrlH+UquPsc+0MagIt7inYe/awGkvsJrDLGTQhNxtVs5BvNw5yuuh+6rrDCptcI/OP3\
txX45QaD5HTOZrgI0FJArjAbOEZvVFMfUlRsQYUuCA7+HPdGFvou+zP3IPcz9wUH0pHAmK4enLqq\
sbeoCKi2yJnaG77DhX/IH3D7MQWSZmeOahtUZX90dB90dIBfSxop92P7IPtj/i4HDvEzFfdDcZJV\
oGSschlquMh62BvezJysuB+4rKq6m8eUsJDYivcJCC48KV37CRv7JvsFwPQ7Hzv0Y/cT9yca8J3p\
sOEesODAzdG6CLrQ3aLpG/cR81gm3B/3FPc6/ioH+zl6+wpqRx5pRlZUQmMIY0IxdyAb+xMlp8U9\
Hz3EZeCO9wcI9yn5EhX7H6clwkseS8LRa94b3tCry8Mfw8qn7/ccGvcWbu1SzR7NUUWsOhs7R2tK\
Ux9TSm8q+xQaDvcbFhwFuvdI/KIH7N/1vPcUG9rPfGzFH8VstWCkVAikVJc8Ixr9NftI+TUH5XjN\
ZLQetGRTn0QbVll9cFwfXG9pZXdcCHdcgUk4GvzZBw7+jvccHATrFfdj90j7Ywf7SBz7FRX6uvdI\
/roHDvxV9xwWHAW690j92Af4PvhEBfd9Bvwq/B74U/0wBftyBvvz+LP7E/sOBfw5Bw7+jvcXFhwF\
uvdIHPpGBw73ffcbFvq69zX7KQesv7i1wqsIqsLKm9Ib2st7ar4fvWquXqBQCPcQ3/cByfcbG/Tc\
blHEH8RQpzH7DRr9bftH+TEH04W/gKsef6p2pWyeCJ5sZ5ViG0BNclpaH1pZcjv7ARr8/ftI+UYH\
23zHbrMes25bn0gbWF1+cGAfYHBrZHhYCHhYgUEqGvy7Bw73Gxb6uvc2+ysH9wnZ9wXF9ycby8aA\
dMEfwHSzbKZmpmadXpZYCJJqjlA4Gv0h+0j5GgfUhMJ9sB59r3KoaKEIoGdhllsbPklzWlQfU1pv\
L/scGvzYBw7P+KcV91nC9yX3Aeoe2ub3BLL3Fxv3JvcLWyzoH+grufsY+z0a+x13IGI9HmI8T049\
YAhgPDZ1Lhv7KfsMu+owHy/qXfce90ca900W+xypJcZIHkfG1mnlG+TWrc/GH8bPqfP3Hxr3F23v\
UM8ezk9BrTIbMUBpSFAfUEhtJfscGg73G/wrFRwFvfc4+x4HssG2tLymCKa8xpjQG+bbdFzQH9Bc\
wEquNgiuNp0tJhr7AXgqZDQeZDRSSEFdCFxAPXQ5G09VmKRcH1ukZKtssgj8mQd6+jgV+x2nJsJK\
HkrCzmraG9vQrc/EH8TOp/T3Ihr3G2/xVM4ezlNIrT4bPkhnRFAfUENtI/sdGg79q/cZFvq69zb7\
NQe01rK9rqMIo66xl7UbyMh4ZMofTfs7BaVfX5hfG2Rnf3RsH2xzdGp+YQh3S4FFPxr8wAcO/FXK\
99EV90anlUSnVLllGWW4y3jdG97InK2zH7Osn7O4GrR5q2iiHnKbTp8ppPsYrDCoWKRYo2StcbYI\
cLZ+ur8aupa3obQeoLOprLCmp6CxnLyaCJm7v5LCG97Vf3PKH8pzuWupYqlioFSWRvtEcxiDwnS1\
ZaoIqmRVmkUbOFB9cGgfaHB5a2YadJJ2mngemniie6p+nYTAfONz9xNp5G++dr11smuoYgioYplX\
ThpPelNoVh5oVlhiSW4IbklAfDgb+x4iqMRDH0LEXeB39wUIDv4c+KT3NRWl+zMFgFhehmMbSliV\
oGcfZ6BypnytCHyshNL3ABr49/sY9yD3GPebB/dH9wAF/Af3Sfsg+0n9AQdYjmqSfB6RfJWAmoII\
gpmfh6Ybn6WNkKwfDvnTFvcwB/sMOPsET/siG0xRl6NVH1SjY6lxsHCvebeAwAiErofD2Br5JvdI\
/OEHLY9MkmoellyjZrBwCHCwuH3BG8G+mae6H7qmrbGfuwieupXQ5hr4zfdI/roHDvxV+EIW/Cj6\
ugX3Ugb3eP0QpEahRKBBGZvDoc6o2veA+RwY900G/Cb+ugUOkfffFvvZ+roF904G9z38+cr7eI6W\
ndSt9xsZ9z35AgX3TQb3M/z8wPtfyPdh90r4+gX3Qwb74P66BftPBvs9+RBi90n7a/3FBQ78VZoW\
+Bj4vPv7+JIF93UG9zf7japco2Oeaxmot6aypK33R/ePGPdrBvwD/Ij4H/zGBftxBvtu995R5Pur\
/DcFDvxV9xP8LRV39z0FgLKuhqgbs6uSmKMfo5ifnpqjlp2euKTSjpWRmpKe/Cf6vBj3Vgb3cfz7\
qD2kOaI1GaDeo9uo2vd3+P8Y90gG/Cj+zGD7CWk7c18Za1BmX2JwCG9iWX1SG2hlkppgHw78VbMW\
9yYH+Tj5nAWHPkiJUBv8Rfcm+fj7Cwb80/02+wP7DwWR3NaO0hv4f/svBg4cBHMUHAXBFQAAAAAB\
AAAAAwAAAAwABABYAAAAEgAQAAMAAgAgAC4AOgBQAFkAaQBwAHr//wAAACAAKAAwAEEAUgBhAGsA\
cv///+H/2v/Z/9P/0v/L/8r/yQABAAAAAAAAAAAAAAAAAAAAAAAAAAEAAAAKAB4ALAABREZMVAAI\
AAQAAAAA//8AAQAAAAFrZXJuAAgAAAABAAAAAQAEAAIAAAABAAgAAQG2AAQAAAAQACoAOAA+AGAA\
bgCIAJoArADyASQBUgGIAY4BmAGiAawAAwAU/48AJv/bACv/2wABAAr/aAAIAAH/jwAm/2gAKP9o\
ACn/tAAr/2gAP//bAED/2wBC/9sAAwAG/x0ACP8dABT/jwAGAAH/tAAm/2gAKP9oACn/aAAr/2gA\
Qv+0AAQAAf/bAAb++AAI/vgAFP9oAAQAJv/bACj/2wAp/9sAK//bABEAAf/bAAb/HQAH/48ACP8d\
ABP/HQAU/2gAIv/bACz/HQAu/x0AMP8dADT/tAA5/x0AO/+0ADz/HQA+/7QAQP+PAEL/jwAMAAb/\
RAAH/48ACP9EABP/tAAU/2gALP9oADD/jwA0/9sAOf+PADv/tAA+/7QAQv+0AAsABv+PAAf/2wAI\
/48AE//bABT/tAAs/7QAMP/bADn/2wA7/9sAPv/bAEL/7gANAAH/2wAG/vgAB/9EAAj++AAT/48A\
FP9oACz/aAAw/0QANP+0ADn/RAA6/2gAPv+PAD//jwABADH/2wACAAb/jwAI/48AAgAG/2gACP9o\
AAIABv+PAAj/jwACAAb/aAAI/2gAAQAQAAEACgAUABkAHwAjACQAJgAoACkAKwAxADsAPwBAAEIA\
	]]>
	</style>
<script type="text/javascript" xlink:href="../../../../../system/js/ewd/fig/svgfig.js"/>
<defs>
<font horiz-adv-x="1229">
<font-face font-family="Svg Symbol" units-per-em="2048" panose-1="5 5 1 2 1 7 6 2 5 7" ascent="2059" descent="450" alphabetic="0"/>
<missing-glyph d="M 103,0 l 0,1280 1024,0 0,-1280 -1024,0 z m 32,32 l 960,0 0,1216 -960,0 0,-1216 z"/>
<glyph unicode="&#xF057;" horiz-adv-x="1573" d="M 1517,0 l -567,0 24,279 q 141,59 207.5,168 66.5,109 66.5,306    0,272 -132.5,417.5 -132.5,145.5 -333.5,145.5 -194,0 -328,-147.5 -134,-147.5 -134,-401.5 0,-200 68.5,-319 68.5,-119     206.5,-169 l 25,-279 -564,0 0,279 35,0 q 3,-61 32,-83 45,-35 137,-35 l 270,0 0,70 q -210,61 -324.5,209 -114.5,148     -114.5,349 0,252 186.5,425 186.5,173 504.5,173 195,0 358.5,-73.5 163.5,-73.5 252,-214.5 88.5,-141 88.5,-310 0,-207     -121.5,-360.5 -121.5,-153.5 -317.5,-197.5 l -8,-70 275,0 q 92,0 128,28 36,28 42,90 l 38,0 0,-279 z"/>
</font>
</defs>
<g id="ewd_top">
<a ewd:lineID="7" style="cursor:pointer;">
<path style="&st12;" d="M 173.15 , 124.54 L 173.15 , 39.55 L 309.13 , 39.55 L 309.13 , 56.55"/>
</a>
<a ewd:lineID="10" style="cursor:pointer;">
<path style="&st20;" d="M 198.65 , 109.8 L 198.65 , 65.05 L 266.64 , 65.05 L 266.64 , 242.95"/>
</a>
<a ewd:lineID="3" style="cursor:pointer;">
<path style="&st12;" d="M 130.66 , 107.54 L 130.66 , 133.03 L 164.65 , 133.03"/>
</a>
<a ewd:lineID="2" style="cursor:pointer;">
<path style="&st12;" d="M 62.67 , 107.54 L 62.67 , 158.53"/>
</a>
<a ewd:lineID="1" style="cursor:pointer;">
<path style="&st12;" d="M 62.67 , 209.52 L 62.67 , 506.97"/>
</a>
<a ewd:lineID="5" style="cursor:pointer;">
<path style="&st12;" d="M 173.15 , 141.53 L 173.15 , 167.03"/>
</a>
<a ewd:lineID="9" style="cursor:pointer;">
<path style="&st20;" d="M 198.65 , 124.54 L 198.65 , 167.03"/>
</a>
<a ewd:lineID="15" style="cursor:pointer;">
<path style="&st1;" d="M 309.13 , 150.03 L 309.13 , 242.95"/>
</a>
<a ewd:lineID="16" style="cursor:pointer;">
<path style="&st4;" d="M 385.62 , 107.54 L 385.62 , 242.95"/>
</a>
<a ewd:lineID="18" style="cursor:pointer;">
<path style="&st31;" d="M 394.11 , 295.07 L 394.11 , 330.77"/>
</a>
<a ewd:lineID="14" style="cursor:pointer;">
<path style="&st20;" d="M 309.13 , 295.07 L 309.13 , 337"/>
</a>
<a ewd:lineID="11" style="cursor:pointer;">
<path style="&st11;" d="M 266.64 , 295.07 L 266.64 , 337"/>
</a>
<a ewd:lineID="12" style="cursor:pointer;">
<path style="&st11;" d="M 266.64 , 351.73 L 266.64 , 381.76"/>
</a>
<a ewd:lineID="13" style="cursor:pointer;">
<path style="&st20;" d="M 309.13 , 351.73 L 309.13 , 381.76"/>
</a>
<a ewd:lineID="17" style="cursor:pointer;">
<path style="&st31;" d="M 394.11 , 345.5 L 394.11 , 396.49"/>
</a>
<a ewd:lineID="140" style="cursor:pointer;">
<path style="&st20;" d="M 309.13 , 396.49 L 309.13 , 447.48"/>
</a>
<a ewd:lineID="139" style="cursor:pointer;">
<path style="&st11;" d="M 266.64 , 396.49 L 266.64 , 447.48"/>
</a>
<a ewd:lineID="8" style="cursor:pointer;">
<path style="&st4;" d="M 198.65 , 269.01 L 198.65 , 320 L 224.14 , 320 L 224.14 , 447.48"/>
<path style="&st14;" d="M 198.65 , 269.01 L 198.65 , 320 L 224.14 , 320 L 224.14 , 447.48"/>
<path style="&st21;" d="M 198.65 , 269.01 L 198.65 , 320 L 224.14 , 320 L 224.14 , 447.48"/>
</a>
<a ewd:lineID="4" style="cursor:pointer;">
<path style="&st12;" d="M 173.15 , 334.73 L 173.15 , 373.26"/>
</a>
<a ewd:lineID="6" style="cursor:pointer;">
<path style="&st12;" d="M 173.15 , 269.01 L 173.15 , 320"/>
</a>
<a ewd:lineID="137" style="cursor:pointer;">
<path style="&st12;" d="M 173.15 , 387.99 L 173.15 , 532.47 L 266.64 , 532.47 L 266.64 , 481.48"/>
</a>
<a ewd:lineID="138" style="cursor:pointer;">
<path style="&st4;" d="M 224.14 , 464.48 L 224.14 , 685.44"/>
<path style="&st14;" d="M 224.14 , 464.48 L 224.14 , 685.44"/>
<path style="&st21;" d="M 224.14 , 464.48 L 224.14 , 685.44"/>
</a>
<a ewd:lineID="136" style="cursor:pointer;">
<path style="&st12;" d="M 62.67 , 557.96 L 62.67 , 591.96 L 691.56 , 591.96 L 691.56 , 557.96"/>
</a>
<a ewd:lineID="141" style="cursor:pointer;">
<path style="&st4;" d="M 309.13 , 481.48 L 309.13 , 523.97 L 360.12 , 523.97 L 360.12 , 481.48 L 385.62 , 481.48"/>
<path style="&st14;" d="M 309.13 , 481.48 L 309.13 , 523.97 L 360.12 , 523.97 L 360.12 , 481.48 L 385.62 , 481.48"/>
<path style="&st21;" d="M 309.13 , 481.48 L 309.13 , 523.97 L 360.12 , 523.97 L 360.12 , 481.48 L 385.62 , 481.48"/>
</a>
<a ewd:lineID="144" style="cursor:pointer;">
<path style="&st4;" d="M 394.11 , 472.98 L 394.11 , 430.48"/>
<path style="&st14;" d="M 394.11 , 472.98 L 394.11 , 430.48"/>
<path style="&st21;" d="M 394.11 , 472.98 L 394.11 , 430.48"/>
</a>
<a ewd:lineID="145" style="cursor:pointer;">
<path style="&st4;" d="M 615.08 , 489.97 L 615.08 , 557.96 L 453.6 , 557.96 L 453.6 , 481.48 L 402.61 , 481.48"/>
<path style="&st14;" d="M 615.08 , 489.97 L 615.08 , 557.96 L 453.6 , 557.96 L 453.6 , 481.48 L 402.61 , 481.48"/>
<path style="&st21;" d="M 615.08 , 489.97 L 615.08 , 557.96 L 453.6 , 557.96 L 453.6 , 481.48 L 402.61 , 481.48"/>
</a>
<a ewd:lineID="142" style="cursor:pointer;">
<path style="&st4;" d="M 394.11 , 523.97 L 394.11 , 489.97"/>
<path style="&st14;" d="M 394.11 , 523.97 L 394.11 , 489.97"/>
<path style="&st21;" d="M 394.11 , 523.97 L 394.11 , 489.97"/>
</a>
<a ewd:lineID="143" style="cursor:pointer;">
<path style="&st4;" d="M 394.11 , 538.7 L 394.11 , 659.95"/>
<path style="&st14;" d="M 394.11 , 538.7 L 394.11 , 659.95"/>
<path style="&st21;" d="M 394.11 , 538.7 L 394.11 , 659.95"/>
</a>
<a ewd:lineID="19" style="cursor:pointer;">
<path style="&st16;" d="M 572.58 , 295.07 L 572.58 , 337"/>
</a>
<a ewd:lineID="22" style="cursor:pointer;">
<path style="&st12;" d="M 615.08 , 295.07 L 615.08 , 337"/>
</a>
<a ewd:lineID="29" style="cursor:pointer;">
<path style="&st20;" d="M 708.56 , 295.07 L 708.56 , 330.77"/>
</a>
<a ewd:lineID="36" style="cursor:pointer;">
<path style="&st4;" d="M 810.55 , 295.07 L 810.55 , 330.77"/>
</a>
<a ewd:lineID="35" style="cursor:pointer;">
<path style="&st4;" d="M 810.55 , 345.5 L 810.55 , 379.49"/>
</a>
<a ewd:lineID="30" style="cursor:pointer;">
<path style="&st20;" d="M 708.56 , 345.5 L 708.56 , 379.49"/>
</a>
<a ewd:lineID="20" style="cursor:pointer;">
<path style="&st16;" d="M 572.58 , 351.73 L 572.58 , 390.26"/>
</a>
<a ewd:lineID="21" style="cursor:pointer;">
<path style="&st12;" d="M 615.08 , 351.73 L 615.08 , 390.26"/>
</a>
<a ewd:lineID="147" style="cursor:pointer;">
<path style="&st12;" d="M 615.08 , 404.99 L 615.08 , 455.98"/>
</a>
<a ewd:lineID="146" style="cursor:pointer;">
<path style="&st16;" d="M 572.58 , 404.99 L 572.58 , 455.98"/>
</a>
<a ewd:lineID="148" style="cursor:pointer;">
<path style="&st4;" d="M 759.55 , 557.96 L 759.55 , 668.44 L 1133.49 , 668.44 L 1133.49 , 608.95"/>
<path style="&st14;" d="M 759.55 , 557.96 L 759.55 , 668.44 L 1133.49 , 668.44 L 1133.49 , 608.95"/>
<path style="&st21;" d="M 759.55 , 557.96 L 759.55 , 668.44 L 1133.49 , 668.44 L 1133.49 , 608.95"/>
</a>
<a ewd:lineID="23" style="cursor:pointer;">
<path style="&st0;" d="M 623.58 , 124.54 L 623.58 , 184.03"/>
</a>
<a ewd:lineID="26" style="cursor:pointer;">
<path style="&st16;" d="M 666.07 , 124.54 L 666.07 , 184.03"/>
</a>
<a ewd:lineID="27" style="cursor:pointer;">
<path style="&st1;" d="M 708.56 , 124.54 L 708.56 , 184.03"/>
</a>
<a ewd:lineID="28" style="cursor:pointer;">
<path style="&st1;" d="M 708.56 , 198.76 L 708.56 , 242.95"/>
</a>
<a ewd:lineID="25" style="cursor:pointer;">
<path style="&st16;" d="M 666.07 , 198.76 L 666.07 , 242.95"/>
</a>
<a ewd:lineID="24" style="cursor:pointer;">
<path style="&st0;" d="M 623.58 , 198.76 L 623.58 , 242.95"/>
</a>
<a ewd:lineID="34" style="cursor:pointer;">
<path style="&st4;" d="M 810.55 , 82.04 L 810.55 , 116.04"/>
<path style="&st14;" d="M 810.55 , 82.04 L 810.55 , 116.04"/>
</a>
<a ewd:lineID="40" style="cursor:pointer;">
<path style="&st4;" d="M 853.04 , 82.04 L 853.04 , 116.04"/>
</a>
<a ewd:lineID="42" style="cursor:pointer;">
<path style="&st0;" d="M 895.53 , 82.04 L 895.53 , 116.04"/>
</a>
<a ewd:lineID="41" style="cursor:pointer;">
<path style="&st0;" d="M 895.53 , 130.77 L 895.53 , 152.3"/>
</a>
<a ewd:lineID="39" style="cursor:pointer;">
<path style="&st4;" d="M 853.04 , 130.77 L 853.04 , 152.3"/>
</a>
<a ewd:lineID="31" style="cursor:pointer;">
<path style="&st4;" d="M 810.55 , 131.05 L 810.55 , 152.01"/>
<path style="&st14;" d="M 810.55 , 131.05 L 810.55 , 152.01"/>
</a>
<a ewd:lineID="33" style="cursor:pointer;">
<path style="&st4;" d="M 810.55 , 167.03 L 810.55 , 201.02"/>
<path style="&st14;" d="M 810.55 , 167.03 L 810.55 , 201.02"/>
</a>
<a ewd:lineID="38" style="cursor:pointer;">
<path style="&st4;" d="M 853.04 , 167.03 L 853.04 , 201.02"/>
<path style="&st18;" d="M 853.04 , 167.03 L 853.04 , 201.02"/>
<path style="&st19;" d="M 853.04 , 167.03 L 853.04 , 201.02"/>
</a>
<a ewd:lineID="44" style="cursor:pointer;">
<path style="&st0;" d="M 895.53 , 167.03 L 895.53 , 201.02"/>
<path style="&st18;" d="M 895.53 , 167.03 L 895.53 , 201.02"/>
<path style="&st27;" d="M 895.53 , 167.03 L 895.53 , 201.02"/>
</a>
<a ewd:lineID="43" style="cursor:pointer;">
<path style="&st0;" d="M 895.53 , 215.75 L 895.53 , 242.95"/>
</a>
<a ewd:lineID="37" style="cursor:pointer;">
<path style="&st4;" d="M 853.04 , 216.04 L 853.04 , 242.95"/>
<path style="&st14;" d="M 853.04 , 216.04 L 853.04 , 242.95"/>
</a>
<a ewd:lineID="32" style="cursor:pointer;">
<path style="&st4;" d="M 810.55 , 216.04 L 810.55 , 242.95"/>
<path style="&st14;" d="M 810.55 , 216.04 L 810.55 , 242.95"/>
</a>
<a ewd:lineID="149" style="cursor:pointer;">
<path style="&st4;" d="M 1133.49 , 557.96 L 1133.49 , 498.47"/>
<path style="&st14;" d="M 1133.49 , 557.96 L 1133.49 , 498.47"/>
<path style="&st21;" d="M 1133.49 , 557.96 L 1133.49 , 498.47"/>
</a>
<a ewd:lineID="150" style="cursor:pointer;">
<path style="&st4;" d="M 1218.48 , 557.96 L 1218.48 , 498.47"/>
<path style="&st14;" d="M 1218.48 , 557.96 L 1218.48 , 498.47"/>
<path style="&st21;" d="M 1218.48 , 557.96 L 1218.48 , 498.47"/>
</a>
<a ewd:lineID="51" style="cursor:pointer;">
<path style="&st4;" d="M 1277.97 , 295.07 L 1277.97 , 685.44"/>
<path style="&st14;" d="M 1277.97 , 295.07 L 1277.97 , 685.44"/>
<path style="&st21;" d="M 1277.97 , 295.07 L 1277.97 , 685.44"/>
</a>
<a ewd:lineID="151" style="cursor:pointer;">
<path style="&st4;" d="M 1218.48 , 659.95 L 1218.48 , 608.95"/>
<path style="&st14;" d="M 1218.48 , 659.95 L 1218.48 , 608.95"/>
<path style="&st21;" d="M 1218.48 , 659.95 L 1218.48 , 608.95"/>
</a>
<a ewd:lineID="50" style="cursor:pointer;">
<path style="&st11;" d="M 1235.47 , 345.5 L 1235.47 , 447.48"/>
</a>
<a ewd:lineID="47" style="cursor:pointer;">
<path style="&st16;" d="M 1201.48 , 345.5 L 1201.48 , 447.48"/>
</a>
<a ewd:lineID="45" style="cursor:pointer;">
<path style="&st12;" d="M 1133.49 , 345.5 L 1133.49 , 447.48"/>
</a>
<a ewd:lineID="46" style="cursor:pointer;">
<path style="&st12;" d="M 1133.49 , 295.07 L 1133.49 , 330.77"/>
</a>
<a ewd:lineID="48" style="cursor:pointer;">
<path style="&st16;" d="M 1201.48 , 295.07 L 1201.48 , 330.77"/>
</a>
<a ewd:lineID="49" style="cursor:pointer;">
<path style="&st11;" d="M 1235.47 , 295.07 L 1235.47 , 330.77"/>
</a>
<a ewd:lineID="52" style="cursor:pointer;">
<path style="&st20;" d="M 1405.45 , 295.07 L 1405.45 , 330.48"/>
<path style="&st18;" d="M 1405.45 , 295.07 L 1405.45 , 330.48"/>
<path style="&st21;" d="M 1405.45 , 295.07 L 1405.45 , 330.48"/>
</a>
<a ewd:lineID="54" style="cursor:pointer;">
<path style="&st0;" d="M 1439.44 , 295.07 L 1439.44 , 330.48"/>
<path style="&st18;" d="M 1439.44 , 295.07 L 1439.44 , 330.48"/>
<path style="&st5;" d="M 1439.44 , 295.07 L 1439.44 , 330.48"/>
</a>
<a ewd:lineID="56" style="cursor:pointer;">
<path style="&st12;" d="M 1473.43 , 295.07 L 1473.43 , 330.48"/>
<path style="&st18;" d="M 1473.43 , 295.07 L 1473.43 , 330.48"/>
<path style="&st7;" d="M 1473.43 , 295.07 L 1473.43 , 330.48"/>
</a>
<a ewd:lineID="57" style="cursor:pointer;">
<path style="&st12;" d="M 1473.43 , 345.5 L 1473.43 , 379.49"/>
</a>
<a ewd:lineID="55" style="cursor:pointer;">
<path style="&st0;" d="M 1439.44 , 345.5 L 1439.44 , 379.49"/>
</a>
<a ewd:lineID="53" style="cursor:pointer;">
<path style="&st20;" d="M 1405.45 , 345.5 L 1405.45 , 379.49"/>
</a>
<a ewd:lineID="152" style="cursor:pointer;">
<path style="&st20;" d="M 1405.45 , 394.51 L 1405.45 , 455.98"/>
<path style="&st18;" d="M 1405.45 , 394.51 L 1405.45 , 455.98"/>
<path style="&st21;" d="M 1405.45 , 394.51 L 1405.45 , 455.98"/>
</a>
<a ewd:lineID="153" style="cursor:pointer;">
<path style="&st0;" d="M 1439.44 , 394.51 L 1439.44 , 455.98"/>
<path style="&st18;" d="M 1439.44 , 394.51 L 1439.44 , 455.98"/>
<path style="&st5;" d="M 1439.44 , 394.51 L 1439.44 , 455.98"/>
</a>
<a ewd:lineID="154" style="cursor:pointer;">
<path style="&st12;" d="M 1473.43 , 394.51 L 1473.43 , 455.98"/>
<path style="&st18;" d="M 1473.43 , 394.51 L 1473.43 , 455.98"/>
<path style="&st7;" d="M 1473.43 , 394.51 L 1473.43 , 455.98"/>
</a>
<a ewd:lineID="62" style="cursor:pointer;">
<path style="&st4;" d="M 1634.91 , 198.76 L 1634.91 , 242.95"/>
</a>
<a ewd:lineID="64" style="cursor:pointer;">
<path style="&st0;" d="M 1677.4 , 242.95 L 1677.4 , 124.54"/>
<path style="&st18;" d="M 1677.4 , 242.95 L 1677.4 , 124.54"/>
<path style="&st27;" d="M 1677.4 , 242.95 L 1677.4 , 124.54"/>
</a>
<a ewd:lineID="68" style="cursor:pointer;">
<path style="&st4;" d="M 1719.89 , 242.95 L 1719.89 , 124.54"/>
<path style="&st14;" d="M 1719.89 , 242.95 L 1719.89 , 124.54"/>
</a>
<a ewd:lineID="60" style="cursor:pointer;">
<path style="&st4;" d="M 1634.91 , 124.54 L 1634.91 , 184.03"/>
<path style="&st18;" d="M 1634.91 , 124.54 L 1634.91 , 184.03"/>
<path style="&st19;" d="M 1634.91 , 124.54 L 1634.91 , 184.03"/>
</a>
<a ewd:lineID="59" style="cursor:pointer;">
<path style="&st31;" d="M 1592.41 , 295.07 L 1592.41 , 330.48"/>
<path style="&st18;" d="M 1592.41 , 295.07 L 1592.41 , 330.48"/>
<path style="&st21;" d="M 1592.41 , 295.07 L 1592.41 , 330.48"/>
</a>
<a ewd:lineID="63" style="cursor:pointer;">
<path style="&st11;" d="M 1634.91 , 295.07 L 1634.91 , 330.48"/>
<path style="&st18;" d="M 1634.91 , 295.07 L 1634.91 , 330.48"/>
<path style="&st5;" d="M 1634.91 , 295.07 L 1634.91 , 330.48"/>
</a>
<a ewd:lineID="66" style="cursor:pointer;">
<path style="&st12;" d="M 1677.4 , 295.07 L 1677.4 , 330.48"/>
<path style="&st18;" d="M 1677.4 , 295.07 L 1677.4 , 330.48"/>
<path style="&st19;" d="M 1677.4 , 295.07 L 1677.4 , 330.48"/>
</a>
<a ewd:lineID="67" style="cursor:pointer;">
<path style="&st16;" d="M 1719.89 , 295.07 L 1719.89 , 330.48"/>
<path style="&st18;" d="M 1719.89 , 295.07 L 1719.89 , 330.48"/>
<path style="&st19;" d="M 1719.89 , 295.07 L 1719.89 , 330.48"/>
</a>
<a ewd:lineID="71" style="cursor:pointer;">
<path style="&st31;" d="M 1779.38 , 295.07 L 1779.38 , 337"/>
</a>
<a ewd:lineID="72" style="cursor:pointer;">
<path style="&st4;" d="M 1821.88 , 295.07 L 1821.88 , 337"/>
<path style="&st14;" d="M 1821.88 , 295.07 L 1821.88 , 337"/>
</a>
<a ewd:lineID="75" style="cursor:pointer;">
<path style="&st0;" d="M 1864.37 , 295.07 L 1864.37 , 337"/>
</a>
<a ewd:lineID="74" style="cursor:pointer;">
<path style="&st0;" d="M 1864.37 , 351.73 L 1864.37 , 455.98"/>
</a>
<a ewd:lineID="73" style="cursor:pointer;">
<path style="&st4;" d="M 1821.88 , 352.01 L 1821.88 , 455.98"/>
<path style="&st14;" d="M 1821.88 , 352.01 L 1821.88 , 455.98"/>
</a>
<a ewd:lineID="70" style="cursor:pointer;">
<path style="&st31;" d="M 1779.38 , 351.73 L 1779.38 , 455.98"/>
</a>
<a ewd:lineID="69" style="cursor:pointer;">
<path style="&st16;" d="M 1719.89 , 345.5 L 1719.89 , 379.49"/>
</a>
<a ewd:lineID="65" style="cursor:pointer;">
<path style="&st30;" d="M 1677.4 , 345.5 L 1677.4 , 379.49"/>
</a>
<a ewd:lineID="61" style="cursor:pointer;">
<path style="&st0;" d="M 1634.91 , 345.5 L 1634.91 , 379.49"/>
</a>
<a ewd:lineID="58" style="cursor:pointer;">
<path style="&st31;" d="M 1592.41 , 345.5 L 1592.41 , 379.49"/>
</a>
<a ewd:lineID="155" style="cursor:pointer;">
<path style="&st31;" d="M 1592.41 , 394.51 L 1592.41 , 455.98"/>
<path style="&st18;" d="M 1592.41 , 394.51 L 1592.41 , 455.98"/>
<path style="&st21;" d="M 1592.41 , 394.51 L 1592.41 , 455.98"/>
</a>
<a ewd:lineID="156" style="cursor:pointer;">
<path style="&st11;" d="M 1634.91 , 394.51 L 1634.91 , 455.98"/>
<path style="&st18;" d="M 1634.91 , 394.51 L 1634.91 , 455.98"/>
<path style="&st5;" d="M 1634.91 , 394.51 L 1634.91 , 455.98"/>
</a>
<a ewd:lineID="157" style="cursor:pointer;">
<path style="&st12;" d="M 1677.4 , 394.51 L 1677.4 , 455.98"/>
<path style="&st18;" d="M 1677.4 , 394.51 L 1677.4 , 455.98"/>
<path style="&st19;" d="M 1677.4 , 394.51 L 1677.4 , 455.98"/>
</a>
<a ewd:lineID="158" style="cursor:pointer;">
<path style="&st16;" d="M 1719.89 , 394.51 L 1719.89 , 455.98"/>
<path style="&st18;" d="M 1719.89 , 394.51 L 1719.89 , 455.98"/>
<path style="&st19;" d="M 1719.89 , 394.51 L 1719.89 , 455.98"/>
</a>
<a ewd:lineID="77" style="cursor:pointer;">
<path style="&st4;" d="M 1923.86 , 295.07 L 1923.86 , 330.77"/>
</a>
<a ewd:lineID="79" style="cursor:pointer;">
<path style="&st31;" d="M 1966.35 , 295.07 L 1966.35 , 330.77"/>
</a>
<a ewd:lineID="81" style="cursor:pointer;">
<path style="&st1;" d="M 2008.84 , 295.07 L 2008.84 , 330.77"/>
</a>
<a ewd:lineID="82" style="cursor:pointer;">
<path style="&st11;" d="M 2051.34 , 295.07 L 2051.34 , 330.77"/>
</a>
<a ewd:lineID="83" style="cursor:pointer;">
<path style="&st11;" d="M 2051.34 , 345.5 L 2051.34 , 455.98"/>
</a>
<a ewd:lineID="80" style="cursor:pointer;">
<path style="&st1;" d="M 2008.84 , 345.5 L 2008.84 , 455.98"/>
</a>
<a ewd:lineID="78" style="cursor:pointer;">
<path style="&st31;" d="M 1966.35 , 345.5 L 1966.35 , 455.98"/>
</a>
<a ewd:lineID="76" style="cursor:pointer;">
<path style="&st4;" d="M 1923.86 , 345.5 L 1923.86 , 455.98"/>
</a>
<a ewd:lineID="85" style="cursor:pointer;">
<path style="&st4;" d="M 2153.32 , 455.98 L 2153.32 , 295.07"/>
</a>
<a ewd:lineID="86" style="cursor:pointer;">
<path style="&st11;" d="M 2195.81 , 455.98 L 2195.81 , 295.07"/>
<path style="&st18;" d="M 2195.81 , 455.98 L 2195.81 , 295.07"/>
<path style="&st27;" d="M 2195.81 , 455.98 L 2195.81 , 295.07"/>
</a>
<a ewd:lineID="87" style="cursor:pointer;">
<path style="&st0;" d="M 2238.31 , 455.98 L 2238.31 , 295.07"/>
<path style="&st18;" d="M 2238.31 , 455.98 L 2238.31 , 295.07"/>
<path style="&st21;" d="M 2238.31 , 455.98 L 2238.31 , 295.07"/>
</a>
<a ewd:lineID="84" style="cursor:pointer;">
<path style="&st16;" d="M 2110.83 , 455.98 L 2110.83 , 295.07"/>
<path style="&st18;" d="M 2110.83 , 455.98 L 2110.83 , 295.07"/>
<path style="&st27;" d="M 2110.83 , 455.98 L 2110.83 , 295.07"/>
</a>
<a ewd:lineID="88" style="cursor:pointer;">
<path style="&st1;" d="M 2297.8 , 295.07 L 2297.8 , 330.77"/>
</a>
<a ewd:lineID="91" style="cursor:pointer;">
<path style="&st0;" d="M 2340.29 , 295.07 L 2340.29 , 330.77"/>
</a>
<a ewd:lineID="93" style="cursor:pointer;">
<path style="&st12;" d="M 2382.78 , 295.07 L 2382.78 , 330.77"/>
</a>
<a ewd:lineID="96" style="cursor:pointer;">
<path style="&st4;" d="M 2425.28 , 295.07 L 2425.28 , 330.77"/>
</a>
<a ewd:lineID="99" style="cursor:pointer;">
<path style="&st4;" d="M 2467.77 , 295.07 L 2467.77 , 330.77"/>
<path style="&st14;" d="M 2467.77 , 295.07 L 2467.77 , 330.77"/>
<path style="&st21;" d="M 2467.77 , 295.07 L 2467.77 , 330.77"/>
</a>
<a ewd:lineID="98" style="cursor:pointer;">
<path style="&st4;" d="M 2467.77 , 345.5 L 2467.77 , 659.95"/>
<path style="&st14;" d="M 2467.77 , 345.5 L 2467.77 , 659.95"/>
<path style="&st21;" d="M 2467.77 , 345.5 L 2467.77 , 659.95"/>
</a>
<a ewd:lineID="95" style="cursor:pointer;">
<path style="&st4;" d="M 2425.28 , 345.5 L 2425.28 , 455.98"/>
</a>
<a ewd:lineID="92" style="cursor:pointer;">
<path style="&st12;" d="M 2382.78 , 345.5 L 2382.78 , 455.98"/>
</a>
<a ewd:lineID="90" style="cursor:pointer;">
<path style="&st11;" d="M 2340.29 , 345.5 L 2340.29 , 455.98"/>
</a>
<a ewd:lineID="89" style="cursor:pointer;">
<path style="&st1;" d="M 2297.8 , 345.5 L 2297.8 , 455.98"/>
</a>
<a ewd:lineID="94" style="cursor:pointer;">
<path style="&st0;" d="M 2425.28 , 242.95 L 2425.28 , 192.52 L 2535.76 , 192.52 L 2535.76 , 583.46 L 3045.67 , 583.46 L 3045.67 , 479.21"/>
</a>
<a ewd:lineID="97" style="cursor:pointer;">
<path style="&st4;" d="M 2467.77 , 242.95 L 2467.77 , 209.52 L 2518.76 , 209.52 L 2518.76 , 600.46 L 3079.67 , 600.46 L 3079.67 , 479.49"/>
<path style="&st14;" d="M 2467.77 , 242.95 L 2467.77 , 209.52 L 2518.76 , 209.52 L 2518.76 , 600.46 L 3079.67 , 600.46 L 3079.67 , 479.49"/>
</a>
<a ewd:lineID="100" style="cursor:pointer;">
<path style="&st20;" d="M 2637.74 , 260.51 L 2637.74 , 354"/>
</a>
<a ewd:lineID="101" style="cursor:pointer;">
<path style="&st4;" d="M 2671.73 , 354 L 2671.73 , 260.51"/>
<path style="&st14;" d="M 2671.73 , 354 L 2671.73 , 260.51"/>
</a>
<a ewd:lineID="105" style="cursor:pointer;">
<path style="&st4;" d="M 2731.22 , 320 L 2731.22 , 260.51"/>
</a>
<a ewd:lineID="107" style="cursor:pointer;">
<path style="&st4;" d="M 2765.22 , 320 L 2765.22 , 260.51"/>
<path style="&st14;" d="M 2765.22 , 320 L 2765.22 , 260.51"/>
</a>
<a ewd:lineID="108" style="cursor:pointer;">
<path style="&st4;" d="M 2765.22 , 235.02 L 2765.22 , 167.03 L 2909.69 , 167.03 L 2909.69 , 387.99"/>
<path style="&st14;" d="M 2765.22 , 235.02 L 2765.22 , 167.03 L 2909.69 , 167.03 L 2909.69 , 387.99"/>
</a>
<a ewd:lineID="104" style="cursor:pointer;">
<path style="&st1;" d="M 2731.22 , 235.02 L 2731.22 , 150.03 L 2943.69 , 150.03 L 2943.69 , 387.99"/>
</a>
<a ewd:lineID="110" style="cursor:pointer;">
<path style="&st4;" d="M 2977.68 , 278.08 L 2977.68 , 387.99"/>
<path style="&st14;" d="M 2977.68 , 278.08 L 2977.68 , 387.99"/>
</a>
<a ewd:lineID="111" style="cursor:pointer;">
<path style="&st2;" d="M 3011.68 , 278.08 L 3011.68 , 387.99"/>
</a>
<a ewd:lineID="112" style="cursor:pointer;">
<path style="&st16;" d="M 3045.67 , 278.08 L 3045.67 , 387.99"/>
</a>
<a ewd:lineID="113" style="cursor:pointer;">
<path style="&st4;" d="M 3079.67 , 278.08 L 3079.67 , 387.99"/>
<path style="&st14;" d="M 3079.67 , 278.08 L 3079.67 , 387.99"/>
</a>
<a ewd:lineID="166" style="cursor:pointer;">
<path style="&st4;" d="M 3079.67 , 464.48 L 3079.67 , 404.99"/>
<path style="&st14;" d="M 3079.67 , 464.48 L 3079.67 , 404.99"/>
</a>
<a ewd:lineID="165" style="cursor:pointer;">
<path style="&st0;" d="M 3045.67 , 464.48 L 3045.67 , 404.99"/>
</a>
<a ewd:lineID="164" style="cursor:pointer;">
<path style="&st31;" d="M 2867.2 , 396.49 L 2867.2 , 458.25"/>
</a>
<a ewd:lineID="161" style="cursor:pointer;">
<path style="&st4;" d="M 2833.21 , 396.49 L 2833.21 , 457.96"/>
<path style="&st14;" d="M 2833.21 , 396.49 L 2833.21 , 457.96"/>
</a>
<a ewd:lineID="160" style="cursor:pointer;">
<path style="&st4;" d="M 2765.22 , 396.49 L 2765.22 , 455.41"/>
<path style="&st14;" d="M 2765.22 , 396.49 L 2765.22 , 455.41"/>
</a>
<a ewd:lineID="159" style="cursor:pointer;">
<path style="&st0;" d="M 2731.22 , 396.49 L 2731.22 , 455.41"/>
</a>
<a ewd:lineID="103" style="cursor:pointer;">
<path style="&st4;" d="M 2731.22 , 370.99 L 2731.22 , 334.73"/>
</a>
<a ewd:lineID="106" style="cursor:pointer;">
<path style="&st4;" d="M 2765.22 , 370.99 L 2765.22 , 335.02"/>
<path style="&st14;" d="M 2765.22 , 370.99 L 2765.22 , 335.02"/>
</a>
<a ewd:lineID="102" style="cursor:pointer;">
<path style="&st0;" d="M 2731.22 , 490.54 L 2731.22 , 634.45 L 3292.13 , 634.45 L 3292.13 , 345.5"/>
</a>
<a ewd:lineID="109" style="cursor:pointer;">
<path style="&st4;" d="M 2765.22 , 490.54 L 2765.22 , 617.45 L 3258.14 , 617.45 L 3258.14 , 345.5"/>
<path style="&st14;" d="M 2765.22 , 490.54 L 2765.22 , 617.45 L 3258.14 , 617.45 L 3258.14 , 345.5"/>
</a>
<a ewd:lineID="162" style="cursor:pointer;">
<path style="&st4;" d="M 2833.21 , 472.98 L 2833.21 , 668.44 L 4320.46 , 668.44 L 4320.46 , 380.06"/>
<path style="&st14;" d="M 2833.21 , 472.98 L 2833.21 , 668.44 L 4320.46 , 668.44 L 4320.46 , 380.06"/>
</a>
<a ewd:lineID="163" style="cursor:pointer;">
<path style="&st31;" d="M 2867.2 , 472.98 L 2867.2 , 651.45 L 4277.97 , 651.45 L 4277.97 , 380.06"/>
</a>
<a ewd:lineID="124" style="cursor:pointer;">
<path style="&st4;" d="M 3496.1 , 345.5 L 3496.1 , 387.99"/>
</a>
<a ewd:lineID="123" style="cursor:pointer;">
<path style="&st4;" d="M 3470.6 , 345.5 L 3470.6 , 387.99"/>
<path style="&st14;" d="M 3470.6 , 345.5 L 3470.6 , 387.99"/>
</a>
<a ewd:lineID="121" style="cursor:pointer;">
<path style="&st0;" d="M 3445.1 , 345.5 L 3445.1 , 387.99"/>
</a>
<a ewd:lineID="119" style="cursor:pointer;">
<path style="&st20;" d="M 3419.61 , 345.5 L 3419.61 , 387.99"/>
</a>
<a ewd:lineID="118" style="cursor:pointer;">
<path style="&st11;" d="M 3394.11 , 345.5 L 3394.11 , 387.99"/>
</a>
<a ewd:lineID="116" style="cursor:pointer;">
<path style="&st12;" d="M 3368.62 , 345.5 L 3368.62 , 387.99"/>
</a>
<a ewd:lineID="115" style="cursor:pointer;">
<path style="&st0;" d="M 3343.12 , 345.5 L 3343.12 , 387.99"/>
</a>
<a ewd:lineID="114" style="cursor:pointer;">
<path style="&st20;" d="M 3317.63 , 345.5 L 3317.63 , 387.99"/>
</a>
<a ewd:lineID="117" style="cursor:pointer;">
<path style="&st16;" d="M 3904.03 , 362.5 L 3904.03 , 124.54 L 3394.11 , 124.54 L 3394.11 , 294.51"/>
</a>
<a ewd:lineID="120" style="cursor:pointer;">
<path style="&st31;" d="M 3861.54 , 430.48 L 3861.54 , 141.53 L 3428.11 , 141.53 L 3428.11 , 294.51"/>
</a>
<a ewd:lineID="122" style="cursor:pointer;">
<path style="&st0;" d="M 3819.04 , 430.48 L 3819.04 , 158.53 L 3462.1 , 158.53 L 3462.1 , 294.51"/>
</a>
<a ewd:lineID="125" style="cursor:pointer;">
<path style="&st12;" d="M 3768.05 , 277.51 L 3768.05 , 175.53 L 3496.1 , 175.53 L 3496.1 , 294.51"/>
</a>
<a ewd:lineID="126" style="cursor:pointer;">
<path style="&st12;" d="M 3768.05 , 294.51 L 3768.05 , 354"/>
</a>
<a ewd:lineID="167" style="cursor:pointer;">
<path style="&st12;" d="M 3768.05 , 370.99 L 3768.05 , 430.48"/>
</a>
<a ewd:lineID="168" style="cursor:pointer;">
<path style="&st16;" d="M 3904.03 , 379.49 L 3904.03 , 430.48"/>
</a>
<a ewd:lineID="127" style="cursor:pointer;">
<path style="&st16;" d="M 3946.52 , 303.01 L 3946.52 , 362.5"/>
</a>
<a ewd:lineID="131" style="cursor:pointer;">
<path style="&st0;" d="M 3997.51 , 243.52 L 3997.51 , 430.48"/>
</a>
<a ewd:lineID="129" style="cursor:pointer;">
<path style="&st0;" d="M 3997.51 , 107.54 L 3997.51 , 150.03"/>
</a>
<a ewd:lineID="130" style="cursor:pointer;">
<path style="&st0;" d="M 3997.51 , 175.53 L 3997.51 , 226.52"/>
</a>
<a ewd:lineID="128" style="cursor:pointer;">
<path style="&st0;" d="M 3989.01 , 235.02 L 3946.52 , 235.02 L 3946.52 , 269.01"/>
</a>
<a ewd:lineID="169" style="cursor:pointer;">
<path style="&st4;" d="M 3997.51 , 685.44 L 3997.51 , 557.96"/>
<path style="&st14;" d="M 3997.51 , 685.44 L 3997.51 , 557.96"/>
<path style="&st21;" d="M 3997.51 , 685.44 L 3997.51 , 557.96"/>
</a>
<a ewd:lineID="170" style="cursor:pointer;">
<path style="&st4;" d="M 4354.45 , 685.44 L 4354.45 , 608.95"/>
<path style="&st14;" d="M 4354.45 , 685.44 L 4354.45 , 608.95"/>
<path style="&st21;" d="M 4354.45 , 685.44 L 4354.45 , 608.95"/>
</a>
<a ewd:lineID="174" style="cursor:pointer;">
<path style="&st2;" d="M 4439.44 , 574.96 L 4439.44 , 685.44"/>
</a>
<a ewd:lineID="171" style="cursor:pointer;">
<path style="&st2;" d="M 4362.95 , 600.46 L 4422.44 , 600.46 L 4439.44 , 583.46 L 4439.44 , 574.96"/>
</a>
<a ewd:lineID="172" style="cursor:pointer;">
<path style="&st2;" d="M 4439.44 , 532.47 L 4439.44 , 560.23"/>
</a>
<a ewd:lineID="179" style="cursor:pointer;">
<path style="&st4;" d="M 4600.91 , 659.95 L 4600.91 , 567.03"/>
<path style="&st14;" d="M 4600.91 , 659.95 L 4600.91 , 567.03"/>
<path style="&st21;" d="M 4600.91 , 659.95 L 4600.91 , 567.03"/>
</a>
<a ewd:lineID="178" style="cursor:pointer;">
<path style="&st4;" d="M 4575.42 , 514.9 L 4575.42 , 498.47 L 4600.91 , 498.47 L 4600.91 , 514.9"/>
<path style="&st14;" d="M 4575.42 , 514.9 L 4575.42 , 498.47 L 4600.91 , 498.47 L 4600.91 , 514.9"/>
<path style="&st21;" d="M 4575.42 , 514.9 L 4575.42 , 498.47 L 4600.91 , 498.47 L 4600.91 , 514.9"/>
</a>
<a ewd:lineID="176" style="cursor:pointer;">
<path style="&st4;" d="M 4549.92 , 465.61 L 4549.92 , 514.9"/>
<path style="&st14;" d="M 4549.92 , 465.61 L 4549.92 , 514.9"/>
<path style="&st21;" d="M 4549.92 , 465.61 L 4549.92 , 514.9"/>
</a>
<a ewd:lineID="177" style="cursor:pointer;">
<path style="&st4;" d="M 4549.92 , 380.06 L 4549.92 , 412.35"/>
<path style="&st14;" d="M 4549.92 , 380.06 L 4549.92 , 412.35"/>
<path style="&st21;" d="M 4549.92 , 380.06 L 4549.92 , 412.35"/>
</a>
<a ewd:lineID="173" style="cursor:pointer;">
<path style="&st2;" d="M 4439.44 , 380.06 L 4439.44 , 413.49"/>
</a>
<a ewd:lineID="175" style="cursor:pointer;">
<path style="&st2;" d="M 4439.44 , 464.48 L 4439.44 , 481.48"/>
</a>
<a ewd:lineID="135" style="cursor:pointer;">
<path style="&st0;" d="M 4447.94 , 217.45 L 4447.94 , 107.54"/>
</a>
<a ewd:lineID="132" style="cursor:pointer;">
<path style="&st12;" d="M 4388.45 , 141.53 L 4388.45 , 124.54 L 4354.45 , 124.54 L 4354.45 , 209.52 L 4311.96 , 209.52 L 4311.96 , 192.52"/>
</a>
<a ewd:lineID="134" style="cursor:pointer;">
<path style="&st12;" d="M 4388.45 , 217.45 L 4388.45 , 192.52"/>
</a>
<a ewd:lineID="133" style="cursor:pointer;">
<path style="&st12;" d="M 4311.96 , 107.54 L 4311.96 , 141.53"/>
</a>
<a ewd:code="CG2" ewd:figtype="w2w" style="cursor:pointer;" ewd:figID="664">
<path style="&st23;" d="M4447.94,566.46h-17v8.5h17V566.46"/>
<text transform="matrix(1 0 0 1 4433.2749 573.1958)" style="&st9;"><tspan x="0" y="0" style="&st26; &st17;">CG2</tspan></text>
</a>
<a ewd:code="GA2" ewd:figtype="w2w" style="cursor:pointer;" ewd:figID="663">
<path style="&st23;" d="M3088.16,464.48h-16.99v8.5h16.99V464.48"/>
<text transform="matrix(1 0 0 1 3073.6655 471.2163)" style="&st9;"><tspan x="0" y="0" style="&st26; &st17;">GA2</tspan></text>
</a>
<a ewd:code="GA2" ewd:figtype="w2w" style="cursor:pointer;" ewd:figID="662">
<path style="&st23;" d="M3054.17,464.48h-17v8.5h17V464.48"/>
<text transform="matrix(1 0 0 1 3039.6704 471.2163)" style="&st9;"><tspan x="0" y="0" style="&st26; &st17;">GA2</tspan></text>
</a>
<a ewd:code="GA6" ewd:figtype="w2w" style="cursor:pointer;" ewd:figID="661">
<path style="&st23;" d="M2875.7,464.48h-17v8.5h17V464.48"/>
<text transform="matrix(1 0 0 1 2861.1997 471.2163)" style="&st9;"><tspan x="0" y="0" style="&st26; &st17;">GA6</tspan></text>
</a>
<a ewd:code="GA6" ewd:figtype="w2w" style="cursor:pointer;" ewd:figID="660">
<path style="&st23;" d="M2841.71,464.48h-17v8.5h17V464.48"/>
<text transform="matrix(1 0 0 1 2827.2104 471.2163)" style="&st9;"><tspan x="0" y="0" style="&st26; &st17;">GA6</tspan></text>
</a>
<a ewd:code="GA6" ewd:figtype="w2w" style="cursor:pointer;" ewd:figID="646">
<path style="&st23;" d="M2773.72,320h-17v8.5h17V320"/>
<text transform="matrix(1 0 0 1 2759.2202 326.7456)" style="&st9;"><tspan x="0" y="0" style="&st26; &st17;">GA6</tspan></text>
</a>
<a ewd:code="GA6" ewd:figtype="w2w" style="cursor:pointer;" ewd:figID="645">
<path style="&st23;" d="M2739.72,320h-16.99v8.5h16.99V320"/>
<text transform="matrix(1 0 0 1 2725.2251 326.7456)" style="&st9;"><tspan x="0" y="0" style="&st26; &st17;">GA6</tspan></text>
</a>
<a ewd:code="GA1" ewd:figtype="w2w" style="cursor:pointer;" ewd:figID="644">
<path style="&st23;" d="M2476.27,337h-17v8.5h17V337"/>
<text transform="matrix(1 0 0 1 2461.77 343.7358)" style="&st9;"><tspan x="0" y="0" style="&st26; &st17;">GA1</tspan></text>
</a>
<a ewd:code="SR1" ewd:figtype="w2w" style="cursor:pointer;" ewd:figID="643">
<path style="&st23;" d="M2433.77,337h-16.99v8.5h16.99V337"/>
<text transform="matrix(1 0 0 1 2419.4419 343.7358)" style="&st9;"><tspan x="0" y="0" style="&st26; &st17;">SR1</tspan></text>
</a>
<a ewd:code="SR1" ewd:figtype="w2w" style="cursor:pointer;" ewd:figID="642">
<path style="&st23;" d="M2391.28,337h-17v8.5h17V337"/>
<text transform="matrix(1 0 0 1 2376.9468 343.7358)" style="&st9;"><tspan x="0" y="0" style="&st26; &st17;">SR1</tspan></text>
</a>
<a ewd:code="SR1" ewd:figtype="w2w" style="cursor:pointer;" ewd:figID="641">
<path style="&st23;" d="M2348.79,337h-17v8.5h17V337"/>
<text transform="matrix(1 0 0 1 2334.4565 343.7358)" style="&st9;"><tspan x="0" y="0" style="&st26; &st17;">SR1</tspan></text>
</a>
<a ewd:code="SR1" ewd:figtype="w2w" style="cursor:pointer;" ewd:figID="640">
<path style="&st23;" d="M2306.3,337h-17v8.5h17V337"/>
<text transform="matrix(1 0 0 1 2291.9673 343.7358)" style="&st9;"><tspan x="0" y="0" style="&st26; &st17;">SR1</tspan></text>
</a>
<a ewd:code="SR1" ewd:figtype="w2w" style="cursor:pointer;" ewd:figID="639">
<path style="&st23;" d="M2059.84,337h-17v8.5h17V337"/>
<text transform="matrix(1 0 0 1 2045.5073 343.7358)" style="&st9;"><tspan x="0" y="0" style="&st26; &st17;">SR1</tspan></text>
</a>
<a ewd:code="SR1" ewd:figtype="w2w" style="cursor:pointer;" ewd:figID="638">
<path style="&st23;" d="M2017.34,337h-16.99v8.5h16.99V337"/>
<text transform="matrix(1 0 0 1 2003.0122 343.7358)" style="&st9;"><tspan x="0" y="0" style="&st26; &st17;">SR1</tspan></text>
</a>
<a ewd:code="SR1" ewd:figtype="w2w" style="cursor:pointer;" ewd:figID="637">
<path style="&st23;" d="M1974.85,337h-17v8.5h17V337"/>
<text transform="matrix(1 0 0 1 1960.5171 343.7358)" style="&st9;"><tspan x="0" y="0" style="&st26; &st17;">SR1</tspan></text>
</a>
<a ewd:code="SR1" ewd:figtype="w2w" style="cursor:pointer;" ewd:figID="636">
<path style="&st23;" d="M1932.36,337h-17v8.5h17V337"/>
<text transform="matrix(1 0 0 1 1918.0269 343.7358)" style="&st9;"><tspan x="0" y="0" style="&st26; &st17;">SR1</tspan></text>
</a>
<a ewd:code="AR1" ewd:figtype="w2w" style="cursor:pointer;" ewd:figID="635">
<path style="&st23;" d="M1872.87,337h-17v8.5h17V337"/>
<text transform="matrix(1 0 0 1 1858.5366 343.7358)" style="&st9;"><tspan x="0" y="0" style="&st26; &st17;">AR1</tspan></text>
</a>
<a ewd:code="AR1" ewd:figtype="w2w" style="cursor:pointer;" ewd:figID="634">
<path style="&st23;" d="M1830.37,337h-16.99v8.5h16.99V337"/>
<text transform="matrix(1 0 0 1 1816.042 343.7358)" style="&st9;"><tspan x="0" y="0" style="&st26; &st17;">AR1</tspan></text>
</a>
<a ewd:code="AR1" ewd:figtype="w2w" style="cursor:pointer;" ewd:figID="633">
<path style="&st23;" d="M1787.88,337h-17v8.5h17V337"/>
<text transform="matrix(1 0 0 1 1773.5474 343.7358)" style="&st9;"><tspan x="0" y="0" style="&st26; &st17;">AR1</tspan></text>
</a>
<a ewd:code="AR1" ewd:figtype="w2w" style="cursor:pointer;" ewd:figID="629">
<path style="&st23;" d="M1643.41,184.03h-17v8.49h17V184.03"/>
<text transform="matrix(1 0 0 1 1629.0776 190.7661)" style="&st9;"><tspan x="0" y="0" style="&st26; &st17;">AR1</tspan></text>
</a>
<a ewd:code="GA6" ewd:figtype="w2w" style="cursor:pointer;" ewd:figID="659">
<path style="&st23;" d="M1728.39,379.49h-17v8.5h17V379.49"/>
<text transform="matrix(1 0 0 1 1713.8901 386.2358)" style="&st9;"><tspan x="0" y="0" style="&st26; &st17;">GA6</tspan></text>
</a>
<a ewd:code="GA6" ewd:figtype="w2w" style="cursor:pointer;" ewd:figID="658">
<path style="&st23;" d="M1685.9,379.49h-17v8.5h17V379.49"/>
<text transform="matrix(1 0 0 1 1671.3999 386.2358)" style="&st9;"><tspan x="0" y="0" style="&st26; &st17;">GA6</tspan></text>
</a>
<a ewd:code="GA6" ewd:figtype="w2w" style="cursor:pointer;" ewd:figID="657">
<path style="&st23;" d="M1643.41,379.49h-17v8.5h17V379.49"/>
<text transform="matrix(1 0 0 1 1628.9106 386.2358)" style="&st9;"><tspan x="0" y="0" style="&st26; &st17;">GA6</tspan></text>
</a>
<a ewd:code="GA6" ewd:figtype="w2w" style="cursor:pointer;" ewd:figID="656">
<path style="&st23;" d="M1600.91,379.49h-16.99v8.5h16.99V379.49"/>
<text transform="matrix(1 0 0 1 1586.4155 386.2358)" style="&st9;"><tspan x="0" y="0" style="&st26; &st17;">GA6</tspan></text>
</a>
<a ewd:code="GA2" ewd:figtype="w2w" style="cursor:pointer;" ewd:figID="632">
<path style="&st23;" d="M1728.39,337h-17v8.5h17V337"/>
<text transform="matrix(1 0 0 1 1713.8901 343.7358)" style="&st9;"><tspan x="0" y="0" style="&st26; &st17;">GA2</tspan></text>
</a>
<a ewd:code="GA2" ewd:figtype="w2w" style="cursor:pointer;" ewd:figID="631">
<path style="&st23;" d="M1685.9,337h-17v8.5h17V337"/>
<text transform="matrix(1 0 0 1 1671.3999 343.7358)" style="&st9;"><tspan x="0" y="0" style="&st26; &st17;">GA2</tspan></text>
</a>
<a ewd:code="GA2" ewd:figtype="w2w" style="cursor:pointer;" ewd:figID="630">
<path style="&st23;" d="M1643.41,337h-17v8.5h17V337"/>
<text transform="matrix(1 0 0 1 1628.9106 343.7358)" style="&st9;"><tspan x="0" y="0" style="&st26; &st17;">GA2</tspan></text>
</a>
<a ewd:code="GA2" ewd:figtype="w2w" style="cursor:pointer;" ewd:figID="628">
<path style="&st23;" d="M1600.91,337h-16.99v8.5h16.99V337"/>
<text transform="matrix(1 0 0 1 1586.4155 343.7358)" style="&st9;"><tspan x="0" y="0" style="&st26; &st17;">GA2</tspan></text>
</a>
<a ewd:code="GA2" ewd:figtype="w2w" style="cursor:pointer;" ewd:figID="627">
<path style="&st23;" d="M1481.93,337h-16.99v8.5h16.99V337"/>
<text transform="matrix(1 0 0 1 1467.4351 343.7358)" style="&st9;"><tspan x="0" y="0" style="&st26; &st17;">GA2</tspan></text>
</a>
<a ewd:code="GA2" ewd:figtype="w2w" style="cursor:pointer;" ewd:figID="626">
<path style="&st23;" d="M1447.94,337h-17v8.5h17V337"/>
<text transform="matrix(1 0 0 1 1433.4399 343.7358)" style="&st9;"><tspan x="0" y="0" style="&st26; &st17;">GA2</tspan></text>
</a>
<a ewd:code="GA2" ewd:figtype="w2w" style="cursor:pointer;" ewd:figID="625">
<path style="&st23;" d="M1413.94,337h-16.99v8.5h16.99V337"/>
<text transform="matrix(1 0 0 1 1399.4448 343.7358)" style="&st9;"><tspan x="0" y="0" style="&st26; &st17;">GA2</tspan></text>
</a>
<a ewd:code="GA6" ewd:figtype="w2w" style="cursor:pointer;" ewd:figID="655">
<path style="&st23;" d="M1481.93,379.49h-16.99v8.5h16.99V379.49"/>
<text transform="matrix(1 0 0 1 1467.4351 386.2358)" style="&st9;"><tspan x="0" y="0" style="&st26; &st17;">GA6</tspan></text>
</a>
<a ewd:code="GA6" ewd:figtype="w2w" style="cursor:pointer;" ewd:figID="654">
<path style="&st23;" d="M1447.94,379.49h-17v8.5h17V379.49"/>
<text transform="matrix(1 0 0 1 1433.4399 386.2358)" style="&st9;"><tspan x="0" y="0" style="&st26; &st17;">GA6</tspan></text>
</a>
<a ewd:code="GA6" ewd:figtype="w2w" style="cursor:pointer;" ewd:figID="653">
<path style="&st23;" d="M1413.94,379.49h-16.99v8.5h16.99V379.49"/>
<text transform="matrix(1 0 0 1 1399.4448 386.2358)" style="&st9;"><tspan x="0" y="0" style="&st26; &st17;">GA6</tspan></text>
</a>
<a ewd:code="GA1" ewd:figtype="w2w" style="cursor:pointer;" ewd:figID="624">
<path style="&st23;" d="M1243.97,337h-16.99v8.5h16.99V337"/>
<text transform="matrix(1 0 0 1 1229.4751 343.7358)" style="&st9;"><tspan x="0" y="0" style="&st26; &st17;">GA1</tspan></text>
</a>
<a ewd:code="GA1" ewd:figtype="w2w" style="cursor:pointer;" ewd:figID="623">
<path style="&st23;" d="M1209.98,337h-17v8.5h17V337"/>
<text transform="matrix(1 0 0 1 1195.48 343.7358)" style="&st9;"><tspan x="0" y="0" style="&st26; &st17;">GA1</tspan></text>
</a>
<a ewd:code="GA1" ewd:figtype="w2w" style="cursor:pointer;" ewd:figID="622">
<path style="&st23;" d="M1141.99,337h-17v8.5h17V337"/>
<text transform="matrix(1 0 0 1 1127.4897 343.7358)" style="&st9;"><tspan x="0" y="0" style="&st26; &st17;">GA1</tspan></text>
</a>
<a ewd:code="AR1" ewd:figtype="w2w" style="cursor:pointer;" ewd:figID="619">
<path style="&st23;" d="M904.03,201.02h-17v8.5h17V201.02"/>
<text transform="matrix(1 0 0 1 889.6968 207.7661)" style="&st9;"><tspan x="0" y="0" style="&st26; &st17;">AR1</tspan></text>
</a>
<a ewd:code="AR1" ewd:figtype="w2w" style="cursor:pointer;" ewd:figID="620">
<path style="&st23;" d="M904.03,158.53h-17v8.5h17V158.53"/>
<text transform="matrix(1 0 0 1 889.6968 165.2661)" style="&st9;"><tspan x="0" y="0" style="&st26; &st17;">AR1</tspan></text>
</a>
<a ewd:code="SR1" ewd:figtype="w2w" style="cursor:pointer;" ewd:figID="621">
<path style="&st23;" d="M904.03,116.04h-17v8.5h17V116.04"/>
<text transform="matrix(1 0 0 1 889.6968 122.7759)" style="&st9;"><tspan x="0" y="0" style="&st26; &st17;">SR1</tspan></text>
</a>
<a ewd:code="SR1" ewd:figtype="w2w" style="cursor:pointer;" ewd:figID="617">
<path style="&st23;" d="M861.54,116.04h-17v8.5h17V116.04"/>
<text transform="matrix(1 0 0 1 847.2075 122.7759)" style="&st9;"><tspan x="0" y="0" style="&st26; &st17;">SR1</tspan></text>
</a>
<a ewd:code="SR1" ewd:figtype="w2w" style="cursor:pointer;" ewd:figID="615">
<path style="&st23;" d="M819.04,116.04h-16.99v8.5h16.99V116.04"/>
<text transform="matrix(1 0 0 1 804.7124 122.7759)" style="&st9;"><tspan x="0" y="0" style="&st26; &st17;">SR1</tspan></text>
</a>
<a ewd:code="AR1" ewd:figtype="w2w" style="cursor:pointer;" ewd:figID="618">
<path style="&st23;" d="M861.54,158.53h-17v8.5h17V158.53"/>
<text transform="matrix(1 0 0 1 847.2075 165.2661)" style="&st9;"><tspan x="0" y="0" style="&st26; &st17;">AR1</tspan></text>
</a>
<a ewd:code="AR1" ewd:figtype="w2w" style="cursor:pointer;" ewd:figID="612">
<path style="&st23;" d="M819.04,158.53h-16.99v8.5h16.99V158.53"/>
<text transform="matrix(1 0 0 1 804.7124 165.2661)" style="&st9;"><tspan x="0" y="0" style="&st26; &st17;">AR1</tspan></text>
</a>
<a ewd:code="AR1" ewd:figtype="w2w" style="cursor:pointer;" ewd:figID="616">
<path style="&st23;" d="M861.54,201.02h-17v8.5h17V201.02"/>
<text transform="matrix(1 0 0 1 847.2075 207.7661)" style="&st9;"><tspan x="0" y="0" style="&st26; &st17;">AR1</tspan></text>
</a>
<a ewd:code="AR1" ewd:figtype="w2w" style="cursor:pointer;" ewd:figID="614">
<path style="&st23;" d="M819.04,201.02h-16.99v8.5h16.99V201.02"/>
<text transform="matrix(1 0 0 1 804.7124 207.7661)" style="&st9;"><tspan x="0" y="0" style="&st26; &st17;">AR1</tspan></text>
</a>
<a ewd:code="GA1" ewd:figtype="w2w" style="cursor:pointer;" ewd:figID="613">
<path style="&st23;" d="M819.04,337h-16.99v8.5h16.99V337"/>
<text transform="matrix(1 0 0 1 804.5454 343.7358)" style="&st9;"><tspan x="0" y="0" style="&st26; &st17;">GA1</tspan></text>
</a>
<a ewd:code="GA1" ewd:figtype="w2w" style="cursor:pointer;" ewd:figID="611">
<path style="&st23;" d="M717.06,337h-17v8.5h17V337"/>
<text transform="matrix(1 0 0 1 702.5601 343.7358)" style="&st9;"><tspan x="0" y="0" style="&st26; &st17;">GA1</tspan></text>
</a>
<a ewd:code="SR1" ewd:figtype="w2w" style="cursor:pointer;" ewd:figID="610">
<path style="&st23;" d="M717.06,184.03h-17v8.49h17V184.03"/>
<text transform="matrix(1 0 0 1 702.7271 190.7661)" style="&st9;"><tspan x="0" y="0" style="&st26; &st17;">SR1</tspan></text>
</a>
<a ewd:code="SR1" ewd:figtype="w2w" style="cursor:pointer;" ewd:figID="609">
<path style="&st23;" d="M674.57,184.03h-17v8.49h17V184.03"/>
<text transform="matrix(1 0 0 1 660.2368 190.7661)" style="&st9;"><tspan x="0" y="0" style="&st26; &st17;">SR1</tspan></text>
</a>
<a ewd:code="SR1" ewd:figtype="w2w" style="cursor:pointer;" ewd:figID="608">
<path style="&st23;" d="M632.07,184.03h-16.99v8.49h16.99V184.03"/>
<text transform="matrix(1 0 0 1 617.7422 190.7661)" style="&st9;"><tspan x="0" y="0" style="&st26; &st17;">SR1</tspan></text>
</a>
<a ewd:code="AR1" ewd:figtype="w2w" style="cursor:pointer;" ewd:figID="607">
<path style="&st23;" d="M623.58,337h-17v8.5h17V337"/>
<text transform="matrix(1 0 0 1 609.2476 343.7358)" style="&st9;"><tspan x="0" y="0" style="&st26; &st17;">AR1</tspan></text>
</a>
<a ewd:code="AR1" ewd:figtype="w2w" style="cursor:pointer;" ewd:figID="606">
<path style="&st23;" d="M581.08,337h-16.99v8.5h16.99V337"/>
<text transform="matrix(1 0 0 1 566.7524 343.7358)" style="&st9;"><tspan x="0" y="0" style="&st26; &st17;">AR1</tspan></text>
</a>
<a ewd:code="SR1" ewd:figtype="w2w" style="cursor:pointer;" ewd:figID="652">
<path style="&st23;" d="M623.58,396.49h-17v8.5h17V396.49"/>
<text transform="matrix(1 0 0 1 609.2476 403.2261)" style="&st9;"><tspan x="0" y="0" style="&st26; &st17;">SR1</tspan></text>
</a>
<a ewd:code="SR1" ewd:figtype="w2w" style="cursor:pointer;" ewd:figID="651">
<path style="&st23;" d="M581.08,396.49h-16.99v8.5h16.99V396.49"/>
<text transform="matrix(1 0 0 1 566.7524 403.2261)" style="&st9;"><tspan x="0" y="0" style="&st26; &st17;">SR1</tspan></text>
</a>
<a ewd:code="SR2" ewd:figtype="w2w" style="cursor:pointer;" ewd:figID="650">
<path style="&st23;" d="M402.61,523.97h-16.99v8.5h16.99V523.97"/>
<text transform="matrix(1 0 0 1 388.2822 530.7065)" style="&st9;"><tspan x="0" y="0" style="&st26; &st17;">SR2</tspan></text>
</a>
<a ewd:code="SR1" ewd:figtype="w2w" style="cursor:pointer;" ewd:figID="605">
<path style="&st23;" d="M402.61,337h-16.99v8.5h16.99V337"/>
<text transform="matrix(1 0 0 1 388.2822 343.7358)" style="&st9;"><tspan x="0" y="0" style="&st26; &st17;">SR1</tspan></text>
</a>
<a ewd:code="SR2" ewd:figtype="w2w" style="cursor:pointer;" ewd:figID="649">
<path style="&st23;" d="M317.63,387.99h-17v8.5h17V387.99"/>
<text transform="matrix(1 0 0 1 303.2974 394.7261)" style="&st9;"><tspan x="0" y="0" style="&st26; &st17;">SR2</tspan></text>
</a>
<a ewd:code="AR1" ewd:figtype="w2w" style="cursor:pointer;" ewd:figID="604">
<path style="&st23;" d="M317.63,337h-17v8.5h17V337"/>
<text transform="matrix(1 0 0 1 303.2974 343.7358)" style="&st9;"><tspan x="0" y="0" style="&st26; &st17;">AR1</tspan></text>
</a>
<a ewd:code="AR1" ewd:figtype="w2w" style="cursor:pointer;" ewd:figID="603">
<path style="&st23;" d="M275.13,337h-16.99v8.5h16.99V337"/>
<text transform="matrix(1 0 0 1 260.8022 343.7358)" style="&st9;"><tspan x="0" y="0" style="&st26; &st17;">AR1</tspan></text>
</a>
<a ewd:code="SR2" ewd:figtype="w2w" style="cursor:pointer;" ewd:figID="648">
<path style="&st23;" d="M275.13,387.99h-16.99v8.5h16.99V387.99"/>
<text transform="matrix(1 0 0 1 260.8022 394.7261)" style="&st9;"><tspan x="0" y="0" style="&st26; &st17;">SR2</tspan></text>
</a>
<a ewd:code="SR2" ewd:figtype="w2w" style="cursor:pointer;" ewd:figID="647">
<path style="&st23;" d="M181.65,379.49h-17v8.5h17V379.49"/>
<text transform="matrix(1 0 0 1 167.3174 386.2358)" style="&st9;"><tspan x="0" y="0" style="&st26; &st17;">SR2</tspan></text>
</a>
<a ewd:code="AR2" ewd:figtype="w2w" style="cursor:pointer;" ewd:figID="601">
<path style="&st23;" d="M181.65,320h-17v8.5h17V320"/>
<text transform="matrix(1 0 0 1 167.3174 326.7456)" style="&st9;"><tspan x="0" y="0" style="&st26; &st17;">AR2</tspan></text>
</a>
<a ewd:code="AR1" ewd:figtype="w2w" style="cursor:pointer;" ewd:figID="602">
<path style="&st23;" d="M207.15,116.04h-17v8.5h17V116.04"/>
<text transform="matrix(1 0 0 1 192.8174 122.7759)" style="&st9;"><tspan x="0" y="0" style="&st26; &st17;">AR1</tspan></text>
</a>
<a ewd:code="305003" ewd:figtype="sp" style="cursor:pointer;" ewd:figID="503">
<path style="&st23;" d="M4350.2,591.96h8.5l4.25,4.25v8.49l-4.25,4.25h-8.5l-4.25-4.25v-8.49L4350.2,591.96"/>
</a>
<a ewd:code="305001" ewd:figtype="sp" style="cursor:pointer;" ewd:figID="501">
<path style="&st23;" d="M168.9,124.54h8.5l4.25,4.24v8.5l-4.25,4.25h-8.5l-4.25-4.25v-8.5L168.9,124.54"/>
</a>
<a ewd:code="305002" ewd:figtype="sp" style="cursor:pointer;" ewd:figID="502">
<path style="&st23;" d="M389.87,472.98h8.49l4.25,4.25v8.49l-4.25,4.25h-8.49l-4.25-4.25v-8.49L389.87,472.98"/>
</a>
<a ewd:code="1" ewd:figtype="rb" style="cursor:pointer;" ewd:figID="402">
<path style="&st29;" d="M207.15,201.02h-42.5v34h42.5V201.02"/>
</a>
<a ewd:code="FUSE58" ewd:figtype="rb" style="cursor:pointer;" ewd:figID="401">
<path style="&st29;" d="M117.91,39.55v42.49h25.5V39.55H117.91"/>
</a>
<a ewd:code="FUSE1" ewd:figtype="rb" style="cursor:pointer;" ewd:figID="403">
<path style="&st29;" d="M296.38,82.04v42.5h25.5v-42.5H296.38"/>
</a>
<a ewd:code="FUSE18" ewd:figtype="rb" style="cursor:pointer;" ewd:figID="404">
<path style="&st29;" d="M3984.76,39.55v42.49h25.5V39.55H3984.76"/>
</a>
<a ewd:code="FUSE10" ewd:figtype="rb" style="cursor:pointer;" ewd:figID="405">
<path style="&st29;" d="M4299.21,39.55v42.49h25.5V39.55H4299.21"/>
</a>
<a ewd:code="2" ewd:figtype="jb" style="cursor:pointer;" ewd:figID="304">
<path style="&st25;" d="M4294.96,141.53v50.99h25.5v-50.99H4294.96"/>
</a>
<a ewd:code="3JB" ewd:figtype="jb" style="cursor:pointer;" ewd:figID="305">
<path style="&st25;" d="M4371.45,141.53v50.99h25.5v-50.99H4371.45"/>
</a>
<a ewd:code="3JB" ewd:figtype="jb" style="cursor:pointer;" ewd:figID="309">
<path style="&st25;" d="M4422.44,413.49v50.99h25.5v-50.99H4422.44"/>
</a>
<a ewd:code="4JB" ewd:figtype="jb" style="cursor:pointer;" ewd:figID="310">
<path style="&st25;" d="M4422.44,481.48v50.99h25.5v-50.99H4422.44"/>
</a>
<a ewd:code="4JB" ewd:figtype="jb" style="cursor:pointer;" ewd:figID="308">
<path style="&st25;" d="M1116.49,557.96v50.99h110.49v-50.99H1116.49"/>
</a>
<a ewd:code="3JB" ewd:figtype="jb" style="cursor:pointer;" ewd:figID="302">
<path style="&st25;" d="M45.67,158.53v50.99h25.5v-50.99H45.67"/>
</a>
<a ewd:code="4JB" ewd:figtype="jb" style="cursor:pointer;" ewd:figID="307">
<path style="&st25;" d="M45.67,506.97v50.99h25.5v-50.99H45.67"/>
</a>
<a ewd:code="2" ewd:figtype="jb" style="cursor:pointer;" ewd:figID="301">
<path style="&st25;" d="M45.67,39.55v67.99h59.49V39.55H45.67"/>
</a>
<a ewd:code="2" ewd:figtype="jb" style="cursor:pointer;" ewd:figID="303">
<path style="&st25;" d="M368.62,39.55v67.99h50.99V39.55H368.62"/>
</a>
<a ewd:code="2" ewd:figtype="jb" style="cursor:pointer;" ewd:figID="306">
<path style="&st25;" d="M4430.94,39.55v67.99h59.49V39.55H4430.94"/>
</a>
<a ewd:code="A1" ewd:figtype="gp" style="cursor:pointer;" ewd:figID="201">
<path style="&st23;" d="M213.52,685.44h21.25l-10.63,15.58L213.52,685.44"/>
<text transform="matrix(1 0 0 1 220.0229 693.5962)" style="&st9;"><tspan x="0" y="0" style="&st26; &st17;">A1</tspan></text>
</a>
<a ewd:code="R2" ewd:figtype="gp" style="cursor:pointer;" ewd:figID="202">
<path style="&st23;" d="M383.49,685.44h21.25l-10.63,15.58L383.49,685.44"/>
<text transform="matrix(1 0 0 1 389.4331 693.5962)" style="&st9;"><tspan x="0" y="0" style="&st26; &st17;">R2</tspan></text>
</a>
<a ewd:code="G5" ewd:figtype="gp" style="cursor:pointer;" ewd:figID="203">
<path style="&st23;" d="M1207.85,685.44h21.25l-10.62,15.58L1207.85,685.44"/>
<text transform="matrix(1 0 0 1 1213.4937 693.5962)" style="&st9;"><tspan x="0" y="0" style="&st26; &st17;">G5</tspan></text>
</a>
<a ewd:code="R1" ewd:figtype="gp" style="cursor:pointer;" ewd:figID="204">
<path style="&st23;" d="M1267.34,685.44h21.25l-10.62,15.58L1267.34,685.44"/>
<text transform="matrix(1 0 0 1 1273.6929 693.5962)" style="&st9;"><tspan x="0" y="0" style="&st26; &st17;">R1</tspan></text>
</a>
<a ewd:code="G5" ewd:figtype="gp" style="cursor:pointer;" ewd:figID="205">
<path style="&st23;" d="M2457.14,685.44h21.25l-10.62,15.58L2457.14,685.44"/>
<text transform="matrix(1 0 0 1 2462.7935 693.5962)" style="&st9;"><tspan x="0" y="0" style="&st26; &st17;">G5</tspan></text>
</a>
<a ewd:code="A2" ewd:figtype="gp" style="cursor:pointer;" ewd:figID="206">
<path style="&st23;" d="M3986.89,685.44h21.25l-10.63,15.58L3986.89,685.44"/>
<text transform="matrix(1 0 0 1 3992.9829 693.5962)" style="&st9;"><tspan x="0" y="0" style="&st26; &st17;">A2</tspan></text>
</a>
<a ewd:code="C4" ewd:figtype="gp" style="cursor:pointer;" ewd:figID="207">
<path style="&st23;" d="M4343.83,685.44h21.25l-10.63,15.58L4343.83,685.44"/>
<text transform="matrix(1 0 0 1 4349.7729 693.5962)" style="&st9;"><tspan x="0" y="0" style="&st26; &st17;">C4</tspan></text>
</a>
<a ewd:code="C1" ewd:figtype="gp" style="cursor:pointer;" ewd:figID="208">
<path style="&st23;" d="M4428.82,685.44h21.24l-10.62,15.58L4428.82,685.44"/>
<text transform="matrix(1 0 0 1 4435.1636 693.5962)" style="&st9;"><tspan x="0" y="0" style="&st26; &st17;">C1</tspan></text>
</a>
<a ewd:code="G5" ewd:figtype="gp" style="cursor:pointer;" ewd:figID="209">
<path style="&st23;" d="M4590.29,685.44h21.25l-10.63,15.58L4590.29,685.44"/>
<text transform="matrix(1 0 0 1 4595.9331 693.5962)" style="&st9;"><tspan x="0" y="0" style="&st26; &st17;">G5</tspan></text>
</a>
<a ewd:code="FUSE67" ewd:figtype="fuse" style="cursor:pointer;" ewd:figID="107">
<path style="&st10;" d="M4435.19,39.55v42.49h25.49V39.55H4435.19"/>
</a>
<a ewd:code="FUSE10" ewd:figtype="fuse" style="cursor:pointer;" ewd:figID="106">
<path style="&st10;" d="M4299.21,39.55v42.49h25.5V39.55H4299.21"/>
</a>
<a ewd:code="FUSE18" ewd:figtype="fuse" style="cursor:pointer;" ewd:figID="105">
<path style="&st10;" d="M3984.76,39.55v42.49h25.5V39.55H3984.76"/>
</a>
<a ewd:code="FUSE84" ewd:figtype="fuse" style="cursor:pointer;" ewd:figID="104">
<path style="&st10;" d="M372.87,39.55v42.49h25.49V39.55H372.87"/>
</a>
<a ewd:code="FUSE1" ewd:figtype="fuse" style="cursor:pointer;" ewd:figID="103">
<path style="&st10;" d="M296.38,82.04v42.5h25.5v-42.5H296.38"/>
</a>
<a ewd:code="FUSE58" ewd:figtype="fuse" style="cursor:pointer;" ewd:figID="102">
<path style="&st10;" d="M117.91,39.55v42.49h25.5V39.55H117.91"/>
</a>
<a ewd:code="FUSE75" ewd:figtype="fuse" style="cursor:pointer;" ewd:figID="101">
<path style="&st10;" d="M49.92,39.55v42.49h25.5V39.55H49.92"/>
</a>
<a ewd:code="S6" ewd:figtype="conn" style="cursor:pointer;" ewd:figID="3">
<path style="&st29;" d="M606.58,82.04v42.5h118.98v-42.5H606.58"/>
<title ewd:textID="25">Rear Height Control Sensor Sub-Assembly LH</title>
</a>
<a ewd:code="S3" ewd:figtype="conn" style="cursor:pointer;" ewd:figID="4">
<path style="&st29;" d="M793.55,39.55v42.49h118.98V39.55H793.55"/>
<title ewd:textID="26">Rear Height Control Sensor Sub-Assembly RH</title>
</a>
<a ewd:code="G111" ewd:figtype="conn" style="cursor:pointer;" ewd:figID="22">
<path style="&st29;" d="M674.57,379.49v178.47h161.47V379.49H674.57"/>
<title ewd:textID="35">Suspension Control Switch</title>
</a>
<a ewd:code="S7" ewd:figtype="conn" style="cursor:pointer;" ewd:figID="21">
<path style="&st29;" d="M555.59,455.98v33.99h76.48v-33.99H555.59"/>
<title ewd:textID="15">Height Control Valve</title>
</a>
<a ewd:code="S10" ewd:figtype="conn" style="cursor:pointer;" ewd:figID="2">
<path style="&st29;" d="M377.12,396.49v33.99h33.99v-33.99H377.12"/>
<title ewd:textID="14">Height Control Exhaust Valve (Height Control Compressor)</title>
</a>
<a ewd:code="S11" ewd:figtype="conn" style="cursor:pointer;" ewd:figID="19">
<path style="&st29;" d="M249.64,447.48v34h76.49v-34H249.64"/>
<title ewd:textID="13">Height Control Compressor Motor (Height Control Compressor Assembly)</title>
</a>
<a ewd:code="A70" ewd:figtype="conn" style="cursor:pointer;" ewd:figID="18">
<path style="&st29;" d="M215.64,447.48v17h17v-17H215.64"/>
<title ewd:textID="17">Junction Connector</title>
</a>
<a ewd:code="R31" ewd:figtype="conn" style="cursor:pointer;" ewd:figID="20">
<path style="&st29;" d="M385.62,659.95v16.99h16.99v-16.99H385.62"/>
<title ewd:textID="17">Junction Connector</title>
</a>
<a ewd:code="G112" ewd:figtype="conn" style="cursor:pointer;" ewd:figID="23">
<path style="&st29;" d="M1116.49,447.48v50.99h34v-50.99H1116.49"/>
<title ewd:textID="21">No. 2 Absorber Control Switch</title>
</a>
<a ewd:code="G113" ewd:figtype="conn" style="cursor:pointer;" ewd:figID="24">
<path style="&st29;" d="M1184.48,447.48v50.99h67.99v-50.99H1184.48"/>
<title ewd:textID="3">Absorber Control Switch</title>
</a>
<a ewd:code="G106" ewd:figtype="conn" style="cursor:pointer;" ewd:figID="25">
<path style="&st29;" d="M1209.98,659.95v16.99h17v-16.99H1209.98"/>
<title ewd:textID="17">Junction Connector</title>
</a>
<a ewd:code="A13" ewd:figtype="conn" style="cursor:pointer;" ewd:figID="26">
<path style="&st29;" d="M1388.45,455.98v33.99h101.98v-33.99H1388.45"/>
<title ewd:textID="11">Front Acceleration Sensor Assembly</title>
</a>
<a ewd:code="A56" ewd:figtype="conn" style="cursor:pointer;" ewd:figID="27">
<path style="&st29;" d="M1575.42,455.98v33.99h161.47v-33.99H1575.42"/>
<title ewd:textID="10">Front Absorber Control Actuator RH</title>
</a>
<a ewd:code="R18" ewd:figtype="conn" style="cursor:pointer;" ewd:figID="28">
<path style="&st29;" d="M1762.39,455.98v33.99h118.98v-33.99H1762.39"/>
<title ewd:textID="24">Rear Acceleration Sensor Assembly</title>
</a>
<a ewd:code="S4" ewd:figtype="conn" style="cursor:pointer;" ewd:figID="29">
<path style="&st29;" d="M1906.86,455.98v33.99h161.47v-33.99H1906.86"/>
<title ewd:textID="27">Rear Shock Absorber Assembly LH</title>
</a>
<a ewd:code="A57" ewd:figtype="conn" style="cursor:pointer;" ewd:figID="30">
<path style="&st29;" d="M2093.83,455.98v33.99h161.47v-33.99H2093.83"/>
<title ewd:textID="9">Front Absorber Control Actuator LH</title>
</a>
<a ewd:code="S1" ewd:figtype="conn" style="cursor:pointer;" ewd:figID="31">
<path style="&st29;" d="M2280.8,455.98v33.99h161.47v-33.99H2280.8"/>
<title ewd:textID="28">Rear Shock Absorber Assembly RH</title>
</a>
<a ewd:code="G106" ewd:figtype="conn" style="cursor:pointer;" ewd:figID="32">
<path style="&st29;" d="M2459.27,659.95v16.99h17v-16.99H2459.27"/>
<title ewd:textID="17">Junction Connector</title>
</a>
<a ewd:code="G33" ewd:figtype="conn" style="cursor:pointer;" ewd:figID="5">
<path style="&st29;" d="M2620.74,354v42.49h67.99V354H2620.74"/>
<title ewd:textID="31">Steering Sensor</title>
</a>
<a ewd:code="G132" ewd:figtype="conn" style="cursor:pointer;" ewd:figID="6">
<path style="&st29;" d="M2629.24,235.02v25.49h144.48v-25.49H2629.24"/>
<title ewd:textID="17">Junction Connector</title>
</a>
<a ewd:code="A72" ewd:figtype="conn" style="cursor:pointer;" ewd:figID="7">
<path style="&st29;" d="M2722.73,370.99v25.5h152.97v-25.5H2722.73"/>
<title ewd:textID="17">Junction Connector</title>
</a>
<a ewd:code="A47,A48" ewd:figtype="conn" style="cursor:pointer;" ewd:figID="33">
<path style="&st29;" d="M2722.73,464.48v17h50.99v-17H2722.73"/>
<title ewd:textID="29">Short Connector</title>
</a>
<a ewd:code="G134" ewd:figtype="conn" style="cursor:pointer;" ewd:figID="34">
<path style="&st29;" d="M2901.2,387.99v25.5h118.98v-25.5H2901.2"/>
<title ewd:textID="17">Junction Connector</title>
</a>
<a ewd:code="G98" ewd:figtype="conn" style="cursor:pointer;" ewd:figID="9">
<path style="&st29;" d="M3037.17,387.99v17h50.99v-17H3037.17"/>
<title ewd:textID="17">Junction Connector</title>
</a>
<a ewd:code="G51-B" ewd:figtype="conn" style="cursor:pointer;" ewd:figID="8">
<path style="&st29;" d="M2960.69,235.02v33.99h135.97v-33.99H2960.69"/>
<title ewd:textID="22">Power Management Control ECU</title>
</a>
<a ewd:code="A7" ewd:figtype="conn" style="cursor:pointer;" ewd:figID="10">
<path style="&st29;" d="M3241.14,345.5h271.95v-50.99h-271.95V345.5"/>
<title ewd:textID="5">Brake Actuator Assembly</title>
</a>
<a ewd:code="A54" ewd:figtype="conn" style="cursor:pointer;" ewd:figID="35">
<path style="&st29;" d="M3742.56,430.48v127.48h297.45V430.48H3742.56"/>
<title ewd:textID="32">Stop Light Control Relay Assembly</title>
</a>
<a ewd:code="A65" ewd:figtype="conn" style="cursor:pointer;" ewd:figID="13">
<path style="&st29;" d="M3895.53,362.5h59.49v16.99h-59.49V362.5"/>
<title ewd:textID="17">Junction Connector</title>
</a>
<a ewd:code="A68" ewd:figtype="conn" style="cursor:pointer;" ewd:figID="11">
<path style="&st29;" d="M3759.55,354h17v16.99h-17V354"/>
<title ewd:textID="17">Junction Connector</title>
</a>
<a ewd:code="A66" ewd:figtype="conn" style="cursor:pointer;" ewd:figID="12">
<path style="&st29;" d="M3759.55,277.51h17v17h-17V277.51"/>
<title ewd:textID="17">Junction Connector</title>
</a>
<a ewd:code="A5" ewd:figtype="conn" style="cursor:pointer;" ewd:figID="14">
<path style="&st29;" d="M3955.02,303.01v-34h-17v34H3955.02"/>
<title ewd:textID="33">Stop Light Switch Assembly</title>
</a>
<a ewd:code="A65" ewd:figtype="conn" style="cursor:pointer;" ewd:figID="16">
<path style="&st29;" d="M3989.01,226.52h17v17h-17V226.52"/>
<title ewd:textID="17">Junction Connector</title>
</a>
<a ewd:code="A59" ewd:figtype="conn" style="cursor:pointer;" ewd:figID="15">
<path style="&st29;" d="M3980.52,175.53h33.99v-25.5h-33.99V175.53"/>
<title ewd:textID="8">Diode (Stop Light)</title>
</a>
<a ewd:code="G6-A" ewd:figtype="conn" style="cursor:pointer;" ewd:figID="17">
<path style="&st29;" d="M4218.48,226.52v144.47h382.43V226.52H4218.48"/>
<title ewd:textID="7">Combination Meter Assembly</title>
</a>
<a ewd:code="G92,G143" ewd:figtype="conn" style="cursor:pointer;" ewd:figID="37">
<path style="&st29;" d="M4541.42,430.48h17v17h-17V430.48"/>
<title ewd:textID="17">Junction Connector</title>
</a>
<a ewd:code="G128-C,G129-D" ewd:figtype="conn" style="cursor:pointer;" ewd:figID="36">
<path style="&st29;" d="M4541.42,523.97v33.99h67.99v-33.99H4541.42"/>
<title ewd:textID="17">Junction Connector</title>
</a>
<a ewd:code="G106" ewd:figtype="conn" style="cursor:pointer;" ewd:figID="38">
<path style="&st29;" d="M4592.41,659.95h17v16.99h-17V659.95"/>
<title ewd:textID="17">Junction Connector</title>
</a>
<a ewd:code="A14-A,A49-B,R19-C" ewd:figtype="conn" style="cursor:pointer;" ewd:figID="1">
<path style="&st29;" d="M249.64,252.01v34h2235.13v-34H249.64"/>
<title ewd:textID="34">Suspension Control ECU</title>
</a>
</g>
</svg>
