﻿<?xml version="1.0" encoding="UTF-8"?>
<!DOCTYPE svg PUBLIC "-//W3C//DTD SVG 1.0//EN" "http://www.w3.org/TR/2001/REC-SVG-20010904/DTD/svg10.dtd"[
<!ENTITY ns_flows "http://ns.adobe.com/Flows/1.0/">
<!ENTITY ns_svg "http://www.w3.org/2000/svg">
<!ENTITY ns_xlink "http://www.w3.org/1999/xlink">
	<!ENTITY st0 "fill:none;stroke:#FB0F0C;stroke-width:5.1;stroke-linejoin:round;">
	<!ENTITY st1 "fill:none;stroke:#9A9999;stroke-width:5.1;stroke-linejoin:round;">
	<!ENTITY st2 "fill:none;stroke:#99280B;stroke-width:5.1;stroke-linejoin:round;">
		<!ENTITY st3 "fill:none;stroke:#000000;stroke-width:0.85;stroke-linecap:round;stroke-linejoin:round;stroke-dasharray:3 1.5;enable-background:new    ;">
	<!ENTITY st4 "fill:none;stroke:#000000;stroke-width:5.1;stroke-linejoin:round;">
	<!ENTITY st5 "fill:none;stroke:#199DBF;stroke-width:1.13;stroke-linejoin:round;">
	<!ENTITY st6 "fill:none;stroke:#000000;stroke-linecap:round;stroke-linejoin:round;">
	<!ENTITY st7 "fill:none;stroke:#F8E616;stroke-width:1.13;stroke-linejoin:round;">
	<!ENTITY st8 "stroke:#000000;stroke-width:0.28;stroke-linecap:round;stroke-linejoin:round;enable-background:new    ;">
	<!ENTITY st9 "enable-background:new    ;">
		<!ENTITY st10 "fill:none;stroke:#000000;stroke-width:1.42;stroke-linecap:round;stroke-linejoin:round;enable-background:new    ;">
	<!ENTITY st11 "fill:none;stroke:#EE67AA;stroke-width:5.1;stroke-linejoin:round;">
	<!ENTITY st12 "fill:none;stroke:#199DBF;stroke-width:5.1;stroke-linejoin:round;">
	<!ENTITY st13 "opacity:0.5;fill:none;stroke:#34ACCE;stroke-linejoin:round;stroke-dasharray:6;">
	<!ENTITY st14 "fill:none;stroke:#FFFFFF;stroke-width:4.53;stroke-linejoin:round;">
		<!ENTITY st15 "fill:none;stroke:#000000;stroke-width:0.85;stroke-linecap:round;stroke-linejoin:round;enable-background:new    ;">
	<!ENTITY st16 "fill:none;stroke:#56107C;stroke-width:5.1;stroke-linejoin:round;">
	<!ENTITY st17 "font-size:6px;">
	<!ENTITY st18 "fill:none;stroke:#FFFFFF;stroke-width:2.27;stroke-linejoin:round;">
	<!ENTITY st19 "fill:none;stroke:#FB0F0C;stroke-width:1.13;stroke-linejoin:round;">
	<!ENTITY st20 "fill:none;stroke:#168638;stroke-width:5.1;stroke-linejoin:round;">
	<!ENTITY st21 "fill:none;stroke:#000000;stroke-width:1.13;stroke-linejoin:round;">
		<!ENTITY st22 "fill:none;stroke:#000000;stroke-width:1.13;stroke-linecap:round;stroke-linejoin:round;stroke-dasharray:3 1.5;enable-background:new    ;">
	<!ENTITY st23 "fill:#FFFFFF;stroke:#000000;stroke-width:1.41;stroke-linecap:round;stroke-linejoin:round;">
	<!ENTITY st24 "fill:none;stroke:#3E65AC;stroke-width:3;">
	<!ENTITY st25 "fill:#CCCCCC;stroke:#CCCCCC;stroke-width:0.1;stroke-linecap:round;stroke-linejoin:round;">
	<!ENTITY st26 "font-family:'ArialMT';">
	<!ENTITY st27 "fill:none;stroke:#168638;stroke-width:1.13;stroke-linejoin:round;">
	<!ENTITY st28 "opacity:0.5;fill:none;stroke:#34ACCE;stroke-linejoin:round;">
	<!ENTITY st29 "fill:#CFE6E7;stroke:#000000;stroke-width:1.133;stroke-linecap:round;stroke-linejoin:round;">
	<!ENTITY st30 "fill:none;stroke:#99D5E0;stroke-width:5.1;stroke-linejoin:round;">
	<!ENTITY st31 "fill:none;stroke:#7EC57E;stroke-width:5.1;stroke-linejoin:round;">
<!ATTLIST svg
xmlns:ewd CDATA #FIXED "http://shcl.co.jp/ewd"
xmlns:a CDATA #FIXED "http://ns.adobe.com/AdobeSVGViewerExtensions/3.0/"
ewd:ver CDATA #IMPLIED
>
<!ATTLIST a
ewd:lineID CDATA #IMPLIED
ewd:groupID CDATA #IMPLIED
ewd:figtype CDATA #IMPLIED
ewd:code CDATA #IMPLIED
ewd:figID CDATA #IMPLIED
ewd:pinNo CDATA #IMPLIED
ewd:comment CDATA #IMPLIED >
<!ATTLIST g
ewd:lineID CDATA #IMPLIED
ewd:groupID CDATA #IMPLIED
ewd:figtype CDATA #IMPLIED
ewd:code CDATA #IMPLIED
ewd:figID CDATA #IMPLIED
ewd:pinNo CDATA #IMPLIED
ewd:comment CDATA #IMPLIED >
<!ATTLIST text
ewd:textID CDATA #IMPLIED >
<!ATTLIST title
ewd:textID CDATA #IMPLIED >
]>
<svg 
viewBox='0 0 4668.69 729.44'
height='729.44'
width='4668.69'
xml:space="preserve"
xmlns="&ns_svg;"
xmlns:ewd="http://shcl.co.jp/ewd"
xmlns:xlink="&ns_xlink;" ewd:ver="L2.1">
<g ewd:code="GA2" ewd:figID="627" ewd:figtype="w2w" ewd:pinNo="20">
<path style="&st10;" d="M1464.94,337h8.49"/>
<path style="&st10;" d="M1477.68,331.33l-4.25,4.25l-4.25-4.25"/>
<path style="&st10;" d="M1469.18,327.93l4.25,4.25l4.25-4.25"/>
<text transform="matrix(1 0 0 1 1455.269 343.2163)" style="&st9;"><tspan x="0" y="0" style="&st26; &st17;">20</tspan></text>
</g>
<g ewd:code="GA2" ewd:figID="626" ewd:figtype="w2w" ewd:pinNo="21">
<path style="&st10;" d="M1430.94,337h8.5"/>
<path style="&st10;" d="M1443.69,331.33l-4.25,4.25l-4.25-4.25"/>
<path style="&st10;" d="M1435.19,327.93l4.25,4.25l4.25-4.25"/>
<text transform="matrix(1 0 0 1 1421.269 343.2163)" style="&st9;"><tspan x="0" y="0" style="&st26; &st17;">21</tspan></text>
</g>
<g ewd:code="GA2" ewd:figID="625" ewd:figtype="w2w" ewd:pinNo="19">
<path style="&st10;" d="M1396.95,337h8.5"/>
<path style="&st10;" d="M1409.69,331.33l-4.24,4.25l-4.25-4.25"/>
<path style="&st10;" d="M1401.2,327.93l4.25,4.25l4.24-4.25"/>
<text transform="matrix(1 0 0 1 1387.2788 343.2163)" style="&st9;"><tspan x="0" y="0" style="&st26; &st17;">19</tspan></text>
</g>
<g ewd:code="GA6" ewd:figID="655" ewd:figtype="w2w" ewd:pinNo="25">
<path style="&st10;" d="M1481.93,387.99h-8.5"/>
<path style="&st10;" d="M1477.68,393.66l-4.25-4.25l-4.25,4.25"/>
<path style="&st10;" d="M1477.68,397.06l-4.25-4.25l-4.25,4.25"/>
<text transform="matrix(1 0 0 1 1455.269 385.7056)" style="&st9;"><tspan x="0" y="0" style="&st26; &st17;">25</tspan></text>
</g>
<g ewd:code="GA6" ewd:figID="654" ewd:figtype="w2w" ewd:pinNo="26">
<path style="&st10;" d="M1447.94,387.99h-8.5"/>
<path style="&st10;" d="M1443.69,393.66l-4.25-4.25l-4.25,4.25"/>
<path style="&st10;" d="M1443.69,397.06l-4.25-4.25l-4.25,4.25"/>
<text transform="matrix(1 0 0 1 1421.269 385.7056)" style="&st9;"><tspan x="0" y="0" style="&st26; &st17;">26</tspan></text>
</g>
<g ewd:code="GA6" ewd:figID="653" ewd:figtype="w2w" ewd:pinNo="27">
<path style="&st10;" d="M1413.94,387.99h-8.49"/>
<path style="&st10;" d="M1409.69,393.66l-4.24-4.25l-4.25,4.25"/>
<path style="&st10;" d="M1409.69,397.06l-4.24-4.25l-4.25,4.25"/>
<text transform="matrix(1 0 0 1 1387.2788 385.7056)" style="&st9;"><tspan x="0" y="0" style="&st26; &st17;">27</tspan></text>
</g>
<g ewd:code="GA1" ewd:figID="624" ewd:figtype="w2w" ewd:pinNo="41">
<path style="&st10;" d="M1226.98,337h8.49"/>
<path style="&st10;" d="M1239.72,331.33l-4.25,4.25l-4.25-4.25"/>
<path style="&st10;" d="M1231.22,327.93l4.25,4.25l4.25-4.25"/>
<text transform="matrix(1 0 0 1 1217.3091 343.2163)" style="&st9;"><tspan x="0" y="0" style="&st26; &st17;">41</tspan></text>
</g>
<g ewd:code="GA1" ewd:figID="623" ewd:figtype="w2w" ewd:pinNo="42">
<path style="&st10;" d="M1192.98,337h8.5"/>
<path style="&st10;" d="M1197.23,327.93l4.25,4.25l4.25-4.25"/>
<path style="&st10;" d="M1205.73,331.33l-4.25,4.25l-4.25-4.25"/>
<text transform="matrix(1 0 0 1 1183.3091 343.2163)" style="&st9;"><tspan x="0" y="0" style="&st26; &st17;">42</tspan></text>
</g>
<g ewd:code="GA1" ewd:figID="622" ewd:figtype="w2w" ewd:pinNo="43">
<path style="&st10;" d="M1124.99,337h8.5"/>
<path style="&st10;" d="M1137.74,331.33l-4.25,4.25l-4.25-4.25"/>
<path style="&st10;" d="M1129.24,327.93l4.25,4.25l4.25-4.25"/>
<text transform="matrix(1 0 0 1 1115.3188 343.2163)" style="&st9;"><tspan x="0" y="0" style="&st26; &st17;">43</tspan></text>
</g>
<g ewd:code="4JB" ewd:figID="308" ewd:figtype="jb">
<path style="&st10;" d="M1220.6,600.46h-4.25"/>
<path style="&st10;" d="M1135.62,566.46h-4.25"/>
<path style="&st10;" d="M1135.62,557.96h-4.25"/>
<path style="&st10;" d="M1220.6,566.46h-4.25"/>
<path style="&st10;" d="M1220.6,557.96h-4.25"/>
<path style="&st10;" d="M1220.6,608.95h-4.25"/>
<path style="&st10;" d="M1135.62,600.46h-4.25"/>
<path style="&st10;" d="M1135.62,608.95h-4.25"/>
<path style="&st15;" d="M1218.48,566.46v34"/>
<path style="&st8;" d="M1218.48,571.36l2.83,2.83v-4.25l-2.83-2.83l-2.84,2.83v4.25L1218.48,571.36"/>
<path style="&st15;" d="M1132.3,582.46l-0.27,0.47l-0.1,0.53l0.1,0.53l0.27,0.47l0.41,0.35l0.51,0.18h0.54l0.51-0.18l0.41-0.35l0.28-0.47l0.09-0.53l-0.09-0.53l-0.28-0.47l-0.41-0.35l-0.51-0.19h-0.54l-0.51,0.19L1132.3,582.46l0.39,0.71v0.58l0.38,0.45l0.57,0.09l0.5-0.28l0.2-0.55l-0.2-0.55l-0.5-0.29l-0.57,0.1l0.42,0.74"/>
<path style="&st8;" d="M1133.49,571.36l2.83,2.83v-4.25l-2.83-2.83l-2.83,2.83v4.25L1133.49,571.36"/>
<path style="&st8;" d="M1218.48,595.56l-2.84-2.83v4.25l2.84,2.83l2.83-2.83v-4.25L1218.48,595.56"/>
<path style="&st15;" d="M1133.49,600.46v-34"/>
<path style="&st8;" d="M1133.49,595.56l-2.83-2.83v4.25l2.83,2.83l2.83-2.83v-4.25L1133.49,595.56"/>
<path style="&st15;" d="M1217.28,582.46l-0.27,0.47l-0.09,0.53l0.09,0.53l0.27,0.47l0.42,0.35l0.5,0.18h0.55l0.51-0.18l0.41-0.35l0.27-0.47l0.09-0.53l-0.09-0.53l-0.27-0.47l-0.41-0.35l-0.51-0.19h-0.55l-0.5,0.19L1217.28,582.46l0.4,0.71v0.58l0.37,0.45l0.57,0.09l0.51-0.28l0.2-0.55l-0.2-0.55l-0.51-0.29l-0.57,0.1l0.43,0.74"/>
<path style="&st15;" d="M1133.49,583.46h84.99"/>
<path style="&st10;" d="M1224.85,604.7c0-2.34-1.9-4.24-4.25-4.24"/>
<path style="&st10;" d="M1220.6,608.95c2.35,0,4.25-1.9,4.25-4.25"/>
<path style="&st10;" d="M1212.1,604.7c0,2.35,1.91,4.25,4.25,4.25"/>
<path style="&st10;" d="M1216.35,600.46c-2.34,0-4.25,1.9-4.25,4.24"/>
<path style="&st10;" d="M1135.62,566.46c2.34,0,4.25-1.9,4.25-4.25"/>
<path style="&st10;" d="M1139.87,562.21c0-2.34-1.91-4.25-4.25-4.25"/>
<path style="&st10;" d="M1224.85,562.21c0-2.34-1.9-4.25-4.25-4.25"/>
<path style="&st10;" d="M1220.6,566.46c2.35,0,4.25-1.9,4.25-4.25"/>
<path style="&st10;" d="M1212.1,562.21c0,2.35,1.91,4.25,4.25,4.25"/>
<path style="&st10;" d="M1216.35,557.96c-2.34,0-4.25,1.91-4.25,4.25"/>
<path style="&st10;" d="M1131.37,557.96c-2.35,0-4.25,1.91-4.25,4.25"/>
<path style="&st10;" d="M1127.12,562.21c0,2.35,1.9,4.25,4.25,4.25"/>
<path style="&st10;" d="M1131.37,600.46c-2.35,0-4.25,1.9-4.25,4.24"/>
<path style="&st10;" d="M1127.12,604.7c0,2.35,1.9,4.25,4.25,4.25"/>
<path style="&st10;" d="M1135.62,608.95c2.34,0,4.25-1.9,4.25-4.25"/>
<path style="&st10;" d="M1139.87,604.7c0-2.34-1.91-4.24-4.25-4.24"/>
<text transform="matrix(1 0 0 1 1201.8335 564.1763)" style="&st9;"><tspan x="0" y="0" style="&st26; &st17;">33</tspan></text>
<text transform="matrix(1 0 0 1 1214.1733 564.1763)" style="&st9;"><tspan x="0" y="0" style="&st26; &st17;">4B</tspan></text>
<text transform="matrix(1 0 0 1 1129.1831 564.1763)" style="&st9;"><tspan x="0" y="0" style="&st26; &st17;">4B</tspan></text>
<text transform="matrix(1 0 0 1 1116.853 564.1763)" style="&st9;"><tspan x="0" y="0" style="&st26; &st17;">22</tspan></text>
<text transform="matrix(1 0 0 1 1214.1733 606.6665)" style="&st9;"><tspan x="0" y="0" style="&st26; &st17;">4A</tspan></text>
<text transform="matrix(1 0 0 1 1201.8335 606.6665)" style="&st9;"><tspan x="0" y="0" style="&st26; &st17;">68</tspan></text>
<text transform="matrix(1 0 0 1 1129.1831 606.6665)" style="&st9;"><tspan x="0" y="0" style="&st26; &st17;">4B</tspan></text>
<text transform="matrix(1 0 0 1 1116.853 606.6665)" style="&st9;"><tspan x="0" y="0" style="&st26; &st17;">23</tspan></text>
</g>
<g ewd:code="G5" ewd:figID="203" ewd:figtype="gp">
<path style="&st15;" d="M1217.06,713.77h2.83"/>
<path style="&st15;" d="M1215.64,710.94h5.67"/>
<path style="&st15;" d="M1214.23,708.1h8.5"/>
<path style="&st15;" d="M1209.98,705.27h17"/>
<path style="&st15;" d="M1218.48,701.02v4.25"/>
</g>
<g ewd:code="R1" ewd:figID="204" ewd:figtype="gp">
<path style="&st15;" d="M1277.97,701.02v4.25"/>
<path style="&st15;" d="M1269.47,705.27h17"/>
<path style="&st15;" d="M1273.72,708.1h8.5"/>
<path style="&st15;" d="M1275.13,710.94h5.67"/>
<path style="&st15;" d="M1276.55,713.77h2.83"/>
</g>
<g ewd:code="G112" ewd:figID="23" ewd:figtype="conn">
<path style="&st10;" d="M1133.49,482.89l5.67-22.66"/>
<path style="&st15;" d="M1133.49,498.47v-12.75"/>
<path style="&st15;" d="M1133.49,460.23v-12.75"/>
<path style="&st10;" d="M1116.49,447.48v50.99h34v-50.99H1116.49"/>
<path style="&st15;" d="M1134.91,484.31c0-0.78-0.64-1.42-1.42-1.42"/>
<path style="&st15;" d="M1133.49,482.89c-0.78,0-1.42,0.64-1.42,1.42"/>
<path style="&st15;" d="M1132.07,484.31c0,0.78,0.64,1.41,1.42,1.41"/>
<path style="&st15;" d="M1133.49,485.72c0.78,0,1.42-0.63,1.42-1.41"/>
<path style="&st15;" d="M1134.91,461.65c0-0.79-0.64-1.42-1.42-1.42"/>
<path style="&st15;" d="M1133.49,460.23c-0.78,0-1.42,0.63-1.42,1.42"/>
<path style="&st15;" d="M1132.07,461.65c0,0.78,0.64,1.41,1.42,1.41"/>
<path style="&st15;" d="M1133.49,463.06c0.78,0,1.42-0.63,1.42-1.41"/>
<text transform="matrix(0 -1 1 0 1105.6929 500.9966)" style="&st9;"><tspan x="0" y="0" style="&st26; &st17;">G112</tspan></text>
<text ewd:textID="21" transform="matrix(0 -1 1 0 1112.8032 500.9966)" style="&st9; &st26; &st17;">No. 2 Absorber Control Switch</text>
<text transform="matrix(1 0 0 1 1126.7026 443.7856)" style="&st9;"><tspan x="0" y="0" style="&st26; &st17;">8</tspan></text>
<text transform="matrix(1 0 0 1 1126.7026 506.6665)" style="&st9;"><tspan x="0" y="0" style="&st26; &st17;">5</tspan></text>
<text transform="matrix(1 0 0 1 1136.3228 494.7759)" style="&st9;"><tspan x="0" y="0" style="&st26; &st17;">E</tspan></text>
<text transform="matrix(1 0 0 1 1136.3228 455.6665)" style="&st9;"><tspan x="0" y="0" style="&st26; &st17;">N</tspan></text>
</g>
<g ewd:code="G113" ewd:figID="24" ewd:figtype="conn">
<path style="&st15;" d="M1218.48,498.47v-16.99"/>
<path style="&st10;" d="M1218.48,461.65v16.99"/>
<path style="&st10;" d="M1184.48,447.48v50.99h67.99v-50.99H1184.48"/>
<path style="&st15;" d="M1201.48,447.48v18.41h7.08"/>
<path style="&st15;" d="M1235.47,447.48v18.41h-7.08"/>
<path style="&st15;" d="M1228.39,465.89c0-0.78-0.63-1.41-1.41-1.41"/>
<path style="&st15;" d="M1226.98,464.48c-0.79,0-1.42,0.63-1.42,1.41"/>
<path style="&st15;" d="M1225.56,465.89c0,0.79,0.63,1.42,1.42,1.42"/>
<path style="&st15;" d="M1226.98,467.31c0.78,0,1.41-0.63,1.41-1.42"/>
<path style="&st15;" d="M1211.39,465.89c0-0.78-0.63-1.41-1.41-1.41"/>
<path style="&st15;" d="M1209.98,464.48c-0.78,0-1.42,0.63-1.42,1.41"/>
<path style="&st15;" d="M1208.56,465.89c0,0.79,0.64,1.42,1.42,1.42"/>
<path style="&st15;" d="M1209.98,467.31c0.78,0,1.41-0.63,1.41-1.42"/>
<path style="&st15;" d="M1219.89,480.06c0-0.78-0.63-1.42-1.41-1.42"/>
<path style="&st15;" d="M1218.48,478.64c-0.79,0-1.42,0.64-1.42,1.42"/>
<path style="&st15;" d="M1217.06,480.06c0,0.78,0.63,1.42,1.42,1.42"/>
<path style="&st15;" d="M1218.48,481.48c0.78,0,1.41-0.64,1.41-1.42"/>
<text transform="matrix(1 0 0 1 1211.6929 506.6665)" style="&st9;"><tspan x="0" y="0" style="&st26; &st17;">4</tspan></text>
<text transform="matrix(0 -1 1 0 1173.6831 500.9966)" style="&st9;"><tspan x="0" y="0" style="&st26; &st17;">G113</tspan></text>
<text ewd:textID="3" transform="matrix(0 -1 1 0 1180.7935 500.9966)" style="&st9; &st26; &st17;">Absorber Control Switch</text>
<text transform="matrix(1 0 0 1 1221.313 494.7759)" style="&st9;"><tspan x="0" y="0" style="&st26; &st17;">E</tspan></text>
<text transform="matrix(1 0 0 1 1194.6929 443.7856)" style="&st9;"><tspan x="0" y="0" style="&st26; &st17;">2</tspan></text>
<text transform="matrix(1 0 0 1 1228.6929 443.7856)" style="&st9;"><tspan x="0" y="0" style="&st26; &st17;">3</tspan></text>
<text transform="matrix(1 0 0 1 1204.313 455.6665)" style="&st9;"><tspan x="0" y="0" style="&st26; &st17;">LO</tspan></text>
<text transform="matrix(1 0 0 1 1238.313 455.6665)" style="&st9;"><tspan x="0" y="0" style="&st26; &st17;">HI</tspan></text>
<text ewd:textID="18" transform="matrix(0 -1 1 0 1197.7827 479.4761)" style="&st9; &st26; &st17;">Low</text>
<text ewd:textID="16" transform="matrix(0 -1 1 0 1243.1128 480.146)" style="&st9; &st26; &st17;">High</text>
</g>
<g ewd:code="G106" ewd:figID="25" ewd:figtype="conn">
<path style="&st10;" d="M1209.98,659.95v16.99h17v-16.99H1209.98"/>
<path style="&st15;" d="M1218.48,659.95v25.49"/>
<text ewd:textID="17" transform="matrix(1 0 0 1 1230.1226 668.9966)" style="&st9; &st26; &st17;">Junction <tspan x="0" y="7">Connector</tspan></text>
<text transform="matrix(1 0 0 1 1230.1226 661.8862)" style="&st9;"><tspan x="0" y="0" style="&st26; &st17;">G106</tspan></text>
<text transform="matrix(1 0 0 1 1211.6929 656.2563)" style="&st9;"><tspan x="0" y="0" style="&st26; &st17;">3</tspan></text>
</g>
<g ewd:code="A13" ewd:figID="26" ewd:figtype="conn">
<path style="&st10;" d="M1388.45,455.98v33.99h101.98v-33.99H1388.45"/>
<text ewd:textID="11" transform="matrix(1 0 0 1 1385.9233 504.686)" style="&st9; &st26; &st17;">Front Acceleration Sensor Assembly</text>
<text transform="matrix(1 0 0 1 1385.9233 497.5757)" style="&st9;"><tspan x="0" y="0" style="&st26; &st17;">A13</tspan></text>
<text transform="matrix(1 0 0 1 1398.6636 452.2856)" style="&st9;"><tspan x="0" y="0" style="&st26; &st17;">3</tspan></text>
<text transform="matrix(1 0 0 1 1433.4331 452.2856)" style="&st9;"><tspan x="0" y="0" style="&st26; &st17;">1</tspan></text>
<text transform="matrix(1 0 0 1 1466.6528 452.2856)" style="&st9;"><tspan x="0" y="0" style="&st26; &st17;">2</tspan></text>
<text transform="matrix(1 0 0 1 1465.8833 463.606)" style="&st9;"><tspan x="0" y="0" style="&st26; &st17;">SHG</tspan></text>
<text transform="matrix(1 0 0 1 1430.2632 463.606)" style="&st9;"><tspan x="0" y="0" style="&st26; &st17;">SGFL</tspan></text>
<text transform="matrix(1 0 0 1 1398.313 463.606)" style="&st9;"><tspan x="0" y="0" style="&st26; &st17;">SHB</tspan></text>
</g>
<text transform="matrix(0 -1 1 0 1214.7827 527.4165)" style="&st9;"><tspan x="0" y="0" style="&st26; &st17;">W-B</tspan></text>
<text transform="matrix(0 -1 1 0 1129.8032 313.4761)" style="&st9;"><tspan x="0" y="0" style="&st26; &st17;">L</tspan></text>
<text transform="matrix(0 -1 1 0 1197.7827 313.8257)" style="&st9;"><tspan x="0" y="0" style="&st26; &st17;">V</tspan></text>
<text transform="matrix(0 -1 1 0 1231.7827 313.8257)" style="&st9;"><tspan x="0" y="0" style="&st26; &st17;">P</tspan></text>
<text transform="matrix(0 -1 1 0 1129.8032 372.9663)" style="&st9;"><tspan x="0" y="0" style="&st26; &st17;">L</tspan></text>
<text transform="matrix(0 -1 1 0 1197.7827 373.3159)" style="&st9;"><tspan x="0" y="0" style="&st26; &st17;">V</tspan></text>
<text transform="matrix(0 -1 1 0 1231.7827 373.3159)" style="&st9;"><tspan x="0" y="0" style="&st26; &st17;">P</tspan></text>
<text transform="matrix(0 -1 1 0 1214.7827 637.896)" style="&st9;"><tspan x="0" y="0" style="&st26; &st17;">W-B</tspan></text>
<text transform="matrix(0 -1 1 0 1129.8032 527.4165)" style="&st9;"><tspan x="0" y="0" style="&st26; &st17;">W-B</tspan></text>
<text transform="matrix(0 -1 1 0 1274.2729 531.6665)" style="&st9;"><tspan x="0" y="0" style="&st26; &st17;">W-B</tspan></text>
<text transform="matrix(0 -1 1 0 1469.7437 419.8062)" style="&st9;"><tspan x="0" y="0" style="&st26; &st17;">L-Y</tspan></text>
<text transform="matrix(0 -1 1 0 1435.7437 419.9458)" style="&st9;"><tspan x="0" y="0" style="&st26; &st17;">R-L</tspan></text>
<text transform="matrix(0 -1 1 0 1401.7534 420.5854)" style="&st9;"><tspan x="0" y="0" style="&st26; &st17;">G-B</tspan></text>
<text transform="matrix(0 -1 1 0 1469.7437 317.8257)" style="&st9;"><tspan x="0" y="0" style="&st26; &st17;">L-Y</tspan></text>
<text transform="matrix(0 -1 1 0 1401.7534 365.2456)" style="&st9;"><tspan x="0" y="0" style="&st26; &st17;">G</tspan></text>
<text transform="matrix(0 -1 1 0 1435.7437 317.9663)" style="&st9;"><tspan x="0" y="0" style="&st26; &st17;">R-L</tspan></text>
<text transform="matrix(0 -1 1 0 1401.7534 318.5962)" style="&st9;"><tspan x="0" y="0" style="&st26; &st17;">G-B</tspan></text>
<text transform="matrix(0 -1 1 0 1435.7437 364.9663)" style="&st9;"><tspan x="0" y="0" style="&st26; &st17;">R</tspan></text>
<text transform="matrix(0 -1 1 0 1469.7437 364.4663)" style="&st9;"><tspan x="0" y="0" style="&st26; &st17;">L</tspan></text>
<text transform="matrix(0 -1 1 0 1129.8032 637.896)" style="&st9;"><tspan x="0" y="0" style="&st26; &st17;">W-B</tspan></text>
<text transform="matrix(1 0 0 1 1006.813 664.7466)" style="&st9;"><tspan x="0" y="0" style="&st26; &st17;">W-B</tspan></text>
<text transform="matrix(1 0 0 1 1057.8032 664.7466)" style="&st9;"><tspan x="0" y="0" style="&st26; &st17;">W-B</tspan></text>
</svg>
