﻿<?xml version="1.0" encoding="UTF-8"?>
<!DOCTYPE svg PUBLIC "-//W3C//DTD SVG 1.0//EN" "http://www.w3.org/TR/2001/REC-SVG-20010904/DTD/svg10.dtd"[
<!ENTITY ns_flows "http://ns.adobe.com/Flows/1.0/">
<!ENTITY ns_svg "http://www.w3.org/2000/svg">
<!ENTITY ns_xlink "http://www.w3.org/1999/xlink">
	<!ENTITY st0 "fill:none;stroke:#FB0F0C;stroke-width:5.1;stroke-linejoin:round;">
	<!ENTITY st1 "fill:none;stroke:#9A9999;stroke-width:5.1;stroke-linejoin:round;">
	<!ENTITY st2 "fill:none;stroke:#99280B;stroke-width:5.1;stroke-linejoin:round;">
		<!ENTITY st3 "fill:none;stroke:#000000;stroke-width:0.85;stroke-linecap:round;stroke-linejoin:round;stroke-dasharray:3 1.5;enable-background:new    ;">
	<!ENTITY st4 "fill:none;stroke:#000000;stroke-width:5.1;stroke-linejoin:round;">
	<!ENTITY st5 "fill:none;stroke:#199DBF;stroke-width:1.13;stroke-linejoin:round;">
	<!ENTITY st6 "fill:none;stroke:#000000;stroke-linecap:round;stroke-linejoin:round;">
	<!ENTITY st7 "fill:none;stroke:#F8E616;stroke-width:1.13;stroke-linejoin:round;">
	<!ENTITY st8 "stroke:#000000;stroke-width:0.28;stroke-linecap:round;stroke-linejoin:round;enable-background:new    ;">
	<!ENTITY st9 "enable-background:new    ;">
		<!ENTITY st10 "fill:none;stroke:#000000;stroke-width:1.42;stroke-linecap:round;stroke-linejoin:round;enable-background:new    ;">
	<!ENTITY st11 "fill:none;stroke:#EE67AA;stroke-width:5.1;stroke-linejoin:round;">
	<!ENTITY st12 "fill:none;stroke:#199DBF;stroke-width:5.1;stroke-linejoin:round;">
	<!ENTITY st13 "opacity:0.5;fill:none;stroke:#34ACCE;stroke-linejoin:round;stroke-dasharray:6;">
	<!ENTITY st14 "fill:none;stroke:#FFFFFF;stroke-width:4.53;stroke-linejoin:round;">
		<!ENTITY st15 "fill:none;stroke:#000000;stroke-width:0.85;stroke-linecap:round;stroke-linejoin:round;enable-background:new    ;">
	<!ENTITY st16 "fill:none;stroke:#56107C;stroke-width:5.1;stroke-linejoin:round;">
	<!ENTITY st17 "font-size:6px;">
	<!ENTITY st18 "fill:none;stroke:#FFFFFF;stroke-width:2.27;stroke-linejoin:round;">
	<!ENTITY st19 "fill:none;stroke:#FB0F0C;stroke-width:1.13;stroke-linejoin:round;">
	<!ENTITY st20 "fill:none;stroke:#168638;stroke-width:5.1;stroke-linejoin:round;">
	<!ENTITY st21 "fill:none;stroke:#000000;stroke-width:1.13;stroke-linejoin:round;">
		<!ENTITY st22 "fill:none;stroke:#000000;stroke-width:1.13;stroke-linecap:round;stroke-linejoin:round;stroke-dasharray:3 1.5;enable-background:new    ;">
	<!ENTITY st23 "fill:#FFFFFF;stroke:#000000;stroke-width:1.41;stroke-linecap:round;stroke-linejoin:round;">
	<!ENTITY st24 "fill:none;stroke:#3E65AC;stroke-width:3;">
	<!ENTITY st25 "fill:#CCCCCC;stroke:#CCCCCC;stroke-width:0.1;stroke-linecap:round;stroke-linejoin:round;">
	<!ENTITY st26 "font-family:'ArialMT';">
	<!ENTITY st27 "fill:none;stroke:#168638;stroke-width:1.13;stroke-linejoin:round;">
	<!ENTITY st28 "opacity:0.5;fill:none;stroke:#34ACCE;stroke-linejoin:round;">
	<!ENTITY st29 "fill:#CFE6E7;stroke:#000000;stroke-width:1.133;stroke-linecap:round;stroke-linejoin:round;">
	<!ENTITY st30 "fill:none;stroke:#99D5E0;stroke-width:5.1;stroke-linejoin:round;">
	<!ENTITY st31 "fill:none;stroke:#7EC57E;stroke-width:5.1;stroke-linejoin:round;">
<!ATTLIST svg
xmlns:ewd CDATA #FIXED "http://shcl.co.jp/ewd"
xmlns:a CDATA #FIXED "http://ns.adobe.com/AdobeSVGViewerExtensions/3.0/"
ewd:ver CDATA #IMPLIED
>
<!ATTLIST a
ewd:lineID CDATA #IMPLIED
ewd:groupID CDATA #IMPLIED
ewd:figtype CDATA #IMPLIED
ewd:code CDATA #IMPLIED
ewd:figID CDATA #IMPLIED
ewd:pinNo CDATA #IMPLIED
ewd:comment CDATA #IMPLIED >
<!ATTLIST g
ewd:lineID CDATA #IMPLIED
ewd:groupID CDATA #IMPLIED
ewd:figtype CDATA #IMPLIED
ewd:code CDATA #IMPLIED
ewd:figID CDATA #IMPLIED
ewd:pinNo CDATA #IMPLIED
ewd:comment CDATA #IMPLIED >
<!ATTLIST text
ewd:textID CDATA #IMPLIED >
<!ATTLIST title
ewd:textID CDATA #IMPLIED >
]>
<svg 
viewBox='0 0 4150.28 729.44'
height='729.44'
width='4150.28'
xml:space="preserve"
xmlns="&ns_svg;"
xmlns:ewd="http://shcl.co.jp/ewd"
xmlns:xlink="&ns_xlink;" ewd:ver="L2.1">
<g ewd:code="GA2" ewd:figID="663" ewd:figtype="w2w" ewd:pinNo="14">
<path style="&st10;" d="M3081.15,464.48h-8.49"/>
<path style="&st10;" d="M3076.9,473.54l-4.25-4.25l-4.24,4.25"/>
<path style="&st10;" d="M3076.9,470.14l-4.25-4.25l-4.24,4.25"/>
<text transform="matrix(1 0 0 1 3054.4893 462.1958)" style="&st9;"><tspan x="0" y="0" style="&st26; &st17;">14</tspan></text>
</g>
<g ewd:code="GA2" ewd:figID="662" ewd:figtype="w2w" ewd:pinNo="13">
<path style="&st10;" d="M3047.16,464.48h-8.5"/>
<path style="&st10;" d="M3042.91,473.54l-4.25-4.25l-4.25,4.25"/>
<path style="&st10;" d="M3042.91,470.14l-4.25-4.25l-4.25,4.25"/>
<text transform="matrix(1 0 0 1 3020.4893 462.1958)" style="&st9;"><tspan x="0" y="0" style="&st26; &st17;">13</tspan></text>
</g>
<g ewd:code="G95" ewd:figID="36" ewd:figtype="conn">
<path style="&st10;" d="M3030.16,387.99v17h50.99v-17H3030.16"/>
<path style="&st15;" d="M3038.66,404.99v-17"/>
<path style="&st15;" d="M3072.65,404.99v-17"/>
<text transform="matrix(1 0 0 1 3062.6924 384.2954)" style="&st9;"><tspan x="0" y="0" style="&st26; &st17;">12</tspan></text>
<text transform="matrix(1 0 0 1 3032.6533 384.2954)" style="&st9;"><tspan x="0" y="0" style="&st26; &st17;">1</tspan></text>
<text transform="matrix(1 0 0 1 3062.6924 413.1763)" style="&st9;"><tspan x="0" y="0" style="&st26; &st17;">14</tspan></text>
<text transform="matrix(1 0 0 1 3031.874 413.1763)" style="&st9;"><tspan x="0" y="0" style="&st26; &st17;">3</tspan></text>
<text transform="matrix(0 -1 1 0 3088.7725 407.5063)" style="&st9;"><tspan x="0" y="0" style="&st26; &st17;">G95</tspan></text>
<text ewd:textID="17" transform="matrix(0 -1 1 0 3095.874 407.5063)" style="&st9; &st26; &st17;">Junction <tspan x="0" y="7">Connector</tspan></text>
</g>
<g ewd:code="G98" ewd:figID="9" ewd:figtype="conn">
<path style="&st10;" d="M3030.16,320v17h50.99v-17H3030.16"/>
<path style="&st15;" d="M3038.66,337v-17"/>
<path style="&st15;" d="M3072.65,337v-17"/>
<text transform="matrix(1 0 0 1 3062.6924 316.3057)" style="&st9;"><tspan x="0" y="0" style="&st26; &st17;">13</tspan></text>
<text transform="matrix(1 0 0 1 3031.874 316.3057)" style="&st9;"><tspan x="0" y="0" style="&st26; &st17;">2</tspan></text>
<text transform="matrix(1 0 0 1 3062.6924 345.1855)" style="&st9;"><tspan x="0" y="0" style="&st26; &st17;">12</tspan></text>
<text transform="matrix(1 0 0 1 3032.6533 345.1855)" style="&st9;"><tspan x="0" y="0" style="&st26; &st17;">1</tspan></text>
<text transform="matrix(0 -1 1 0 3088.7725 339.5156)" style="&st9;"><tspan x="0" y="0" style="&st26; &st17;">G98</tspan></text>
<text ewd:textID="17" transform="matrix(0 -1 1 0 3095.874 339.5156)" style="&st9; &st26; &st17;">Junction <tspan x="0" y="7">Connector</tspan></text>
</g>
<g ewd:code="A73" ewd:figID="37" ewd:figtype="conn">
<path style="&st10;" d="M3030.16,523.97v17h50.99v-17H3030.16"/>
<path style="&st15;" d="M3038.66,540.97v-17"/>
<path style="&st15;" d="M3072.65,540.97v-17"/>
<text transform="matrix(1 0 0 1 3062.6924 520.2759)" style="&st9;"><tspan x="0" y="0" style="&st26; &st17;">13</tspan></text>
<text transform="matrix(1 0 0 1 3031.874 520.2759)" style="&st9;"><tspan x="0" y="0" style="&st26; &st17;">2</tspan></text>
<text transform="matrix(1 0 0 1 3062.6924 549.1548)" style="&st9;"><tspan x="0" y="0" style="&st26; &st17;">14</tspan></text>
<text transform="matrix(1 0 0 1 3031.874 549.1548)" style="&st9;"><tspan x="0" y="0" style="&st26; &st17;">3</tspan></text>
<text transform="matrix(0 -1 1 0 3088.7725 543.4849)" style="&st9;"><tspan x="0" y="0" style="&st26; &st17;">A73</tspan></text>
<text ewd:textID="17" transform="matrix(0 -1 1 0 3095.874 543.4849)" style="&st9; &st26; &st17;">Junction Connector</text>
</g>
<g ewd:code="A54" ewd:figID="38" ewd:figtype="conn">
<path style="&st15;" d="M3289.37,468.73h-8.5"/>
<path style="&st15;" d="M3295.84,464.48l0.47-0.2v0.39L3295.84,464.48h-0.74l1.49-0.62v1.24l-1.49-0.62h-1.48l3.54-1.47v2.94l-3.54-1.47"/>
<path style="&st8;" d="M3285.12,468.73l-5.67-8.5h11.33L3285.12,468.73"/>
<path style="&st15;" d="M3293.62,481.48v59.49h263.45v-93.49h-33.99"/>
<path style="&st15;" d="M3319.11,506.97v-8.5l-2.83-1.41l5.67-2.84l-5.67-2.83l5.67-2.83l-5.67-2.84l5.67-2.83l-2.84-1.41v-17h-9.91"/>
<path style="&st15;" d="M3292.43,474.1l-0.28,0.47l-0.09,0.53l0.09,0.53l0.28,0.47l0.41,0.35l0.51,0.19h0.54l0.51-0.19l0.41-0.35l0.27-0.47l0.1-0.53l-0.1-0.53l-0.27-0.47l-0.41-0.35l-0.51-0.18h-0.54l-0.51,0.18L3292.43,474.1l0.39,0.71v0.58l0.37,0.45l0.57,0.1l0.51-0.29l0.2-0.55l-0.2-0.55l-0.51-0.28l-0.57,0.1l0.43,0.73"/>
<path style="&st15;" d="M3292.43,452.85l-0.28,0.47l-0.09,0.54l0.09,0.53l0.28,0.47l0.41,0.34l0.51,0.19h0.54l0.51-0.19l0.41-0.34l0.27-0.47l0.1-0.53l-0.1-0.54l-0.27-0.47l-0.41-0.34l-0.51-0.19h-0.54l-0.51,0.19L3292.43,452.85l0.39,0.71v0.59l0.37,0.44l0.57,0.1l0.51-0.29l0.2-0.54l-0.2-0.55l-0.51-0.29l-0.57,0.1l0.43,0.74"/>
<path style="&st15;" d="M3293.62,464.48h9.91"/>
<path style="&st15;" d="M3293.62,430.48v23.38"/>
<path style="&st15;" d="M3303.53,453.86h-18.41v21.24h18.41"/>
<path style="&st15;" d="M3293.62,464.48v17"/>
<path style="&st15;" d="M3303.53,471.56v7.08"/>
<path style="&st15;" d="M3303.53,460.94v7.08"/>
<path style="&st15;" d="M3303.53,450.31v7.09"/>
<path style="&st15;" d="M3309.2,450.31v28.33"/>
<path style="&st15;" d="M3521.89,531.46l-0.28,0.47l-0.09,0.54l0.09,0.53l0.28,0.47l0.41,0.35l0.51,0.18h0.54l0.51-0.18l0.41-0.35l0.27-0.47l0.1-0.53l-0.1-0.54l-0.27-0.47l-0.41-0.34l-0.51-0.19h-0.54l-0.51,0.19L3521.89,531.46l0.39,0.72v0.58l0.37,0.44l0.58,0.1l0.5-0.29l0.2-0.54l-0.2-0.55l-0.5-0.29l-0.58,0.1l0.43,0.74"/>
<path style="&st15;" d="M3428.4,471.97l-0.27,0.47l-0.09,0.54l0.09,0.53l0.27,0.47l0.42,0.35l0.51,0.18h0.53l0.51-0.18l0.42-0.35l0.27-0.47l0.09-0.53l-0.09-0.54l-0.27-0.47l-0.42-0.34l-0.51-0.19h-0.53l-0.51,0.19L3428.4,471.97l0.4,0.72v0.58l0.37,0.44l0.57,0.1l0.51-0.29l0.19-0.54l-0.19-0.55l-0.51-0.29l-0.57,0.1l0.42,0.74"/>
<path style="&st15;" d="M3385.91,463.48l-0.27,0.47l-0.1,0.53l0.1,0.53l0.27,0.47l0.41,0.35l0.51,0.18h0.54l0.51-0.18l0.41-0.35l0.28-0.47l0.09-0.53l-0.09-0.53l-0.28-0.47l-0.41-0.35l-0.51-0.19h-0.54l-0.51,0.19L3385.91,463.48l0.39,0.71v0.58l0.38,0.44l0.57,0.1l0.5-0.28l0.2-0.55l-0.2-0.55l-0.5-0.29l-0.57,0.1l0.42,0.74"/>
<path style="&st15;" d="M3521.89,463.48l-0.28,0.47l-0.09,0.53l0.09,0.53l0.28,0.47l0.41,0.35l0.51,0.18h0.54l0.51-0.18l0.41-0.35l0.27-0.47l0.1-0.53l-0.1-0.53l-0.27-0.47l-0.41-0.35l-0.51-0.19h-0.54l-0.51,0.19L3521.89,463.48l0.39,0.71v0.58l0.37,0.44l0.58,0.1l0.5-0.28l0.2-0.55l-0.2-0.55l-0.5-0.29l-0.58,0.1l0.43,0.74"/>
<path style="&st15;" d="M3343.42,454.98l-0.28,0.47l-0.09,0.53l0.09,0.53l0.28,0.47l0.41,0.35l0.51,0.19h0.54l0.51-0.19l0.41-0.35l0.27-0.47l0.1-0.53l-0.1-0.53l-0.27-0.47l-0.41-0.35l-0.51-0.19h-0.54l-0.51,0.19L3343.42,454.98l0.39,0.71v0.58l0.37,0.45l0.58,0.1l0.5-0.29l0.2-0.55l-0.2-0.55l-0.5-0.29l-0.58,0.1l0.43,0.74"/>
<path style="&st10;" d="M3268.12,430.48v127.48h297.45V430.48H3268.12"/>
<path style="&st10;" d="M3310.61,506.97v17h220.97v-17H3310.61"/>
<path style="&st15;" d="M3523.08,506.97v-8.5l-2.83-1.41l5.66-2.84l-5.66-2.83l5.66-2.83l-5.66-2.84l5.66-2.83l-2.83-1.41v-51"/>
<path style="&st15;" d="M3429.59,506.97v-8.5l-2.83-1.41l5.67-2.84l-5.67-2.83l5.67-2.83l-5.67-2.84l5.67-2.83l-2.84-1.41v-51"/>
<path style="&st15;" d="M3387.1,506.97v-8.5l-2.83-1.41l5.66-2.84l-5.66-2.83l5.66-2.83l-5.66-2.84l5.66-2.83l-2.83-1.41v-51"/>
<path style="&st15;" d="M3344.61,506.97v-8.5l-2.83-1.41l5.66-2.84l-5.66-2.83l5.66-2.83l-5.66-2.84l5.66-2.83l-2.83-1.41v-51"/>
<path style="&st15;" d="M3523.08,523.97v33.99"/>
<path style="&st15;" d="M3387.1,464.48h135.98"/>
<path style="&st15;" d="M3344.61,455.98h84.98"/>
<path style="&st15;" d="M3429.59,472.98h118.98v59.49h-25.49"/>
<path style="&st15;" d="M3521.89,446.48l-0.28,0.47l-0.09,0.53l0.09,0.53l0.28,0.47l0.41,0.35l0.51,0.19h0.54l0.51-0.19l0.41-0.35l0.27-0.47l0.1-0.53l-0.1-0.53l-0.27-0.47l-0.41-0.35l-0.51-0.18h-0.54l-0.51,0.18L3521.89,446.48l0.39,0.71v0.58l0.37,0.45l0.58,0.1l0.5-0.29l0.2-0.55l-0.2-0.55l-0.5-0.28l-0.58,0.09l0.43,0.74"/>
<path style="&st15;" d="M3428.4,454.98l-0.27,0.47l-0.09,0.53l0.09,0.53l0.27,0.47l0.42,0.35l0.51,0.19h0.53l0.51-0.19l0.42-0.35l0.27-0.47l0.09-0.53l-0.09-0.53l-0.27-0.47l-0.42-0.35l-0.51-0.19h-0.53l-0.51,0.19L3428.4,454.98l0.4,0.71v0.58l0.37,0.45l0.57,0.1l0.51-0.29l0.19-0.55l-0.19-0.55l-0.51-0.29l-0.57,0.1l0.42,0.74"/>
<text transform="matrix(1 0 0 1 3417.6436 517.436)" style="&st9;"><tspan x="0" y="0" style="&st26; &st17;">IC</tspan></text>
<text transform="matrix(1 0 0 1 3325.8135 438.6763)" style="&st9;"><tspan x="0" y="0" style="&st26; &st17;">ESSI</tspan></text>
<text transform="matrix(1 0 0 1 3369.7236 438.6763)" style="&st9;"><tspan x="0" y="0" style="&st26; &st17;">ACC</tspan></text>
<text transform="matrix(1 0 0 1 3413.2041 438.6763)" style="&st9;"><tspan x="0" y="0" style="&st26; &st17;">STP</tspan></text>
<text transform="matrix(1 0 0 1 3511.5635 438.6763)" style="&st9;"><tspan x="0" y="0" style="&st26; &st17;">+B</tspan></text>
<text transform="matrix(1 0 0 1 3516.2939 426.7856)" style="&st9;"><tspan x="0" y="0" style="&st26; &st17;">6</tspan></text>
<text transform="matrix(1 0 0 1 3504.8525 554.2661)" style="&st9;"><tspan x="0" y="0" style="&st26; &st17;">GND</tspan></text>
<text transform="matrix(1 0 0 1 3299.5928 565.5649)" style="&st9;"><tspan x="0" y="0" style="&st26; &st17;">A54</tspan></text>
<text ewd:textID="32" transform="matrix(1 0 0 1 3299.5928 572.6763)" style="&st9; &st26; &st17;">Stop Light Control Relay Assembly</text>
<text transform="matrix(1 0 0 1 3337.8232 426.7856)" style="&st9;"><tspan x="0" y="0" style="&st26; &st17;">4</tspan></text>
<text transform="matrix(1 0 0 1 3380.3135 426.7856)" style="&st9;"><tspan x="0" y="0" style="&st26; &st17;">9</tspan></text>
<text transform="matrix(1 0 0 1 3516.2939 566.1548)" style="&st9;"><tspan x="0" y="0" style="&st26; &st17;">8</tspan></text>
<text transform="matrix(1 0 0 1 3422.8135 426.7856)" style="&st9;"><tspan x="0" y="0" style="&st26; &st17;">5</tspan></text>
<text transform="matrix(1 0 0 1 3287.6123 426.7856)" style="&st9;"><tspan x="0" y="0" style="&st26; &st17;">1</tspan></text>
<text transform="matrix(1 0 0 1 3276.0928 438.6763)" style="&st9;"><tspan x="0" y="0" style="&st26; &st17;">OUT</tspan></text>
</g>
<g ewd:code="A68" ewd:figID="11" ewd:figtype="conn">
<path style="&st15;" d="M3293.62,370.99V354"/>
<path style="&st10;" d="M3285.12,354h17v16.99h-17V354"/>
<text transform="matrix(0 -1 1 0 3268.374 373.5161)" style="&st9;"><tspan x="0" y="0" style="&st26; &st17;">A68</tspan></text>
<text ewd:textID="17" transform="matrix(0 -1 1 0 3275.4834 373.5161)" style="&st9; &st26; &st17;">Junction <tspan x="0" y="7">Connector</tspan></text>
<text transform="matrix(1 0 0 1 3287.6123 379.186)" style="&st9;"><tspan x="0" y="0" style="&st26; &st17;">1</tspan></text>
<text transform="matrix(1 0 0 1 3286.833 350.3057)" style="&st9;"><tspan x="0" y="0" style="&st26; &st17;">2</tspan></text>
</g>
<g ewd:code="A66" ewd:figID="12" ewd:figtype="conn">
<path style="&st15;" d="M3293.62,294.51v-17"/>
<path style="&st10;" d="M3285.12,277.51h17v17h-17V277.51"/>
<text transform="matrix(1 0 0 1 3286.833 302.6958)" style="&st9;"><tspan x="0" y="0" style="&st26; &st17;">3</tspan></text>
<text transform="matrix(1 0 0 1 3287.6123 273.8154)" style="&st9;"><tspan x="0" y="0" style="&st26; &st17;">1</tspan></text>
<text ewd:textID="17" transform="matrix(0 -1 1 0 3275.4834 297.0254)" style="&st9; &st26; &st17;">Junction <tspan x="0" y="7">Connector</tspan></text>
<text transform="matrix(0 -1 1 0 3268.374 297.0254)" style="&st9;"><tspan x="0" y="0" style="&st26; &st17;">A66</tspan></text>
</g>
<g ewd:code="A65" ewd:figID="13" ewd:figtype="conn">
<path style="&st10;" d="M3421.1,362.5h59.49v16.99h-59.49V362.5"/>
<path style="&st15;" d="M3429.59,379.49V362.5"/>
<path style="&st15;" d="M3429.59,370.99h42.5v-8.49"/>
<path style="&st15;" d="M3428.4,369.99l-0.27,0.47l-0.09,0.53l0.09,0.54l0.27,0.47l0.42,0.34l0.51,0.19h0.53l0.51-0.19l0.42-0.34l0.27-0.47l0.09-0.54l-0.09-0.53l-0.27-0.47l-0.42-0.34l-0.51-0.19h-0.53l-0.51,0.19L3428.4,369.99l0.4,0.71v0.59l0.37,0.44l0.57,0.1l0.51-0.29l0.19-0.55l-0.19-0.54l-0.51-0.29l-0.57,0.1l0.42,0.73"/>
<text transform="matrix(1 0 0 1 3422.8135 387.686)" style="&st9;"><tspan x="0" y="0" style="&st26; &st17;">7</tspan></text>
<text transform="matrix(1 0 0 1 3422.8135 358.8057)" style="&st9;"><tspan x="0" y="0" style="&st26; &st17;">9</tspan></text>
<text transform="matrix(1 0 0 1 3465.3037 358.8057)" style="&st9;"><tspan x="0" y="0" style="&st26; &st17;">8</tspan></text>
<text ewd:textID="17" transform="matrix(1 0 0 1 3444.0732 394.2056)" style="&st9; &st26; &st17;">Junction <tspan x="0" y="7">Connector</tspan></text>
<text transform="matrix(1 0 0 1 3444.0732 387.0962)" style="&st9;"><tspan x="0" y="0" style="&st26; &st17;">A65</tspan></text>
</g>
<g ewd:code="A5" ewd:figID="14" ewd:figtype="conn">
<path style="&st15;" d="M3472.09,273.26v-4.25"/>
<path style="&st10;" d="M3472.09,295.92l5.66-22.66"/>
<path style="&st15;" d="M3472.09,303.01v-4.25"/>
<path style="&st10;" d="M3480.59,303.01v-34h-17v34H3480.59"/>
<path style="&st15;" d="M3473.51,274.68c0-0.79-0.64-1.42-1.42-1.42"/>
<path style="&st15;" d="M3472.09,273.26c-0.78,0-1.42,0.63-1.42,1.42"/>
<path style="&st15;" d="M3470.67,274.68c0,0.78,0.64,1.41,1.42,1.41"/>
<path style="&st15;" d="M3472.09,276.09c0.78,0,1.42-0.63,1.42-1.41"/>
<path style="&st15;" d="M3473.51,297.34c0-0.78-0.64-1.42-1.42-1.42"/>
<path style="&st15;" d="M3472.09,295.92c-0.78,0-1.42,0.64-1.42,1.42"/>
<path style="&st15;" d="M3470.67,297.34c0,0.78,0.64,1.42,1.42,1.42"/>
<path style="&st15;" d="M3472.09,298.76c0.78,0,1.42-0.64,1.42-1.42"/>
<text transform="matrix(0 -1 1 0 3452.7939 305.5254)" style="&st9;"><tspan x="0" y="0" style="&st26; &st17;">A5</tspan></text>
<text ewd:textID="33" transform="matrix(0 -1 1 0 3459.8936 305.5254)" style="&st9; &st26; &st17;">Stop Light Switch Assembly</text>
<text transform="matrix(1 0 0 1 3465.3037 265.3154)" style="&st9;"><tspan x="0" y="0" style="&st26; &st17;">2</tspan></text>
<text transform="matrix(1 0 0 1 3466.083 311.1958)" style="&st9;"><tspan x="0" y="0" style="&st26; &st17;">1</tspan></text>
</g>
<g ewd:code="A7" ewd:figID="10" ewd:figtype="conn">
<path style="&st10;" d="M3174.64,167.03h271.95v-50.99h-271.95V167.03"/>
<text transform="matrix(1 0 0 1 3182.3838 163.3257)" style="&st9;"><tspan x="0" y="0" style="&st26; &st17;">CANL</tspan></text>
<text transform="matrix(1 0 0 1 3215.8838 163.3257)" style="&st9;"><tspan x="0" y="0" style="&st26; &st17;">CANH</tspan></text>
<text transform="matrix(1 0 0 1 3216.4424 175.2158)" style="&st9;"><tspan x="0" y="0" style="&st26; &st17;">11</tspan></text>
<text transform="matrix(1 0 0 1 3180.8936 175.2158)" style="&st9;"><tspan x="0" y="0" style="&st26; &st17;">25</tspan></text>
<text transform="matrix(1 0 0 1 3422.8135 163.3257)" style="&st9;"><tspan x="0" y="0" style="&st26; &st17;">STP</tspan></text>
<text transform="matrix(1 0 0 1 3337.1924 163.3257)" style="&st9;"><tspan x="0" y="0" style="&st26; &st17;">EXO</tspan></text>
<text transform="matrix(1 0 0 1 3377.5732 163.3257)" style="&st9;"><tspan x="0" y="0" style="&st26; &st17;">STPO</tspan></text>
<text transform="matrix(1 0 0 1 3284.8623 163.3257)" style="&st9;"><tspan x="0" y="0" style="&st26; &st17;">STP2</tspan></text>
<text transform="matrix(1 0 0 1 3422.8135 175.2158)" style="&st9;"><tspan x="0" y="0" style="&st26; &st17;">7</tspan></text>
<text transform="matrix(1 0 0 1 3377.1436 175.2158)" style="&st9;"><tspan x="0" y="0" style="&st26; &st17;">16</tspan></text>
<text transform="matrix(1 0 0 1 3333.874 175.2158)" style="&st9;"><tspan x="0" y="0" style="&st26; &st17;">42</tspan></text>
<text transform="matrix(1 0 0 1 3282.874 175.2158)" style="&st9;"><tspan x="0" y="0" style="&st26; &st17;">45</tspan></text>
<text transform="matrix(1 0 0 1 3295.5127 123.6655)" style="&st9;"><tspan x="0" y="0" style="&st26; &st17;">FR-</tspan></text>
<text transform="matrix(1 0 0 1 3321.0127 123.6655)" style="&st9;"><tspan x="0" y="0" style="&st26; &st17;">FR+</tspan></text>
<text transform="matrix(1 0 0 1 3397.1436 123.6655)" style="&st9;"><tspan x="0" y="0" style="&st26; &st17;">RR-</tspan></text>
<text transform="matrix(1 0 0 1 3422.6436 123.6655)" style="&st9;"><tspan x="0" y="0" style="&st26; &st17;">RR+</tspan></text>
<text transform="matrix(1 0 0 1 3346.6533 123.6655)" style="&st9;"><tspan x="0" y="0" style="&st26; &st17;">RL-</tspan></text>
<text transform="matrix(1 0 0 1 3372.1436 123.6655)" style="&st9;"><tspan x="0" y="0" style="&st26; &st17;">RL+</tspan></text>
<text transform="matrix(1 0 0 1 3245.0225 123.6655)" style="&st9;"><tspan x="0" y="0" style="&st26; &st17;">FL-</tspan></text>
<text transform="matrix(1 0 0 1 3270.5127 123.6655)" style="&st9;"><tspan x="0" y="0" style="&st26; &st17;">FL+</tspan></text>
<text transform="matrix(1 0 0 1 3244.3428 112.3457)" style="&st9;"><tspan x="0" y="0" style="&st26; &st17;">4</tspan></text>
<text transform="matrix(1 0 0 1 3266.6533 112.3457)" style="&st9;"><tspan x="0" y="0" style="&st26; &st17;">18</tspan></text>
<text transform="matrix(1 0 0 1 3292.1533 112.3457)" style="&st9;"><tspan x="0" y="0" style="&st26; &st17;">17</tspan></text>
<text transform="matrix(1 0 0 1 3320.8232 112.3457)" style="&st9;"><tspan x="0" y="0" style="&st26; &st17;">3</tspan></text>
<text transform="matrix(1 0 0 1 3346.3232 112.3457)" style="&st9;"><tspan x="0" y="0" style="&st26; &st17;">6</tspan></text>
<text transform="matrix(1 0 0 1 3367.8623 112.3457)" style="&st9;"><tspan x="0" y="0" style="&st26; &st17;">20</tspan></text>
<text transform="matrix(1 0 0 1 3394.1338 112.3457)" style="&st9;"><tspan x="0" y="0" style="&st26; &st17;">19</tspan></text>
<text transform="matrix(1 0 0 1 3422.8135 112.3457)" style="&st9;"><tspan x="0" y="0" style="&st26; &st17;">5</tspan></text>
<text ewd:textID="5" transform="matrix(1 0 0 1 3206.1123 142.0854)" style="&st9; &st26; &st17;">Brake Actuator Assembly</text>
<text transform="matrix(1 0 0 1 3206.1123 134.9756)" style="&st9;"><tspan x="0" y="0" style="&st26; &st17;">A7</tspan></text>
</g>
<text transform="matrix(0 -1 1 0 3468.3936 250.2354)" style="&st9;"><tspan x="0" y="0" style="&st26; &st17;">R</tspan></text>
<text transform="matrix(0 -1 1 0 3289.9229 398.4653)" style="&st9;"><tspan x="0" y="0" style="&st26; &st17;">L</tspan></text>
<text transform="matrix(0 -1 1 0 3289.9229 330.4756)" style="&st9;"><tspan x="0" y="0" style="&st26; &st17;">L</tspan></text>
<text transform="matrix(0 -1 1 0 3468.3936 330.8257)" style="&st9;"><tspan x="0" y="0" style="&st26; &st17;">V</tspan></text>
<text transform="matrix(0 -1 1 0 3383.4131 222.7456)" style="&st9;"><tspan x="0" y="0" style="&st26; &st17;">LG</tspan></text>
<text transform="matrix(0 -1 1 0 3289.9229 219.9956)" style="&st9;"><tspan x="0" y="0" style="&st26; &st17;">L</tspan></text>
<text transform="matrix(0 -1 1 0 3340.9131 220.4854)" style="&st9;"><tspan x="0" y="0" style="&st26; &st17;">R</tspan></text>
<text transform="matrix(0 -1 1 0 3425.9033 220.3457)" style="&st9;"><tspan x="0" y="0" style="&st26; &st17;">V</tspan></text>
<text transform="matrix(0 -1 1 0 3425.9033 407.3149)" style="&st9;"><tspan x="0" y="0" style="&st26; &st17;">V</tspan></text>
<text transform="matrix(0 -1 1 0 3034.9736 571.686)" style="&st9;"><tspan x="0" y="0" style="&st26; &st17;">GR</tspan></text>
<text transform="matrix(1 0 0 1 3077.8037 613.7563)" style="&st9;"><tspan x="0" y="0" style="&st26; &st17;">W</tspan></text>
<text transform="matrix(1 0 0 1 3078.8232 630.7466)" style="&st9;"><tspan x="0" y="0" style="&st26; &st17;">B</tspan></text>
<text transform="matrix(0 -1 1 0 3068.9639 569.8149)" style="&st9;"><tspan x="0" y="0" style="&st26; &st17;">W</tspan></text>
<text transform="matrix(0 -1 1 0 3068.9639 433.8364)" style="&st9;"><tspan x="0" y="0" style="&st26; &st17;">W</tspan></text>
<text transform="matrix(0 -1 1 0 3034.9736 432.8052)" style="&st9;"><tspan x="0" y="0" style="&st26; &st17;">B</tspan></text>
<text transform="matrix(0 -1 1 0 3000.9736 341.7954)" style="&st9;"><tspan x="0" y="0" style="&st26; &st17;">BR</tspan></text>
<text transform="matrix(1 0 0 1 3076.4229 647.7466)" style="&st9;"><tspan x="0" y="0" style="&st26; &st17;">LG</tspan></text>
<text transform="matrix(1 0 0 1 3077.8037 664.7466)" style="&st9;"><tspan x="0" y="0" style="&st26; &st17;">W</tspan></text>
<text transform="matrix(1 0 0 1 3128.7939 613.7563)" style="&st9;"><tspan x="0" y="0" style="&st26; &st17;">W</tspan></text>
<text transform="matrix(1 0 0 1 3129.8135 630.7466)" style="&st9;"><tspan x="0" y="0" style="&st26; &st17;">B</tspan></text>
<text transform="matrix(1 0 0 1 3127.4131 647.7466)" style="&st9;"><tspan x="0" y="0" style="&st26; &st17;">LG</tspan></text>
<text transform="matrix(1 0 0 1 3128.7939 664.7466)" style="&st9;"><tspan x="0" y="0" style="&st26; &st17;">W</tspan></text>
<text transform="matrix(0 -1 1 0 3187.9424 221.3657)" style="&st9;"><tspan x="0" y="0" style="&st26; &st17;">W</tspan></text>
<text transform="matrix(0 -1 1 0 3221.9326 220.3457)" style="&st9;"><tspan x="0" y="0" style="&st26; &st17;">B</tspan></text>
<text transform="matrix(0 -1 1 0 3034.9736 492.2954)" style="&st9;"><tspan x="0" y="0" style="&st26; &st17;">B</tspan></text>
<text transform="matrix(0 -1 1 0 3068.9639 493.3247)" style="&st9;"><tspan x="0" y="0" style="&st26; &st17;">W</tspan></text>
<text transform="matrix(0 -1 1 0 3034.9736 364.8257)" style="&st9;"><tspan x="0" y="0" style="&st26; &st17;">P</tspan></text>
<text transform="matrix(0 -1 1 0 3068.9639 365.8457)" style="&st9;"><tspan x="0" y="0" style="&st26; &st17;">W</tspan></text>
<text transform="matrix(0 -1 1 0 3034.9736 296.8354)" style="&st9;"><tspan x="0" y="0" style="&st26; &st17;">V</tspan></text>
<text transform="matrix(0 -1 1 0 3068.9639 297.8555)" style="&st9;"><tspan x="0" y="0" style="&st26; &st17;">W</tspan></text>
<text ewd:textID="30" transform="matrix(1 0 0 1 3315.9541 57.0957)" style="&st9; &st26; &st17;">Speed Sensors</text>
<text transform="matrix(0 -1 1 0 3323.9229 101.3657)" style="&st9;"><tspan x="0" y="0" style="&st26; &st17;">P</tspan></text>
<text transform="matrix(0 -1 1 0 3298.4229 101.0156)" style="&st9;"><tspan x="0" y="0" style="&st26; &st17;">L</tspan></text>
<text transform="matrix(0 -1 1 0 3400.4033 102.3857)" style="&st9;"><tspan x="0" y="0" style="&st26; &st17;">W</tspan></text>
<text transform="matrix(0 -1 1 0 3349.4131 101.7856)" style="&st9;"><tspan x="0" y="0" style="&st26; &st17;">G</tspan></text>
<text transform="matrix(0 -1 1 0 3425.9033 101.3657)" style="&st9;"><tspan x="0" y="0" style="&st26; &st17;">B</tspan></text>
<text transform="matrix(0 -1 1 0 3374.9131 101.5059)" style="&st9;"><tspan x="0" y="0" style="&st26; &st17;">R</tspan></text>
<text transform="matrix(0 -1 1 0 3247.4326 101.7856)" style="&st9;"><tspan x="0" y="0" style="&st26; &st17;">G</tspan></text>
<text transform="matrix(0 -1 1 0 3272.9326 101.5059)" style="&st9;"><tspan x="0" y="0" style="&st26; &st17;">R</tspan></text>
</svg>
