﻿<?xml version="1.0" encoding="UTF-8"?>
<!DOCTYPE svg PUBLIC "-//W3C//DTD SVG 1.0//EN" "http://www.w3.org/TR/2001/REC-SVG-20010904/DTD/svg10.dtd"[
<!ENTITY ns_flows "http://ns.adobe.com/Flows/1.0/">
<!ENTITY ns_svg "http://www.w3.org/2000/svg">
<!ENTITY ns_xlink "http://www.w3.org/1999/xlink">
	<!ENTITY st0 "fill:none;stroke:#F8E616;stroke-width:5.1;stroke-linejoin:round;">
	<!ENTITY st1 "fill:none;stroke:#FB0F0C;stroke-width:5.1;stroke-linejoin:round;">
	<!ENTITY st2 "fill:none;stroke:#9A9999;stroke-width:5.1;stroke-linejoin:round;">
	<!ENTITY st3 "fill:none;stroke:#99280B;stroke-width:5.1;stroke-linejoin:round;">
		<!ENTITY st4 "fill:none;stroke:#000000;stroke-width:0.85;stroke-linecap:round;stroke-linejoin:round;stroke-dasharray:3 1.5;enable-background:new    ;">
	<!ENTITY st5 "fill:none;stroke:#000000;stroke-width:5.1;stroke-linejoin:round;">
	<!ENTITY st6 "stroke:#000000;stroke-width:0.28;stroke-linecap:round;stroke-linejoin:round;enable-background:new    ;">
	<!ENTITY st7 "enable-background:new    ;">
		<!ENTITY st8 "fill:none;stroke:#000000;stroke-width:1.42;stroke-linecap:round;stroke-linejoin:round;enable-background:new    ;">
	<!ENTITY st9 "fill:none;stroke:#EE67AA;stroke-width:5.1;stroke-linejoin:round;">
	<!ENTITY st10 "fill:none;stroke:#199DBF;stroke-width:5.1;stroke-linejoin:round;">
	<!ENTITY st11 "opacity:0.5;fill:none;stroke:#34ACCE;stroke-linejoin:round;stroke-dasharray:6;">
	<!ENTITY st12 "fill:none;stroke:#FFFFFF;stroke-width:4.53;stroke-linejoin:round;">
		<!ENTITY st13 "fill:none;stroke:#000000;stroke-width:0.85;stroke-linecap:round;stroke-linejoin:round;enable-background:new    ;">
	<!ENTITY st14 "fill:none;stroke:#56107C;stroke-width:5.1;stroke-linejoin:round;">
	<!ENTITY st15 "font-size:6px;">
	<!ENTITY st16 "fill:none;stroke:#168638;stroke-width:5.1;stroke-linejoin:round;">
	<!ENTITY st17 "fill:none;stroke:#000000;stroke-width:1.13;stroke-linejoin:round;">
	<!ENTITY st18 "fill:#FFFFFF;stroke:#000000;stroke-width:1.41;stroke-linecap:round;stroke-linejoin:round;">
	<!ENTITY st19 "fill:none;stroke:#3E65AC;stroke-width:3;">
	<!ENTITY st20 "fill:#CCCCCC;stroke:#CCCCCC;stroke-width:0.1;stroke-linecap:round;stroke-linejoin:round;">
	<!ENTITY st21 "font-family:'ArialMT';">
	<!ENTITY st22 "opacity:0.5;fill:none;stroke:#34ACCE;stroke-linejoin:round;">
	<!ENTITY st23 "fill:#CFE6E7;stroke:#000000;stroke-width:1.133;stroke-linecap:round;stroke-linejoin:round;">
	<!ENTITY st24 "fill:none;stroke:#7EC57E;stroke-width:5.1;stroke-linejoin:round;">
<!ATTLIST svg
xmlns:ewd CDATA #FIXED "http://shcl.co.jp/ewd"
xmlns:a CDATA #FIXED "http://ns.adobe.com/AdobeSVGViewerExtensions/3.0/"
ewd:ver CDATA #IMPLIED
>
<!ATTLIST a
ewd:lineID CDATA #IMPLIED
ewd:groupID CDATA #IMPLIED
ewd:figtype CDATA #IMPLIED
ewd:code CDATA #IMPLIED
ewd:figID CDATA #IMPLIED
ewd:pinNo CDATA #IMPLIED
ewd:comment CDATA #IMPLIED >
<!ATTLIST g
ewd:lineID CDATA #IMPLIED
ewd:groupID CDATA #IMPLIED
ewd:figtype CDATA #IMPLIED
ewd:code CDATA #IMPLIED
ewd:figID CDATA #IMPLIED
ewd:pinNo CDATA #IMPLIED
ewd:comment CDATA #IMPLIED >
<!ATTLIST text
ewd:textID CDATA #IMPLIED >
<!ATTLIST title
ewd:textID CDATA #IMPLIED >
]>
<svg 
viewBox='0 0 2595.05 729.44'
height='729.44'
width='2595.05'
xml:space="preserve"
xmlns="&ns_svg;"
xmlns:ewd="http://shcl.co.jp/ewd"
xmlns:xlink="&ns_xlink;" ewd:ver="L2.1">
<g ewd:code="GA2" ewd:figID="619" ewd:figtype="w2w" ewd:pinNo="1">
<path style="&st8;" d="M2505.75,495.63h-8.5"/>
<path style="&st8;" d="M2501.5,504.7l-4.25-4.25l-4.25,4.25"/>
<path style="&st8;" d="M2501.5,501.3l-4.25-4.25l-4.25,4.25"/>
<text transform="matrix(1 0 0 1 2482.4165 493.3501)" style="&st7;"><tspan x="0" y="0" style="&st21; &st15;">1</tspan></text>
</g>
<g ewd:code="A49-B" ewd:figID="40" ewd:figtype="conn">
<path style="&st8;" d="M2480.25,589.12v-34h67.99v34H2480.25"/>
<path style="&st8;" d="M2501.79,550.59c0-2.5-2.03-4.53-4.54-4.53"/>
<path style="&st8;" d="M2497.25,546.06c-2.5,0-4.53,2.03-4.53,4.53"/>
<path style="&st8;" d="M2492.72,550.59c0,2.5,2.03,4.53,4.53,4.53"/>
<path style="&st8;" d="M2497.25,555.12c2.51,0,4.54-2.03,4.54-4.53"/>
<path style="&st8;" d="M2535.78,550.59c0-2.5-2.03-4.53-4.53-4.53"/>
<path style="&st8;" d="M2531.25,546.06c-2.51,0-4.54,2.03-4.54,4.53"/>
<path style="&st8;" d="M2526.71,550.59c0,2.5,2.03,4.53,4.54,4.53"/>
<path style="&st8;" d="M2531.25,555.12c2.5,0,4.53-2.03,4.53-4.53"/>
<text transform="matrix(1 0 0 1 2477.7339 596.731)" style="&st7;"><tspan x="0" y="0" style="&st21; &st15;">A49(B)</tspan></text>
<text ewd:textID="29" transform="matrix(1 0 0 1 2477.7339 603.8403)" style="&st7; &st21; &st15;">Suspension Control ECU</text>
<text transform="matrix(1 0 0 1 2486.3833 552.561)" style="&st7;"><tspan x="0" y="0" style="&st21; &st15;">7</tspan></text>
<text transform="matrix(1 0 0 1 2494.9233 552.561)" style="&st7;"><tspan x="0" y="0" style="&st21; &st15;">B</tspan></text>
<text transform="matrix(1 0 0 1 2520.3735 552.561)" style="&st7;"><tspan x="0" y="0" style="&st21; &st15;">8</tspan></text>
<text transform="matrix(1 0 0 1 2528.9233 552.561)" style="&st7;"><tspan x="0" y="0" style="&st21; &st15;">B</tspan></text>
<text transform="matrix(1 0 0 1 2487.5034 562.7603)" style="&st7;"><tspan x="0" y="0" style="&st21; &st15;">CANH</tspan></text>
<text transform="matrix(1 0 0 1 2521.9937 562.7603)" style="&st7;"><tspan x="0" y="0" style="&st21; &st15;">CANL</tspan></text>
</g>
<g ewd:code="G98" ewd:figID="39" ewd:figtype="conn">
<path style="&st13;" d="M2530.05,418.14l-0.27,0.47l-0.09,0.54l0.09,0.53l0.27,0.47l0.42,0.35l0.5,0.18h0.55l0.5-0.18l0.42-0.35l0.27-0.47l0.09-0.53l-0.09-0.54l-0.27-0.47l-0.42-0.34l-0.5-0.19h-0.55l-0.5,0.19L2530.05,418.14l0.4,0.72v0.58l0.37,0.44l0.57,0.1l0.51-0.29l0.2-0.54l-0.2-0.55l-0.51-0.29l-0.57,0.1l0.43,0.74"/>
<path style="&st13;" d="M2496.06,409.65l-0.27,0.47l-0.1,0.53l0.1,0.53l0.27,0.47l0.41,0.35l0.51,0.18h0.54l0.51-0.18l0.41-0.35l0.28-0.47l0.09-0.53l-0.09-0.53l-0.28-0.47l-0.41-0.35l-0.51-0.19h-0.54l-0.51,0.19L2496.06,409.65l0.39,0.71v0.58l0.38,0.44l0.57,0.1l0.5-0.28l0.2-0.55l-0.2-0.55l-0.5-0.29l-0.57,0.1l0.42,0.74"/>
<path style="&st13;" d="M2445.07,418.14l-0.27,0.47l-0.1,0.54l0.1,0.53l0.27,0.47l0.41,0.35l0.51,0.18h0.54l0.51-0.18l0.41-0.35l0.27-0.47l0.1-0.53l-0.1-0.54l-0.27-0.47l-0.41-0.34l-0.51-0.19h-0.54l-0.51,0.19L2445.07,418.14l0.39,0.72v0.58l0.38,0.44l0.57,0.1l0.5-0.29l0.2-0.54l-0.2-0.55l-0.5-0.29l-0.57,0.1l0.42,0.74"/>
<path style="&st13;" d="M2411.07,409.65l-0.27,0.47l-0.09,0.53l0.09,0.53l0.27,0.47l0.42,0.35l0.5,0.18h0.55l0.5-0.18l0.42-0.35l0.27-0.47l0.09-0.53l-0.09-0.53l-0.27-0.47l-0.42-0.35l-0.5-0.19h-0.55l-0.5,0.19L2411.07,409.65l0.4,0.71v0.58l0.37,0.44l0.57,0.1l0.51-0.28l0.2-0.55l-0.2-0.55l-0.51-0.29l-0.57,0.1l0.43,0.74"/>
<path style="&st13;" d="M2446.26,419.15h84.99"/>
<path style="&st13;" d="M2412.27,410.65h84.98"/>
<path style="&st13;" d="M2531.25,402.15v25.5"/>
<path style="&st13;" d="M2497.25,402.15v25.5"/>
<path style="&st13;" d="M2412.27,402.15v25.5"/>
<path style="&st13;" d="M2446.26,402.15v25.5"/>
<path style="&st8;" d="M2403.77,402.15v25.5h135.97v-25.5H2403.77"/>
<text transform="matrix(1 0 0 1 2521.2837 398.4604)" style="&st7;"><tspan x="0" y="0" style="&st21; &st15;">15</tspan></text>
<text transform="matrix(1 0 0 1 2490.4634 398.4604)" style="&st7;"><tspan x="0" y="0" style="&st21; &st15;">4</tspan></text>
<text transform="matrix(1 0 0 1 2436.2935 398.4604)" style="&st7;"><tspan x="0" y="0" style="&st21; &st15;">13</tspan></text>
<text transform="matrix(1 0 0 1 2405.4839 398.4604)" style="&st7;"><tspan x="0" y="0" style="&st21; &st15;">2</tspan></text>
<text transform="matrix(1 0 0 1 2521.2837 435.8403)" style="&st7;"><tspan x="0" y="0" style="&st21; &st15;">14</tspan></text>
<text transform="matrix(1 0 0 1 2490.4634 435.8403)" style="&st7;"><tspan x="0" y="0" style="&st21; &st15;">3</tspan></text>
<text transform="matrix(1 0 0 1 2436.2935 435.8403)" style="&st7;"><tspan x="0" y="0" style="&st21; &st15;">12</tspan></text>
<text transform="matrix(1 0 0 1 2406.2534 435.8403)" style="&st7;"><tspan x="0" y="0" style="&st21; &st15;">1</tspan></text>
<text transform="matrix(1 0 0 1 2452.2339 435.2603)" style="&st7;"><tspan x="0" y="0" style="&st21; &st15;">G98</tspan></text>
<text ewd:textID="18" transform="matrix(1 0 0 1 2452.2339 442.3599)" style="&st7; &st21; &st15;">Junction <tspan x="0" y="7">Connector</tspan></text>
</g>
<g ewd:code="G25-B" ewd:figID="18" ewd:figtype="conn">
<path style="&st8;" d="M2148.81,113.2v33.99h84.99V113.2H2148.81"/>
<path style="&st8;" d="M2170.34,151.72c0-2.5-2.03-4.53-4.53-4.53"/>
<path style="&st8;" d="M2165.81,147.19c-2.51,0-4.53,2.03-4.53,4.53"/>
<path style="&st8;" d="M2161.28,151.72c0,2.51,2.02,4.54,4.53,4.54"/>
<path style="&st8;" d="M2165.81,156.26c2.5,0,4.53-2.03,4.53-4.54"/>
<path style="&st8;" d="M2221.33,151.72c0-2.5-2.03-4.53-4.53-4.53"/>
<path style="&st8;" d="M2216.8,147.19c-2.5,0-4.53,2.03-4.53,4.53"/>
<path style="&st8;" d="M2212.27,151.72c0,2.51,2.03,4.54,4.53,4.54"/>
<path style="&st8;" d="M2216.8,156.26c2.5,0,4.53-2.03,4.53-4.54"/>
<text transform="matrix(1 0 0 1 2156.5532 143.5005)" style="&st7;"><tspan x="0" y="0" style="&st21; &st15;">CANL</tspan></text>
<text transform="matrix(1 0 0 1 2146.2935 102.3906)" style="&st7;"><tspan x="0" y="0" style="&st21; &st15;">G25(B)</tspan></text>
<text ewd:textID="6" transform="matrix(1 0 0 1 2146.2935 109.5005)" style="&st7; &st21; &st15;">A/C Amplifier Assembly</text>
<text transform="matrix(1 0 0 1 2214.4731 153.6904)" style="&st7;"><tspan x="0" y="0" style="&st21; &st15;">B</tspan></text>
<text transform="matrix(1 0 0 1 2203.5229 153.6904)" style="&st7;"><tspan x="0" y="0" style="&st21; &st15;">11</tspan></text>
<text transform="matrix(1 0 0 1 2163.4839 153.6904)" style="&st7;"><tspan x="0" y="0" style="&st21; &st15;">B</tspan></text>
<text transform="matrix(1 0 0 1 2151.7534 153.6904)" style="&st7;"><tspan x="0" y="0" style="&st21; &st15;">12</tspan></text>
<text transform="matrix(1 0 0 1 2207.0532 143.5005)" style="&st7;"><tspan x="0" y="0" style="&st21; &st15;">CANH</tspan></text>
</g>
<g ewd:code="G51-B" ewd:figID="19" ewd:figtype="conn">
<path style="&st8;" d="M2250.79,113.2v33.99h212.47V113.2H2250.79"/>
<path style="&st8;" d="M2450.79,151.72c0-2.5-2.03-4.53-4.53-4.53"/>
<path style="&st8;" d="M2446.26,147.19c-2.5,0-4.53,2.03-4.53,4.53"/>
<path style="&st8;" d="M2441.73,151.72c0,2.51,2.03,4.54,4.53,4.54"/>
<path style="&st8;" d="M2446.26,156.26c2.5,0,4.53-2.03,4.53-4.54"/>
<path style="&st8;" d="M2416.8,151.72c0-2.5-2.03-4.53-4.53-4.53"/>
<path style="&st8;" d="M2412.27,147.19c-2.51,0-4.54,2.03-4.54,4.53"/>
<path style="&st8;" d="M2407.73,151.72c0,2.51,2.03,4.54,4.54,4.54"/>
<path style="&st8;" d="M2412.27,156.26c2.5,0,4.53-2.03,4.53-4.54"/>
<path style="&st8;" d="M2306.32,151.72c0-2.5-2.03-4.53-4.53-4.53"/>
<path style="&st8;" d="M2301.79,147.19c-2.51,0-4.54,2.03-4.54,4.53"/>
<path style="&st8;" d="M2297.25,151.72c0,2.51,2.03,4.54,4.54,4.54"/>
<path style="&st8;" d="M2301.79,156.26c2.5,0,4.53-2.03,4.53-4.54"/>
<path style="&st8;" d="M2272.32,151.72c0-2.5-2.03-4.53-4.53-4.53"/>
<path style="&st8;" d="M2267.79,147.19c-2.5,0-4.53,2.03-4.53,4.53"/>
<path style="&st8;" d="M2263.26,151.72c0,2.51,2.03,4.54,4.53,4.54"/>
<path style="&st8;" d="M2267.79,156.26c2.5,0,4.53-2.03,4.53-4.54"/>
<path style="&st8;" d="M2382.8,151.72c0-2.5-2.02-4.53-4.53-4.53"/>
<path style="&st8;" d="M2378.27,147.19c-2.5,0-4.53,2.03-4.53,4.53"/>
<path style="&st8;" d="M2373.74,151.72c0,2.51,2.03,4.54,4.53,4.54"/>
<path style="&st8;" d="M2378.27,156.26c2.51,0,4.53-2.03,4.53-4.54"/>
<path style="&st8;" d="M2348.81,151.72c0-2.5-2.03-4.53-4.53-4.53"/>
<path style="&st8;" d="M2344.28,147.19c-2.51,0-4.53,2.03-4.53,4.53"/>
<path style="&st8;" d="M2339.75,151.72c0,2.51,2.02,4.54,4.53,4.54"/>
<path style="&st8;" d="M2344.28,156.26c2.5,0,4.53-2.03,4.53-4.54"/>
<text transform="matrix(1 0 0 1 2256.7729 102.3906)" style="&st7;"><tspan x="0" y="0" style="&st21; &st15;">G51(B)</tspan></text>
<text ewd:textID="23" transform="matrix(1 0 0 1 2256.7729 109.5005)" style="&st7; &st21; &st15;">Power Management Control ECU</text>
<text transform="matrix(1 0 0 1 2437.5034 143.5005)" style="&st7;"><tspan x="0" y="0" style="&st21; &st15;">CA2L</tspan></text>
<text transform="matrix(1 0 0 1 2403.0132 143.5005)" style="&st7;"><tspan x="0" y="0" style="&st21; &st15;">CA2H</tspan></text>
<text transform="matrix(1 0 0 1 2443.9331 153.6904)" style="&st7;"><tspan x="0" y="0" style="&st21; &st15;">B</tspan></text>
<text transform="matrix(1 0 0 1 2431.4331 153.6904)" style="&st7;"><tspan x="0" y="0" style="&st21; &st15;">25</tspan></text>
<text transform="matrix(1 0 0 1 2409.9429 153.6904)" style="&st7;"><tspan x="0" y="0" style="&st21; &st15;">B</tspan></text>
<text transform="matrix(1 0 0 1 2397.4331 153.6904)" style="&st7;"><tspan x="0" y="0" style="&st21; &st15;">26</tspan></text>
<text transform="matrix(1 0 0 1 2292.5337 143.5005)" style="&st7;"><tspan x="0" y="0" style="&st21; &st15;">CA3N</tspan></text>
<text transform="matrix(1 0 0 1 2258.6831 143.5005)" style="&st7;"><tspan x="0" y="0" style="&st21; &st15;">CA3P</tspan></text>
<text transform="matrix(1 0 0 1 2299.4536 153.6904)" style="&st7;"><tspan x="0" y="0" style="&st21; &st15;">B</tspan></text>
<text transform="matrix(1 0 0 1 2288.5132 153.6904)" style="&st7;"><tspan x="0" y="0" style="&st21; &st15;">11</tspan></text>
<text transform="matrix(1 0 0 1 2265.4634 153.6904)" style="&st7;"><tspan x="0" y="0" style="&st21; &st15;">B</tspan></text>
<text transform="matrix(1 0 0 1 2253.7437 153.6904)" style="&st7;"><tspan x="0" y="0" style="&st21; &st15;">12</tspan></text>
<text transform="matrix(1 0 0 1 2369.4136 143.5005)" style="&st7;"><tspan x="0" y="0" style="&st21; &st15;">CA1H</tspan></text>
<text transform="matrix(1 0 0 1 2335.9136 143.5005)" style="&st7;"><tspan x="0" y="0" style="&st21; &st15;">CA1L</tspan></text>
<text transform="matrix(1 0 0 1 2375.9429 153.6904)" style="&st7;"><tspan x="0" y="0" style="&st21; &st15;">B</tspan></text>
<text transform="matrix(1 0 0 1 2364.2231 153.6904)" style="&st7;"><tspan x="0" y="0" style="&st21; &st15;">14</tspan></text>
<text transform="matrix(1 0 0 1 2341.9536 153.6904)" style="&st7;"><tspan x="0" y="0" style="&st21; &st15;">B</tspan></text>
<text transform="matrix(1 0 0 1 2330.2231 153.6904)" style="&st7;"><tspan x="0" y="0" style="&st21; &st15;">13</tspan></text>
</g>
<g ewd:code="G119" ewd:figID="20" ewd:figtype="conn">
<path style="&st8;" d="M2480.25,113.2v33.99h67.99V113.2H2480.25"/>
<text transform="matrix(1 0 0 1 2521.2837 155.3906)" style="&st7;"><tspan x="0" y="0" style="&st21; &st15;">17</tspan></text>
<text transform="matrix(1 0 0 1 2486.5132 155.3906)" style="&st7;"><tspan x="0" y="0" style="&st21; &st15;">39</tspan></text>
<text transform="matrix(1 0 0 1 2488.0034 143.5005)" style="&st7;"><tspan x="0" y="0" style="&st21; &st15;">CA2H</tspan></text>
<text transform="matrix(1 0 0 1 2522.4937 143.5005)" style="&st7;"><tspan x="0" y="0" style="&st21; &st15;">CA2L</tspan></text>
<text ewd:textID="13" transform="matrix(1 0 0 1 2477.7339 103.5508)" style="&st7; &st21; &st15;">Driving Support <tspan x="0" y="7">ECU Assembly</tspan></text>
<text transform="matrix(1 0 0 1 2477.7339 96.4507)" style="&st7;"><tspan x="0" y="0" style="&st21; &st15;">G119</tspan></text>
</g>
<text transform="matrix(1 0 0 1 2367.2534 55.6807)" style="&st7;"><tspan x="0" y="0" style="&st21; &st15;">* 4 :5L-E</tspan></text>
<text transform="matrix(0 -1 1 0 2224.4429 226.2407)" style="&st7;"><tspan x="0" y="0" style="&st21; &st15;">(*2,*4)</tspan></text>
<text transform="matrix(0 -1 1 0 2173.4536 226.2407)" style="&st7;"><tspan x="0" y="0" style="&st21; &st15;">(*2,*4)</tspan></text>
<text transform="matrix(1 0 0 1 2367.2534 38.6807)" style="&st7;"><tspan x="0" y="0" style="&st21; &st15;">* 2 :2TR-FE</tspan></text>
<text transform="matrix(1 0 0 1 2367.2534 30.1807)" style="&st7;"><tspan x="0" y="0" style="&st21; &st15;">* 1 :1GR-FE</tspan></text>
<text transform="matrix(1 0 0 1 2367.2534 47.1807)" style="&st7;"><tspan x="0" y="0" style="&st21; &st15;">* 3 :1KD-FTV</tspan></text>
<text transform="matrix(0 -1 1 0 2213.103 219.9805)" style="&st7;"><tspan x="0" y="0" style="&st21; &st15;">BR</tspan></text>
<text transform="matrix(0 -1 1 0 2385.9136 225.8506)" style="&st7;"><tspan x="0" y="0" style="&st21; &st15;">(*1,*3)</tspan></text>
<text transform="matrix(0 -1 1 0 2351.9233 225.8506)" style="&st7;"><tspan x="0" y="0" style="&st21; &st15;">(*1,*3)</tspan></text>
<text transform="matrix(0 -1 1 0 2408.5737 463.9712)" style="&st7;"><tspan x="0" y="0" style="&st21; &st15;">P</tspan></text>
<text transform="matrix(0 -1 1 0 2442.5737 464.9907)" style="&st7;"><tspan x="0" y="0" style="&st21; &st15;">W</tspan></text>
<text transform="matrix(0 -1 1 0 2493.563 464.1099)" style="&st7;"><tspan x="0" y="0" style="&st21; &st15;">R</tspan></text>
<text transform="matrix(0 -1 1 0 2162.1128 218.5405)" style="&st7;"><tspan x="0" y="0" style="&st21; &st15;">W</tspan></text>
<text transform="matrix(0 -1 1 0 2493.563 532.1001)" style="&st7;"><tspan x="0" y="0" style="&st21; &st15;">R</tspan></text>
<text transform="matrix(0 -1 1 0 2493.563 217.9404)" style="&st7;"><tspan x="0" y="0" style="&st21; &st15;">G</tspan></text>
<text transform="matrix(0 -1 1 0 2442.5737 218.5405)" style="&st7;"><tspan x="0" y="0" style="&st21; &st15;">W</tspan></text>
<text transform="matrix(0 -1 1 0 2408.5737 217.5107)" style="&st7;"><tspan x="0" y="0" style="&st21; &st15;">V</tspan></text>
<text transform="matrix(0 -1 1 0 2298.0933 218.5405)" style="&st7;"><tspan x="0" y="0" style="&st21; &st15;">W</tspan></text>
<text transform="matrix(0 -1 1 0 2264.103 219.9805)" style="&st7;"><tspan x="0" y="0" style="&st21; &st15;">BR</tspan></text>
<text transform="matrix(0 -1 1 0 2374.5835 219.9805)" style="&st7;"><tspan x="0" y="0" style="&st21; &st15;">BR</tspan></text>
<text transform="matrix(0 -1 1 0 2340.5835 218.5405)" style="&st7;"><tspan x="0" y="0" style="&st21; &st15;">W</tspan></text>
<text transform="matrix(0 -1 1 0 2136.6235 217.5107)" style="&st7;"><tspan x="0" y="0" style="&st21; &st15;">Y</tspan></text>
<text transform="matrix(0 -1 1 0 2187.6128 219.9805)" style="&st7;"><tspan x="0" y="0" style="&st21; &st15;">BR</tspan></text>
<text transform="matrix(0 -1 1 0 2147.9536 225.8506)" style="&st7;"><tspan x="0" y="0" style="&st21; &st15;">(*1,*3)</tspan></text>
<text transform="matrix(0 -1 1 0 2198.9429 225.8506)" style="&st7;"><tspan x="0" y="0" style="&st21; &st15;">(*1,*3)</tspan></text>
<text transform="matrix(0 -1 1 0 2275.4331 225.8506)" style="&st7;"><tspan x="0" y="0" style="&st21; &st15;">(*1,*3)</tspan></text>
<text transform="matrix(0 -1 1 0 2309.4233 225.8506)" style="&st7;"><tspan x="0" y="0" style="&st21; &st15;">(*1,*3)</tspan></text>
<text transform="matrix(0 -1 1 0 2419.9038 225.8506)" style="&st7;"><tspan x="0" y="0" style="&st21; &st15;">(*1,*3)</tspan></text>
<text transform="matrix(0 -1 1 0 2453.9038 225.8506)" style="&st7;"><tspan x="0" y="0" style="&st21; &st15;">(*1,*3)</tspan></text>
<text transform="matrix(1 0 0 1 2094.4634 644.9106)" style="&st7;"><tspan x="0" y="0" style="&st21; &st15;">W</tspan></text>
<text transform="matrix(1 0 0 1 2095.4937 627.9106)" style="&st7;"><tspan x="0" y="0" style="&st21; &st15;">P</tspan></text>
<text transform="matrix(1 0 0 1 2043.4731 644.9106)" style="&st7;"><tspan x="0" y="0" style="&st21; &st15;">W</tspan></text>
<text transform="matrix(1 0 0 1 2044.5034 627.9106)" style="&st7;"><tspan x="0" y="0" style="&st21; &st15;">P</tspan></text>
</svg>
