﻿<?xml version="1.0" encoding="UTF-8"?>
<!DOCTYPE svg PUBLIC "-//W3C//DTD SVG 1.0//EN" "http://www.w3.org/TR/2001/REC-SVG-20010904/DTD/svg10.dtd"[
<!ENTITY ns_flows "http://ns.adobe.com/Flows/1.0/">
<!ENTITY ns_svg "http://www.w3.org/2000/svg">
<!ENTITY ns_xlink "http://www.w3.org/1999/xlink">
	<!ENTITY st0 "fill:none;stroke:#FB0F0C;stroke-width:5.1;stroke-linejoin:round;">
	<!ENTITY st1 "fill:none;stroke:#9A9999;stroke-width:5.1;stroke-linejoin:round;">
	<!ENTITY st2 "fill:none;stroke:#99280B;stroke-width:5.1;stroke-linejoin:round;">
		<!ENTITY st3 "fill:none;stroke:#000000;stroke-width:0.85;stroke-linecap:round;stroke-linejoin:round;stroke-dasharray:3 1.5;enable-background:new    ;">
	<!ENTITY st4 "fill:none;stroke:#000000;stroke-width:5.1;stroke-linejoin:round;">
	<!ENTITY st5 "fill:none;stroke:#199DBF;stroke-width:1.13;stroke-linejoin:round;">
	<!ENTITY st6 "fill:none;stroke:#000000;stroke-linecap:round;stroke-linejoin:round;">
	<!ENTITY st7 "fill:none;stroke:#F8E616;stroke-width:1.13;stroke-linejoin:round;">
	<!ENTITY st8 "stroke:#000000;stroke-width:0.28;stroke-linecap:round;stroke-linejoin:round;enable-background:new    ;">
	<!ENTITY st9 "enable-background:new    ;">
		<!ENTITY st10 "fill:none;stroke:#000000;stroke-width:1.42;stroke-linecap:round;stroke-linejoin:round;enable-background:new    ;">
	<!ENTITY st11 "fill:none;stroke:#EE67AA;stroke-width:5.1;stroke-linejoin:round;">
	<!ENTITY st12 "fill:none;stroke:#199DBF;stroke-width:5.1;stroke-linejoin:round;">
	<!ENTITY st13 "opacity:0.5;fill:none;stroke:#34ACCE;stroke-linejoin:round;stroke-dasharray:6;">
	<!ENTITY st14 "fill:none;stroke:#FFFFFF;stroke-width:4.53;stroke-linejoin:round;">
		<!ENTITY st15 "fill:none;stroke:#000000;stroke-width:0.85;stroke-linecap:round;stroke-linejoin:round;enable-background:new    ;">
	<!ENTITY st16 "fill:none;stroke:#56107C;stroke-width:5.1;stroke-linejoin:round;">
	<!ENTITY st17 "font-size:6px;">
	<!ENTITY st18 "fill:none;stroke:#FFFFFF;stroke-width:2.27;stroke-linejoin:round;">
	<!ENTITY st19 "fill:none;stroke:#FB0F0C;stroke-width:1.13;stroke-linejoin:round;">
	<!ENTITY st20 "fill:none;stroke:#168638;stroke-width:5.1;stroke-linejoin:round;">
	<!ENTITY st21 "fill:none;stroke:#000000;stroke-width:1.13;stroke-linejoin:round;">
		<!ENTITY st22 "fill:none;stroke:#000000;stroke-width:1.13;stroke-linecap:round;stroke-linejoin:round;stroke-dasharray:3 1.5;enable-background:new    ;">
	<!ENTITY st23 "fill:#FFFFFF;stroke:#000000;stroke-width:1.41;stroke-linecap:round;stroke-linejoin:round;">
	<!ENTITY st24 "fill:none;stroke:#3E65AC;stroke-width:3;">
	<!ENTITY st25 "fill:#CCCCCC;stroke:#CCCCCC;stroke-width:0.1;stroke-linecap:round;stroke-linejoin:round;">
	<!ENTITY st26 "font-family:'ArialMT';">
	<!ENTITY st27 "fill:none;stroke:#168638;stroke-width:1.13;stroke-linejoin:round;">
	<!ENTITY st28 "opacity:0.5;fill:none;stroke:#34ACCE;stroke-linejoin:round;">
	<!ENTITY st29 "fill:#CFE6E7;stroke:#000000;stroke-width:1.133;stroke-linecap:round;stroke-linejoin:round;">
	<!ENTITY st30 "fill:none;stroke:#99D5E0;stroke-width:5.1;stroke-linejoin:round;">
	<!ENTITY st31 "fill:none;stroke:#7EC57E;stroke-width:5.1;stroke-linejoin:round;">
<!ATTLIST svg
xmlns:ewd CDATA #FIXED "http://shcl.co.jp/ewd"
xmlns:a CDATA #FIXED "http://ns.adobe.com/AdobeSVGViewerExtensions/3.0/"
ewd:ver CDATA #IMPLIED
>
<!ATTLIST a
ewd:lineID CDATA #IMPLIED
ewd:groupID CDATA #IMPLIED
ewd:figtype CDATA #IMPLIED
ewd:code CDATA #IMPLIED
ewd:figID CDATA #IMPLIED
ewd:pinNo CDATA #IMPLIED
ewd:comment CDATA #IMPLIED >
<!ATTLIST g
ewd:lineID CDATA #IMPLIED
ewd:groupID CDATA #IMPLIED
ewd:figtype CDATA #IMPLIED
ewd:code CDATA #IMPLIED
ewd:figID CDATA #IMPLIED
ewd:pinNo CDATA #IMPLIED
ewd:comment CDATA #IMPLIED >
<!ATTLIST text
ewd:textID CDATA #IMPLIED >
<!ATTLIST title
ewd:textID CDATA #IMPLIED >
]>
<svg 
viewBox='0 0 4668.69 729.44'
height='729.44'
width='4668.69'
xml:space="preserve"
xmlns="&ns_svg;"
xmlns:ewd="http://shcl.co.jp/ewd"
xmlns:xlink="&ns_xlink;" ewd:ver="L2.1">
<g ewd:code="FUSE18" ewd:figID="404" ewd:figtype="rb">
<path style="&st6;" d="M3984.76,39.55v42.49h25.5V39.55H3984.76"/>
<path style="&st15;" d="M3997.51,73.54v25.5"/>
<path style="&st10;" d="M3999.64,99.04h-4.25"/>
<path style="&st10;" d="M3999.64,107.54h-4.25"/>
<path style="&st10;" d="M3984.76,39.55v42.49h25.5V39.55H3984.76"/>
<path style="&st8;" d="M3997.51,94.14l-2.83-2.83v4.25l2.83,2.83l2.83-2.83v-4.25L3997.51,94.14"/>
<path style="&st10;" d="M3997.51,50.88c-2.74,1.61-3.65,5.14-2.03,7.88"/>
<path style="&st10;" d="M3995.48,58.76c0.52,0.88,1.15,1.52,2.03,2.04"/>
<path style="&st10;" d="M3997.51,70.71c2.74-1.61,3.65-5.14,2.04-7.88"/>
<path style="&st10;" d="M3999.55,62.83c-0.52-0.88-1.16-1.51-2.04-2.03"/>
<path style="&st15;" d="M3998.93,49.46c0-0.78-0.64-1.41-1.42-1.41"/>
<path style="&st15;" d="M3997.51,48.05c-0.78,0-1.41,0.63-1.41,1.41"/>
<path style="&st15;" d="M3996.1,49.46c0,0.79,0.63,1.42,1.41,1.42"/>
<path style="&st15;" d="M3997.51,50.88c0.78,0,1.42-0.63,1.42-1.42"/>
<path style="&st15;" d="M3998.93,72.13c0-0.79-0.64-1.42-1.42-1.42"/>
<path style="&st15;" d="M3997.51,70.71c-0.78,0-1.41,0.63-1.41,1.42"/>
<path style="&st15;" d="M3996.1,72.13c0,0.78,0.63,1.41,1.41,1.41"/>
<path style="&st15;" d="M3997.51,73.54c0.78,0,1.42-0.63,1.42-1.41"/>
<path style="&st10;" d="M3995.39,99.04c-2.35,0-4.25,1.9-4.25,4.25"/>
<path style="&st10;" d="M3991.14,103.29c0,2.35,1.9,4.25,4.25,4.25"/>
<path style="&st10;" d="M3999.64,107.54c2.34,0,4.25-1.9,4.25-4.25"/>
<path style="&st10;" d="M4003.89,103.29c0-2.35-1.91-4.25-4.25-4.25"/>
<text transform="matrix(1 0 0 1 4014.8228 59.936)" style="&st9;"><tspan x="0" y="0" style="&st26; &st17;">10A</tspan></text>
<text transform="matrix(1 0 0 1 4014.8228 65.936)" style="&st9;"><tspan x="0" y="0" style="&st26; &st17;">STOP</tspan></text>
<text transform="matrix(1 0 0 1 3995.9233 105.2563)" style="&st9;"><tspan x="0" y="0" style="&st26; &st17;">1</tspan></text>
<text transform="matrix(1 0 0 1 3990.7231 90.2358)" style="&st9;"><tspan x="0" y="0" style="&st26; &st17;">2</tspan></text>
<text transform="matrix(1 0 0 1 3988.4028 35.8462)" style="&st9;"><tspan x="0" y="0" style="&st26; &st17;">(BAT)</tspan></text>
</g>
<g ewd:code="A2" ewd:figID="206" ewd:figtype="gp">
<path style="&st15;" d="M3996.09,713.77h2.84"/>
<path style="&st15;" d="M3994.68,710.94h5.66"/>
<path style="&st15;" d="M3993.26,708.1h8.5"/>
<path style="&st15;" d="M3989.01,705.27h17"/>
<path style="&st15;" d="M3997.51,701.02v4.25"/>
</g>
<g ewd:code="A54" ewd:figID="35" ewd:figtype="conn">
<path style="&st15;" d="M3763.8,468.73h-8.5"/>
<path style="&st15;" d="M3770.27,464.48l0.47-0.2v0.39L3770.27,464.48h-0.74l1.49-0.62v1.24l-1.49-0.62h-1.48l3.54-1.47v2.94l-3.54-1.47"/>
<path style="&st8;" d="M3759.55,468.73l-5.66-8.5h11.33L3759.55,468.73"/>
<path style="&st15;" d="M3768.05,481.48v59.49h263.46v-93.49h-34"/>
<path style="&st15;" d="M3793.55,506.97v-8.5l-2.84-1.41l5.67-2.84l-5.67-2.83l5.67-2.83l-5.67-2.84l5.67-2.83l-2.83-1.41v-17h-9.92"/>
<path style="&st15;" d="M3766.86,474.1l-0.28,0.47l-0.09,0.53l0.09,0.53l0.28,0.47l0.41,0.35l0.51,0.19h0.54l0.51-0.19l0.41-0.35l0.27-0.47l0.1-0.53l-0.1-0.53l-0.27-0.47l-0.41-0.35l-0.51-0.18h-0.54l-0.51,0.18L3766.86,474.1l0.39,0.71v0.58l0.37,0.45l0.58,0.1l0.5-0.29l0.2-0.55l-0.2-0.55l-0.5-0.28l-0.58,0.1l0.43,0.73"/>
<path style="&st15;" d="M3766.86,452.85l-0.28,0.47l-0.09,0.54l0.09,0.53l0.28,0.47l0.41,0.34l0.51,0.19h0.54l0.51-0.19l0.41-0.34l0.27-0.47l0.1-0.53l-0.1-0.54l-0.27-0.47l-0.41-0.34l-0.51-0.19h-0.54l-0.51,0.19L3766.86,452.85l0.39,0.71v0.59l0.37,0.44l0.58,0.1l0.5-0.29l0.2-0.54l-0.2-0.55l-0.5-0.29l-0.58,0.1l0.43,0.74"/>
<path style="&st15;" d="M3768.05,464.48h9.91"/>
<path style="&st15;" d="M3768.05,430.48v23.38"/>
<path style="&st15;" d="M3777.96,453.86h-18.41v21.24h18.41"/>
<path style="&st15;" d="M3768.05,464.48v17"/>
<path style="&st15;" d="M3777.96,471.56v7.08"/>
<path style="&st15;" d="M3777.96,460.94v7.08"/>
<path style="&st15;" d="M3777.96,450.31v7.09"/>
<path style="&st15;" d="M3783.63,450.31v28.33"/>
<path style="&st15;" d="M3996.32,531.46l-0.27,0.47l-0.1,0.54l0.1,0.53l0.27,0.47l0.41,0.35l0.51,0.18h0.54l0.51-0.18l0.41-0.35l0.28-0.47l0.09-0.53l-0.09-0.54l-0.28-0.47l-0.41-0.34l-0.51-0.19h-0.54l-0.51,0.19L3996.32,531.46l0.39,0.72v0.58l0.38,0.44l0.57,0.1l0.5-0.29l0.2-0.54l-0.2-0.55l-0.5-0.29l-0.57,0.1l0.42,0.74"/>
<path style="&st15;" d="M3902.83,471.97l-0.27,0.47l-0.09,0.54l0.09,0.53l0.27,0.47l0.42,0.35l0.51,0.18h0.54l0.51-0.18l0.41-0.35l0.27-0.47l0.09-0.53l-0.09-0.54l-0.27-0.47l-0.41-0.34l-0.51-0.19h-0.54l-0.51,0.19L3902.83,471.97l0.4,0.72v0.58l0.37,0.44l0.57,0.1l0.51-0.29l0.2-0.54l-0.2-0.55l-0.51-0.29l-0.57,0.1l0.43,0.74"/>
<path style="&st15;" d="M3860.34,463.48l-0.27,0.47l-0.09,0.53l0.09,0.53l0.27,0.47l0.41,0.35l0.51,0.18h0.54l0.51-0.18l0.42-0.35l0.27-0.47l0.09-0.53l-0.09-0.53l-0.27-0.47l-0.42-0.35l-0.51-0.19h-0.54l-0.51,0.19L3860.34,463.48l0.39,0.71v0.58l0.38,0.44l0.57,0.1l0.51-0.28l0.19-0.55l-0.19-0.55l-0.51-0.29l-0.57,0.1l0.42,0.74"/>
<path style="&st15;" d="M3996.32,463.48l-0.27,0.47l-0.1,0.53l0.1,0.53l0.27,0.47l0.41,0.35l0.51,0.18h0.54l0.51-0.18l0.41-0.35l0.28-0.47l0.09-0.53l-0.09-0.53l-0.28-0.47l-0.41-0.35l-0.51-0.19h-0.54l-0.51,0.19L3996.32,463.48l0.39,0.71v0.58l0.38,0.44l0.57,0.1l0.5-0.28l0.2-0.55l-0.2-0.55l-0.5-0.29l-0.57,0.1l0.42,0.74"/>
<path style="&st15;" d="M3817.85,454.98l-0.27,0.47l-0.1,0.53l0.1,0.53l0.27,0.47l0.41,0.35l0.51,0.19h0.54l0.51-0.19l0.41-0.35l0.28-0.47l0.09-0.53l-0.09-0.53l-0.28-0.47l-0.41-0.35l-0.51-0.19h-0.54l-0.51,0.19L3817.85,454.98l0.39,0.71v0.58l0.38,0.45l0.57,0.1l0.5-0.29l0.2-0.55l-0.2-0.55l-0.5-0.29l-0.57,0.1l0.42,0.74"/>
<path style="&st10;" d="M3742.55,430.48v127.48H4040V430.48H3742.55"/>
<path style="&st10;" d="M3785.05,506.97v17h220.96v-17H3785.05"/>
<path style="&st15;" d="M3997.51,506.97v-8.5l-2.83-1.41l5.66-2.84l-5.66-2.83l5.66-2.83l-5.66-2.84l5.66-2.83l-2.83-1.41v-51"/>
<path style="&st15;" d="M3904.03,506.97v-8.5l-2.84-1.41l5.67-2.84l-5.67-2.83l5.67-2.83l-5.67-2.84l5.67-2.83l-2.83-1.41v-51"/>
<path style="&st15;" d="M3861.53,506.97v-8.5l-2.83-1.41l5.67-2.84l-5.67-2.83l5.67-2.83l-5.67-2.84l5.67-2.83l-2.84-1.41v-51"/>
<path style="&st15;" d="M3819.04,506.97v-8.5l-2.83-1.41l5.66-2.84l-5.66-2.83l5.66-2.83l-5.66-2.84l5.66-2.83l-2.83-1.41v-51"/>
<path style="&st15;" d="M3997.51,523.97v33.99"/>
<path style="&st15;" d="M3861.53,464.48h135.98"/>
<path style="&st15;" d="M3819.04,455.98h84.99"/>
<path style="&st15;" d="M3904.03,472.98h118.98v59.49h-25.5"/>
<path style="&st15;" d="M3996.32,446.48l-0.27,0.47l-0.1,0.53l0.1,0.53l0.27,0.47l0.41,0.35l0.51,0.19h0.54l0.51-0.19l0.41-0.35l0.28-0.47l0.09-0.53l-0.09-0.53l-0.28-0.47l-0.41-0.35l-0.51-0.18h-0.54l-0.51,0.18L3996.32,446.48l0.39,0.71v0.58l0.38,0.45l0.57,0.1l0.5-0.29l0.2-0.55l-0.2-0.55l-0.5-0.28l-0.57,0.09l0.42,0.74"/>
<path style="&st15;" d="M3902.83,454.98l-0.27,0.47l-0.09,0.53l0.09,0.53l0.27,0.47l0.42,0.35l0.51,0.19h0.54l0.51-0.19l0.41-0.35l0.27-0.47l0.09-0.53l-0.09-0.53l-0.27-0.47l-0.41-0.35l-0.51-0.19h-0.54l-0.51,0.19L3902.83,454.98l0.4,0.71v0.58l0.37,0.45l0.57,0.1l0.51-0.29l0.2-0.55l-0.2-0.55l-0.51-0.29l-0.57,0.1l0.43,0.74"/>
<text transform="matrix(1 0 0 1 3750.5229 438.6763)" style="&st9;"><tspan x="0" y="0" style="&st26; &st17;">OUT</tspan></text>
<text transform="matrix(1 0 0 1 3762.0435 426.7856)" style="&st9;"><tspan x="0" y="0" style="&st26; &st17;">1</tspan></text>
<text transform="matrix(1 0 0 1 3897.2437 426.7856)" style="&st9;"><tspan x="0" y="0" style="&st26; &st17;">5</tspan></text>
<text transform="matrix(1 0 0 1 3990.7231 566.1558)" style="&st9;"><tspan x="0" y="0" style="&st26; &st17;">8</tspan></text>
<text transform="matrix(1 0 0 1 3854.7534 426.7856)" style="&st9;"><tspan x="0" y="0" style="&st26; &st17;">9</tspan></text>
<text transform="matrix(1 0 0 1 3812.2534 426.7856)" style="&st9;"><tspan x="0" y="0" style="&st26; &st17;">4</tspan></text>
<text ewd:textID="32" transform="matrix(1 0 0 1 3774.0229 572.6763)" style="&st9; &st26; &st17;">Stop Light Control Relay Assembly</text>
<text transform="matrix(1 0 0 1 3774.0229 565.5659)" style="&st9;"><tspan x="0" y="0" style="&st26; &st17;">A54</tspan></text>
<text transform="matrix(1 0 0 1 3979.2827 554.2661)" style="&st9;"><tspan x="0" y="0" style="&st26; &st17;">GND</tspan></text>
<text transform="matrix(1 0 0 1 3990.7231 426.7856)" style="&st9;"><tspan x="0" y="0" style="&st26; &st17;">6</tspan></text>
<text transform="matrix(1 0 0 1 3985.9937 438.6763)" style="&st9;"><tspan x="0" y="0" style="&st26; &st17;">+B</tspan></text>
<text transform="matrix(1 0 0 1 3887.6333 438.6763)" style="&st9;"><tspan x="0" y="0" style="&st26; &st17;">STP</tspan></text>
<text transform="matrix(1 0 0 1 3844.1528 438.6763)" style="&st9;"><tspan x="0" y="0" style="&st26; &st17;">ACC</tspan></text>
<text transform="matrix(1 0 0 1 3800.2437 438.6763)" style="&st9;"><tspan x="0" y="0" style="&st26; &st17;">ESSI</tspan></text>
<text transform="matrix(1 0 0 1 3892.0728 517.436)" style="&st9;"><tspan x="0" y="0" style="&st26; &st17;">IC</tspan></text>
</g>
<g ewd:code="A65" ewd:figID="13" ewd:figtype="conn">
<path style="&st10;" d="M3895.53,362.5h59.49v16.99h-59.49V362.5"/>
<path style="&st15;" d="M3904.03,379.49V362.5"/>
<path style="&st15;" d="M3904.03,370.99h42.49v-8.49"/>
<path style="&st15;" d="M3902.83,369.99l-0.27,0.47l-0.09,0.53l0.09,0.54l0.27,0.47l0.42,0.34l0.51,0.19h0.54l0.51-0.19l0.41-0.34l0.27-0.47l0.09-0.54l-0.09-0.53l-0.27-0.47l-0.41-0.34l-0.51-0.19h-0.54l-0.51,0.19L3902.83,369.99l0.4,0.71v0.59l0.37,0.44l0.57,0.1l0.51-0.29l0.2-0.55l-0.2-0.54l-0.51-0.29l-0.57,0.1l0.43,0.73"/>
<text transform="matrix(1 0 0 1 3918.5034 387.0962)" style="&st9;"><tspan x="0" y="0" style="&st26; &st17;">A65</tspan></text>
<text ewd:textID="17" transform="matrix(1 0 0 1 3918.5034 394.2056)" style="&st9; &st26; &st17;">Junction <tspan x="0" y="7">Connector</tspan></text>
<text transform="matrix(1 0 0 1 3939.7329 358.8062)" style="&st9;"><tspan x="0" y="0" style="&st26; &st17;">8</tspan></text>
<text transform="matrix(1 0 0 1 3897.2437 358.8062)" style="&st9;"><tspan x="0" y="0" style="&st26; &st17;">9</tspan></text>
<text transform="matrix(1 0 0 1 3897.2437 387.686)" style="&st9;"><tspan x="0" y="0" style="&st26; &st17;">7</tspan></text>
</g>
<g ewd:code="A68" ewd:figID="11" ewd:figtype="conn">
<path style="&st15;" d="M3768.05,370.99V354"/>
<path style="&st10;" d="M3759.55,354h17v16.99h-17V354"/>
<text transform="matrix(1 0 0 1 3761.2632 350.3062)" style="&st9;"><tspan x="0" y="0" style="&st26; &st17;">2</tspan></text>
<text transform="matrix(1 0 0 1 3762.0435 379.186)" style="&st9;"><tspan x="0" y="0" style="&st26; &st17;">1</tspan></text>
<text ewd:textID="17" transform="matrix(0 -1 1 0 3749.9136 373.5161)" style="&st9; &st26; &st17;">Junction <tspan x="0" y="7">Connector</tspan></text>
<text transform="matrix(0 -1 1 0 3742.8032 373.5161)" style="&st9;"><tspan x="0" y="0" style="&st26; &st17;">A68</tspan></text>
</g>
<g ewd:code="A66" ewd:figID="12" ewd:figtype="conn">
<path style="&st15;" d="M3768.05,294.51v-17"/>
<path style="&st10;" d="M3759.55,277.51h17v17h-17V277.51"/>
<text transform="matrix(1 0 0 1 3762.0435 273.8159)" style="&st9;"><tspan x="0" y="0" style="&st26; &st17;">1</tspan></text>
<text transform="matrix(1 0 0 1 3761.2632 302.6958)" style="&st9;"><tspan x="0" y="0" style="&st26; &st17;">3</tspan></text>
<text ewd:textID="17" transform="matrix(0 -1 1 0 3749.9136 297.0259)" style="&st9; &st26; &st17;">Junction <tspan x="0" y="7">Connector</tspan></text>
<text transform="matrix(0 -1 1 0 3742.8032 297.0259)" style="&st9;"><tspan x="0" y="0" style="&st26; &st17;">A66</tspan></text>
</g>
<g ewd:code="A5" ewd:figID="14" ewd:figtype="conn">
<path style="&st15;" d="M3946.52,303.01v-4.25"/>
<path style="&st10;" d="M3946.52,295.92l5.67-22.66"/>
<path style="&st15;" d="M3946.52,273.26v-4.25"/>
<path style="&st10;" d="M3955.02,303.01v-34h-17v34H3955.02"/>
<path style="&st15;" d="M3947.94,297.34c0-0.78-0.64-1.42-1.42-1.42"/>
<path style="&st15;" d="M3946.52,295.92c-0.78,0-1.42,0.64-1.42,1.42"/>
<path style="&st15;" d="M3945.1,297.34c0,0.78,0.64,1.42,1.42,1.42"/>
<path style="&st15;" d="M3946.52,298.76c0.78,0,1.42-0.64,1.42-1.42"/>
<path style="&st15;" d="M3947.94,274.68c0-0.79-0.64-1.42-1.42-1.42"/>
<path style="&st15;" d="M3946.52,273.26c-0.78,0-1.42,0.63-1.42,1.42"/>
<path style="&st15;" d="M3945.1,274.68c0,0.78,0.64,1.41,1.42,1.41"/>
<path style="&st15;" d="M3946.52,276.09c0.78,0,1.42-0.63,1.42-1.41"/>
<text transform="matrix(1 0 0 1 3940.5132 311.1958)" style="&st9;"><tspan x="0" y="0" style="&st26; &st17;">1</tspan></text>
<text transform="matrix(1 0 0 1 3939.7329 265.3159)" style="&st9;"><tspan x="0" y="0" style="&st26; &st17;">2</tspan></text>
<text ewd:textID="33" transform="matrix(0 -1 1 0 3934.3335 305.5259)" style="&st9; &st26; &st17;">Stop Light Switch Assembly</text>
<text transform="matrix(0 -1 1 0 3927.2231 305.5259)" style="&st9;"><tspan x="0" y="0" style="&st26; &st17;">A5</tspan></text>
</g>
<g ewd:code="A65" ewd:figID="16" ewd:figtype="conn">
<path style="&st15;" d="M3989.01,235.02h8.5"/>
<path style="&st15;" d="M3996.32,234.01l-0.27,0.47l-0.1,0.54l0.1,0.53l0.27,0.47l0.41,0.35l0.51,0.18h0.54l0.51-0.18l0.41-0.35l0.28-0.47l0.09-0.53l-0.09-0.54l-0.28-0.47l-0.41-0.34l-0.51-0.19h-0.54l-0.51,0.19L3996.32,234.01l0.39,0.72v0.58l0.38,0.44l0.57,0.1l0.5-0.29l0.2-0.54l-0.2-0.55l-0.5-0.29l-0.57,0.1l0.42,0.74"/>
<path style="&st15;" d="M3997.51,226.52v17"/>
<path style="&st10;" d="M3989.01,226.52h17v17h-17V226.52"/>
<text transform="matrix(1 0 0 1 3990.7231 251.7056)" style="&st9;"><tspan x="0" y="0" style="&st26; &st17;">6</tspan></text>
<text transform="matrix(1 0 0 1 3990.7231 222.8257)" style="&st9;"><tspan x="0" y="0" style="&st26; &st17;">4</tspan></text>
<text transform="matrix(1 0 0 1 3982.2329 231.3257)" style="&st9;"><tspan x="0" y="0" style="&st26; &st17;">5</tspan></text>
<text ewd:textID="17" transform="matrix(0 -1 1 0 4020.7329 246.0356)" style="&st9; &st26; &st17;">Junction <tspan x="0" y="7">Connector</tspan></text>
<text transform="matrix(0 -1 1 0 4013.6226 246.0356)" style="&st9;"><tspan x="0" y="0" style="&st26; &st17;">A65</tspan></text>
</g>
<g ewd:code="A59" ewd:figID="15" ewd:figtype="conn">
<path style="&st15;" d="M4001.76,167.03h-8.5"/>
<path style="&st10;" d="M3980.51,175.53h34v-25.5h-34V175.53"/>
<path style="&st8;" d="M3997.51,167.03l-5.66-8.5h11.33L3997.51,167.03"/>
<path style="&st15;" d="M3997.51,150.03v25.5"/>
<text transform="matrix(1 0 0 1 3990.7231 183.7163)" style="&st9;"><tspan x="0" y="0" style="&st26; &st17;">2</tspan></text>
<text transform="matrix(1 0 0 1 3991.5034 146.3354)" style="&st9;"><tspan x="0" y="0" style="&st26; &st17;">1</tspan></text>
<text ewd:textID="8" transform="matrix(0 -1 1 0 4029.2329 178.0464)" style="&st9; &st26; &st17;">Diode <tspan x="0" y="7">(Stop Light)</tspan></text>
<text transform="matrix(0 -1 1 0 4022.1226 178.0464)" style="&st9;"><tspan x="0" y="0" style="&st26; &st17;">A59</tspan></text>
</g>
<text transform="matrix(0 -1 1 0 3900.3335 407.3159)" style="&st9;"><tspan x="0" y="0" style="&st26; &st17;">V</tspan></text>
<text transform="matrix(0 -1 1 0 3900.3335 245.8462)" style="&st9;"><tspan x="0" y="0" style="&st26; &st17;">V</tspan></text>
<text transform="matrix(0 -1 1 0 3815.353 245.9858)" style="&st9;"><tspan x="0" y="0" style="&st26; &st17;">R</tspan></text>
<text transform="matrix(0 -1 1 0 3764.353 245.4858)" style="&st9;"><tspan x="0" y="0" style="&st26; &st17;">L</tspan></text>
<text transform="matrix(0 -1 1 0 3857.8433 248.2456)" style="&st9;"><tspan x="0" y="0" style="&st26; &st17;">LG</tspan></text>
<text transform="matrix(0 -1 1 0 3993.8228 599.6558)" style="&st9;"><tspan x="0" y="0" style="&st26; &st17;">W-B</tspan></text>
<text transform="matrix(0 -1 1 0 3942.8335 330.8257)" style="&st9;"><tspan x="0" y="0" style="&st26; &st17;">V</tspan></text>
<text transform="matrix(0 -1 1 0 3993.8228 313.9761)" style="&st9;"><tspan x="0" y="0" style="&st26; &st17;">R</tspan></text>
<text transform="matrix(0 -1 1 0 3764.353 330.4761)" style="&st9;"><tspan x="0" y="0" style="&st26; &st17;">L</tspan></text>
<text transform="matrix(0 -1 1 0 3764.353 398.4663)" style="&st9;"><tspan x="0" y="0" style="&st26; &st17;">L</tspan></text>
<text transform="matrix(0 -1 1 0 3993.8228 127.0063)" style="&st9;"><tspan x="0" y="0" style="&st26; &st17;">R</tspan></text>
<text transform="matrix(0 -1 1 0 3942.8335 250.2358)" style="&st9;"><tspan x="0" y="0" style="&st26; &st17;">R</tspan></text>
<text transform="matrix(0 -1 1 0 3993.8228 203.4858)" style="&st9;"><tspan x="0" y="0" style="&st26; &st17;">R</tspan></text>
<text transform="matrix(1 0 0 1 3601.8433 647.7466)" style="&st9;"><tspan x="0" y="0" style="&st26; &st17;">LG</tspan></text>
<text transform="matrix(1 0 0 1 3603.2231 664.7466)" style="&st9;"><tspan x="0" y="0" style="&st26; &st17;">W</tspan></text>
<text transform="matrix(1 0 0 1 3652.8433 647.7466)" style="&st9;"><tspan x="0" y="0" style="&st26; &st17;">LG</tspan></text>
<text transform="matrix(1 0 0 1 3654.2134 664.7466)" style="&st9;"><tspan x="0" y="0" style="&st26; &st17;">W</tspan></text>
<text transform="matrix(1 0 0 1 3604.603 171.8257)" style="&st9;"><tspan x="0" y="0" style="&st26; &st17;">L</tspan></text>
<text transform="matrix(1 0 0 1 3604.1128 154.8257)" style="&st9;"><tspan x="0" y="0" style="&st26; &st17;">R</tspan></text>
<text transform="matrix(1 0 0 1 3601.8433 137.8354)" style="&st9;"><tspan x="0" y="0" style="&st26; &st17;">LG</tspan></text>
<text transform="matrix(1 0 0 1 3604.2534 120.8354)" style="&st9;"><tspan x="0" y="0" style="&st26; &st17;">V</tspan></text>
<text transform="matrix(1 0 0 1 3655.2437 120.8354)" style="&st9;"><tspan x="0" y="0" style="&st26; &st17;">V</tspan></text>
<text transform="matrix(1 0 0 1 3652.8433 137.8354)" style="&st9;"><tspan x="0" y="0" style="&st26; &st17;">LG</tspan></text>
<text transform="matrix(1 0 0 1 3655.103 154.8257)" style="&st9;"><tspan x="0" y="0" style="&st26; &st17;">R</tspan></text>
<text transform="matrix(1 0 0 1 3655.5933 171.8257)" style="&st9;"><tspan x="0" y="0" style="&st26; &st17;">L</tspan></text>
</svg>
