﻿<?xml version="1.0" encoding="UTF-8"?>
<!DOCTYPE svg PUBLIC "-//W3C//DTD SVG 1.0//EN" "http://www.w3.org/TR/2001/REC-SVG-20010904/DTD/svg10.dtd"[
<!ENTITY ns_flows "http://ns.adobe.com/Flows/1.0/">
<!ENTITY ns_svg "http://www.w3.org/2000/svg">
<!ENTITY ns_xlink "http://www.w3.org/1999/xlink">
	<!ENTITY st0 "fill:none;stroke:#FB0F0C;stroke-width:5.1;stroke-linejoin:round;">
	<!ENTITY st1 "fill:none;stroke:#9A9999;stroke-width:5.1;stroke-linejoin:round;">
	<!ENTITY st2 "fill:none;stroke:#99280B;stroke-width:5.1;stroke-linejoin:round;">
		<!ENTITY st3 "fill:none;stroke:#000000;stroke-width:0.85;stroke-linecap:round;stroke-linejoin:round;stroke-dasharray:3 1.5;enable-background:new    ;">
	<!ENTITY st4 "fill:none;stroke:#000000;stroke-width:5.1;stroke-linejoin:round;">
	<!ENTITY st5 "fill:none;stroke:#000000;stroke-linecap:round;stroke-linejoin:round;">
	<!ENTITY st6 "fill:none;stroke:#7EC57E;stroke-width:4.54;">
	<!ENTITY st7 "stroke:#000000;stroke-width:0.28;stroke-linecap:round;stroke-linejoin:round;enable-background:new    ;">
	<!ENTITY st8 "enable-background:new    ;">
		<!ENTITY st9 "fill:none;stroke:#000000;stroke-width:1.42;stroke-linecap:round;stroke-linejoin:round;enable-background:new    ;">
	<!ENTITY st10 "fill:none;stroke:#EE67AA;stroke-width:5.1;stroke-linejoin:round;">
	<!ENTITY st11 "fill:none;stroke:#EE67AA;stroke-width:4.54;">
	<!ENTITY st12 "fill:none;stroke:#9A9999;stroke-width:4.54;">
	<!ENTITY st13 "fill:none;stroke:#199DBF;stroke-width:5.1;stroke-linejoin:round;">
	<!ENTITY st14 "opacity:0.5;fill:none;stroke:#34ACCE;stroke-linejoin:round;stroke-dasharray:6;">
	<!ENTITY st15 "fill:none;stroke:#FFFFFF;stroke-width:4.53;stroke-linejoin:round;">
		<!ENTITY st16 "fill:none;stroke:#000000;stroke-width:0.85;stroke-linecap:round;stroke-linejoin:round;enable-background:new    ;">
	<!ENTITY st17 "fill:none;stroke:#56107C;stroke-width:5.1;stroke-linejoin:round;">
	<!ENTITY st18 "font-size:6px;">
	<!ENTITY st19 "fill:none;stroke:#FFFFFF;stroke-width:2.27;stroke-linejoin:round;">
	<!ENTITY st20 "fill:none;stroke:#FB0F0C;stroke-width:1.13;stroke-linejoin:round;">
	<!ENTITY st21 "fill:none;stroke:#168638;stroke-width:5.1;stroke-linejoin:round;">
	<!ENTITY st22 "fill:none;stroke:#000000;stroke-width:1.13;stroke-linejoin:round;">
		<!ENTITY st23 "fill:none;stroke:#000000;stroke-width:1.13;stroke-linecap:round;stroke-linejoin:round;stroke-dasharray:3 1.5;enable-background:new    ;">
	<!ENTITY st24 "fill:#FFFFFF;stroke:#000000;stroke-width:1.41;stroke-linecap:round;stroke-linejoin:round;">
	<!ENTITY st25 "fill:none;stroke:#3E65AC;stroke-width:3;">
	<!ENTITY st26 "fill:#CCCCCC;stroke:#CCCCCC;stroke-width:0.1;stroke-linecap:round;stroke-linejoin:round;">
	<!ENTITY st27 "fill:none;stroke:#000000;stroke-width:5.1;stroke-linejoin:round;enable-background:new    ;">
	<!ENTITY st28 "font-family:'ArialMT';">
	<!ENTITY st29 "fill:none;stroke:#168638;stroke-width:1.13;stroke-linejoin:round;">
	<!ENTITY st30 "opacity:0.5;fill:none;stroke:#34ACCE;stroke-linejoin:round;">
	<!ENTITY st31 "fill:#CFE6E7;stroke:#000000;stroke-width:1.133;stroke-linecap:round;stroke-linejoin:round;">
	<!ENTITY st32 "fill:none;stroke:#99D5E0;stroke-width:5.1;stroke-linejoin:round;">
	<!ENTITY st33 "fill:none;stroke:#FFFFFF;stroke-width:1.13;stroke-linejoin:round;enable-background:new    ;">
	<!ENTITY st34 "fill:none;stroke:#000000;stroke-width:0.85;stroke-linecap:round;stroke-linejoin:round;">
	<!ENTITY st35 "fill:none;stroke:#7EC57E;stroke-width:5.1;stroke-linejoin:round;">
<!ATTLIST svg
xmlns:ewd CDATA #FIXED "http://shcl.co.jp/ewd"
xmlns:a CDATA #FIXED "http://ns.adobe.com/AdobeSVGViewerExtensions/3.0/"
ewd:ver CDATA #IMPLIED
>
<!ATTLIST a
ewd:lineID CDATA #IMPLIED
ewd:groupID CDATA #IMPLIED
ewd:figtype CDATA #IMPLIED
ewd:code CDATA #IMPLIED
ewd:figID CDATA #IMPLIED
ewd:pinNo CDATA #IMPLIED
ewd:comment CDATA #IMPLIED >
<!ATTLIST g
ewd:lineID CDATA #IMPLIED
ewd:groupID CDATA #IMPLIED
ewd:figtype CDATA #IMPLIED
ewd:code CDATA #IMPLIED
ewd:figID CDATA #IMPLIED
ewd:pinNo CDATA #IMPLIED
ewd:comment CDATA #IMPLIED >
<!ATTLIST text
ewd:textID CDATA #IMPLIED >
<!ATTLIST title
ewd:textID CDATA #IMPLIED >
]>
<svg 
viewBox='0 0 4668.69 729.44'
height='729.44'
width='4668.69'
xml:space="preserve"
xmlns="&ns_svg;"
xmlns:ewd="http://shcl.co.jp/ewd"
xmlns:xlink="&ns_xlink;" ewd:ver="L2.1">
<g ewd:code="CG2" ewd:figID="6040" ewd:figtype="w2w" ewd:pinNo="19">
<path style="&st9;" d="M4413.25,574.96h8.5"/>
<path style="&st9;" d="M4417.49,565.89l4.25,4.25l4.25-4.25"/>
<path style="&st9;" d="M4425.99,569.28l-4.25,4.25l-4.25-4.25"/>
<text transform="matrix(1 0 0 1 4403.5767 581.1753)" style="&st8;"><tspan x="0" y="0" style="&st28; &st18;">19</tspan></text>
</g>
<g ewd:code="312001" ewd:figID="5001" ewd:figtype="sp">
<path style="&st9;" d="M4430.24,639.42l-4.97-4.97"/>
<path style="&st9;" d="M4413.25,646.48l4.97,4.97"/>
<path style="&st9;" d="M4425.27,651.44l4.97-4.97"/>
<path style="&st9;" d="M4418.22,634.44l-4.97,4.97"/>
</g>
<g ewd:code="FUSE10" ewd:figID="4002" ewd:figtype="rb">
<path style="&st5;" d="M4281.52,39.55v42.49h25.49V39.55H4281.52"/>
<path style="&st9;" d="M4296.39,107.54h-4.25"/>
<path style="&st9;" d="M4296.39,99.04h-4.25"/>
<path style="&st16;" d="M4294.27,73.54v25.5"/>
<path style="&st9;" d="M4281.52,39.55v42.49h25.49V39.55H4281.52"/>
<path style="&st7;" d="M4294.27,94.14l-2.84-2.83v4.25l2.84,2.83l2.83-2.83v-4.25L4294.27,94.14"/>
<path style="&st9;" d="M4300.64,103.29c0-2.35-1.9-4.25-4.25-4.25"/>
<path style="&st9;" d="M4296.39,107.54c2.35,0,4.25-1.9,4.25-4.25"/>
<path style="&st9;" d="M4287.89,103.29c0,2.35,1.91,4.25,4.25,4.25"/>
<path style="&st9;" d="M4292.14,99.04c-2.34,0-4.25,1.9-4.25,4.25"/>
<path style="&st16;" d="M4295.68,72.13c0-0.79-0.63-1.42-1.41-1.42"/>
<path style="&st16;" d="M4294.27,70.71c-0.79,0-1.42,0.63-1.42,1.42"/>
<path style="&st16;" d="M4292.85,72.13c0,0.78,0.63,1.41,1.42,1.41"/>
<path style="&st16;" d="M4294.27,73.54c0.78,0,1.41-0.63,1.41-1.41"/>
<path style="&st16;" d="M4295.68,49.46c0-0.78-0.63-1.41-1.41-1.41"/>
<path style="&st16;" d="M4294.27,48.05c-0.79,0-1.42,0.63-1.42,1.41"/>
<path style="&st16;" d="M4292.85,49.46c0,0.79,0.63,1.42,1.42,1.42"/>
<path style="&st16;" d="M4294.27,50.88c0.78,0,1.41-0.63,1.41-1.42"/>
<path style="&st9;" d="M4294.27,70.71c2.73-1.61,3.65-5.14,2.03-7.88"/>
<path style="&st9;" d="M4296.3,62.83c-0.52-0.88-1.15-1.51-2.03-2.03"/>
<path style="&st9;" d="M4294.27,50.88c-2.74,1.61-3.65,5.14-2.04,7.88"/>
<path style="&st9;" d="M4292.23,58.76c0.52,0.88,1.15,1.52,2.04,2.04"/>
<text transform="matrix(1 0 0 1 4285.1509 35.8457)" style="&st8;"><tspan x="0" y="0" style="&st28; &st18;">(BAT)</tspan></text>
<text transform="matrix(1 0 0 1 4287.481 90.2354)" style="&st8;"><tspan x="0" y="0" style="&st28; &st18;">2</tspan></text>
<text transform="matrix(1 0 0 1 4292.6821 105.2559)" style="&st8;"><tspan x="0" y="0" style="&st28; &st18;">1</tspan></text>
<text transform="matrix(1 0 0 1 4311.5708 59.9355)" style="&st8;"><tspan x="0" y="0" style="&st28; &st18;">10A</tspan></text>
<text transform="matrix(1 0 0 1 4311.5708 65.9355)" style="&st8;"><tspan x="0" y="0" style="&st28; &st18;">ECU-B</tspan></text>
</g>
<g ewd:code="3JB" ewd:figID="3004" ewd:figtype="jb">
<path style="&st9;" d="M4038.93,218.02h-4.25"/>
<path style="&st9;" d="M4038.93,167.03h-4.25"/>
<path style="&st9;" d="M4038.93,175.53h-4.25"/>
<path style="&st9;" d="M4038.93,209.52h-4.25"/>
<path style="&st9;" d="M4106.92,218.02h-4.25"/>
<path style="&st9;" d="M4106.92,209.52h-4.25"/>
<path style="&st9;" d="M4106.92,175.53h-4.25"/>
<path style="&st9;" d="M4106.92,167.03h-4.25"/>
<path style="&st16;" d="M4036.8,209.52v-33.99"/>
<path style="&st7;" d="M4036.8,204.63l-2.83-2.84v4.25l2.83,2.84l2.83-2.84v-4.25L4036.8,204.63"/>
<path style="&st7;" d="M4036.8,180.42l2.83,2.83v-4.24l-2.83-2.84l-2.83,2.84v4.24L4036.8,180.42"/>
<path style="&st16;" d="M4104.79,209.52v-33.99"/>
<path style="&st7;" d="M4104.79,204.63l-2.83-2.84v4.25l2.83,2.84l2.83-2.84v-4.25L4104.79,204.63"/>
<path style="&st7;" d="M4104.79,180.42l2.83,2.83v-4.24l-2.83-2.84l-2.83,2.84v4.24L4104.79,180.42"/>
<path style="&st9;" d="M4043.18,213.77c0-2.35-1.91-4.25-4.25-4.25"/>
<path style="&st9;" d="M4038.93,218.02c2.34,0,4.25-1.9,4.25-4.25"/>
<path style="&st9;" d="M4030.43,213.77c0,2.35,1.9,4.25,4.25,4.25"/>
<path style="&st9;" d="M4034.68,209.52c-2.35,0-4.25,1.9-4.25,4.25"/>
<path style="&st9;" d="M4043.18,171.28c0-2.35-1.91-4.25-4.25-4.25"/>
<path style="&st9;" d="M4038.93,175.53c2.34,0,4.25-1.91,4.25-4.25"/>
<path style="&st9;" d="M4030.43,171.28c0,2.34,1.9,4.25,4.25,4.25"/>
<path style="&st9;" d="M4034.68,167.03c-2.35,0-4.25,1.9-4.25,4.25"/>
<path style="&st9;" d="M4111.16,213.77c0-2.35-1.9-4.25-4.24-4.25"/>
<path style="&st9;" d="M4106.92,218.02c2.34,0,4.24-1.9,4.24-4.25"/>
<path style="&st9;" d="M4098.42,213.77c0,2.35,1.9,4.25,4.25,4.25"/>
<path style="&st9;" d="M4102.67,209.52c-2.35,0-4.25,1.9-4.25,4.25"/>
<path style="&st9;" d="M4111.16,171.28c0-2.35-1.9-4.25-4.24-4.25"/>
<path style="&st9;" d="M4106.92,175.53c2.34,0,4.24-1.91,4.24-4.25"/>
<path style="&st9;" d="M4098.42,171.28c0,2.34,1.9,4.25,4.25,4.25"/>
<path style="&st9;" d="M4102.67,167.03c-2.35,0-4.25,1.9-4.25,4.25"/>
<text transform="matrix(1 0 0 1 4100.481 173.2456)" style="&st8;"><tspan x="0" y="0" style="&st28; &st18;">3B</tspan></text>
<text transform="matrix(1 0 0 1 4092.8813 173.2456)" style="&st8;"><tspan x="0" y="0" style="&st28; &st18;">1</tspan></text>
<text transform="matrix(1 0 0 1 4100.3423 215.7354)" style="&st8;"><tspan x="0" y="0" style="&st28; &st18;">3C</tspan></text>
<text transform="matrix(1 0 0 1 4092.8813 215.7354)" style="&st8;"><tspan x="0" y="0" style="&st28; &st18;">1</tspan></text>
<text transform="matrix(1 0 0 1 4032.4907 173.2456)" style="&st8;"><tspan x="0" y="0" style="&st28; &st18;">3B</tspan></text>
<text transform="matrix(1 0 0 1 4024.1118 173.2456)" style="&st8;"><tspan x="0" y="0" style="&st28; &st18;">4</tspan></text>
<text transform="matrix(1 0 0 1 4032.3521 215.7354)" style="&st8;"><tspan x="0" y="0" style="&st28; &st18;">3C</tspan></text>
<text transform="matrix(1 0 0 1 4024.1118 215.7354)" style="&st8;"><tspan x="0" y="0" style="&st28; &st18;">4</tspan></text>
</g>
<g ewd:code="2" ewd:figID="3005" ewd:figtype="jb">
<path style="&st9;" d="M4296.39,192.52h-4.25"/>
<path style="&st9;" d="M4296.39,184.03h-4.25"/>
<path style="&st9;" d="M4296.39,150.03h-4.25"/>
<path style="&st9;" d="M4296.39,141.53h-4.25"/>
<path style="&st7;" d="M4294.27,154.93l2.83,2.83v-4.25l-2.83-2.83l-2.84,2.83v4.25L4294.27,154.93"/>
<path style="&st7;" d="M4294.27,179.13l-2.84-2.83v4.25l2.84,2.83l2.83-2.83v-4.25L4294.27,179.13"/>
<path style="&st16;" d="M4294.27,184.03v-34"/>
<path style="&st9;" d="M4292.14,141.53c-2.34,0-4.25,1.9-4.25,4.25"/>
<path style="&st9;" d="M4287.89,145.78c0,2.35,1.91,4.25,4.25,4.25"/>
<path style="&st9;" d="M4296.39,150.03c2.35,0,4.25-1.9,4.25-4.25"/>
<path style="&st9;" d="M4300.64,145.78c0-2.35-1.9-4.25-4.25-4.25"/>
<path style="&st9;" d="M4292.14,184.03c-2.34,0-4.25,1.9-4.25,4.24"/>
<path style="&st9;" d="M4287.89,188.27c0,2.35,1.91,4.25,4.25,4.25"/>
<path style="&st9;" d="M4296.39,192.52c2.35,0,4.25-1.9,4.25-4.25"/>
<path style="&st9;" d="M4300.64,188.27c0-2.34-1.9-4.24-4.25-4.24"/>
<text transform="matrix(1 0 0 1 4290.1724 147.7456)" style="&st8;"><tspan x="0" y="0" style="&st28; &st18;">2F</tspan></text>
<text transform="matrix(1 0 0 1 4277.6216 147.7456)" style="&st8;"><tspan x="0" y="0" style="&st28; &st18;">39</tspan></text>
<text transform="matrix(1 0 0 1 4289.8208 190.2354)" style="&st8;"><tspan x="0" y="0" style="&st28; &st18;">2D</tspan></text>
<text transform="matrix(1 0 0 1 4278.4009 190.2354)" style="&st8;"><tspan x="0" y="0" style="&st28; &st18;">14</tspan></text>
</g>
<g ewd:code="3JB" ewd:figID="3006" ewd:figtype="jb">
<path style="&st9;" d="M4372.88,141.53h-4.25"/>
<path style="&st9;" d="M4372.88,150.03h-4.25"/>
<path style="&st9;" d="M4372.88,184.03h-4.25"/>
<path style="&st9;" d="M4372.88,192.52h-4.25"/>
<path style="&st7;" d="M4370.75,154.93l2.84,2.83v-4.25l-2.84-2.83l-2.83,2.83v4.25L4370.75,154.93"/>
<path style="&st7;" d="M4370.75,179.13l-2.83-2.83v4.25l2.83,2.83l2.84-2.83v-4.25L4370.75,179.13"/>
<path style="&st16;" d="M4370.75,184.03v-34"/>
<path style="&st9;" d="M4368.63,141.53c-2.35,0-4.25,1.9-4.25,4.25"/>
<path style="&st9;" d="M4364.38,145.78c0,2.35,1.9,4.25,4.25,4.25"/>
<path style="&st9;" d="M4372.88,150.03c2.35,0,4.25-1.9,4.25-4.25"/>
<path style="&st9;" d="M4377.13,145.78c0-2.35-1.9-4.25-4.25-4.25"/>
<path style="&st9;" d="M4368.63,184.03c-2.35,0-4.25,1.9-4.25,4.24"/>
<path style="&st9;" d="M4364.38,188.27c0,2.35,1.9,4.25,4.25,4.25"/>
<path style="&st9;" d="M4372.88,192.52c2.35,0,4.25-1.9,4.25-4.25"/>
<path style="&st9;" d="M4377.13,188.27c0-2.34-1.9-4.24-4.25-4.24"/>
<text transform="matrix(1 0 0 1 4366.4419 147.7456)" style="&st8;"><tspan x="0" y="0" style="&st28; &st18;">3B</tspan></text>
<text transform="matrix(1 0 0 1 4354.1118 147.7456)" style="&st8;"><tspan x="0" y="0" style="&st28; &st18;">30</tspan></text>
<text transform="matrix(1 0 0 1 4366.4419 190.2354)" style="&st8;"><tspan x="0" y="0" style="&st28; &st18;">3A</tspan></text>
<text transform="matrix(1 0 0 1 4357.6118 190.2354)" style="&st8;"><tspan x="0" y="0" style="&st28; &st18;">2</tspan></text>
</g>
<g ewd:code="2" ewd:figID="3007" ewd:figtype="jb">
<path style="&st5;" d="M4417.5,39.55v42.49h25.49V39.55H4417.5"/>
<path style="&st9;" d="M4432.37,99.04h-4.25"/>
<path style="&st9;" d="M4432.37,107.54h-4.25"/>
<path style="&st16;" d="M4430.24,73.54v25.5"/>
<path style="&st9;" d="M4417.49,39.55v42.49h25.5V39.55H4417.49"/>
<path style="&st7;" d="M4430.24,94.14l-2.83-2.83v4.25l2.83,2.83l2.84-2.83v-4.25L4430.24,94.14"/>
<path style="&st9;" d="M4436.62,103.29c0-2.35-1.9-4.25-4.25-4.25"/>
<path style="&st9;" d="M4432.37,107.54c2.35,0,4.25-1.9,4.25-4.25"/>
<path style="&st9;" d="M4428.12,99.04c-2.35,0-4.25,1.9-4.25,4.25"/>
<path style="&st16;" d="M4431.66,72.13c0-0.79-0.63-1.42-1.42-1.42"/>
<path style="&st16;" d="M4430.24,70.71c-0.78,0-1.41,0.63-1.41,1.42"/>
<path style="&st16;" d="M4428.83,72.13c0,0.78,0.63,1.41,1.41,1.41"/>
<path style="&st16;" d="M4430.24,73.54c0.79,0,1.42-0.63,1.42-1.41"/>
<path style="&st9;" d="M4430.24,50.88c-2.73,1.61-3.65,5.14-2.03,7.88"/>
<path style="&st9;" d="M4428.21,58.76c0.52,0.88,1.15,1.52,2.03,2.04"/>
<path style="&st9;" d="M4423.87,103.29c0,2.35,1.9,4.25,4.25,4.25"/>
<path style="&st9;" d="M4430.24,70.71c2.74-1.61,3.65-5.14,2.04-7.88"/>
<path style="&st9;" d="M4432.28,62.83c-0.52-0.88-1.15-1.51-2.04-2.03"/>
<path style="&st16;" d="M4431.66,49.46c0-0.78-0.63-1.41-1.42-1.41"/>
<path style="&st16;" d="M4430.24,48.05c-0.78,0-1.41,0.63-1.41,1.41"/>
<path style="&st16;" d="M4428.83,49.46c0,0.79,0.63,1.42,1.41,1.42"/>
<path style="&st16;" d="M4430.24,50.88c0.79,0,1.42-0.63,1.42-1.42"/>
<text transform="matrix(1 0 0 1 4413.6021 105.2559)" style="&st8;"><tspan x="0" y="0" style="&st28; &st18;">55</tspan></text>
<text transform="matrix(1 0 0 1 4424.1724 35.8457)" style="&st8;"><tspan x="0" y="0" style="&st28; &st18;">(IG)</tspan></text>
<text transform="matrix(1 0 0 1 4425.9321 105.2559)" style="&st8;"><tspan x="0" y="0" style="&st28; &st18;">2A</tspan></text>
<text transform="matrix(1 0 0 1 4447.5513 59.9355)" style="&st8;"><tspan x="0" y="0" style="&st28; &st18;">7.5A</tspan></text>
<text transform="matrix(1 0 0 1 4447.5513 65.9355)" style="&st8;"><tspan x="0" y="0" style="&st28; &st18;">GAUGE</tspan></text>
</g>
<g ewd:code="3JB" ewd:figID="3009" ewd:figtype="jb">
<path style="&st9;" d="M4423.87,472.98h-4.25"/>
<path style="&st9;" d="M4423.87,464.48h-4.25"/>
<path style="&st9;" d="M4423.87,430.48h-4.25"/>
<path style="&st9;" d="M4423.87,421.99h-4.25"/>
<path style="&st16;" d="M4421.74,464.48v-34"/>
<path style="&st7;" d="M4421.74,459.58l-2.83-2.83V461l2.83,2.83l2.84-2.83v-4.25L4421.74,459.58"/>
<path style="&st7;" d="M4421.74,435.38l2.84,2.83v-4.25l-2.84-2.83l-2.83,2.83v4.25L4421.74,435.38"/>
<path style="&st9;" d="M4428.12,468.73c0-2.35-1.9-4.25-4.25-4.25"/>
<path style="&st9;" d="M4423.87,472.98c2.35,0,4.25-1.91,4.25-4.25"/>
<path style="&st9;" d="M4415.37,468.73c0,2.34,1.9,4.25,4.25,4.25"/>
<path style="&st9;" d="M4419.62,464.48c-2.35,0-4.25,1.9-4.25,4.25"/>
<path style="&st9;" d="M4428.12,426.23c0-2.34-1.9-4.24-4.25-4.24"/>
<path style="&st9;" d="M4423.87,430.48c2.35,0,4.25-1.9,4.25-4.25"/>
<path style="&st9;" d="M4415.37,426.23c0,2.35,1.9,4.25,4.25,4.25"/>
<path style="&st9;" d="M4419.62,421.99c-2.35,0-4.25,1.9-4.25,4.24"/>
<text transform="matrix(1 0 0 1 4405.1021 470.6948)" style="&st8;"><tspan x="0" y="0" style="&st28; &st18;">25</tspan></text>
<text transform="matrix(1 0 0 1 4417.4419 470.6948)" style="&st8;"><tspan x="0" y="0" style="&st28; &st18;">3B</tspan></text>
<text transform="matrix(1 0 0 1 4405.1021 428.1948)" style="&st8;"><tspan x="0" y="0" style="&st28; &st18;">55</tspan></text>
<text transform="matrix(1 0 0 1 4417.4419 428.1948)" style="&st8;"><tspan x="0" y="0" style="&st28; &st18;">3A</tspan></text>
</g>
<g ewd:code="4JB" ewd:figID="3010" ewd:figtype="jb">
<path style="&st9;" d="M4423.87,540.97h-4.25"/>
<path style="&st9;" d="M4423.87,532.47h-4.25"/>
<path style="&st9;" d="M4423.87,498.47h-4.25"/>
<path style="&st9;" d="M4423.87,489.97h-4.25"/>
<path style="&st16;" d="M4421.74,532.47v-34"/>
<path style="&st7;" d="M4421.74,527.57l-2.83-2.83v4.25l2.83,2.83l2.84-2.83v-4.25L4421.74,527.57"/>
<path style="&st7;" d="M4421.74,503.36l2.84,2.83v-4.25l-2.84-2.83l-2.83,2.83v4.25L4421.74,503.36"/>
<path style="&st9;" d="M4428.12,536.72c0-2.35-1.9-4.25-4.25-4.25"/>
<path style="&st9;" d="M4423.87,540.97c2.35,0,4.25-1.91,4.25-4.25"/>
<path style="&st9;" d="M4415.37,536.72c0,2.34,1.9,4.25,4.25,4.25"/>
<path style="&st9;" d="M4419.62,532.47c-2.35,0-4.25,1.9-4.25,4.25"/>
<path style="&st9;" d="M4428.12,494.22c0-2.34-1.9-4.25-4.25-4.25"/>
<path style="&st9;" d="M4423.87,498.47c2.35,0,4.25-1.9,4.25-4.25"/>
<path style="&st9;" d="M4415.37,494.22c0,2.35,1.9,4.25,4.25,4.25"/>
<path style="&st9;" d="M4419.62,489.97c-2.35,0-4.25,1.91-4.25,4.25"/>
<text transform="matrix(1 0 0 1 4405.8813 538.6851)" style="&st8;"><tspan x="0" y="0" style="&st28; &st18;">10</tspan></text>
<text transform="matrix(1 0 0 1 4417.4419 538.6851)" style="&st8;"><tspan x="0" y="0" style="&st28; &st18;">4B</tspan></text>
<text transform="matrix(1 0 0 1 4405.1021 496.1851)" style="&st8;"><tspan x="0" y="0" style="&st28; &st18;">70</tspan></text>
<text transform="matrix(1 0 0 1 4417.4419 496.1851)" style="&st8;"><tspan x="0" y="0" style="&st28; &st18;">4A</tspan></text>
</g>
<g ewd:code="C4" ewd:figID="2005" ewd:figtype="gp">
<path style="&st16;" d="M4421.74,701.02v4.25"/>
<path style="&st16;" d="M4413.25,705.27h16.99"/>
<path style="&st16;" d="M4417.49,708.1h8.5"/>
<path style="&st16;" d="M4418.91,710.94h5.67"/>
<path style="&st16;" d="M4420.33,713.77h2.83"/>
</g>
<g ewd:code="C1" ewd:figID="2004" ewd:figtype="gp">
<path style="&st16;" d="M4370.75,701.02v4.25"/>
<path style="&st16;" d="M4362.25,705.27h17"/>
<path style="&st16;" d="M4366.5,708.1h8.5"/>
<path style="&st16;" d="M4367.92,710.94h5.67"/>
<path style="&st16;" d="M4369.34,713.77h2.83"/>
</g>
<g ewd:code="C2" ewd:figID="2006" ewd:figtype="gp">
<path style="&st16;" d="M4472.75,701.02v4.25"/>
<path style="&st16;" d="M4464.25,705.27h17"/>
<path style="&st16;" d="M4468.5,708.1h8.5"/>
<path style="&st16;" d="M4469.92,710.94h5.67"/>
<path style="&st16;" d="M4471.34,713.77h2.83"/>
</g>
<g ewd:code="G6-A" ewd:figID="22" ewd:figtype="conn">
<path style="&st16;" d="M4264.52,303.01h-8.5"/>
<path style="&st16;" d="M4273.01,293.34l-7.37,4.25"/>
<path style="&st16;" d="M4267.65,301.06l7.36-4.25"/>
<path style="&st16;" d="M4256.02,260.51h8.5"/>
<path style="&st16;" d="M4260.27,328.5v-67.99"/>
<path style="&st7;" d="M4260.27,303.01l-5.66-8.5h11.33L4260.27,303.01"/>
<path style="&st16;" d="M4273,293.34l-2.33,3.04l-1.47-2.54L4273,293.34l-1.28,0.74l-0.98,1.29l-0.62-1.08l1.6-0.21l-0.64,0.37l-0.31,0.41l-0.2-0.34l0.51-0.07"/>
<path style="&st16;" d="M4275.01,296.81l-2.34,3.04l-1.46-2.54L4275.01,296.81l-1.29,0.74l-0.98,1.28l-0.62-1.07l1.6-0.21l-0.64,0.37l-0.31,0.41l-0.19-0.34l0.5-0.07"/>
<path style="&st16;" d="M4421.74,354v25.49"/>
<path style="&st16;" d="M4430.24,235.02v50.99"/>
<path style="&st16;" d="M4370.75,235.02v50.99"/>
<path style="&st9;" d="M4362.25,286.01v25.49h76.49v-25.49H4362.25"/>
<path style="&st16;" d="M4302.76,354v25.49"/>
<path style="&st16;" d="M4260.27,354v25.49"/>
<path style="&st9;" d="M4209.28,328.5h270.44V354h-270.44V328.5"/>
<path style="&st9;" d="M4200.78,235.02v144.47h287.44V235.02H4200.78"/>
<path style="&st9;" d="M4307.3,384.02c0-2.51-2.03-4.54-4.53-4.54"/>
<path style="&st9;" d="M4302.77,379.49c-2.51,0-4.54,2.03-4.54,4.54"/>
<path style="&st9;" d="M4298.23,384.02c0,2.5,2.03,4.53,4.54,4.53"/>
<path style="&st9;" d="M4302.77,388.56c2.5,0,4.53-2.03,4.53-4.53"/>
<path style="&st9;" d="M4264.8,384.02c0-2.51-2.02-4.54-4.53-4.54"/>
<path style="&st9;" d="M4260.27,379.49c-2.5,0-4.53,2.03-4.53,4.54"/>
<path style="&st9;" d="M4255.74,384.02c0,2.5,2.03,4.53,4.53,4.53"/>
<path style="&st9;" d="M4260.27,388.56c2.51,0,4.53-2.03,4.53-4.53"/>
<path style="&st9;" d="M4375.29,230.48c0-2.5-2.03-4.53-4.54-4.53"/>
<path style="&st9;" d="M4370.75,225.95c-2.5,0-4.53,2.03-4.53,4.53"/>
<path style="&st9;" d="M4366.22,230.48c0,2.51,2.03,4.54,4.53,4.54"/>
<path style="&st9;" d="M4370.75,235.02c2.51,0,4.54-2.03,4.54-4.54"/>
<path style="&st9;" d="M4434.78,230.48c0-2.5-2.03-4.53-4.54-4.53"/>
<path style="&st9;" d="M4430.24,225.95c-2.5,0-4.53,2.03-4.53,4.53"/>
<path style="&st9;" d="M4425.71,230.48c0,2.51,2.03,4.54,4.53,4.54"/>
<path style="&st9;" d="M4430.24,235.02c2.51,0,4.54-2.03,4.54-4.54"/>
<path style="&st9;" d="M4426.28,384.02c0-2.51-2.03-4.54-4.53-4.54"/>
<path style="&st9;" d="M4421.75,379.49c-2.51,0-4.54,2.03-4.54,4.54"/>
<path style="&st9;" d="M4417.21,384.02c0,2.5,2.03,4.53,4.54,4.53"/>
<path style="&st9;" d="M4421.75,388.56c2.5,0,4.53-2.03,4.53-4.53"/>
<text transform="matrix(1 0 0 1 4433.0806 243.2056)" style="&st8;"><tspan x="0" y="0" style="&st28; &st18;">IG+</tspan></text>
<text ewd:textID="14" transform="matrix(0 -1 1 0 4502.9419 382.0151)" style="&st8; &st28; &st18;">Combination Meter Assembly</text>
<text transform="matrix(0 -1 1 0 4495.8306 382.0151)" style="&st8;"><tspan x="0" y="0" style="&st28; &st18;">G6(A)</tspan></text>
<text ewd:textID="31" transform="matrix(1 0 0 1 4378.561 297.8955)" style="&st8; &st28; &st18;">Power Supply <tspan x="0" y="7">Circuit</tspan></text>
<text transform="matrix(1 0 0 1 4373.5923 243.2056)" style="&st8;"><tspan x="0" y="0" style="&st28; &st18;">B</tspan></text>
<text transform="matrix(1 0 0 1 4263.1118 375.7954)" style="&st8;"><tspan x="0" y="0" style="&st28; &st18;">CANL</tspan></text>
<text transform="matrix(1 0 0 1 4305.6021 375.7954)" style="&st8;"><tspan x="0" y="0" style="&st28; &st18;">CANH</tspan></text>
<text ewd:textID="26" transform="matrix(1 0 0 1 4322.2075 343.2158)" style="&st8; &st28; &st18;">Micro Computer</text>
<text ewd:textID="12" transform="matrix(0 -1 1 0 4252.3306 316.6958)" style="&st8; &st28; &st18;">Auto Leveling</text>
<text transform="matrix(1 0 0 1 4254.5513 257.0957)" style="&st8;"><tspan x="0" y="0" style="&st28; &st18;">IG2</tspan></text>
<text transform="matrix(1 0 0 1 4300.4321 385.9858)" style="&st8;"><tspan x="0" y="0" style="&st28; &st18;">A</tspan></text>
<text transform="matrix(1 0 0 1 4287.9321 385.9858)" style="&st8;"><tspan x="0" y="0" style="&st28; &st18;">40</tspan></text>
<text transform="matrix(1 0 0 1 4257.9419 385.9858)" style="&st8;"><tspan x="0" y="0" style="&st28; &st18;">A</tspan></text>
<text transform="matrix(1 0 0 1 4245.4419 385.9858)" style="&st8;"><tspan x="0" y="0" style="&st28; &st18;">39</tspan></text>
<text transform="matrix(1 0 0 1 4368.4224 232.4458)" style="&st8;"><tspan x="0" y="0" style="&st28; &st18;">A</tspan></text>
<text transform="matrix(1 0 0 1 4355.9224 232.4458)" style="&st8;"><tspan x="0" y="0" style="&st28; &st18;">26</tspan></text>
<text transform="matrix(1 0 0 1 4415.4106 232.4458)" style="&st8;"><tspan x="0" y="0" style="&st28; &st18;">28</tspan></text>
<text transform="matrix(1 0 0 1 4427.9106 232.4458)" style="&st8;"><tspan x="0" y="0" style="&st28; &st18;">A</tspan></text>
<text transform="matrix(1 0 0 1 4424.5806 375.7954)" style="&st8;"><tspan x="0" y="0" style="&st28; &st18;">E2</tspan></text>
<text transform="matrix(1 0 0 1 4407.6919 385.9858)" style="&st8;"><tspan x="0" y="0" style="&st28; &st18;">21</tspan></text>
<text transform="matrix(1 0 0 1 4419.4106 385.9858)" style="&st8;"><tspan x="0" y="0" style="&st28; &st18;">A</tspan></text>
</g>
<text transform="matrix(0 -1 1 0 4418.0513 622.3296)" style="&st8;"><tspan x="0" y="0" style="&st28; &st18;">BR</tspan></text>
<text transform="matrix(0 -1 1 0 4429.3813 622.9956)" style="&st8;"><tspan x="0" y="0" style="&st28; &st18;">(*4)</tspan></text>
<text transform="matrix(0 -1 1 0 4426.5513 160.9956)" style="&st8;"><tspan x="0" y="0" style="&st28; &st18;">R</tspan></text>
<text transform="matrix(0 -1 1 0 4367.061 211.4956)" style="&st8;"><tspan x="0" y="0" style="&st28; &st18;">L</tspan></text>
<text transform="matrix(0 -1 1 0 4290.5708 126.5059)" style="&st8;"><tspan x="0" y="0" style="&st28; &st18;">L</tspan></text>
<text transform="matrix(0 -1 1 0 4367.061 622.3296)" style="&st8;"><tspan x="0" y="0" style="&st28; &st18;">BR</tspan></text>
<text transform="matrix(0 -1 1 0 4378.3911 622.9956)" style="&st8;"><tspan x="0" y="0" style="&st28; &st18;">(*3)</tspan></text>
<text transform="matrix(0 -1 1 0 4333.061 169.0059)" style="&st8;"><tspan x="0" y="0" style="&st28; &st18;">L</tspan></text>
<text transform="matrix(0 -1 1 0 4418.0513 562.7651)" style="&st8;"><tspan x="0" y="0" style="&st28; &st18;">BR</tspan></text>
<text transform="matrix(0 -1 1 0 4418.0513 486.2749)" style="&st8;"><tspan x="0" y="0" style="&st28; &st18;">BR</tspan></text>
<text transform="matrix(0 -1 1 0 4418.0513 409.7856)" style="&st8;"><tspan x="0" y="0" style="&st28; &st18;">BR</tspan></text>
<text transform="matrix(0 -1 1 0 4101.1021 137.6958)" style="&st8;"><tspan x="0" y="0" style="&st28; &st18;">SB</tspan></text>
<text transform="matrix(0 -1 1 0 4101.1021 265.1655)" style="&st8;"><tspan x="0" y="0" style="&st28; &st18;">SB</tspan></text>
<text transform="matrix(0 -1 1 0 4033.1118 136.3857)" style="&st8;"><tspan x="0" y="0" style="&st28; &st18;">W</tspan></text>
<text transform="matrix(0 -1 1 0 4033.1118 263.8657)" style="&st8;"><tspan x="0" y="0" style="&st28; &st18;">W</tspan></text>
<text transform="matrix(0 -1 1 0 4256.5806 416.8354)" style="&st8;"><tspan x="0" y="0" style="&st28; &st18;">W</tspan></text>
<text transform="matrix(0 -1 1 0 4299.0708 418.2163)" style="&st8;"><tspan x="0" y="0" style="&st28; &st18;">LG</tspan></text>
<text transform="matrix(1 0 0 1 4169.4224 596.7554)" style="&st8;"><tspan x="0" y="0" style="&st28; &st18;">W</tspan></text>
<text transform="matrix(1 0 0 1 4168.0513 613.7554)" style="&st8;"><tspan x="0" y="0" style="&st28; &st18;">LG</tspan></text>
<text transform="matrix(1 0 0 1 4118.4321 596.7554)" style="&st8;"><tspan x="0" y="0" style="&st28; &st18;">W</tspan></text>
<text transform="matrix(1 0 0 1 4117.0513 613.7554)" style="&st8;"><tspan x="0" y="0" style="&st28; &st18;">LG</tspan></text>
<text transform="matrix(1 0 0 1 4110.7622 291.3755)" style="&st8;"><tspan x="0" y="0" style="&st28; &st18;">(*5)</tspan></text>
<text transform="matrix(1 0 0 1 4110.7622 300.4355)" style="&st8;"><tspan x="0" y="0" style="&st28; &st18;">(*6)</tspan></text>
<text transform="matrix(0 -1 1 0 4418.0513 676.1362)" style="&st8;"><tspan x="0" y="0" style="&st28; &st18;">W-B</tspan></text>
<text transform="matrix(0 -1 1 0 4429.3813 674.6265)" style="&st8;"><tspan x="0" y="0" style="&st28; &st18;">(*4)</tspan></text>
<text transform="matrix(0 -1 1 0 4469.061 622.3296)" style="&st8;"><tspan x="0" y="0" style="&st28; &st18;">BR</tspan></text>
<text transform="matrix(0 -1 1 0 4480.3911 624.6646)" style="&st8;"><tspan x="0" y="0" style="&st28; &st18;">(*13)</tspan></text>
</svg>
